<svg xmlns="http://www.w3.org/2000/svg" xmlns:inkscape="http://www.inkscape.org/namespaces/inkscape" xmlns:xlink="http://www.w3.org/1999/xlink" height="1000" viewBox="0 0 1000 1000" width="1000">
  <defs>
    <inkscape:path-effect bendpath1="M 20.173212,-7.4473903 C 1245.1624,-425.44779 2214.1646,422.10236 4456.4431,-735.13355" bendpath2="M 4437.5337,-752.77095 C 4302.6664,315.41928 4333.7236,1410.0291 4477.9939,2530.7291" bendpath3="M -19.713032,2863.9686 C 1501.6219,2127.2589 1689.8261,3322.4284 4477.9939,2530.7291" bendpath4="M 4.7423718,15.779214 -19.713032,2863.9686" effect="envelope" id="path-effect1395" />
    <inkscape:path-effect bendpath1="M -17.151092,-14.611183 H 17.151092" bendpath2="M 15.364479,-14.876565 C 8.9120224,-4.6236981 10.560938,4.8955839 17.364762,15.310389" bendpath3="M -17.151092,15 H 17.151092" bendpath4="m -14.961936,-14.919163 c -6.526076,10.5156073 -6.264363,19.5107561 0.485763,30.702869" effect="envelope" id="path-effect1214" yy="false" />
    <inkscape:path-effect effect="powerstroke" id="path-effect4536" interpolator_type="CubicBezierSmooth" offset_points="0.39,4" start_linecap_type="zerowidth" />
    <inkscape:path-effect effect="powerstroke" end_linecap_type="zerowidth" id="path-effect4534" interpolator_type="CubicBezierSmooth" offset_points="0.26,4 | 4.45,4" start_linecap_type="zerowidth" />
    <linearGradient id="linearGradient12055">
      <stop offset="0" stop-color="#eb1818" />
      <stop offset="1" stop-color="#f48f8f" />
    </linearGradient>
    <inkscape:path-effect effect="powerstroke" end_linecap_type="zerowidth" id="path-effect11995" interpolator_type="CubicBezierSmooth" offset_points="0.36,4 | 2,3.25 | 1.39,4 | 3.55,4 | 3,4" start_linecap_type="zerowidth" />
    <inkscape:path-effect effect="powerstroke" id="path-effect4743" interpolator_type="CubicBezierSmooth" offset_points="0.47,4" start_linecap_type="zerowidth" />
    <inkscape:path-effect effect="powerstroke" end_linecap_type="zerowidth" id="path-effect4725" interpolator_type="CubicBezierSmooth" offset_points="0.18,4 | 2.79,4" start_linecap_type="zerowidth" />
    <inkscape:path-effect effect="powerstroke" end_linecap_type="zerowidth" id="path-effect4780-0" interpolator_type="CubicBezierSmooth" offset_points="0.37,4 | 1.81,4" start_linecap_type="zerowidth" />
    <linearGradient gradientTransform="matrix(0.91767851,0,0,0.91767851,-337.94353,-20.428084)" gradientUnits="userSpaceOnUse" id="linearGradient12049" x1="843.7655" x2="924.91089" y1="-361.83667" y2="-351.90244" xlink:href="#linearGradient12055" />
    <linearGradient gradientTransform="matrix(0.91244798,0,0,0.91244798,-309.16081,102.76525)" gradientUnits="userSpaceOnUse" id="linearGradient12924" x1="655.18414" x2="727.70221" y1="-765.10303" y2="-765.17957" xlink:href="#linearGradient12055" />
    <clipPath id="clipPath12935">
      <use xlink:href="#path4541" />
    </clipPath>
    <clipPath id="clipPath12950">
      <use xlink:href="#path12893-0" />
    </clipPath>
  </defs>
  <g>
    <path d="m 494.56292,589.98388 c 81.85806,-43.39099 164.09342,-76.57184 276.87533,-104.14424 31.1835,-7.6236 6.18433,104.44928 -26.3081,107.71779 -88.14115,8.86639 -167.53701,23.40964 -248.70981,43.14012 z" fill="#fafafa" stroke="#acacac" stroke-width="8" />
    <path d="m 768.03617,499.84312 c -18.66182,20.09025 -24.27647,53.85592 -19.74286,78.90779 1.72042,-28.2248 7.69448,-54.70513 19.74286,-78.90779 z" fill="#acacac" />
    <g transform="matrix(.06067273.00353483-.00912483.06033105 814.63076 244.18517)" inkscape:path-effect="#path-effect1395">
      <path fill="#fff" inkscape:original-d="m 0,1440 c 300.17158,-240.0583 3950.0731,-273.6958 4320,0 V 2880 H 0 Z" />
      <path fill="#ed2939" inkscape:original-d="M 0,0 H 4320 V 1440 H 0 Z" />
      <path fill="#fff" inkscape:original-d="M 955.99023,178.73047 A 541.50001,541.50001 0 0 0 398.67773,720 541.50001,541.50001 0 0 0 1117.666,1230.9219 511.73501,511.73501 0 0 1 628.36523,720 511.73501,511.73501 0 0 1 1119.373,209.22461 541.50001,541.50001 0 0 0 955.99023,178.73047 Z" />
      <path fill="#fff" inkscape:original-d="m 1007.1951,733.06439 -73.56044,-56.43014 -73.54187,56.45692 28.31308,-90.9943 -73.7944,-56.09157 91.05893,0.1928 27.9345,-91.12343 27.96444,91.11331 91.05886,-0.22552 -73.776,56.11834 z" />
      <path fill="#fff" inkscape:original-d="m 1584.3836,733.06439 -73.5604,-56.43014 -73.5419,56.45692 28.3131,-90.9943 -73.7944,-56.09157 91.0589,0.1928 27.9345,-91.12343 27.9645,91.11331 91.0588,-0.22552 -73.776,56.11834 z" />
      <path fill="#fff" inkscape:original-d="m 1296.0836,518.85322 -73.5604,-56.43014 -73.5419,56.45692 28.3131,-90.9943 -73.7944,-56.09157 91.0589,0.1928 27.9345,-91.12343 27.9645,91.11331 91.0588,-0.22552 -73.776,56.11834 z" />
      <path fill="#fff" inkscape:original-d="m 1115.1946,1075.8132 -73.5604,-56.4301 -73.54188,56.4569 28.31308,-90.9943 -73.7944,-56.09157 91.0589,0.1928 27.9345,-91.12343 27.9645,91.11331 91.0588,-0.22552 -73.776,56.11834 z" />
      <path fill="#fff" inkscape:original-d="m 1476.3836,1075.8132 -73.5604,-56.4301 -73.5419,56.4569 28.3131,-90.9943 -73.7944,-56.09157 91.0589,0.1928 27.9345,-91.12343 27.9645,91.11331 91.0588,-0.22552 -73.776,56.11834 z" />
    </g>
    <path d="M 815.92268,243.80717 753.13642,630.19283" style="stroke-width:10;stroke-linecap:round;fill:none;stroke:#dbdce1" />
  </g>
  <g>
    <path d="m 279.60007,499.04606 c -42.4264,-33.94112 -79.24309,24.02324 -43.2254,154.0574 -13.66164,-6.03162 -22.11831,-14.21021 -34.01218,-29.90559 18.89518,105.82338 8.20278,163.19523 -51.54773,194.66147 12.13712,-16.38131 19.08006,-32.88393 20.50609,-52.3259 C 135.06473,805.16947 79.800465,821.32486 11.514719,821.39488 85.760931,781.7969 104.90306,719.63038 77.325902,579.62323 47.122029,426.28045 138.09903,379.31101 208.80971,399.8171 196.7828,384.94705 190.83304,368.57699 189.83304,346.07699 c 38.92641,57.89696 88.83052,47.89408 113.6579,137.5843 z" style="stroke-miterlimit:20;stroke-width:8;fill:#ed2939;stroke:#c2111f" />
    <path d="M 282.5351,497.21154 C 219.70058,440.46533 164.20984,520.29122 202.42745,625.97857 M 292.5351,490.71154 c -55.33452,-74.24621 -154.32526,-17.42032 -122.60765,108.26703 22.27914,88.28556 20.283,134.60651 -1.97218,172.36459" style="stroke-miterlimit:20;stroke-width:4;fill:none;stroke:#c2111f" />
  </g>
  <g>
    <path d="m 333.79323,599.65878 101.90439,8.66393 c -35.60603,63.42871 -43.04447,169.93527 10.25014,250.10342 16.45048,24.74554 -100.58671,26.00036 -109.20943,2.46056 -18.5534,-50.65029 -26.52124,-127.25345 -5.35774,-194.33681 2.2557,-7.1501 12.99648,-8.42494 22.62902,-8.32936 -5.00645,-19.88221 -17.75163,-32.43452 -20.21638,-58.56174 z" fill="#efefef" />
    <path fill="#acacac" inkscape:original-d="m 355.62574,669.99665 c -1.68108,-27.5654 -18.9224,-39.48972 -21.83251,-70.33787 l 101.90439,8.66393 c -35.60603,63.42871 -43.04447,169.93527 10.25014,250.10342 16.45048,24.74554 -100.58671,26.00036 -109.20943,2.46056 -18.5534,-50.65029 -26.52124,-127.25345 -5.35774,-194.33681 2.2557,-7.1501 12.99648,-8.42494 22.77085,-8.42494" inkscape:path-effect="#path-effect4743" />
  </g>
  <g>
    <path d="m 456.4387,398.51252 c 27.557,105.5155 111.71909,150.97328 207.25002,97.09142 C 599.35519,477.88632 563.12988,440.51995 548.8841,383.84054 Z" fill="#ed2939" stroke="#c2111f" stroke-width="8" />
    <use transform="rotate(20.036043-28.143251 1086.3146)" xlink:href="#path4550" />
  </g>
  <path d="m 284.91928,891.03207 c 11.75122,24.74554 -105.76632,26.08211 -109.6767,2.46056 -7.96326,-48.10394 4.87439,-141.08882 47.30992,-220.54019 3.78642,-7.08926 14.40299,-8.42494 24.09292,-8.44251 -0.94189,-33.84547 -22.29323,-77.28741 -2.49999,-134.4302 14.99953,-43.3034 45.9513,-64.51433 86.03098,-60.7595 42.74199,4.00424 55.25355,23.66112 88.36484,24.79213 C 414.51403,437.91534 370.50748,369.95572 361.3685,321.24453 319.42827,97.701289 682.90267,90.759421 630.91384,342.64811 l -109.89696,87.6171 c 77.20636,162.08423 -27.37759,260.82825 -163.5475,231.80226 -16.42247,-3.50062 -28.65911,-11.07138 -37.26779,-21.35419 -47.43816,63.28032 -73.35276,170.15064 -35.28231,250.31879 z" fill="#fafafa" />
  <g transform="matrix(1.1598013.23204976-.92167739 3.2548386 276.18642 547.61521)" inkscape:path-effect="#path-effect1214">
    <path fill="#ed2939" inkscape:original-d="M 0,-6 C -10,-28 -33,-3 0,15 33,-3 10,-28 0,-6 Z" />
    <path fill="#fff" inkscape:original-d="M -16,0 C -14,5 -9,10 0,15 9,10 14,5 16,0 Z" />
    <path style="stroke-miterlimit:20;stroke-width:1.00016165;fill:none;stroke:#acacac" inkscape:original-d="M 0,-6 C -10,-28 -33,-3 0,15 33,-3 10,-28 0,-6 Z" />
    <path fill="#fff" inkscape:original-d="m -8.87,-5.8 0.64,2.07 -1.68,-1.28 h 2.07 l -1.68,1.28 z m 3.14,0 0.64,2.07 -1.68,-1.28 h 2.07 l -1.68,1.28 z m -4.09,-2.98 0.64,2.07 -1.68,-1.28 h 2.07 l -1.68,1.28 z m 5.04,0 0.64,2.07 -1.68,-1.28 h 2.07 l -1.68,1.28 z m -2.52,-1.87 0.64,2.07 -1.68,-1.28 h 2.07 l -1.68,1.28 z m -0.9,-0.55 a 4.4,4.4 0 0 0 0,8.8 4.7,4.7 0 1 1 0,-8.8 z" />
  </g>
  <path fill="#acacac" inkscape:original-d="M 418.16109,513.21352 C 425.26797,454.05088 371.57476,375.64434 361.3685,321.24453 319.42829,97.701286 682.90267,90.759421 630.91384,342.64811 l -109.89696,87.6171 c 77.20636,162.08423 -27.37759,260.82825 -163.5475,231.80226 -43.54628,-9.28233 -57.66146,-47.18239 -56.72084,-85.61346" inkscape:path-effect="#path-effect4534" />
  <g>
    <g clip-path="url(#clipPath12935)">
      <ellipse cx="544.10052" cy="-194.97484" fill="#fff" id="path4541" rx="70.45224" ry="59.351707" transform="rotate(51.560161)" />
      <ellipse cx="475.17209" cy="-361.58344" fill="url(#linearGradient12049)" rx="51.203003" ry="43.135536" transform="rotate(67.600113)" />
      <ellipse cx="476.32703" cy="-365.20844" rx="41.707581" ry="35.136196" transform="rotate(67.600113)" />
      <ellipse cx="562.065" cy="98.669983" fill="#fff" rx="14.50341" ry="20.692661" transform="rotate(19.864423)" />
      <ellipse cx="586.9259" cy="110.37572" fill="#fff" rx="4.7789969" ry="6.5623989" transform="rotate(20.651122)" />
    </g>
    <path d="m 433.90037,263.63234 c -10.88788,-6.22243 -15.38277,-16.86346 -13.01613,-28.87702 1.94959,10.75149 6.67049,18.23941 16.3884,23.34167 z m -6.85288,16.64355 c -12.73509,-1.62886 -21.84832,-8.79931 -24.08585,-22.08698 6.34592,9.75635 13.85734,14.98956 25.71702,15.79426 z m 123.69522,58.06083 c 9.95267,-51.53084 -24.00332,-89.87884 -60.33437,-96.16503 -29.54266,-5.11161 -61.9492,13.3389 -63.1881,55.69541 -15.50105,2.7511 -23.65145,-3.29087 -30.15041,-13.30828 7.73219,6.58848 17.41602,9.07918 24.69607,7.74537 3.74665,-42.80063 37.00694,-61.48828 69.4632,-55.93176 37.52212,6.42381 79.62624,49.99288 59.51361,101.96429 z" />
    <path d="m 616.18161,233.2137 3.31535,4.31509 c 10.98999,-5.34072 16.78328,-13.50445 17.56316,-26.51613 -5.03046,11.47023 -10.66958,18.09963 -20.87851,22.20104 z m 5.7352,12.68038 1.71555,5.08951 c 10.53583,-0.19948 19.84968,-5.5409 23.64794,-16.54606 -7.40602,8.65104 -15.27648,11.57494 -25.36349,11.45655 z" />
    <g clip-path="url(#clipPath12950)">
      <path d="m 606.23951,326.94705 c -16.20826,-36.11723 -16.43519,-79.82401 9.4615,-109.39659 20.92105,32.59473 25.10676,78.52569 15.21283,125.09765 -9.56693,-1.83455 -18.17222,-6.8776 -24.67433,-15.70106 z" fill="#fff" id="path12893-0" />
      <ellipse cx="320.56528" cy="-589.17493" fill="url(#linearGradient12924)" rx="45.384029" ry="17.612583" transform="rotate(86.454889)" />
      <ellipse cx="321.79672" cy="-588.37286" rx="35.814697" ry="13.898927" transform="rotate(86.454889)" />
      <ellipse cx="-223.77837" cy="627.36096" fill="#fff" rx="17.567268" ry="5.5868602" transform="rotate(274.07214)" />
      <ellipse cx="-223.68086" cy="643.45508" fill="#fff" rx="5.3178406" ry="1.782777" transform="rotate(276.04567)" />
    </g>
    <path d="m 606.23951,326.94705 c -21.98702,-41.38865 -14.076,-84.04561 5.73945,-108.5717 5.92252,-7.33045 9.40753,-13.91915 10.93658,-24.55572 2.25024,11.80669 -0.37017,19.45036 -7.94377,28.91287 -17.86006,22.3145 -25.24144,55.67024 -8.73226,104.21455 z" />
    <path d="m 633.55791,380.93096 -40.21148,41.98123 c -21.52092,-6.74757 -31.93555,-21.17402 -35.98735,-39.99982 l 31.86771,11.81824 -28.28414,-27.24141 c 23.34406,-14.8384 48.00131,-0.21283 72.61526,13.44176 z" style="stroke-miterlimit:20;stroke-width:3.61665368;fill:#fff;stroke:#b0d8e7" />
    <path d="m 606.23951,326.94704 c 19.45499,24.53887 41.44807,8.70744 39.43579,32.1932 -2.57993,30.11088 -43.81616,47.20541 -57.59469,6.89729 -12.20947,29.95027 -2.41946,48.24856 13.26887,56.41865 -37.81193,14.26245 -88.40685,15.61924 -139.22882,-0.11227 z" fill="#fafafa" />
    <path d="m 614.03943,356.0402 c 1.48245,6.26315 5.72266,8.29623 11.11588,4.10508 -4.54488,10.3744 -13.82693,6.52005 -11.11588,-4.10508 z" fill="#acacac" />
    <path fill="#acacac" inkscape:original-d="m 606.23951,326.94704 c 19.45499,24.53887 41.44807,8.70744 39.43579,32.1932 -2.57993,30.11088 -43.81616,47.20541 -57.59469,6.89729 -12.20947,29.95027 -2.41946,48.24856 13.26887,56.41865 -37.81193,14.26245 -88.40685,15.61924 -139.22882,-0.11227" inkscape:path-effect="#path-effect11995" />
  </g>
  <path fill="#acacac" inkscape:original-d="m 245.8283,676.57207 c 5.76465,-35.40523 -23.91612,-82.30529 -1.68287,-146.49234 14.99953,-43.3034 45.9513,-64.51433 86.03098,-60.7595 42.74199,4.00424 55.25355,23.66112 88.39079,24.83284" inkscape:path-effect="#path-effect4536" />
  <g>
    <path d="m 472.64805,633.76253 c -6.48978,114.36722 4.14008,212.61012 39.21215,274.57933 13.21543,23.35049 -107.79201,24.60035 -116.37824,1.31154 -18.78683,-50.95629 -11.43181,-199.47813 28.08116,-268.17425 z" fill="#fafafa" />
    <path fill="#acacac" inkscape:original-d="m 472.64805,633.76253 c -6.48978,114.36722 4.14008,212.61012 39.21215,274.57933 13.21543,23.35049 -107.79201,24.60035 -116.37824,1.31154 -18.78683,-50.95629 -11.43181,-199.47813 28.08116,-268.17425" inkscape:path-effect="#path-effect4725" />
  </g>
  <path d="m 320.41476,640.56489 c -47.65133,63.42871 -73.56593,170.29903 -35.49548,250.46718 11.75122,24.74554 -105.76632,26.08211 -109.6767,2.46056 -7.96326,-48.10394 4.87439,-141.08882 47.30992,-220.54019 3.78642,-7.08926 14.40299,-8.42494 24.17736,-8.42494" fill="none" stroke="#acacac" stroke-width="8" />
  <g>
    <path d="m 387.19694,189.67834 c 33.85204,31.64545 68.55375,39.7612 111.98559,32.99756 -15.52213,-7.29611 -27.25126,-15.61827 -38.85211,-31.20981 70.19822,11.56572 137.6255,51.89088 215.96499,30.70021 C 654.10019,201.40147 628.57929,170.61352 607.3247,140.05936 576.91062,96.338143 532.63524,85.864208 478.00586,93.928024 492.20408,83.092739 497.83796,72.616996 505.25928,54.696695 447.44448,86.688728 391.32174,94.64035 359.87965,164.43764 Z m -47.85925,10.63806 c -45.77592,75.68493 -68.8425,168.90238 -33.1052,260.21735 2.93082,-20.35336 9.57775,-37.73973 23.44228,-52.33255 -11.51358,89.60554 46.50981,161.29099 147.8509,147.04324 -39.1245,-28.33764 -57.58151,-71.28089 -64.34521,-116.41043 15.11359,11.57128 32.67985,12.5388 50.60152,4.74551 -59.79869,-26.94572 -93.10675,-69.38547 -102.85391,-146.7977 z" style="stroke-miterlimit:20;stroke-width:8;fill:#ed2939;stroke:#c2111f" />
    <path d="m 293.18687,333.07253 11.29106,-16.36153 -12.07039,-15.79531 19.04988,5.68234 11.29234,-16.36061 0.48238,19.87348 19.04947,5.68399 -18.75169,6.59992 0.48081,19.87359 -12.07162,-15.79454 z" fill="#fff" id="path4550" stroke="#f9f9c6" stroke-width="3.5" />
    <use transform="rotate(333.89552 666.43839 204.70311)" xlink:href="#path4550" />
    <path d="m 415.98308,218.79682 c -14.0701,-46.50956 -55.08774,-76.98247 -63.94233,-75.39055 -12.66714,2.27736 -58.95587,100.91349 22.66168,176.83171 z" fill="#fafafa" />
    <path d="m 359.66452,192.76547 c -7.63029,25.13638 -3.1476,53.81084 12.32089,75.58906 -9.94484,-26.22679 -14.14067,-46.53214 -12.32089,-75.58906 z" fill="#acacac" />
    <path fill="#acacac" inkscape:original-d="m 415.98308,218.79682 c -14.0701,-46.50956 -55.08774,-76.98247 -63.94233,-75.39055 -12.66714,2.27736 -58.95587,100.91349 22.66168,176.83171" inkscape:path-effect="#path-effect4780-0" />
    <use transform="rotate(349.5256-601.865-772.75618)" xlink:href="#path4550" />
    <use transform="rotate(247.58752 422.24429 164.82963)" xlink:href="#path4550" />
    <path d="M 432.64212,127.56652 C 409.23286,176.85926 427.6137,220.28393 479.1848,237.52346 399.9264,264.9204 357.91345,165.66482 432.64212,127.56652 Z" fill="#fff" stroke="#f9f9c6" stroke-width="3.5" />
  </g>
</svg>