<svg xmlns="http://www.w3.org/2000/svg" xmlns:inkscape="http://www.inkscape.org/namespaces/inkscape" height="1080" viewBox="0 0 1920 1080" width="1920">
  <defs>
    <inkscape:path-effect bendpath1="M -37.71012,-38.665603 H 37.89025" bendpath2="m 31.463812,-38.883324 c 13.812806,26.16941 16.983737,50.545993 5.663101,77.51049" bendpath3="M -37.71012,39.106565 H 37.89025" bendpath4="m -29.265249,-38.55109 c 9.367404,26.491248 7.07043,51.791446 -4.123684,77.991961" effect="envelope" id="path-effect1387" yy="false" />
    <inkscape:path-effect effect="powerstroke" id="path-effect1080" interpolator_type="CubicBezierSmooth" offset_points="0.37,5" start_linecap_type="zerowidth" />
    <inkscape:path-effect effect="powerstroke" id="path-effect1060" interpolator_type="CubicBezierSmooth" offset_points="0.38,5" start_linecap_type="zerowidth" />
    <inkscape:path-effect effect="powerstroke" end_linecap_type="zerowidth" id="path-effect1058" interpolator_type="CubicBezierSmooth" offset_points="0.32,5 | 0.71,5" start_linecap_type="zerowidth" />
    <inkscape:path-effect effect="powerstroke" id="path-effect992" interpolator_type="CubicBezierSmooth" offset_points="0,5 | 1,3.5" />
    <inkscape:path-effect effect="powerstroke" id="path-effect990" interpolator_type="CubicBezierSmooth" offset_points="0,3.5 | 1,5" />
    <inkscape:path-effect effect="powerstroke" id="path-effect988" interpolator_type="CubicBezierSmooth" offset_points="0,3.5 | 1,5" />
    <inkscape:path-effect effect="powerstroke" id="path-effect955" interpolator_type="CubicBezierSmooth" offset_points="0.38,5 | 6,5" start_linecap_type="zerowidth" />
    <inkscape:path-effect effect="powerstroke" end_linecap_type="zerowidth" id="path-effect933" interpolator_type="CubicBezierSmooth" offset_points="0.22,5 | 0.75,5" start_linecap_type="zerowidth" />
    <inkscape:path-effect effect="powerstroke" end_linecap_type="zerowidth" id="path-effect855" interpolator_type="CubicBezierSmooth" offset_points="0.75,5 | 3.6,5" start_linecap_type="zerowidth" />
    <inkscape:path-effect effect="powerstroke" end_linecap_type="zerowidth" id="path-effect853" interpolator_type="CubicBezierSmooth" offset_points="0.62,5 | 3.68,5" start_linecap_type="zerowidth" />
  </defs>
  <g inkscape:groupmode="layer" inkscape:label="Drawing">
    <g>
      <path d="m 180.32801,942.05851 c 116.47211,0.21044 54.53675,70.99079 -113.224835,53.05865 C -165.67834,970.235 -133.30574,809.48389 119.49998,821.46096 c 172.77083,8.18528 140.36453,-115.10971 358.06687,-130.58902 111.26364,-7.91119 248.85753,13.88367 391.4047,83.13244 l -52.90198,95.6023 -283.90327,3.12855 c -151.44352,71.60907 -290.12836,73.33246 -418.73085,49.01532 -75.832932,-14.33907 -102.216118,15.86262 -4.46034,35.23171 94.05441,18.63571 99.73343,-0.21754 71.3529,-14.92375 z" style="fill:#f3b5cf;stroke:#e581b1;stroke-width:10;stroke-miterlimit:20" />
      <path d="m -84.172011,927.99525 c 65.386241,47.14714 227.579351,67.59303 301.038721,53.95937 M 721.02845,816.91904 C 543.87308,790.31072 441.43764,801.1116 285.98906,862.73085 154.62816,914.80183 24.757112,893.08971 45.763676,932.30197 m 88.671774,-111.6849 c 93.17275,24.31867 140.4504,-9.18048 203.27637,-43.87355 87.31914,-48.21841 233.38201,-102.24421 517.02452,0.44935" style="fill:none;stroke:#e581b1;stroke-width:5;stroke-miterlimit:5.4000001" />
      <path d="m 946.3085,770.43505 c -72.60743,19.8802 -158.90846,-89.13113 -103.25326,-108.81384 100.27671,-35.4633 231.06056,60.70398 232.04496,99.7958 0.6198,24.61324 -31.3113,64.42979 -81.10904,70.04622 z" fill="#f3e488" stroke="#e9d461" stroke-width="10" />
      <path d="m 707.22383,816.72832 -18.31785,116.81002 c -4.93892,22.86489 -24.17313,57.20755 -43.85181,45.02795 -47.90273,-29.64812 -103.25558,-49.83027 -153.04629,-49.53416 -53.97359,0.32099 -78.82697,-130.00253 -21.44282,-134.94867 43.01723,-3.7078 105.79068,18.92906 160.18959,55.07283 16.4333,-17.49912 44.52497,-28.54442 76.46918,-32.42797 z" fill="#f3e488" />
      <path fill="#e9d461" inkscape:original-d="m 616.17681,885.04438 c 0.47369,-38.60602 41.03973,-62.23653 91.04702,-68.31606 l -18.31785,116.81002 c -4.93892,22.86489 -24.17313,57.20755 -43.85181,45.02795 -47.90273,-29.64812 -103.25558,-49.83027 -153.04629,-49.53416 -53.97359,0.32099 -78.82697,-130.00253 -21.44282,-134.94867 43.01723,-3.7078 105.79068,18.92906 160.00586,55.03623" inkscape:path-effect="#path-effect1080" />
    </g>
    <path d="m 608.49445,875.30209 c -60.13314,-43.85013 -135.55693,-72.85261 -178.21997,-67.89176 -59.94118,6.96996 -32.84445,145.93454 23.57715,142.12848 54.0186,-3.64397 129.40058,27.80935 172.18052,52.20449 21.06308,12.0112 40.76955,-23.22048 45.9201,-46.85816 24.86105,17.98375 58.69557,37.67431 162.12447,37.67431 144.31956,0 212.66748,-32.35821 492.74848,-12.50415 l -135.229,-193.29751 c -153.4421,70.00357 -402.86397,-159.28812 -515.96344,51.98785 -28.08079,6.46051 -52.62977,19.19374 -67.13831,36.55645 z" fill="#faf5ab" />
    <g transform="matrix(-0.22309452,1.0104586,-2.1358293,-0.41219573,783.22289,931.17443)" inkscape:path-effect="#path-effect1387">
      <g>
        <path fill="none" stroke="#69c8c3" stroke-width="0.89999998" inkscape:original-d="m 15,-33.8 c -3.8,-4 10.2,-9.1 -3,16.3 14.4,-25.5 18.3,-11.7 12.6,-12.2" />
        <path fill="#f3b5cf" inkscape:original-d="m 17.1,-14.3 c 12.5,13.7 -8.1,27 -9.7,4 -21.6,12.5 -21.9,-12.6 -3,-11.6 -11.9,-12.7 10,-31.6 8.4,2.7 28.5,-19.9 19.3,2.4 4.3,4.9 z" />
        <path fill="#69c8c3" inkscape:original-d="m 5.9,-7.6 c 4.4,-11.9 8.7,-17.7 10,-17.1 1.3,0.6 -1,7.8 -10,17.1 z" />
      </g>
      <g transform="matrix(0.83,0,0,0.83,11.9,37.3)">
        <path fill="none" stroke="#69c8c3" stroke-width="0.89999998" inkscape:original-d="m 15,-33.8 c -3.8,-4 10.2,-9.1 -3,16.3 14.4,-25.5 18.3,-11.7 12.6,-12.2" />
        <path fill="#f3b5cf" inkscape:original-d="m 17.1,-14.3 c 12.5,13.7 -8.1,27 -9.7,4 -21.6,12.5 -21.9,-12.6 -3,-11.6 -11.9,-12.7 10,-31.6 8.4,2.7 28.5,-19.9 19.3,2.4 4.3,4.9 z" />
        <path fill="#69c8c3" inkscape:original-d="m 5.9,-7.6 c 4.4,-11.9 8.7,-17.7 10,-17.1 1.3,0.6 -1,7.8 -10,17.1 z" />
      </g>
      <g transform="matrix(0.39726117,-0.85192932,0.85192932,0.39726117,-7.0631586,32.913062)">
        <path fill="none" stroke="#69c8c3" stroke-width="0.89999998" inkscape:original-d="m 15,-33.8 c -3.8,-4 10.2,-9.1 -3,16.3 14.4,-25.5 18.3,-11.7 12.6,-12.2" />
        <path fill="#f3b5cf" inkscape:original-d="m 17.1,-14.3 c 12.5,13.7 -8.1,27 -9.7,4 -21.6,12.5 -21.9,-12.6 -3,-11.6 -11.9,-12.7 10,-31.6 8.4,2.7 28.5,-19.9 19.3,2.4 4.3,4.9 z" />
        <path fill="#69c8c3" inkscape:original-d="m 5.9,-7.6 c 4.4,-11.9 8.7,-17.7 10,-17.1 1.3,0.6 -1,7.8 -10,17.1 z" />
      </g>
    </g>
    <path fill="#e9d461" inkscape:original-d="m 764.85731,838.2908 c -77.4282,-17.67767 -169.4734,15.08147 -170.1805,72.71068" inkscape:path-effect="#path-effect1058" />
    <path fill="#e9d461" inkscape:original-d="m 646.00271,938.07864 c 35.53716,18.26512 47.80515,54.48081 188.07401,54.48081 144.31956,0 212.66748,-32.35821 492.74848,-12.50415 L 1191.5962,786.75779 C 1038.1541,856.76136 788.73223,627.46967 675.29289,838.88388" inkscape:path-effect="#path-effect1060" />
    <path d="m 671.97631,954.56697 c -5.17461,23.95585 -24.88108,59.18753 -45.94416,47.17633 -42.77994,-24.39514 -118.16192,-55.84846 -172.18052,-52.20449 -56.4216,3.80606 -83.51833,-135.15852 -23.57715,-142.12848 42.66304,-4.96085 118.08683,24.04163 178.19091,67.88226" fill="none" stroke="#e9d461" stroke-width="10" />
    <g>
      <path d="m 1149,843 c 0,-135.52124 157.5,-269 364.5,-158 139.0176,74.54569 141.5545,218.565 -6.5,280 -194,80.5 -358,-15.8824 -358,-122 z" fill="#faf5ab" stroke="#e9d461" stroke-width="10" />
      <path d="m 1183.3308,759.8755 c 19.8352,48.96022 25.3589,97.92474 20.0862,155.17054 98.9248,-23.35026 79.5961,-51.96884 65.7868,-67.78676 -14.6551,-16.78676 -11.5538,-26.62287 -2.0129,-43.94728 9.59,-17.41348 5.5237,-51.21992 -83.8601,-43.4365 z" fill="#bb1c76" />
      <path d="m 1306.5412,915.01491 c 5.1876,-15.36274 8.0548,-27.30652 11.2826,-43.96224 2.0096,17.68239 -3.2506,31.49443 -11.2826,43.96224 z m -17.8736,-179.0793 c 8.481,13.82004 13.9387,24.82419 20.7975,40.34146 -1.9825,-17.68542 -10.1884,-29.97762 -20.7975,-40.34146 z m 9.1386,106.56352 c 1.423,6.30923 5.8002,8.7981 12.0212,6.95941 -6.5615,7.21643 -14.454,3.73219 -12.0212,-6.95941 z m -4.7124,-33.83638 c 0.085,-6.46709 3.8513,-9.80847 10.3193,-9.29784 -7.9153,-5.70121 -14.914,-0.65797 -10.3193,9.29784 z m 16.81,-9.71413 c 11.9631,13.33017 14.147,32.48478 5.8489,48.4608 0.2868,-16.90207 -1.0167,-32.73848 -5.8489,-48.4608 z" fill="#e9d461" />
      <path d="m 1197.7721,806.58895 c 25.61,13.43268 23.0906,44.92572 7.5237,58.98609 z" fill="#ef6f2f" />
      <path d="m 1183.3308,759.8755 c 19.8352,48.96022 25.3589,97.92474 20.0862,155.17054 98.9248,-23.35026 79.5961,-51.96884 65.7868,-67.78676 -14.6551,-16.78676 -11.5538,-26.62287 -2.0129,-43.94728 9.59,-17.41348 5.5237,-51.21992 -83.8601,-43.4365 z" fill="none" stroke="#e9d461" stroke-width="7" />
      <g>
        <path d="m 1415.0884,645.08839 c 77.8969,46.52839 79.3727,102.39595 36.9116,152.55806 57.8622,31.14897 88.052,75.56497 35,157.85355 l 117.0717,-89.04625 -53.033,-239.7092" fill="#f3b5cf" stroke="#e581b1" stroke-width="10" />
        <path d="m 1479,814.5 c 51,16 90.5,12 113.75,-3.5" fill="none" stroke="#e581b1" stroke-width="5" />
        <path d="m 1754,877.75 c 32,35 37.5,64.75 -0.5,104 -19.6934,-39.98632 -17.1073,-74.00492 0.5,-104 z" fill="#edf6f9" stroke="#b5d9e7" stroke-width="10" />
        <path d="m 1610.7892,1033.6845 c 174.3019,0 173.5947,-69.65001 137.5323,-121.26881 z" fill="#edf6f9" stroke="#b5d9e7" stroke-width="10" />
        <path d="m 1336.8962,989.01546 c -21.0384,57.89964 97.9152,79.65614 211.3999,88.15614 96.7397,-46.198 177.1261,-120.57309 265.7039,-221.6716 -28.388,-90.72143 -68.434,-170.33464 -144.5,-220 -92.0616,-38.3511 -223.3173,-35.60766 -249.5,9.5 49.7249,-1.38388 96.5732,19.53493 127.4892,71.62928 17.1538,63.17448 -4.7878,147.12044 -49.5857,218.4463 -57.8931,46.00269 -107.378,62.19292 -161.0073,53.93988 z" fill="#edf6f9" />
        <path fill="#b5d9e7" inkscape:original-d="m 1521.5,666.75 c 67,77 21,232.75 -71.25,330" inkscape:path-effect="#path-effect933" />
        <path d="m 1497.9931,934.93956 c -57.9827,46.13871 -107.4676,62.32894 -161.0969,54.0759 -21.0384,57.89964 97.9152,79.65614 211.3999,88.15614 96.7397,-46.198 177.1261,-120.57309 265.7039,-221.6716 -28.388,-90.72143 -68.434,-170.33464 -144.5,-220 -92.0616,-38.3511 -223.3173,-35.60766 -249.5,9.5 49.7249,-1.38388 96.5732,19.53493 127.5,71.65625" fill="none" stroke="#b5d9e7" stroke-width="10" />
        <path fill="#b5d9e7" inkscape:original-d="M 1386.5566,1049.6817 C 1481.8495,1055.9139 1637,925.5 1676,836" inkscape:path-effect="#path-effect992" />
        <path fill="#b5d9e7" inkscape:original-d="M 1676,836 C 1672,732 1601.3401,639.52496 1475.5901,614.02496" inkscape:path-effect="#path-effect988" />
        <path fill="#b5d9e7" inkscape:original-d="m 1676,836 c 53.75,-9.75 106,-9 138,19.5" inkscape:path-effect="#path-effect990" />
        <path d="M 1571.7213,611.48012 C 1636.75,636.5 1684.75,674 1717.5,737.5 c -18.75,-49 -53.2463,-95.39964 -99.9762,-118.54367 z m 57.0992,171.35825 c 4.92,-2.13137 18.1726,-17.82977 18.8267,-22.45064 -8.7595,3.79768 -17.4109,13.87749 -18.8267,22.45064 z m 4.4194,-18.29638 c 4.7127,-9.15141 4.5072,-18.69108 0.2652,-28.54944 -1.5496,8.85228 -1.2988,18.52294 -0.2652,28.54944 z m -77.8024,285.77051 c 6.8583,5.9597 18.3304,2.7847 29.1875,-1.9375 -9.6707,0.3535 -19.3531,0.7654 -29.1875,1.9375 z m 7.875,-15.875 c 10.85,3.0306 22.0278,5.2963 33.875,6 -10.4098,-6.3865 -25.3824,-10.8312 -33.875,-6 z m 129.8547,-126.08768 c 10.4153,5.64508 21.4005,12.80627 28.1959,22.27387 -19.1394,-7.06296 -18.9476,-4.99201 -28.1959,-22.27387 z m -10.0763,9.01562 c 14.0427,3.00248 24.9315,13.55734 25.5443,31.46625 -9.2174,-9.24229 -17.4951,-21.90854 -25.5443,-31.46625 z M 1748.75,790.125 c 8.2778,4.07603 20.6042,-0.70833 27.0625,-7 -9.0833,2.65771 -17.9792,4.83672 -27.0625,7 z m -5.5625,13.5625 c 10.4461,-5.87548 26.1878,-5.86834 40.3125,1.375 -13.9087,0.10705 -27.234,-0.48591 -40.3125,-1.375 z M 1497.2102,628.24715 c 2.8562,6.66529 12.7482,14.50787 18.7384,19.44544 -1.7432,-7.42732 -11.8309,-16.4123 -18.7384,-19.44544 z m 21.0365,6.27558 c -1.6791,7.79276 5.089,14.85321 13.6117,15.1144 -5.2206,-5.03813 -9.8049,-10.07627 -13.6117,-15.1144 z M 1570.875,945.5 c -5.9512,-13.40554 -7.3432,-23.01327 -2.75,-29.125 3.4495,7.30202 4.4923,14.55211 2.75,29.125 z m -8.625,6.125 c -6.3048,-9.42806 -8.8458,-21.47038 -3.1036,-26.78661 1.6649,8.22176 2.4293,17.15063 3.1036,26.78661 z" fill="#b5d9e7" />
      </g>
      <path d="m 1364.0268,863.87466 -43.1525,-7.76231 c 33.0467,38.72686 39.6428,77.89996 37.5262,118.81721 -0.8743,16.90272 3.7134,30.09424 16.0877,38.75384 -7.126,-8.365 -9.7795,-18.73505 -9.2919,-28.2102 4.1611,7.73962 9.6601,13.43858 16.8087,14.8232 -7.1335,-8.25199 -13.0223,-17.51871 -15.5773,-29.19779 6.4011,8.18887 14.335,14.80176 23.8728,15.11001 -9.2263,-6.91615 -16.3555,-14.41067 -21.3402,-24.03646 3.4199,-32.6663 -4.3382,-74.12014 -34.3638,-100.26459 z m 112.2693,-9.68705 c -8.3343,-6.56821 -28.1197,-9.59758 -34.3181,-6.59975 -12.4173,6.00554 -42.9102,54.95102 -36.5065,110.18287 1.17,10.09152 6.6289,10.92129 6.188,-0.41894 -2.1163,-54.42885 24.1809,-99.41615 35.0719,-103.53065 5.2405,-1.97979 16.2041,-2.11757 29.5647,0.36647 z m -20.6456,-101.92133 c -6.6699,8.25341 -25.2907,15.59593 -31.9996,14.04773 -13.4409,-3.10176 -54.7576,-45.06266 -60.039,-99.34292 -0.9839,-10.11172 3.9486,-12.10215 6.1274,-0.96416 10.2675,52.48864 45.6315,91.57821 57.1641,93.17452 5.5493,0.76812 16.2704,-1.52943 28.7471,-6.91517 z m -99.5225,21.47577 -40.3144,17.01653 c 24.2304,-46.16309 20.156,-90.29852 10.1297,-126.85302 -4.5953,-16.75368 -2.0977,-31.43111 7.3553,-42.65649 -4.0978,9.71719 -5.5658,20.95508 -2.9925,30.34726 2.4198,-8.68363 6.2949,-14.77938 13.0784,-17.75392 -5.2535,9.85662 -8.6663,19.51721 -8.6236,31.79425 4.5415,-9.63103 10.4955,-17.40912 19.8861,-19.83466 -7.6242,8.98196 -12.5773,17.88943 -15.3972,28.64689 11.0636,31.408 11.4836,77.59499 -12.0341,107.83201 z" />
      <path d="m 1325.606,817.96793 c -0.6686,1.97582 -0.6275,4.03709 0.023,4.13635 0.6886,0.10514 0.7421,-1.93018 -0.023,-4.13635 z m -1.4204,24.63779 c -1.1298,1.82031 -1.5693,3.89168 -0.9415,4.14278 0.6644,0.2658 1.1926,-1.75754 0.9415,-4.14278 z m -7.2902,23.01596 c -5.5037,4.17216 -9.1483,9.59884 -7.2791,11.00741 1.4785,1.11412 5.0599,-4.43847 7.2791,-11.00741 z M 1007.0337,664.85562 c -8.64981,2.22506 -15.58721,4.94048 -13.58359,7.87953 1.78872,2.62381 7.65039,-0.33767 13.58359,-7.87953 z M 1173.154,635.1796 c -8.6035,-2.39799 -13.6725,-3.31228 -13.4386,0.6199 0.2625,4.41332 6.1708,2.76511 13.4386,-0.6199 z m -6.9126,-74.80402 c -4.9906,-4.49424 -12.5866,-7.40921 -13.0991,-3.02949 -0.6152,5.25753 6.9645,1.80582 13.0991,3.02949 z m 114.0055,110.49276 c -6.8311,-8.93743 -13.9763,-10.29685 -14.8135,-5.90034 -0.8561,4.49561 5.6923,3.13848 14.8135,5.90034 z m 41.5693,267.3959 c -3.2024,-29.08354 19.0752,-5.20813 7.3966,-41.80942 -7.7175,-24.18678 8.5911,-40.33976 19.225,-15.97785 8.4917,19.45423 21.3387,67.91449 19.5935,90.54076 -1.5982,20.72076 -10.1731,20.40462 -21.8124,15.60576 -35.4361,-14.61026 -26.8604,12.06955 -63.1308,0.0316 -15.2953,-5.07642 -25.5834,-11.2653 -36.0947,-12.22267 -28.7071,-2.61464 -37.5565,-22.82008 -9.849,-10.67074 45.9193,20.13491 87.0728,-3.69184 84.6718,-25.49746 z m -30.22,-219.55607 c 2.0976,32.13671 21.2394,-1.82246 17.8661,38.47889 -1.7963,21.46191 16.5756,37.28164 23.5483,8.88502 5.5419,-22.57 8.4781,-66.05292 3.5107,-89.62012 -4.2931,-20.36804 -17.0959,-19.92623 -30.8525,-8.14671 -25.9164,22.19162 -39.9047,-1.75539 -71.4103,25.20313 -9.7428,8.33671 -21.1655,15.55542 -34.3566,21.67522 -26.1412,12.12779 -31.8222,33.47543 -6.6535,12.42838 36.0297,-30.1294 96.8317,-32.13251 98.3478,-8.90381 z" fill="#afc2cf" opacity=".45" />
    </g>
    <g>
      <path d="m 1037.6185,937.10377 c 91.2168,20.85965 49.1872,92.20763 -54.34667,98.53043 -89.0747,5.4398 -163.7832,-36.16259 -161.77492,-59.11443 2.47488,-28.28427 73.09977,-35.31245 161.48812,-31.0698 z" fill="#faf5ab" />
      <path fill="#e9d461" inkscape:original-d="m 1037.6185,937.10377 c 91.2168,20.85965 49.1872,92.20763 -54.34667,98.53043 -89.0747,5.4398 -163.7832,-36.16259 -161.77492,-59.11443 2.47488,-28.28427 73.09977,-35.31245 161.48812,-31.0698 -13.2849,7.41573 -17.65927,12.84341 -19.07717,23.0698 -50.20458,9.01561 -49.28605,33.69323 -24.36054,40.76433 -0.70711,10.6066 6.24784,21.2236 43.72451,26.3501" inkscape:path-effect="#path-effect955" />
      <path d="m 833.25,996.5 107.25,19.75 m -117.5,-46.5 103.5,14.5 m -83,-29.5 121.75,7.25" fill="none" stroke="#e9d461" stroke-width="5" />
    </g>
    <g>
      <path d="m 1065.1035,895.32318 c -23.1475,-20.30164 -23.1296,-40.79126 -19.6146,-62.13289 23.3503,-29.62721 5.2641,-49.68759 -30.8911,-47.1768 -12.805,31.13367 -31.35674,51.70291 -50.70921,71.02921 -34.04988,34.00383 2.00863,97.41828 65.53141,82.3536" fill="#faf5ab" />
      <path fill="#e9d461" inkscape:original-d="m 1065.1035,895.32318 c -23.1475,-20.30164 -23.1296,-40.79126 -19.6146,-62.13289 23.3503,-29.62721 5.2641,-49.68759 -30.8911,-47.1768 -12.805,31.13367 -31.35674,51.70291 -50.70921,71.02921 -34.04988,34.00383 2.00863,97.41828 65.53141,82.3536" inkscape:path-effect="#path-effect853" />
      <path d="m 1020.8834,818.87022 c -26.1122,-3.5151 -46.74544,-2.44926 -75.29763,8.80066 -70.03928,27.59637 -166.77946,-91.9577 -112.47002,-114.28794 116.23852,-47.79343 269.12665,56.14736 270.95255,93.74381 1.1943,24.59204 -25.7435,63.07476 -74.1419,71.71235" fill="#faf5ab" />
      <path fill="#e9d461" inkscape:original-d="m 1020.8834,818.87022 c -26.1122,-3.5151 -46.74544,-2.44926 -75.29763,8.80066 -70.03928,27.59637 -166.77946,-91.9577 -112.47002,-114.28794 116.23852,-47.79343 269.12665,56.14736 270.95255,93.74381 1.1943,24.59204 -25.7435,63.07476 -74.1419,71.71235" inkscape:path-effect="#path-effect855" />
    </g>
  </g>
</svg>
