<svg xmlns="http://www.w3.org/2000/svg" xmlns:inkscape="http://www.inkscape.org/namespaces/inkscape" xmlns:xlink="http://www.w3.org/1999/xlink" height="890" viewBox="0 0 670 889.99996" width="670">
  <defs>
    <inkscape:path-effect effect="powerstroke" end_linecap_type="zerowidth" id="path-effect900" interpolator_type="CubicBezierSmooth" offset_points="0.63,3.5 | 1.46,3.5" start_linecap_type="zerowidth" />
    <inkscape:path-effect bendpath1="m -9.5,-20.8 h 19" bendpath2="m 11.513287,-19.913968 c -7.4254178,13.6411286 -5.973272,26.1804125 0.879575,38.887694" bendpath3="m -9.5,20.8 h 19" bendpath4="m -8.4078325,-18.785609 c -7.5897695,12.905615 -8.4330705,26.8686245 -1.1313435,39.838464" effect="envelope" id="path-effect2201" yy="false" />
    <inkscape:path-effect effect="powerstroke" end_linecap_type="zerowidth" id="path-effect2188" interpolator_type="CubicBezierSmooth" offset_points="0.16,3.5 | 4.67,3.5" start_linecap_type="zerowidth" />
    <inkscape:path-effect effect="powerstroke" end_linecap_type="zerowidth" id="path-effect991" interpolator_type="CubicBezierSmooth" offset_points="0.14,3.5 | 2.85,3.5" start_linecap_type="zerowidth" />
    <inkscape:path-effect effect="powerstroke" end_linecap_type="zerowidth" id="path-effect1087" interpolator_type="CubicBezierSmooth" offset_points="0.4,3.5 | 1.8,3.5" start_linecap_type="zerowidth" />
    <inkscape:path-effect effect="powerstroke" id="path-effect1023" interpolator_type="CubicBezierSmooth" offset_points="0.32,3.5" start_linecap_type="zerowidth" />
    <inkscape:path-effect effect="powerstroke" end_linecap_type="zerowidth" id="path-effect937" interpolator_type="CubicBezierSmooth" offset_points="0.05,3.5 | 0.95,3.5" start_linecap_type="zerowidth" />
    <linearGradient id="linearGradient838">
      <stop offset="0" stop-color="#241a7c" />
      <stop offset="1" stop-color="#98a2ef" />
    </linearGradient>
    <clipPath id="clipPath860">
      <use xlink:href="#ellipse21" />
    </clipPath>
    <clipPath id="clipPath929">
      <use xlink:href="#ellipse905" />
    </clipPath>
    <linearGradient gradientUnits="userSpaceOnUse" id="linearGradient1193" x1="81.664772" x2="81.362427" y1="291.84964" y2="318.10272" xlink:href="#linearGradient838" />
    <linearGradient gradientUnits="userSpaceOnUse" id="linearGradient1206" x1="201.38066" x2="200.83684" y1="291.3942" y2="318.86386" xlink:href="#linearGradient838" />
  </defs>
  <g inkscape:groupmode="layer" inkscape:label="Drawing">
    <g>
      <path d="m 637.37279,661.34012 c 20.42912,160.84215 -152.91151,143.28811 -152.91151,7.7321 0,-105.18763 61.1812,-137.83797 61.1812,-211.82175 0,-68.91783 -87.39493,-99.54726 -121.75457,-37.86486 l -29.73313,-9.88582 c 56.55203,-197.57089 254.23086,-127.67158 254.23086,43.68886 0,119.35498 -65.11748,181.62612 -70.58899,239.44009 10.03972,-6.4724 19.03042,-16.93487 24.18901,-30.59438 2.9281,13.15219 3.13198,26.60016 0.49323,39.07752 14.37631,-8.11721 26.6497,-21.89253 34.8939,-39.77176 z" fill="#69328f" />
      <path d="m 504.70125,739.23699 c 45.13419,64.56479 148.72092,48.4628 132.67154,-77.89687 -8.2442,17.87923 -20.14095,31.63566 -34.73498,39.91054 -7.74299,38.66997 -41.41674,66.07757 -97.93656,37.98633 z m 120.64872,-378.32896 c 19.28264,127.88533 -90.63231,179.44159 -99.81811,283.63797 -4.64784,52.72137 27.03735,63.44002 52.14302,47.92408 7.12212,-60.03755 70.71076,-120.51101 70.71076,-239.28143 0,-35.50192 -8.53198,-66.68956 -23.03567,-92.28062 z" fill="#9be9d8" />
      <path d="m 407.80673,372.27889 c -5.15136,11.16336 -9.73941,23.552 -13.65195,37.2209 l 29.73313,9.88582 c 34.35964,-61.6824 121.75457,-31.05297 121.75457,37.86486 0,38.57739 -16.63453,65.91664 -32.55609,98.16138 121.22669,-132.7559 28.11643,-287.45528 -105.27966,-183.13296 z m 153.52009,326.35787 c 5.47379,-0.79194 11.05704,-2.8967 16.34806,-6.16668 7.12212,-60.03755 70.71076,-120.51101 70.71076,-239.28143 0,-18.57127 -2.33469,-35.96197 -6.63758,-51.98857 -13.42499,179.1488 -104.93031,205.96759 -80.42124,297.43668 z m 7.60301,77.64399 c 40.59407,1.06935 78.63316,-34.71138 68.44296,-114.94063 -4.59752,9.97066 -10.33095,18.65915 -17.17268,25.85197 4.43003,42.94725 -10.26219,75.16369 -51.27028,89.08866 z" fill="#8640b4" />
      <path d="m 577.81462,692.85172 c 5.45354,-58.03695 70.57102,-120.30809 70.57102,-239.66307 0,-171.36044 -197.67883,-241.25975 -254.23086,-43.68886 l 29.73313,9.88582 c 34.35964,-61.6824 121.75457,-31.05297 121.75457,37.86486 0,73.98378 -61.1812,106.63412 -61.1812,211.82175 0,135.55601 173.34063,153.11005 152.91151,-7.7321 -8.2442,17.87923 -20.51759,31.65455 -35.11162,39.92943" fill="none" stroke="#562875" stroke-width="7" />
      <path fill="#562875" inkscape:original-d="m 554.45644,698.92499 c 17.69261,1.1578 38.49174,-12.96017 47.52922,-36.89063 4.59541,20.64129 2.48088,42.01112 -5.95972,58.60461" inkscape:path-effect="#path-effect900" />
    </g>
    <path d="m 256.45741,550.64357 c 38.85751,83.02703 27.65871,171.85357 -27.38927,241.51605 -17.44612,22.07783 102.99658,26.82541 113.23011,-0.21685 22.00515,-58.14894 25.70586,-147.31003 7.03375,-212.54934 z" fill="#ddb1eb" stroke="#c394d7" stroke-width="7" />
    <g>
      <path d="m 197.08009,418.32808 c 90.42102,-5.07305 186.9112,-127.07936 166.38662,-243.49144 -34.04974,-193.124599 -221.64946,-169.119579 -232.56311,-123.787798 z" fill="#69328f" />
      <path d="m 167.14772,60.888048 c 0.0382,-14.159684 3.69669,-27.71129 9.20653,-39.339056 -8.73349,2.048125 -16.97304,4.48362 -24.45814,8.227554 -2.73223,11.787816 -2.64775,22.387305 -0.3897,32.553638 z" fill="#9be9d8" />
      <path d="m 170.00069,23.079323 c 36.68094,-9.369248 74.41122,-1.460545 103.7505,14.041708 -25.83044,-2.414471 -57.04081,3.402269 -73.5773,30.701645 l -39.37973,-5.404297 c 0.0382,-14.159684 3.69669,-27.71129 9.20653,-39.339056 z" fill="#8640b4" />
      <path d="m 197.08009,418.32808 c 90.42102,-5.07305 186.9112,-127.07936 166.38662,-243.49144 -34.04974,-193.124599 -221.64946,-169.119579 -232.56311,-123.787798 z" fill="none" stroke="#562875" stroke-width="7" />
      <path d="m 239.52683,92.145509 c 38.89946,-16.100457 99.5082,10.335821 71.05621,127.167251" fill="none" stroke="#562875" stroke-width="3.5" />
    </g>
    <path d="m 202.40499,540.72547 c -10.30529,90.98994 -41.57393,198.7044 -94.36748,276.46782 -15.357362,22.62097 92.40572,26.47363 103.91802,-0.11995 32.10251,-74.15726 45.10982,-155.09155 41.7075,-233.92688 z" fill="#f2c7f8" stroke="#c394d7" stroke-width="7" />
    <g>
      <path d="m 145.26573,410.06202 102.20821,-44.57746 38.93543,81.61774 c 78.01948,-71.35732 137.49873,-52.90137 166.58367,-5.52377 40.80445,66.46796 21.4293,122.00776 21.03841,152.70337 9.57891,-0.37009 17.84729,3.86181 22.83603,11.52386 39.43682,60.56986 68.95885,154.55167 67.22271,213.05731 -0.80247,27.04226 -120.89815,23.46588 -113.15449,0.21685 21.68006,-65.09076 12.88295,-154.9173 -54.3733,-242.37065 -48.4638,92.22943 -213.88958,68.98402 -251.29667,-166.64725 z" fill="#f2c7f8" />
    </g>
    <g transform="matrix(-.81428739.76030438.96383519 2.617515 437.25161 466.00494)" inkscape:path-effect="#path-effect2201">
      <path fill="ivory" inkscape:original-d="m -9.3,17.4 5.5,-3.9 5.5,3.9 -3.5,-6.6 3.5,-6.6 -5.5,3.9 -5.5,-3.9 3.5,6.6 z" />
      <path fill="#b765b8" inkscape:original-d="m -3.8,0.8 c 0.6,6.5 2.5,9 5.7,10 -3.2,1 -5.1,3.5 -5.7,10 -0.6,-6.5 -2.5,-9 -5.7,-10 3.2,-1 5.1,-3.5 5.7,-10 z" />
      <path fill="#9be9d8" inkscape:original-d="m 1.7,-6.3 c -3.3,5.2 6.4,4.5 6.4,10.9 0,2.1 -1.8,4.6 -6.8,4.7 11,-6.2 -9.8,-9.2 0.4,-15.6 z m -5.8,4.6 c -3.1,-1.6 -4.6,-3.8 -4.6,-6 0,-9.8 18.9,-1.7 13.9,-13.1 13.6,12.8 -16.2,9.6 -9.3,19.1 z" />
      <path fill="#08bab7" inkscape:original-d="m 1.7,-6.3 c -12.5,6.3 7.9,8.8 -0.4,15.6 6.5,-1.7 4.8,-6.1 1.9,-8.3 -2.9,-2.2 -5.2,-4.3 -1.5,-7.3 z m -5.8,4.6 c -4.1,-8.2 13.6,-2.8 13.6,-12.4 0,-2.3 -1.4,-4.7 -4.3,-6.7 4.1,4.3 4.3,8.8 -4.4,10.1 -8.7,1.3 -8.2,5.5 -4.9,9 z" />
    </g>
    <path fill="#c394d7" inkscape:original-d="m 410.12976,516.28852 c 1.85943,154.12211 -220.70486,171.93684 -264.86403,-106.2265 l 102.20821,-44.57746 38.93543,81.61774 c 78.01948,-71.35732 137.49873,-52.90137 166.58367,-5.52377 49.13487,80.0377 11.01001,144.22969 24.05444,168.29749" inkscape:path-effect="#path-effect2188" />
    <path d="m 396.44274,576.56387 c 67.37591,87.59875 76.17302,177.42529 54.49296,242.51605 -7.74366,23.24903 112.35202,26.82541 113.15449,-0.21685 1.73614,-58.50564 -27.78589,-152.48745 -67.22271,-213.05731 -4.98874,-7.66205 -13.25712,-11.89395 -22.95521,-11.53476" fill="none" stroke="#c394d7" stroke-width="7" />
    <g>
      <path d="m 324.21514,563.65092 150.26933,284.95725 c 12.99634,24.6451 -91.09015,28.81372 -101.07705,1.48239 l -100.53814,-275.14462 z" fill="#f2c7f8" />
      <path fill="#c394d7" inkscape:original-d="m 324.21514,563.65092 150.26933,284.95725 c 12.99634,24.6451 -91.09015,28.81372 -101.07705,1.48239 l -100.53814,-275.14462" inkscape:path-effect="#path-effect991" />
    </g>
    <g>
      <path d="m 98.087924,180.02649 c 0.903791,-35.14574 -11.887283,-82.780897 -24.386982,-85.158898 -22.067978,-4.198314 -92.955862,96.898638 -39.617288,174.638508 z" fill="#f2c7f8" stroke="#c394d7" stroke-width="7" />
      <path d="m 53.634988,146.45611 c -10.498597,23.96639 -13.604299,48.32585 -11.559654,74.88177 -8.140433,-24.41413 -3.493078,-54.25711 11.559654,-74.88177 z" fill="#c394d7" />
      <path d="m 29.451292,266.56811 c -18.194564,107.43179 42.349502,162.39601 98.201758,171.26256 68.35211,10.85091 145.61366,-42.06232 155.98507,-124.42705 27.13959,-215.529518 -223.525918,-227.876203 -254.186828,-46.83551 z" fill="#f2c7f8" stroke="#c394d7" stroke-width="7" />
      <g>
        <path d="m 242.47636,183.87573 c 5.38832,-31.88977 28.58989,-78.59138 41.31165,-78.35887 21.55036,0.39387 72.28215,112.75346 -3.82319,178.05817 z" fill="#f2c7f8" />
        <path fill="#c394d7" inkscape:original-d="m 242.47636,183.87573 c 5.38832,-31.88977 28.58989,-78.59138 41.31165,-78.35887 21.55036,0.39387 72.28215,112.75346 -3.82319,178.05817" inkscape:path-effect="#path-effect1087" />
        <path d="m 290.09166,158.25141 c 4.17972,25.82904 1.10269,50.19212 -7.51006,75.39565 13.98037,-21.60706 16.93424,-51.66494 7.51006,-75.39565 z" fill="#c394d7" />
      </g>
      <g>
        <ellipse cx="252.72423" cy="272.50256" fill="#fff" rx="47.998177" ry="76.938683" transform="rotate(9.6503023)" />
        <g clip-path="url(#clipPath929)">
          <ellipse cx="196.0159" cy="304.35559" fill="url(#linearGradient1206)" id="ellipse905" rx="12.427778" ry="19.059935" transform="rotate(3.0214837)" />
          <path d="m 177.19193,318.56905 17.27883,13.75152 4.54552,-9.3661 z" fill="#b9bafc" />
          <path d="m 177.19193,318.56905 23.03046,-0.4762 -2.62322,7.47319 z" fill="#8587ec" />
          <ellipse cx="195.71834" cy="305.16833" rx="9.1924648" ry="14.303668" stroke="#5f2d7f" stroke-miterlimit="20" stroke-width="0.26199567" transform="rotate(3.0214837)" />
          <ellipse cx="4.6899581" cy="357.70001" fill="#fff" rx="4.7430892" ry="7.7335625" transform="rotate(329.96214)" />
          <ellipse cx="-60.712074" cy="356.89203" fill="#fff" rx="1.4369799" ry="2.1541266" transform="rotate(320.8799)" />
        </g>
        <ellipse cx="68.50383" cy="299.48648" fill="#fff" rx="28.346556" ry="73.94854" transform="rotate(1.7412031)" />
        <g clip-path="url(#clipPath860)">
          <ellipse cx="84.934166" cy="304.45822" fill="url(#linearGradient1193)" id="ellipse21" rx="9.8480434" ry="18.186792" transform="rotate(3.4912156)" />
          <path d="m 56.707206,324.51335 10.992504,-11.60366 -14.321118,3.86828 z" fill="#b9bafc" />
          <path d="m 52.60035,314.10473 15.09936,-1.19504 -13.758872,6.74386 z" fill="#8587ec" />
          <ellipse cx="85.157768" cy="304.96475" rx="7.3697453" ry="13.648765" transform="rotate(3.4912156)" />
          <ellipse cx="-17.217617" cy="309.28522" fill="#fff" rx="4.004786" ry="6.5297627" transform="rotate(343.89771)" />
          <ellipse cx="-21.099382" cy="316.53543" fill="#fff" rx="1.2644972" ry="1.7942388" transform="rotate(344.38486)" />
        </g>
        <path d="m 50.905775,234.25286 c -13.803741,-30.03177 -17.734707,-26.50457 -5.02433,3.48774 m -9.252243,24.04494 c -30.9244502,-2.4603 -31.3981116,2.43113 -1.495149,5.62618 m 7.329201,-21.94234 c -27.276035,-15.31282 -29.101429,-10.51828 -2.520204,5.36311 m -5.909051,21.62865 c 14.223973,-51.48037 34.389049,-50.04067 43.416205,-26.64041 11.706111,30.34467 10.128371,68.85708 3.000686,101.3861 11.084107,-29.02425 12.659747,-73.84584 1.351597,-103.36998 -13.352604,-34.86195 -42.231155,-22.37089 -47.768488,28.62429 z m 125.644361,83.34183 c -14.10524,-33.86306 -5.24336,-88.05159 25.12334,-114.62025 l 1.7981,6.21752 c -27.72665,27.31787 -33.42367,70.20496 -26.92144,108.40273 z" />
        <path d="m 93.567963,421.71995 c 15.963087,-18.42902 43.570827,-19.72976 65.481437,-3.31198 -21.68953,-9.75076 -47.4322,-8.63394 -65.481437,3.31198 z m 38.319997,-49.7126 c 1.16103,6.33286 -1.75318,9.82649 -7.6071,11.79322 9.88538,3.00546 14.13303,-4.08663 7.6071,-11.79322 z m -37.923538,-2.51689 c -0.8811,6.02548 1.923069,9.6611 7.522578,12.07568 -8.975878,2.0181 -14.391788,-3.71206 -7.522578,-12.07568 z m 0.24692,-9.66764 c 10.890428,-6.65284 32.060518,-5.8574 41.046778,2.01973 -12.83045,-3.25317 -27.5317,-3.76389 -41.046778,-2.01973 z" fill="#c394d7" />
      </g>
      <g>
        <path d="m 80.268097,202.53319 c -87.6460379,-82.51875 -51.985879,-202.02873848 45.770933,-165.957895 62.1333,22.926285 107.10229,3.721948 128.07665,37.624984 33.42326,54.025491 -8.90903,136.915941 5.35944,170.666191 17.51481,-5.94 28.4635,-22.90051 21.78924,-42.8093 16.50653,9.88392 24.45998,25.98004 19.35384,40.44861 36.17493,52.73952 -48.23361,101.99225 -99.93969,36.29278 -23.39393,-29.72511 -15.89832,-88.5027 -24.528,-132.25718 -44.9304,-1.36917 -75.5039,13.55217 -95.882413,55.99181 z" fill="#69328f" />
        <path d="m 176.15364,146.55747 c -2.0755,-11.3061 -5.34732,-21.62658 -10.50399,-30.17634 -35.94811,-59.601975 -136.115464,-25.124617 -85.381553,86.15206 20.378513,-42.43964 50.952013,-57.36098 95.885543,-55.97572 z" fill="#5f2d7f" />
        <path d="m 249.93388,247.57399 c -44.31561,-73.41393 32.1467,-129.54389 -43.72749,-196.881441 l -50.56395,-5.493936 c 80.50549,47.663794 39.91233,121.043827 54.36896,187.641667 -20.56705,-16.28829 -33.64761,-73.00698 -27.38051,-18.09828 16.03925,97.80197 102.19113,76.39099 123.59176,38.09792 -13.42476,-13.80956 8.79316,-28.33793 -24.95829,-50.78275 6.68,21.07857 -6.06252,41.19518 -31.33048,45.51682 z" fill="#9be9d8" />
        <path d="m 181.91356,197.52551 c 16.94042,94.37676 113.12077,77.24782 108.15376,11.36456 l -8.80296,-6.8329 c 8.67915,23.04371 -10.99596,52.31151 -52.78734,43.70887 -34.88506,-78.51631 33.83105,-156.319846 -63.80569,-199.793595 l -21.22491,-3.78887 c 67.94637,42.293311 45.11072,147.357055 52.04116,173.444745 -10.39666,-24.64981 -15.87342,-29.40024 -13.57402,-18.10281 z" fill="#8640b4" />
        <path fill="#562875" inkscape:original-d="m 267.10334,268.74975 c 45.64341,-14.27521 42.5677,-49.68298 14.16102,-66.69258 16.82853,50.1982 -78.38085,81.65264 -101.67325,-30.60792" inkscape:path-effect="#path-effect1023" />
        <path d="m 176.02886,146.53693 c -44.80875,-1.36472 -75.38225,13.55662 -95.760763,55.99626 -87.6460379,-82.51875 -51.985879,-202.02873848 45.770933,-165.957895 62.1333,22.926285 107.10229,3.721948 128.07665,37.624984 33.42326,54.025491 -8.90903,136.915941 4.94051,170.390141 m 41.64433,-2.16833 c 36.09261,52.82321 -48.31593,102.07594 -100.02201,36.37647 -29.44374,-37.4122 -9.9557,-120.84612 -35.02886,-162.41743 -35.94811,-59.601973 -136.115464,-25.124617 -85.381553,86.15206" fill="none" stroke="#562875" stroke-width="7" />
        <path d="m 96.842289,176.67315 c -26.931335,-55.72094 4.576791,-99.659271 58.104351,-74.39532" fill="none" stroke="#562875" stroke-width="3.5" />
        <path d="m 119.4093,222.98609 c -49.52221,-181.793505 -11.10577,-194.858906 49.04872,-26.99439 z" fill="#f2c7f8" />
        <path fill="#c394d7" inkscape:original-d="m 119.4093,222.98609 c -49.52221,-181.793505 -11.10577,-194.858906 49.04872,-26.99439" inkscape:path-effect="#path-effect937" />
        <path d="m 96.0987,114.37831 c 9.68925,16.75544 30.81028,9.31551 33.56811,-8.8568 m -28.56811,40.8568 c 14.30533,15.60142 37.1784,12.42495 42.18344,-12.62615 m -33.76045,50.8568 c 17.90161,12.71958 44.84742,10.98331 48.1363,-19.39991" fill="none" stroke="#c394d7" stroke-width="3.5" />
      </g>
      <g>
        <path d="m 363.46671,174.83664 c 35.77305,202.89895 -66.56265,271.30463 -81.09249,333.44922 10.17599,-1.26307 20.24277,-10.62313 25.39261,-28.38621 3.26065,14.49748 3.04104,28.76681 -2.37243,40.40731 3.76226,69.95745 -50.4315,82.72954 -76.8778,34.10359 -22.6352,-41.61859 -7.28127,-136.60788 64.43094,-214.41283 51.26914,-55.62502 66.25337,-93.79856 70.51917,-165.16108" fill="#69328f" />
        <path d="m 267.57291,503.51981 c 8.47706,-89.58693 70.40408,-72.05459 103.32318,-236.55132 l -1.01548,-39.57743 c -17.38466,143.04684 -93.40873,158.22785 -123.21294,258.00068 -2.91118,-54.16738 -13.07179,-60.43232 -24.23379,-14.02814 0.0803,96.24041 58.76391,112.29753 82.98619,54.28978 -7.10064,-20.69569 -34.12045,-6.76169 -37.84716,-22.13357 z" fill="#9be9d8" />
        <path d="m 256.51225,490.51981 c 25.06903,-109.12647 96.49475,-97.46113 113.87605,-256.76256 l -0.64645,-14 c -19.11477,139.24494 -90.12669,152.6811 -117.80949,236.97348 3.89486,-46.12382 19.12352,-80.192 41.01518,-116.73301 -23.95266,26.59822 -45.06139,57.50179 -59.39528,95.75463 -17.21465,97.73221 39.83895,128.63648 71.61781,83.90103 5.0631,-12.72655 5.05465,-26.08705 2.59676,-39.75373 -8.21983,31.88101 -36.14242,38.12884 -51.25458,10.62016 z" fill="#8640b4" />
        <path d="m 282.39136,508.37823 c 14.5127,-62.23696 116.8484,-130.64264 81.07535,-333.54159 m -70.51917,165.16108 c -91.64393,155.71395 -4.34974,206.02068 14.81929,139.90193 3.26065,14.49748 3.04104,28.76681 -2.37243,40.40731 3.76226,69.95745 -50.4315,82.72954 -76.8778,34.10359 -22.6352,-41.61859 -7.28127,-136.60788 64.43094,-214.41283 51.26914,-55.62502 66.25337,-93.79856 70.51917,-165.16108" style="stroke:#562875;stroke-width:7;stroke-miterlimit:20;fill:none" />
      </g>
    </g>
  </g>
</svg>