<?xml version="1.0" encoding="UTF-8" standalone="no"?>
<!-- Created with Inkscape (http://www.inkscape.org/) -->

<svg xmlns:dc="http://purl.org/dc/elements/1.1/" xmlns:cc="http://creativecommons.org/ns#" xmlns:rdf="http://www.w3.org/1999/02/22-rdf-syntax-ns#" xmlns:svg="http://www.w3.org/2000/svg" xmlns="http://www.w3.org/2000/svg" xmlns:xlink="http://www.w3.org/1999/xlink" xmlns:sodipodi="http://sodipodi.sourceforge.net/DTD/sodipodi-0.dtd" xmlns:inkscape="http://www.inkscape.org/namespaces/inkscape" width="1024" height="2560" id="svg2" version="1.1" inkscape:version="0.91+devel r" sodipodi:docname="Power Stroke Coat Liners.svg" inkscape:export-filename="/home/parclytaxel/Pictures/Power Stroke Coat Liners.png" inkscape:export-xdpi="384" inkscape:export-ydpi="384">
  <title id="title9720">First-Order Approximations for Coat Liners</title>
  <defs id="defs4">
    <inkscape:path-effect effect="powerstroke" id="path-effect4812" is_visible="true" offset_points="1,12" sort_points="true" interpolator_type="CubicBezierSmooth" interpolator_beta="0.2" start_linecap_type="butt" linejoin_type="extrp_arc" miter_limit="4" end_linecap_type="butt" />
    <inkscape:path-effect effect="powerstroke" id="path-effect4704" is_visible="true" offset_points="2.5,16.687601" sort_points="true" interpolator_type="CubicBezierSmooth" interpolator_beta="0.2" start_linecap_type="butt" linejoin_type="extrp_arc" miter_limit="4" end_linecap_type="butt" />
  </defs>
  <sodipodi:namedview id="base" pagecolor="#ffffff" bordercolor="#666666" borderopacity="1.0" inkscape:pageopacity="0.0" inkscape:pageshadow="2" inkscape:zoom="0.21015625" inkscape:cx="512" inkscape:cy="1280" inkscape:document-units="px" inkscape:current-layer="layer1" showgrid="true" inkscape:window-width="1364" inkscape:window-height="698" inkscape:window-x="0" inkscape:window-y="0" inkscape:window-maximized="1" fit-margin-top="0" fit-margin-left="0" fit-margin-right="0" fit-margin-bottom="0" showguides="true" inkscape:snap-nodes="true" inkscape:object-nodes="true" inkscape:snap-grids="true" inkscape:snap-text-baseline="true" />
  <metadata id="metadata7">
    <rdf:RDF>
      <cc:Work rdf:about="">
        <dc:format>image/svg+xml</dc:format>
        <dc:type rdf:resource="http://purl.org/dc/dcmitype/StillImage" />
        <dc:title>First-Order Approximations for Coat Liners</dc:title>
        <dc:date>26 December 2014</dc:date>
        <dc:creator>
          <cc:Agent>
            <dc:title>Parcly Taxel / Jeremy Tan</dc:title>
          </cc:Agent>
        </dc:creator>
        <dc:rights>
          <cc:Agent>
            <dc:title>CC BY-SA 4.0 / FAL 1.3</dc:title>
          </cc:Agent>
        </dc:rights>
        <dc:subject>
          <rdf:Bag>
            <rdf:li>Application of Inkscape's power strokes to clothes</rdf:li>
            <rdf:li>fetlocks</rdf:li>
            <rdf:li>horn rings</rdf:li>
            <rdf:li>etc.</rdf:li>
          </rdf:Bag>
        </dc:subject>
      </cc:Work>
    </rdf:RDF>
  </metadata>
  <g inkscape:label="Layer 1" inkscape:groupmode="layer" id="layer1" transform="translate(0,995.63783)">
    <rect style="fill:#230f38;fill-opacity:1;fill-rule:evenodd;stroke:none" id="rect4785" width="1024" height="2560" x="0" y="0" transform="translate(0,-995.63783)" />
    <path inkscape:connector-curvature="0" style="fill:none;stroke:#6dc6fb;stroke-width:4.99272346;stroke-linecap:round;stroke-linejoin:round" d="m 411.58006,-930.68566 79.04242,55.5831 21.37752,-94.23473 21.37751,94.23474 79.04237,-55.58311" id="path5559" />
    <text xml:space="preserve" style="font-style:normal;font-variant:normal;font-weight:500;font-stretch:normal;font-size:42px;line-height:125%;font-family:Junction;-inkscape-font-specification:'Junction Medium';text-align:center;letter-spacing:0px;word-spacing:0px;writing-mode:lr-tb;text-anchor:middle;fill:white;fill-opacity:1;stroke:none" x="512" y="-827.35785" id="text5585" sodipodi:linespacing="125%"><tspan sodipodi:role="line" x="512" y="-827.35785" id="tspan2987">First-Order Approximations for Coat Liners</tspan></text>
    <flowRoot xml:space="preserve" id="flowRoot6668" style="font-style:normal;font-variant:normal;font-weight:500;font-stretch:normal;font-size:24px;line-height:125%;font-family:Junction;-inkscape-font-specification:'Junction Medium';text-align:justify;letter-spacing:0px;word-spacing:0px;writing-mode:lr-tb;text-anchor:start;display:inline;fill:white;fill-opacity:1;stroke:none" transform="translate(0,-960.63783)"><flowRegion id="flowRegion6670" style="text-align:justify;text-anchor:start"><rect id="rect6672" width="992" height="192" x="16" y="157" style="font-size:24px;text-align:justify;text-anchor:start;fill:white" /></flowRegion><flowPara id="flowPara3006">Tight pieces of clothing and armour, Shining Armour's fetlocks and the royal family's hoofshoes, among other objects in MLPFIM, are all stroked vector components whose stroke exactly follows that of the component they rest on down to their mitres; these can be called <flowSpan style="font-style:italic" id="flowSpan4164">coat liners</flowSpan>. The problem for vectorists is that naïve duplication of the supporting stroke is usually not an accurate solution since the available mitre joins do not consider everything about the segments they link, only the incident angle:</flowPara></flowRoot>    <path style="opacity:1;fill:none;fill-opacity:1;fill-rule:nonzero;stroke:#5c2594;stroke-width:56;stroke-linecap:butt;stroke-linejoin:miter;stroke-miterlimit:4;stroke-dasharray:none;stroke-dashoffset:7.80000019;stroke-opacity:1" d="m -278.56646,-340.67434 c 534.33943,37.85239 1113.45312,-546.7503 1413.34086,112.64175" id="path5768" inkscape:connector-curvature="0" sodipodi:nodetypes="cc" />
    <path sodipodi:nodetypes="ccc" inkscape:connector-curvature="0" id="path5766" d="m -278.56646,-340.67434 c 318.573489,22.56786 653.06259,-176.11924 934.80352,-200.51846 -77.9167,56.08463 -143.86469,115.97912 -196.9326,182.5844" style="opacity:1;fill:none;fill-opacity:1;fill-rule:nonzero;stroke:white;stroke-width:56;stroke-linecap:butt;stroke-linejoin:miter;stroke-miterlimit:4;stroke-dasharray:none;stroke-dashoffset:7.80000019;stroke-opacity:1" />
    <circle style="opacity:1;fill:none;fill-opacity:1;fill-rule:nonzero;stroke:#c40222;stroke-width:4;stroke-linecap:butt;stroke-linejoin:miter;stroke-miterlimit:4;stroke-dasharray:none;stroke-dashoffset:7.80000019;stroke-opacity:1" id="path5776" cx="710.99652" cy="-546.89435" r="66.525871" />
    <flowRoot transform="translate(25.427509,-536.84601)" style="font-style:normal;font-variant:normal;font-weight:500;font-stretch:normal;font-size:24px;line-height:125%;font-family:Junction;-inkscape-font-specification:'Junction Medium';text-align:justify;letter-spacing:0px;word-spacing:0px;writing-mode:lr-tb;text-anchor:start;display:inline;fill:white;fill-opacity:1;stroke:none" id="flowRoot5778" xml:space="preserve"><flowRegion style="text-align:justify;text-anchor:start" id="flowRegion5780"><rect style="font-size:24px;text-align:justify;text-anchor:start;fill:white" y="213.20818" x="-9.4275093" height="208" width="992" id="rect5782" /></flowRegion><flowPara id="flowPara5784">There are multiple approaches to this task but before Inkscape 0.91 the best of these – and the only one leading to reasonably small SVG files – was mutual clipping at mitres along the supporter's stroke as shown above. The aforementioned version brought with it a vastly superior implementation of Ponyscape's power strokes which produced tapered strokes of comparable internal complexity to the same objects realised with Pattern Along Path. Power strokes, however, are very versatile and can also be used to improve coat liners' fits as detailed below:</flowPara></flowRoot>    <flowRoot xml:space="preserve" id="flowRoot4666" style="font-style:normal;font-variant:normal;font-weight:500;font-stretch:normal;font-size:24px;line-height:125%;font-family:Junction;-inkscape-font-specification:'Junction Medium';text-align:justify;letter-spacing:0px;word-spacing:0px;writing-mode:lr-tb;text-anchor:start;display:inline;fill:white;fill-opacity:1;stroke:none" transform="translate(29.2342,-255.15084)"><flowRegion id="flowRegion4668" style="text-align:justify;text-anchor:start"><rect id="rect4670" width="480" height="1104" x="-13.2342" y="171.51302" style="font-size:24px;text-align:justify;text-anchor:start;fill:white" /></flowRegion><flowPara id="flowPara4672">1. Duplicate the supporting stroke(s) and modify them in-place (without moving any segments on the supporter) to form the outline of the desired object. This step is equivalent to the naïve method, but keep a copy of the outline for later.</flowPara><flowPara id="flowPara3355" /><flowPara id="flowPara3357">2. If the resulting path is closed, break it at any node and duplicate; with the new instance delete all segments except one that abuts the breakpoint and join that to the other abutting segment lying on the original path. This prevents the first node as specified in the SVG data from coming out with a bevel join as would otherwise happen and in effect turns the stroke into a “helix” with one turn and one segment.</flowPara><flowPara id="flowPara4680" /><flowPara id="flowPara4682">3. Apply the power stroke path effect to this “helix” and delete all stroke width controls but one, preferably the middle point. Then set CubicBezierSmooth as the interpolator and – this is important – extrapolated arc as the join type. Turn up the mitre limit until every corner is as how it should look; some control points may need to be inserted to achieve this. Leave the other options untouched.</flowPara><flowPara id="flowPara4692" /><flowPara id="flowPara4696">4. Because power strokes in this function are filled and not stroked even though they serve as outlines, another object has to be used for the fill, which here is the copy saved in step 1. Snap it to the power stroke with the “snap cusp nodes” option and customise it in any way required.</flowPara></flowRoot>    <g id="g5107" transform="translate(0,108.00006)">
      <path style="fill:#6dc6fb;fill-opacity:1;stroke:#1c92cd;stroke-width:33.37520218;stroke-linecap:butt;stroke-linejoin:miter;stroke-miterlimit:4;stroke-dasharray:none;stroke-dashoffset:7.80000019;stroke-opacity:1" d="M 1159.5508,61.287067 C 359.39637,-43.238741 360.69429,-19.056514 1154.2556,-124.03936 Z" id="path8639" inkscape:connector-curvature="0" sodipodi:nodetypes="ccc" />
      <path id="path8645" style="fill:none;stroke:#1c92cd;stroke-width:16.68760109;stroke-linecap:butt;stroke-linejoin:miter;stroke-miterlimit:4;stroke-dasharray:none;stroke-dashoffset:7.80000019;stroke-opacity:1" d="m 704.60447,-64.741257 c 18.62687,24.177245 35.85354,49.682452 51.57108,76.30834 m 93.94983,-94.536898 c 28.31543,35.063084 53.43861,73.2136007 75.0687,113.733442 m 66.55927,-133.190017 c 36.38575,46.493455 66.77775,98.3528393 90.69045,153.849442" inkscape:connector-curvature="0" sodipodi:nodetypes="cccccc" />
    </g>
    <path style="fill:none;fill-opacity:1;stroke:#8d7a19;stroke-width:33.375;stroke-linecap:butt;stroke-linejoin:miter;stroke-miterlimit:4;stroke-dasharray:none;stroke-dashoffset:7.80000019;stroke-opacity:1" d="m 907.0131,136.88827 c -30.37905,-3.86499 -58.76481,-7.48618 -85.15842,-10.89562 4.33804,-29.84134 6.21299,-64.27224 -0.65147,-98.80537 26.10557,-3.410735 54.15992,-7.032121 84.16193,-10.895526 9.72216,37.546636 8.82345,83.299286 1.64796,120.596516 z" id="path5075" inkscape:connector-curvature="0" sodipodi:nodetypes="ccccc" />
    <use x="0" y="0" xlink:href="#g5107" id="use3376" transform="translate(0,376.5)" width="100%" height="100%" />
    <path style="fill:none;fill-opacity:1;stroke:#8d7a19;stroke-width:33.37520218;stroke-linecap:butt;stroke-linejoin:miter;stroke-miterlimit:4;stroke-dasharray:none;stroke-dashoffset:7.80000019;stroke-opacity:1" d="m 821.85468,502.49271 c 4.33804,-29.84134 6.21299,-64.27224 -0.65147,-98.80537 26.10557,-3.41074 54.15992,-7.03212 84.16193,-10.89553 9.72216,37.54664 8.82345,83.29929 1.64796,120.59652 -30.37905,-3.86499 -58.76481,-7.48618 -85.15842,-10.89562 4.33804,-29.84134 6.21299,-64.27224 -0.65147,-98.80537" id="path4350" inkscape:connector-curvature="0" sodipodi:nodetypes="cccccc" />
    <path sodipodi:nodetypes="cccccc" inkscape:connector-curvature="0" id="path4352" d="m 831.85468,492.49271 c 4.33804,-29.84134 6.21299,-64.27224 -0.65147,-98.80537 26.10557,-3.41074 44.15992,2.96788 74.16193,-0.89553 9.72216,37.54664 8.82345,83.29929 1.64796,120.59652 -30.37905,-3.86499 -58.76481,-7.48618 -85.15842,-10.89562 4.33804,-29.84134 6.21299,-64.27224 -0.65147,-98.80537" style="fill:none;fill-opacity:1;stroke:white;stroke-width:1;stroke-linecap:round;stroke-linejoin:round;stroke-miterlimit:4;stroke-dasharray:none;stroke-dashoffset:7.80000019;stroke-opacity:1" />
    <path style="fill:none;fill-opacity:1;stroke:black;stroke-width:1;stroke-linecap:round;stroke-linejoin:round;stroke-miterlimit:4;stroke-dasharray:none;stroke-dashoffset:7.80000019;stroke-opacity:1" d="m 831.85468,492.49271 c 4.33804,-29.84134 6.21299,-64.27224 -0.65147,-98.80537" id="path4651" inkscape:connector-curvature="0" sodipodi:nodetypes="cc" />
    <path id="path4657" style="opacity:1;fill:none;fill-opacity:1;fill-rule:nonzero;stroke:white;stroke-width:1;stroke-linecap:round;stroke-linejoin:round;stroke-miterlimit:4;stroke-dasharray:none;stroke-dashoffset:7.80000019;stroke-opacity:1" d="m 829.92221,379.49693 4.98634,-11.16675 m -7.58088,-19.19988 2.59454,30.36663 -6.80841,-10.15904" inkscape:connector-curvature="0" sodipodi:nodetypes="ccccc" />
    <text xml:space="preserve" style="font-style:normal;font-variant:normal;font-weight:500;font-stretch:normal;font-size:13.33333302px;line-height:125%;font-family:Junction;-inkscape-font-specification:'Junction Medium';text-align:start;letter-spacing:0px;word-spacing:0px;writing-mode:lr-tb;text-anchor:start;fill:white;fill-opacity:1;stroke:none;stroke-width:1px;stroke-linecap:butt;stroke-linejoin:miter;stroke-opacity:1" x="738.99854" y="327.0004" id="text4660" sodipodi:linespacing="125%"><tspan sodipodi:role="line" x="738.99854" y="327.0004" id="tspan4664">Nodes in the black segment</tspan><tspan sodipodi:role="line" x="738.99854" y="343.66705" id="tspan4668">shifted 10 pixels for clarity</tspan></text>
    <use height="100%" width="100%" transform="translate(0,752.99994)" id="use4698" xlink:href="#g5107" y="0" x="0" />
    <path style="fill:#ebebeb;fill-opacity:1;stroke:none;stroke-width:33.37520218;stroke-linecap:butt;stroke-linejoin:miter;stroke-miterlimit:4;stroke-dasharray:none;stroke-dashoffset:7.80000019;stroke-opacity:1" d="m 905.36514,769.29175 c 9.72216,37.54664 8.82345,83.29929 1.64796,120.59652 -30.37905,-3.86499 -58.76481,-7.48618 -85.15842,-10.89562 4.33804,-29.84134 6.21299,-64.27224 -0.65147,-98.80537 26.10557,-3.41074 54.15992,-7.03212 84.16193,-10.89553 z" id="path4708" inkscape:connector-curvature="0" sodipodi:nodetypes="ccccc" />
    <path style="fill:white;fill-opacity:1;fill-rule:nonzero;stroke:none" d="m 914.51379,868.15883 0.89202,-7.4233 -90.40486,-38.86189 0.11249,25.35321 z" id="path4700" inkscape:connector-curvature="0" sodipodi:nodetypes="ccccc" />
    <path sodipodi:nodetypes="cccccc" inkscape:connector-curvature="0" id="path4702" d="m 838.3687,881.3933 c 0,0 1.17454,-6.19539 2.60825,-21.90354 0.90959,-9.96568 3.04749,-35.32714 -0.59632,-64.97299 2.0992,-0.27989 22.84473,-2.96816 51.9168,-6.71588 2.22928,12.68901 3.4724,26.80642 3.5406,41.95856 0.0662,14.71511 -0.9819,28.80547 -2.69814,41.5405 -12.8421,-1.63266 -34.17965,-4.3575 -52.66378,-6.73348 2.79497,-26.77062 2.17224,-47.21165 0.74298,-62.4452 -1.64687,-17.55285 -3.64851,-25.18748 -3.64851,-25.18748 l -32.73474,6.50698 c 0,0 1.71943,6.50847 3.15399,21.79818 1.48411,15.81775 2.0642,38.92978 -2.64917,71.35305 -0.81324,5.59423 -1.73836,11.17162 -2.77483,16.72883 5.71672,0.74273 11.4337,1.48337 17.15096,2.22191 22.51788,2.90878 47.42424,6.0949 85.1902,10.89969 5.04021,0.64125 10.08045,1.28223 15.12073,1.92294 1.25961,-5.07739 2.38416,-10.18734 3.37247,-15.32444 3.52131,-18.30331 5.9181,-40.16714 5.81325,-63.43331 -0.10557,-23.42821 -2.73717,-45.3578 -7.69348,-64.49893 -1.23673,-4.77619 -2.65016,-9.50488 -4.23737,-14.17632 -4.68294,0.6026 -9.36585,1.20542 -14.04874,1.80844 -37.35929,4.81082 -61.8609,7.98183 -84.19253,10.8995 -6.15813,0.80457 -12.31594,1.61154 -18.47344,2.42092 1.68029,5.72686 3.10436,11.5258 4.26796,17.37954 6.3448,31.91887 3.93294,61.74298 2.90408,73.01533 -1.31081,14.36136 -2.39926,20.1359 -2.39926,20.1359 l 33.02804,4.8013 z" style="fill:#d7d7d7;fill-opacity:1;stroke:none;stroke-width:33.37520218;stroke-linecap:butt;stroke-linejoin:miter;stroke-miterlimit:4;stroke-dasharray:none;stroke-dashoffset:7.80000019;stroke-opacity:1" inkscape:path-effect="#path-effect4704" inkscape:original-d="m 821.85468,878.99265 c 4.33804,-29.84134 6.21299,-64.27224 -0.65147,-98.80537 26.10557,-3.41074 54.15992,-7.03212 84.16193,-10.89553 9.72216,37.54664 8.82345,83.29929 1.64796,120.59652 -30.37905,-3.86499 -58.76481,-7.48618 -85.15842,-10.89562 4.33804,-29.84134 6.21299,-64.27224 -0.65147,-98.80537" />
    <flowRoot transform="translate(35.2342,840.84916)" style="font-style:normal;font-variant:normal;font-weight:500;font-stretch:normal;font-size:24px;line-height:125%;font-family:Junction;-inkscape-font-specification:'Junction Medium';text-align:justify;letter-spacing:0px;word-spacing:0px;writing-mode:lr-tb;text-anchor:start;display:inline;fill:white;fill-opacity:1;stroke:none" id="flowRoot4747" xml:space="preserve"><flowRegion style="text-align:justify;text-anchor:start" id="flowRegion4749"><rect style="font-size:24px;text-align:justify;text-anchor:start;fill:white" y="179.51302" x="-19.2342" height="95.999992" width="992" id="rect4751" /></flowRegion><flowPara id="flowPara4765">The method must be followed with some caution. While it is an approximation to the exact mutual clipping producing decent results, it fails badly at very low angles and where the curvature before and after the mitres on the supporter differs a lot:</flowPara></flowRoot>    <path sodipodi:nodetypes="cc" inkscape:connector-curvature="0" id="path4806" d="m 143.664,1353.4009 c 85.39697,-475.2935 145.78174,15.7573 325.24473,-62.0244" style="opacity:1;fill:none;fill-opacity:1;fill-rule:nonzero;stroke:#5c2594;stroke-width:24;stroke-linecap:butt;stroke-linejoin:miter;stroke-miterlimit:4;stroke-dasharray:none;stroke-dashoffset:7.80000019;stroke-opacity:1" />
    <path style="opacity:1;fill:none;fill-opacity:1;fill-rule:nonzero;stroke:white;stroke-width:24;stroke-linecap:butt;stroke-linejoin:miter;stroke-miterlimit:4;stroke-dasharray:none;stroke-dashoffset:7.80000019;stroke-opacity:1" d="m 143.664,1353.4009 c 19.48743,-108.4611 37.67237,-166.6004 56.26708,-192.6609 1.89021,58.8596 32.46779,120.6686 98.97765,139.6365" id="path4804" inkscape:connector-curvature="0" sodipodi:nodetypes="ccc" />
    <path style="opacity:1;fill:none;fill-opacity:1;fill-rule:nonzero;stroke:#5c2594;stroke-width:24;stroke-linecap:butt;stroke-linejoin:miter;stroke-miterlimit:4;stroke-dasharray:none;stroke-dashoffset:7.80000019;stroke-opacity:1" d="m 558.664,1353.4009 c 85.39697,-475.2935 145.78174,15.7573 325.24473,-62.0244" id="path4808" inkscape:connector-curvature="0" sodipodi:nodetypes="cc" />
    <path sodipodi:nodetypes="ccc" inkscape:connector-curvature="0" id="path4810" d="m 570.47487,1355.523 c 0,0 3.37617,-21.6269 12.53387,-63.7122 4.33207,-19.9086 10.16845,-44.5512 17.11503,-67.147 2.58392,-8.4049 5.31595,-16.51 8.18841,-24.0428 4.48414,18.2541 11.31798,34.0429 18.96446,46.8838 12.83342,21.5516 28.18692,35.5709 41.21957,44.6154 12.8308,8.9045 24.5917,13.7862 31.40323,16.2994 7.25435,2.6765 10.71824,3.4968 10.71824,3.4968 l 6.5821,-23.0798 c 0,0 -2.92517,-0.6945 -8.99242,-2.9333 -5.70919,-2.1067 -15.44098,-6.1542 -26.01548,-13.5074 -10.68183,-7.4278 -23.44268,-19.0571 -34.26258,-37.2155 -10.77334,-18.0802 -20.00147,-43.5951 -21.0044,-74.8256 -0.3162,-9.8462 0.2239,-19.7012 1.61421,-29.4539 -9.08095,6.1835 -16.99524,13.926 -23.37636,22.8692 -11.61895,16.2839 -20.76968,40.3887 -27.97014,63.8039 -7.23988,23.5434 -13.24499,48.9549 -17.63421,69.1278 -9.30737,42.7766 -12.70527,64.577 -12.70527,64.577 l 23.62174,4.2442 z" style="opacity:1;fill:white;fill-opacity:1;fill-rule:nonzero;stroke:none;stroke-width:24;stroke-linecap:butt;stroke-linejoin:miter;stroke-miterlimit:4;stroke-dasharray:none;stroke-dashoffset:7.80000019;stroke-opacity:1" inkscape:path-effect="#path-effect4812" inkscape:original-d="m 558.664,1353.4009 c 19.48743,-108.4611 37.67237,-166.6004 56.26708,-192.6609 1.89021,58.8596 32.46779,120.6686 98.97765,139.6365" />
    <circle style="opacity:1;fill:none;fill-opacity:1;fill-rule:nonzero;stroke:#c40222;stroke-width:2;stroke-linecap:butt;stroke-linejoin:miter;stroke-miterlimit:4;stroke-dasharray:none;stroke-dashoffset:7.80000019;stroke-opacity:1" id="path5776-5" cx="214.85411" cy="1145.4148" r="28.634842" />
    <circle r="28.634842" cy="1145.4148" cx="629.85413" id="circle4839" style="opacity:1;fill:none;fill-opacity:1;fill-rule:nonzero;stroke:#c40222;stroke-width:2;stroke-linecap:butt;stroke-linejoin:miter;stroke-miterlimit:4;stroke-dasharray:none;stroke-dashoffset:7.80000019;stroke-opacity:1" />
    <path id="path4843" style="opacity:1;fill:none;fill-opacity:1;fill-rule:nonzero;stroke:white;stroke-width:4;stroke-linecap:round;stroke-linejoin:round;stroke-miterlimit:4;stroke-dasharray:none;stroke-dashoffset:7.80000019;stroke-opacity:1" d="m 513.77449,1199.9918 -45.78566,25.3544 m -84.16386,-25.3544 129.94952,0 -45.78566,-25.3544" inkscape:connector-curvature="0" />
    <flowRoot xml:space="preserve" id="flowRoot4846" style="font-style:normal;font-variant:normal;font-weight:500;font-stretch:normal;font-size:24px;line-height:125%;font-family:Junction;-inkscape-font-specification:'Junction Medium';text-align:justify;letter-spacing:0px;word-spacing:0px;writing-mode:lr-tb;text-anchor:start;display:inline;fill:white;fill-opacity:1;stroke:none" transform="translate(35.2342,1196.1586)"><flowRegion id="flowRegion4848" style="text-align:justify;text-anchor:start"><rect id="rect4850" width="992" height="176" x="-19.2342" y="176.20357" style="font-size:24px;text-align:justify;text-anchor:start;fill:white" /></flowRegion><flowPara id="flowPara4852">Such extreme cases are sufficiently rare, though, that they need not be worried about – just do mutual clipping and everything will be fine. Have fun with this shortcut.</flowPara></flowRoot>    <text sodipodi:linespacing="125%" id="text9190" y="1492.3622" x="512" style="font-style:normal;font-variant:normal;font-weight:500;font-stretch:normal;font-size:17.59964371px;line-height:125%;font-family:Junction;-inkscape-font-specification:'Junction Medium';text-align:center;letter-spacing:0px;word-spacing:0px;writing-mode:lr-tb;text-anchor:middle;display:inline;fill:white;fill-opacity:1;stroke:none" xml:space="preserve"><tspan id="tspan9200" y="1492.3622" x="512" sodipodi:role="line">parclytaxel / albuminflask / twitwee.tumblr.com</tspan><tspan id="tspan9206" y="1514.3617" x="512" sodipodi:role="line">parclytaxel / the-crystal-empire.deviantart.com / @Parcly_Taxel</tspan><tspan id="tspan9218" y="1536.3613" x="512" sodipodi:role="line">For the MLP Vector Club / mlp-vectorclub.deviantart.com</tspan></text>
    <path style="opacity:1;fill:none;fill-opacity:1;fill-rule:nonzero;stroke:white;stroke-width:2;stroke-linecap:round;stroke-linejoin:miter;stroke-miterlimit:4;stroke-dasharray:none;stroke-dashoffset:7.80000019;stroke-opacity:1" d="m 16,1452.3622 992,0" id="path9523" inkscape:connector-curvature="0" sodipodi:nodetypes="cc" />
    <text xml:space="preserve" style="font-style:normal;font-variant:normal;font-weight:500;font-stretch:normal;font-size:13.33333302px;line-height:125%;font-family:Junction;-inkscape-font-specification:'Junction Medium';text-align:end;letter-spacing:0px;word-spacing:0px;writing-mode:lr-tb;text-anchor:end;fill:white;fill-opacity:1;stroke:none;stroke-width:1px;stroke-linecap:butt;stroke-linejoin:miter;stroke-opacity:1" x="1018.8223" y="-42.431377" id="text9714" sodipodi:linespacing="125%"><tspan sodipodi:role="line" id="tspan9716" x="1018.8223" y="-42.431377">Horn taken from Dullahan Parcly</tspan><tspan sodipodi:role="line" x="1018.8223" y="-25.764711" id="tspan9718">Derpibooru #748816</tspan></text>
  </g>
</svg>
