<svg xmlns="http://www.w3.org/2000/svg" viewBox="-24 -35 48 70">
  <path d="M11.8 3.1L21.3 8l2.7 9.2-8.7-3.8z" fill="#cce5e5"/>
  <path d="M16 8.1c2 .8 3.1 2.2 3.7 4-1.8-.7-3-2.2-3.7-4z" fill="#92afaf"/>
  <path d="M10.2 21c-6-1.5-9.8-3.2-10.6-9.8h-14.9c-.1 4.6-2.3 7.9-8.7 9.8l17 4z" fill="#5d5a5a"/>
  <path d="M10.4 7.3l-2-2.1V-.3h5.5l2 2.1-1.7 1.7h-1.1v1.1zm-29.1 0H3.8c2.8 0 2.5 5.2-.5 5.2h-21.6c-3.2 0-3.1-5.2-.4-5.2z" fill="#ebd26d"/>
  <path d="M3.6 21h6.6L7.4 34.4H2L-6.4 21H-24l1.3 13.4h17.1z" fill="#767272"/>
  <path d="M-6.4 21l.8 13.4H2L3.6 21z" fill="#837f7f"/>
  <path d="M5.9-2.2h-4C-32.4-41.5-28-46.6 7.7-8z" fill="#7f90bd"/>
  <path d="M5.6-4.2c-7.5-8.3-13.3-15-19.5-22.8C-6.5-20.3 0-13.6 7.1-5.9z" fill="#a0b0d4"/>
  <path d="M-6 8.6c2.7 0 2.7 2.2 0 2.2h-7.2c-2.7 0-2.8-2.2-.1-2.2zm19.1-4L8.9.3h2.2l3.1 3.2z" fill="#fbe889"/>
  <path d="M8.4 5.2l5.5-5.5C10.2-1.2 8.2-3.6 7.7-8L1.9-2.2c3.8.6 6 3.2 6.5 7.4z" fill="#566288"/>
</svg>
