<?xml version="1.0" encoding="UTF-8" standalone="no"?>
<!-- Created with Inkscape (http://www.inkscape.org/) -->

<svg
   xmlns:dc="http://purl.org/dc/elements/1.1/"
   xmlns:cc="http://creativecommons.org/ns#"
   xmlns:rdf="http://www.w3.org/1999/02/22-rdf-syntax-ns#"
   xmlns:svg="http://www.w3.org/2000/svg"
   xmlns="http://www.w3.org/2000/svg"
   xmlns:xlink="http://www.w3.org/1999/xlink"
   xmlns:sodipodi="http://sodipodi.sourceforge.net/DTD/sodipodi-0.dtd"
   xmlns:inkscape="http://www.inkscape.org/namespaces/inkscape"
   id="svg2"
   version="1.1"
   inkscape:version="0.48.3.1 r9886"
   width="925"
   height="1100"
   sodipodi:docname="Cyclops Parcly.svg"
   inkscape:export-filename="/home/parclytaxel/Pictures/Cyclops Parcly.png"
   inkscape:export-xdpi="648"
   inkscape:export-ydpi="648">
  <metadata
     id="metadata8">
    <rdf:RDF>
      <cc:Work
         rdf:about="">
        <dc:format>image/svg+xml</dc:format>
        <dc:type
           rdf:resource="http://purl.org/dc/dcmitype/StillImage" />
        <dc:title />
      </cc:Work>
    </rdf:RDF>
  </metadata>
  <defs
     id="defs6">
    <inkscape:path-effect
       effect="skeletal"
       id="path-effect3953"
       is_visible="true"
       pattern="m -46.185511,902.05149 c -21.168636,0 -41.761271,2.772 -62.999999,8 21.565478,5.55474 41.831363,8 62.999999,8 l 462.000001,0 c 42.42495,0 87.77939,-3.83154 125,-8 -37.35595,-5.55475 -83.96134,-8 -125,-8 z"
       copytype="single_stretched"
       prop_scale="1"
       scale_y_rel="false"
       spacing="0"
       normal_offset="0"
       tang_offset="0"
       prop_units="false"
       vertical_pattern="false"
       fuse_tolerance="0"
       pattern-nodetypes="scsscss" />
    <inkscape:path-effect
       effect="skeletal"
       id="path-effect3917"
       is_visible="true"
       pattern="m -150.04081,264.01376 c -21.16863,0 -41.76127,2.772 -63,8 21.56548,5.55474 41.83137,8 63,8 l 598,0 c 21.16863,0 42.41477,-2.44526 63,-8 -20.25848,-5.55475 -41.83137,-8 -63,-8 z"
       copytype="single_stretched"
       prop_scale="1"
       scale_y_rel="false"
       spacing="0"
       normal_offset="0"
       tang_offset="0"
       prop_units="false"
       vertical_pattern="false"
       fuse_tolerance="0"
       pattern-nodetypes="scsscss" />
    <inkscape:path-effect
       effect="skeletal"
       id="path-effect4470"
       is_visible="true"
       pattern="m 113.1109,357.56969 c -21.168636,0 -41.761271,2.772 -63.000001,8 21.56548,5.55474 41.831365,8 63.000001,8 l 428,0 c 21.16863,0 42.41477,-2.44526 63,-8 -20.25848,-5.55475 -41.83137,-8 -63,-8 z"
       copytype="single_stretched"
       prop_scale="0.99"
       scale_y_rel="false"
       spacing="0"
       normal_offset="0"
       tang_offset="0"
       prop_units="false"
       vertical_pattern="false"
       fuse_tolerance="0"
       pattern-nodetypes="scsscss" />
    <linearGradient
       inkscape:collect="always"
       id="linearGradient4177">
      <stop
         style="stop-color:#230f38;stop-opacity:1"
         offset="0"
         id="stop4179" />
      <stop
         style="stop-color:#5c2594;stop-opacity:1"
         offset="1"
         id="stop4181" />
    </linearGradient>
    <clipPath
       clipPathUnits="userSpaceOnUse"
       id="clipPath4207">
      <use
         x="0"
         y="0"
         xlink:href="#path4171"
         id="use4209"
         width="1"
         height="1" />
    </clipPath>
    <clipPath
       clipPathUnits="userSpaceOnUse"
       id="clipPath3815">
      <use
         x="0"
         y="0"
         xlink:href="#path4487"
         id="use3817"
         width="1"
         height="1" />
    </clipPath>
    <clipPath
       clipPathUnits="userSpaceOnUse"
       id="clipPath3831">
      <path
         style="font-size:medium;font-style:normal;font-variant:normal;font-weight:normal;font-stretch:normal;text-indent:0;text-align:start;text-decoration:none;line-height:normal;letter-spacing:normal;word-spacing:normal;text-transform:none;direction:ltr;block-progression:tb;writing-mode:lr-tb;text-anchor:start;baseline-shift:baseline;color:#000000;fill:none;stroke:#ffff00;stroke-width:1;stroke-miterlimit:4;stroke-dasharray:none;marker:none;visibility:visible;display:inline;overflow:visible;enable-background:accumulate;font-family:Sans;-inkscape-font-specification:Sans"
         d="m 358.82108,426.22531 c -40.44342,87.01483 -43.70996,202.04037 17.21875,338.53125 l 386.875,-22.54175 -15,-316 z"
         id="path3833"
         inkscape:connector-curvature="0"
         sodipodi:nodetypes="cc" />
    </clipPath>
    <clipPath
       clipPathUnits="userSpaceOnUse"
       id="clipPath3835">
      <path
         style="font-size:medium;font-style:normal;font-variant:normal;font-weight:normal;font-stretch:normal;text-indent:0;text-align:start;text-decoration:none;line-height:normal;letter-spacing:normal;word-spacing:normal;text-transform:none;direction:ltr;block-progression:tb;writing-mode:lr-tb;text-anchor:start;baseline-shift:baseline;color:#000000;fill:none;stroke:#000000;stroke-width:1;stroke-miterlimit:4;stroke-dasharray:none;marker:none;visibility:visible;display:inline;overflow:visible;enable-background:accumulate;font-family:Sans;-inkscape-font-specification:Sans"
         d="m 522.32108,303.25656 c -11.18901,51.459 -12.20704,102.36548 -0.35817,149.44946 l -138.04808,20.50879 -172,-432.999992 139,-60.999999 z"
         id="path3837"
         inkscape:connector-curvature="0"
         sodipodi:nodetypes="cc" />
    </clipPath>
    <clipPath
       clipPathUnits="userSpaceOnUse"
       id="clipPath4892">
      <use
         x="0"
         y="0"
         xlink:href="#path4833"
         id="use4894"
         transform="translate(255.65946,46.011728)"
         width="1"
         height="1" />
    </clipPath>
    <linearGradient
       inkscape:collect="always"
       xlink:href="#linearGradient4177"
       id="linearGradient3071"
       gradientUnits="userSpaceOnUse"
       x1="377.79468"
       y1="500.99002"
       x2="381.85907"
       y2="635.35529" />
  </defs>
  <sodipodi:namedview
     pagecolor="#ffffff"
     bordercolor="#666666"
     borderopacity="1"
     objecttolerance="10"
     gridtolerance="10"
     guidetolerance="10"
     inkscape:pageopacity="0"
     inkscape:pageshadow="2"
     inkscape:window-width="1364"
     inkscape:window-height="698"
     id="namedview4"
     showgrid="true"
     fit-margin-top="0"
     fit-margin-left="0"
     fit-margin-right="0"
     fit-margin-bottom="0"
     inkscape:zoom="0.48545455"
     inkscape:cx="462.5"
     inkscape:cy="550"
     inkscape:window-x="0"
     inkscape:window-y="0"
     inkscape:window-maximized="1"
     inkscape:current-layer="layer2"
     showguides="true"
     inkscape:guide-bbox="true"
     inkscape:object-paths="false"
     inkscape:object-nodes="false">
    <inkscape:grid
       type="xygrid"
       id="grid4455"
       empspacing="5"
       visible="true"
       enabled="false"
       snapvisiblegridlinesonly="true"
       spacingx="16px"
       spacingy="16px"
       originx="6.0006912px"
       originy="-5.9993479px" />
  </sodipodi:namedview>
  <g
     inkscape:groupmode="layer"
     id="layer2"
     inkscape:label="Drawing"
     transform="translate(-153.91414,7.784534)"
     style="display:inline">
    <g
       id="g4879"
       transform="matrix(2.9034113,0,0,2.9034113,-1912.0647,-534.41177)">
      <path
         id="path4833"
         d="m 256.34054,81.988268 950.85716,0 0,512.000002 -950.85716,0 z"
         style="fill:#230f38;fill-opacity:1;stroke:none;display:inline"
         inkscape:connector-curvature="0" />
      <g
         id="g4869"
         transform="translate(-255.65946,-46.011728)"
         clip-path="url(#clipPath4892)">
        <path
           style="fill:none;stroke:#ffffff;stroke-width:8;stroke-miterlimit:4;stroke-opacity:1;stroke-dasharray:none"
           d="M 1347.0677,691.70896 C 1355.671,382.69492 999.57434,197.88891 391.70195,305.6636"
           id="path6585"
           inkscape:connector-curvature="0"
           sodipodi:nodetypes="cc" />
        <path
           style="fill:none;stroke:#5c2594;stroke-width:8;stroke-miterlimit:4;stroke-opacity:1;stroke-dasharray:none"
           d="M 396.81779,411.82592 C 951.44703,265.36735 1345.8184,495.61994 1326.8943,688.96911"
           id="path6592"
           inkscape:connector-curvature="0"
           sodipodi:nodetypes="cc" />
      </g>
    </g>
    <g
       id="g4279"
       transform="translate(-6.1797753,0)">
      <path
         style="fill:#6dc6fb;fill-opacity:1;stroke:none"
         d="m 581.56867,1238.6913 c -6.44918,66.9721 399.25624,138.2589 358.06108,9.4512 C 871.42563,1034.884 939.15649,716.56059 934.65528,543.45675 921.67382,44.225717 142.51439,221.98449 383.29811,761.43232 c -10.41514,4.40585 -17.69655,9.44039 -17.42477,17.78986 2.93192,90.07244 111.44719,167.3083 244.06567,153.10937 24.08411,81.23695 -16.3559,181.59445 -28.37034,306.35975 z"
         id="path3857"
         inkscape:connector-curvature="0"
         sodipodi:nodetypes="ssscscs" />
      <path
         sodipodi:nodetypes="csscc"
         transform="translate(159.91483,-3.837188)"
         inkscape:connector-curvature="0"
         id="path4267"
         d="m 497.30318,622.59808 c -4.94544,53.21498 13.38846,133.46457 -13.87438,222.33482 -2.20151,7.17638 3.08277,8.99784 5.37437,1.93934 31.11638,-95.84343 7.76777,-172.60943 13.42462,-224.22822 z"
         style="opacity:0.5;fill:#b0d8e7;fill-opacity:1;stroke:none" />
      <path
         transform="translate(159.91483,-3.837188)"
         inkscape:original-d="m 287.84143,720.47513 c -12.20925,42.5738 -82.7182,36.92326 -81.88292,62.58424 4.35449,133.77548 241.60633,239.23583 444.63964,59.18712"
         inkscape:path-effect="#path-effect3953"
         sodipodi:nodetypes="csc"
         inkscape:connector-curvature="0"
         id="path3681"
         d="m 243.20468,766.20339 c 0.53318,-0.19731 1.06707,-0.39882 1.60142,-0.60501 4.9479,-1.85497 9.91911,-4.02342 14.71822,-6.67856 4.7991,-2.65513 9.42664,-5.79585 13.61605,-9.54307 4.11182,-3.68832 7.71844,-8.06318 10.32774,-12.94876 0,0 0,0 0,0 2.68193,-5.0416 4.16081,-10.55212 4.37332,-15.95286 -2.75691,4.70613 -6.14742,8.59302 -9.82997,11.69919 -3.61825,3.07269 -7.57678,5.46873 -11.65708,7.57153 -4.20671,2.18558 -8.56759,3.99046 -13.09843,5.71417 -4.53083,1.72371 -9.23218,3.36398 -14.04573,5.16011 -0.50017,0.18076 -1.00369,0.36256 -1.5104,0.54593 -7.85072,2.84111 -16.4684,5.63826 -24.92626,10.29626 -3.44434,1.80959 -7.11468,4.45597 -10.32987,8.34666 -1.40634,1.76296 -2.57318,3.83887 -3.40351,6.18768 -0.81842,2.43649 -1.16745,4.91226 -1.07744,7.32296 0,10e-6 0,10e-6 0,2e-5 0.60428,17.91002 5.15794,35.49397 12.80087,51.51477 0,0 0,0 1e-5,10e-6 8.04429,16.84248 19.24312,31.92956 32.31389,44.90105 0,0 0,0 1e-5,1e-5 14.24314,14.14651 30.63476,25.91262 48.14673,35.35255 19.14104,10.32529 39.63293,17.95226 60.67183,23.02549 1e-5,0 1e-5,0 2e-5,10e-6 48.02457,11.5575 98.68695,9.88826 146.21467,-2.60661 17.34329,-4.56775 34.23461,-10.53117 50.5905,-17.69732 9.97629,-4.371 19.8253,-9.48876 29.33247,-15.17907 9.50718,-5.6903 18.67216,-11.95187 27.33648,-18.56232 8.66432,-6.61045 16.82813,-13.56834 24.39069,-20.62373 7.56256,-7.0554 14.52443,-14.20698 20.83724,-21.19799 -15.90217,10.38981 -33.63756,21.78136 -52.12998,32.40398 -9.24621,5.3113 -18.67351,10.43838 -28.10145,15.23223 -9.42795,4.79386 -18.85626,9.25365 -28.07844,13.29979 -15.63031,6.85762 -31.73723,12.53795 -48.2373,16.84805 -45.18985,11.82697 -93.24718,13.47065 -138.3995,2.52994 -10e-6,0 -10e-6,0 -10e-6,0 -19.79378,-4.7861 -39.00384,-11.92183 -56.82634,-21.55175 -16.29969,-8.81372 -31.46397,-19.66821 -44.46473,-32.6177 -1e-5,-10e-6 -1e-5,-2e-5 -2e-5,-2e-5 -11.90721,-11.87091 -22.05154,-25.46907 -29.1504,-40.43428 -1e-5,-10e-6 -1e-5,-2e-5 -1e-5,-2e-5 -6.73332,-14.17606 -10.77191,-29.64096 -11.25569,-45.15761 0,0 0,0 0,-10e-6 -0.008,-0.61165 0.0542,-1.18138 0.21816,-1.60485 0.12641,-0.43663 0.44426,-0.9518 0.85653,-1.50545 0.98809,-1.46362 3.0699,-2.75028 5.56428,-4.26751 6.5013,-3.722 14.34737,-6.1597 22.61143,-9.21789 z"
         style="fill:#1c92cd;fill-opacity:1;stroke:none" />
      <path
         sodipodi:nodetypes="csssc"
         inkscape:connector-curvature="0"
         id="path4485"
         d="m 609.99424,932.24009 c 24.02888,81.32841 -16.41113,181.68591 -28.42557,306.45121 -6.44918,66.9721 399.25624,138.2589 358.06108,9.4512 C 871.42563,1034.884 939.15649,716.56059 934.65528,543.45675 921.67382,44.225717 142.51439,221.98449 383.34456,761.48586"
         style="fill:none;stroke:#1c92cd;stroke-width:16;stroke-miterlimit:4;stroke-opacity:1;stroke-dasharray:none" />
      <path
         inkscape:connector-curvature="0"
         d="m 234.4059,857.80727 9.08147,11.28858 c 40.44849,-0.31065 72.05814,-16.12562 83.61018,-50.16904 -21.33453,28.04898 -50.82895,39.50178 -92.69165,38.88046 z m 5.44298,-67.18569 c 10.69545,7.90237 20.86176,4.38395 23.07083,-8.68099 6.75153,22.07619 -13.39691,29.72789 -23.07083,8.68099 z"
         style="fill:#1c92cd;fill-opacity:1;stroke:none"
         transform="translate(159.91483,-3.837188)"
         id="path3034" />
      <g
         clip-path="url(#clipPath3831)"
         id="g3819">
        <path
           sodipodi:nodetypes="cccc"
           inkscape:connector-curvature="0"
           id="path4487"
           d="M 508.11688,626.66914 C 409.12193,630.91178 330.62034,790.273 181.74963,684.34666 166.58193,622.48009 163.44628,564.36946 173.10874,505.50701 276.4972,416.888 396.6869,440.37163 508.11688,626.66914 z"
           style="fill:#ffffff;stroke:none"
           transform="translate(159.91483,-3.837188)" />
        <g
           id="g4211"
           clip-path="url(#clipPath3815)">
          <g
             clip-path="url(#clipPath4207)"
             id="g4201">
            <path
               transform="matrix(1.2699181,0.06739557,-0.06739557,1.2699181,87.898064,-179.47104)"
               d="m 432.93533,558.00519 c 0,56.33312 -41.34496,102.00014 -92.34655,102.00014 -51.0016,0 -92.34655,-45.66702 -92.34655,-102.00014 0,-56.33312 41.34495,-102.00014 92.34655,-102.00014 51.00159,0 92.34655,45.66702 92.34655,102.00014 z"
               sodipodi:ry="102.00014"
               sodipodi:rx="92.34655"
               sodipodi:cy="558.00519"
               sodipodi:cx="340.58878"
               id="path4171"
               style="fill:url(#linearGradient3071);fill-opacity:1;stroke:none"
               sodipodi:type="arc" />
            <path
               sodipodi:nodetypes="ccccc"
               inkscape:connector-curvature="0"
               id="path4175"
               d="m 551.68018,605.68656 57.673,36.97277 -45.16227,53.04587 -33.37168,-68.14013 z"
               style="fill:#8f4dd3;fill-opacity:1;fill-rule:evenodd;stroke:none" />
            <path
               style="fill:#62289e;fill-opacity:1;fill-rule:evenodd;stroke:none"
               d="m 392.88911,600.12133 71.86758,14.25404 -26.27535,52.47455 -51.65507,-50.80102 z"
               id="path4173"
               inkscape:connector-curvature="0"
               transform="translate(159.91483,-3.837188)"
               sodipodi:nodetypes="ccccc" />
            <path
               sodipodi:type="arc"
               style="fill:#000000;stroke:none"
               id="path4148"
               sodipodi:cx="340.58878"
               sodipodi:cy="558.00519"
               sodipodi:rx="92.34655"
               sodipodi:ry="101.51974"
               d="m 432.93533,558.00519 c 0,56.0678 -41.34496,101.51974 -92.34655,101.51974 -51.0016,0 -92.34655,-45.45194 -92.34655,-101.51974 0,-56.0678 41.34495,-101.51974 92.34655,-101.51974 51.00159,0 92.34655,45.45194 92.34655,101.51974 z"
               transform="matrix(1.0475748,0.03950371,-0.03950371,1.0475748,147.82377,-46.280276)" />
          </g>
          <path
             transform="matrix(1.0338854,0.1677702,-0.1677702,1.0338854,235.1229,-62.955747)"
             d="m 306.51731,554.34296 c 0,40.39881 -21.72874,73.14852 -48.53251,73.14852 -26.80376,0 -48.53251,-32.74971 -48.53251,-73.14852 0,-40.39882 21.72875,-73.14852 48.53251,-73.14852 26.80377,0 48.53251,32.7497 48.53251,73.14852 z"
             sodipodi:ry="73.148521"
             sodipodi:rx="48.532513"
             sodipodi:cy="554.34296"
             sodipodi:cx="257.9848"
             id="path3374"
             style="fill:#ffffff;stroke:none"
             sodipodi:type="arc" />
          <path
             sodipodi:type="arc"
             style="fill:#ffffff;stroke:none"
             id="path4144"
             sodipodi:cx="257.9848"
             sodipodi:cy="554.34296"
             sodipodi:rx="39.944557"
             sodipodi:ry="67.049294"
             d="m 297.92936,554.34296 c 0,37.0303 -17.88379,67.04929 -39.94456,67.04929 -22.06077,0 -39.94455,-30.01899 -39.94455,-67.04929 0,-37.03031 17.88378,-67.0493 39.94455,-67.0493 22.06077,0 39.94456,30.01899 39.94456,67.0493 z"
             transform="matrix(0.41140408,-0.04166458,0.04166458,0.41140408,343.94035,447.17112)" />
        </g>
        <path
           transform="translate(159.91483,-3.837188)"
           style="fill:#e0e0e0;fill-opacity:1;stroke:none"
           d="m 508.11688,626.66914 c -6.42777,0.27548 -12.76914,1.20492 -19.04898,2.67326 3.69485,-7.1246 5.72599,-14.96221 6.12102,-23.50102 4.32137,6.70244 8.63118,13.64406 12.92796,20.82776 z"
           id="path4263"
           inkscape:connector-curvature="0"
           sodipodi:nodetypes="cccc" />
        <path
           inkscape:connector-curvature="0"
           id="path3029"
           style="fill:#000000;stroke:none"
           d="m 645.25242,582.16012 7.12879,9.7177 c 66.24809,10.26348 67.38169,4.821 -7.12879,-9.7177 z m 11.14953,14.96226 6.70964,10.66977 c 67.00935,18.12467 68.47638,11.3949 -6.70964,-10.66977 z M 325.58694,513.23504 c 101.18118,-85.89914 220.72399,-76.91886 342.44477,109.59691 66.48316,34.74852 70.38845,28.27922 5.8458,-7.18648 C 555.63949,421.08002 428.05157,410.51671 330.21068,496.27848 z" />
      </g>
      <g
         id="g3839">
        <path
           transform="translate(159.91483,-3.837188)"
           sodipodi:nodetypes="cccccccccc"
           inkscape:connector-curvature="0"
           id="path3822"
           d="M 650.57838,342.22973 C 586.24552,375.09047 556.5518,446.86337 571.40448,554.26152 511.59967,505.13694 487.41765,448.88569 496.65953,358.36971 456.71115,413.1323 436.0784,479.9559 436.61978,570.02339 360.69376,496.32856 347.22068,395.32128 374.25764,291.71278 258.55307,348.60239 210.04271,446.47964 221.60867,586.24029 170.09434,522.48727 151.85581,444.08273 167.4469,354.2939 122.09603,413.85193 93.158879,500.78077 92.021715,595.6231 -70.231902,255.74901 286.34253,-57.070123 715.26236,214.59985 z"
           style="fill:#961370;fill-opacity:1;stroke:none" />
        <path
           transform="translate(159.91483,-3.837188)"
           sodipodi:nodetypes="cccccc"
           inkscape:connector-curvature="0"
           id="path3820"
           d="M 221.60867,586.24029 C 170.09434,522.48727 151.85581,444.08273 167.4469,354.2939 122.09603,413.85193 93.158879,500.78077 92.021715,595.6231 -70.231902,255.74901 286.34253,-57.070123 715.26236,214.59985 l -24.369,48.0832 C 366.05842,86.661756 120.1591,336.50077 221.60867,586.24029 z"
           style="fill:#f3a4d9;fill-opacity:1;stroke:none" />
        <path
           style="fill:none;stroke:#d91e9b;stroke-width:16;stroke-linecap:butt;stroke-linejoin:miter;stroke-miterlimit:20;stroke-opacity:1;stroke-dasharray:none"
           d="M 650.57838,342.22973 C 586.24552,375.09047 556.5518,446.86337 571.40448,554.26152 511.59967,505.13694 487.41765,448.88569 496.65953,358.36971 456.71115,413.1323 436.0784,479.9559 436.61978,570.02339 360.69376,496.32856 347.22068,395.32128 374.25764,291.71278 258.55307,348.60239 210.04271,446.47964 221.60867,586.24029 170.09434,522.48727 151.85581,444.08273 167.4469,354.2939 122.09603,413.85193 93.158879,500.78077 92.021715,595.6231 -70.231902,255.74901 286.34253,-57.070123 715.26236,214.59985 z"
           id="path3048"
           inkscape:connector-curvature="0"
           sodipodi:nodetypes="cccccccccc"
           transform="translate(159.91483,-3.837188)" />
      </g>
      <g
         clip-path="url(#clipPath3835)"
         id="g3936">
        <path
           transform="translate(159.91483,-3.837188)"
           sodipodi:nodetypes="csscc"
           inkscape:connector-curvature="0"
           id="path3934"
           d="m 324,420.20362 c -28.35552,18.921 -54.0257,16.943 -63,-5.15162 C 74.848397,-43.251258 42.924188,-23.561718 362.77256,334.36247 c 8.28503,9.27131 10.99625,22.78509 5.30325,36.76534 z"
           style="fill:#6dc6fb;fill-opacity:1;stroke:none" />
        <path
           style="fill:#1c92cd;fill-opacity:1;stroke:none"
           d="m 253.49878,417.84271 c 0.0298,0.0733 0.0596,0.14655 0.0894,0.2198 2.46652,6.22472 6.76389,11.89689 12.58296,15.91077 5.75013,3.78089 12.27243,5.49913 18.54447,5.45858 7.30631,-0.0633 14.07186,-2.04021 20.02997,-4.9873 0,0 0,0 0,0 7.35912,-3.61574 13.71959,-8.58965 19.25445,-14.24094 -7.44306,2.90158 -14.76517,5.11542 -21.87097,6.21447 0,0 -10e-6,0 -10e-6,10e-6 -5.81187,0.87891 -11.40946,1.10327 -16.373,0.074 -4.1206,-0.86011 -7.90041,-2.4458 -10.62149,-4.8165 -2.88658,-2.30648 -5.09322,-5.7762 -6.72267,-9.63409 -0.0298,-0.0734 -0.0596,-0.14681 -0.0894,-0.22022 -20.32665,-50.04029 -41.07743,-99.90193 -62.14824,-149.62162 -15.0784,-35.57967 -30.35822,-71.03933 -45.41839,-106.55809 -5.29716,-12.49358 -10.55751,-24.97323 -15.65037,-37.49176 0,-10e-6 0,-2e-5 -1e-5,-2e-5 -3.68062,-9.05107 -7.27869,-18.05088 -10.51071,-27.098499 0,-5e-6 0,-1e-5 0,-1.6e-5 -1.15235,-3.227732 -2.24524,-6.417444 -3.20668,-9.588673 -0.71003,-2.361002 -1.34434,-4.599116 -1.76533,-6.736789 -0.24796,-1.518514 -0.48608,-2.564202 -0.39646,-3.114169 0.0558,-0.146182 -0.0196,0.04771 -0.15569,0.617064 -0.0559,0.528415 -0.62505,1.305364 -1.67201,2.418881 -1.2406,0.953431 -2.37023,1.460918 -3.46502,1.518544 -3e-5,2e-6 -6e-5,3e-6 -1e-4,5e-6 -1.08477,0.0029 -1.65218,-0.0088 -1.72852,-0.124952 -0.0394,-0.141746 0.45809,0.322477 1.60297,1.004116 1e-5,6e-6 2e-5,1.1e-5 3e-5,1.7e-5 1.51644,1.056718 3.0587,2.395425 4.71802,3.876451 2.25971,2.033355 4.48141,4.21141 6.72028,6.468861 6.38599,6.443067 12.5561,13.228109 18.74499,20.119249 1e-5,1e-5 2e-5,2e-5 3e-5,3e-5 8.65408,9.64016 17.19117,19.42627 25.7243,29.25632 24.44128,28.15694 48.70838,56.51084 73.17149,84.74144 26.8179,30.94804 53.79443,61.76402 80.97175,92.40703 7.63953,8.61372 15.70282,16.87837 24.17841,24.67939 4.03808,3.31713 6.9914,8.19465 8.75503,13.86631 1.76362,5.67167 2.33798,12.13468 1.28356,18.66743 3.78322,-5.33384 6.14972,-12.25532 6.26646,-19.53027 0.11674,-7.27495 -2.01985,-14.89516 -6.82476,-21.47526 -6.80277,-9.28286 -14.09099,-18.2579 -21.68837,-26.8241 -27.13152,-30.59137 -54.06758,-61.3612 -80.85034,-92.2686 -24.42031,-28.18112 -48.69038,-56.53843 -73.18038,-84.75169 -8.55016,-9.85039 -17.14605,-19.70311 -25.90069,-29.456128 0,-4e-6 0,-9e-6 -1e-5,-1.3e-5 -6.2334,-6.9472 -12.58332,-13.922905 -19.28441,-20.691241 -2.35094,-2.375954 -4.79151,-4.762776 -7.37691,-7.095163 -1e-5,-8e-6 -2e-5,-1.7e-5 -3e-5,-2.5e-5 -1.83574,-1.668239 -3.87111,-3.400982 -6.19731,-5.058558 -1e-5,-4e-6 -1e-5,-8e-6 -2e-5,-1.2e-5 -1.28497,-1.03472 -3.31578,-2.247788 -6.20279,-3.250644 -1e-5,-5e-6 -2e-5,-1e-5 -4e-5,-1.4e-5 -0.96971,-0.386293 -2.47444,-0.576638 -4.48792,-0.481255 -3e-5,2e-6 -6e-5,4e-6 -9e-5,6e-6 -1.82828,0.130647 -3.67839,0.913166 -5.47421,2.351473 -1.65451,1.644109 -2.62269,3.15594 -2.93999,4.447458 -0.49098,1.605437 -0.69798,2.899794 -0.69149,3.847684 -0.063,2.838072 0.2737,5.171967 0.69227,6.97879 0.59345,2.923452 1.35383,5.663007 2.14354,8.241115 10e-6,1.2e-5 10e-6,2.4e-5 10e-6,3.5e-5 1.07232,3.526504 2.24633,6.961761 3.45001,10.325306 3.36792,9.416546 7.04799,18.631086 10.75674,27.742666 1e-5,10e-6 1e-5,2e-5 2e-5,3e-5 5.14354,12.64192 10.43382,25.19366 15.7402,37.70802 15.08452,35.57601 30.36396,71.03478 45.41724,106.55539 21.04378,49.65607 41.76389,99.4438 62.05624,149.3999 z"
           id="path3835"
           inkscape:connector-curvature="0"
           sodipodi:nodetypes="cssc"
           inkscape:path-effect="#path-effect3917"
           inkscape:original-d="m 324,420.20362 c -28.35552,18.921 -54.0257,16.943 -63,-5.15162 C 74.848397,-43.251258 42.924188,-23.561718 362.77256,334.36247 c 8.28503,9.27131 10.99625,22.78509 5.30325,36.76534"
           transform="translate(159.91483,-3.837188)" />
        <path
           id="path3931"
           style="fill:none;stroke:#1c92cd;stroke-width:8;stroke-miterlimit:4;stroke-opacity:1;stroke-dasharray:none"
           d="m 343.68773,125.13409 c 0.26133,27.29551 -2.68404,54.19535 -8.96037,80.4789 m 71.37484,-7.90681 c -1.17798,40.98735 -9.43998,80.68647 -25.15423,118.3326 m 85.63782,-49.71403 c -4.22896,51.77905 -19.3869,100.63391 -46.06355,144.97865"
           inkscape:connector-curvature="0"
           sodipodi:nodetypes="cccccc" />
      </g>
      <g
         id="g3850">
        <path
           transform="translate(159.91483,-3.837188)"
           sodipodi:nodetypes="cccccccc"
           inkscape:connector-curvature="0"
           id="path3848"
           d="M 738.58579,605.80936 C 751.94686,777.32839 674.7881,925.99996 503,1028.052 c 65.43315,9.2464 131.29347,-8.2935 187,-53 -51.14863,107.2752 -38.63103,237.8075 23,324 -4.18388,-98.8678 14.60305,-182.2137 58,-247 -24.2969,154.2085 24.41965,254.2098 149,292 C 725.59209,984.73537 959.6194,641.41434 793.58579,333.88044 z"
           style="fill:#961370;fill-opacity:1;stroke:none" />
        <path
           transform="translate(159.91483,-3.837188)"
           sodipodi:nodetypes="cccccc"
           inkscape:connector-curvature="0"
           id="path3846"
           d="m 713,1299.052 c -4.18388,-98.8678 14.60305,-182.2137 58,-247 -24.2969,154.2085 24.41965,254.2098 149,292 C 725.59209,984.73537 959.6194,641.41434 793.58579,333.88044 L 769.93057,450.8357 C 883.72001,804.12571 618.89869,1025.5123 713,1299.052 z"
           style="fill:#f3a4d9;fill-opacity:1;stroke:none" />
        <path
           style="fill:none;stroke:#d91e9b;stroke-width:16;stroke-linecap:butt;stroke-linejoin:miter;stroke-miterlimit:20;stroke-opacity:1;stroke-dasharray:none"
           d="M 738.58579,605.80936 C 751.94686,777.32839 674.7881,925.99996 503,1028.052 c 65.43315,9.2464 131.29347,-8.2935 187,-53 -51.14863,107.2752 -38.63103,237.8075 23,324 -4.18388,-98.8678 14.60305,-182.2137 58,-247 -24.2969,154.2085 24.41965,254.2098 149,292 C 725.59209,984.73537 959.6194,641.41434 793.58579,333.88044 z"
           id="path3844"
           inkscape:connector-curvature="0"
           sodipodi:nodetypes="cccccccc"
           transform="translate(159.91483,-3.837188)" />
      </g>
      <g
         id="g4480">
        <path
           sodipodi:nodetypes="cscc"
           transform="translate(159.91483,-3.837188)"
           inkscape:connector-curvature="0"
           id="path4478"
           d="M 609.36843,411.64965 C 632.07562,273.80429 711.69813,167.59587 740.06831,167.54788 761.143,167.51223 929.62047,434.13715 728.38113,667.7456 z"
           style="fill:#6dc6fb;fill-opacity:1;stroke:none" />
        <path
           style="fill:#1c92cd;fill-opacity:1;stroke:none"
           d="m 626.07955,317.64098 c -5.55328,15.14231 -9.69943,30.5725 -12.47926,46.25153 -2.77983,15.67904 -4.19456,31.60922 -4.23186,47.75714 5.34364,-15.52234 10.59004,-30.28954 15.80299,-44.87552 5.21296,-14.58598 10.3946,-28.98987 15.78039,-43.67967 0.60363,-1.64641 1.21569,-3.28976 1.8361,-4.92996 10.00174,-26.42312 22.10251,-52.02959 36.59702,-76.163 0,0 0,-1e-5 10e-6,-1e-5 5.96752,-9.93504 12.32168,-19.59183 19.19787,-28.80835 0,0 0,-1e-5 10e-6,-1e-5 5.63175,-7.54002 11.53674,-14.76 17.96022,-21.34102 4.83385,-4.9117 9.69373,-9.43591 14.98227,-12.79609 0,0 0,0 10e-6,0 1.91375,-1.20734 3.71897,-2.23273 5.45749,-2.8678 1.36483,-0.44873 2.42206,-0.79319 3.0989,-0.72035 -0.7628,-0.0493 -1.20775,-0.0969 -1.34588,-0.18832 -0.19207,-0.0804 -0.222,-0.0758 -0.0849,-0.0191 0,0 0,0 1e-5,0 0.41433,0.19012 0.999,0.68431 1.8157,1.34581 2.47827,2.08412 4.7898,4.81429 7.23373,7.80773 3.43906,4.26672 6.63191,8.84045 9.72112,13.58139 3.92044,6.02437 7.58071,12.25926 11.05709,18.63312 8.8047,16.144 16.32805,33.02886 22.79438,50.34302 7.84782,21.02565 14.0652,42.66132 18.56008,64.64527 5.06935,24.80298 7.9323,50.0483 8.319,75.31566 0,1e-5 0,2e-5 0,3e-5 0.42418,27.68493 -2.13664,55.41326 -7.83349,82.46746 -6.27965,29.84685 -16.40307,58.89553 -29.89724,86.27904 -1.76288,3.57944 -3.58356,7.13063 -5.45993,10.65291 -14.63166,27.46617 -30.58085,54.41514 -46.58023,81.41374 12.00609,-9.72437 23.36523,-21.03168 33.59849,-33.51786 10.23325,-12.48617 19.33566,-26.14882 26.95727,-40.44909 1.9548,-3.66775 3.85303,-7.36711 5.69263,-11.09742 14.07171,-28.55002 24.62585,-58.84532 31.1894,-90.01889 5.94349,-28.25116 8.61689,-57.14823 8.17123,-85.97368 0,-1e-5 0,-3e-5 0,-4e-5 -0.40704,-26.29905 -3.3764,-52.52081 -8.63821,-78.24497 -4.66073,-22.79389 -11.10444,-45.21824 -19.23907,-67.0113 -6.68965,-17.9321 -14.52379,-35.49787 -23.72672,-52.38573 -3.63538,-6.67141 -7.50551,-13.25808 -11.68669,-19.68842 -3.27507,-5.04293 -6.78026,-10.04763 -10.65816,-14.87432 -10e-6,-1e-5 -10e-6,-2e-5 -2e-5,-3e-5 -2.62104,-3.30123 -5.61,-6.73021 -9.26602,-9.90416 -10e-6,-1e-5 -2e-5,-1e-5 -3e-5,-2e-5 -1.15825,-1.03134 -2.63962,-2.14586 -4.50584,-3.20681 -2e-5,-1e-5 -3e-5,-2e-5 -5e-5,-3e-5 -0.6942,-0.39934 -1.58619,-0.80081 -2.68082,-1.17164 -0.84582,-0.31912 -2.02737,-0.5253 -3.53361,-0.5733 -3.35905,0.0797 -6.27941,0.76714 -8.68829,1.74938 -10e-6,1e-5 -3e-5,1e-5 -4e-5,2e-5 -3.14569,1.21699 -5.93683,2.73973 -8.41525,4.35985 -10e-6,1e-5 -2e-5,2e-5 -3e-5,2e-5 -6.78308,4.41091 -12.56632,9.68968 -17.75238,15.05978 -7.04914,7.24373 -13.40535,14.99224 -19.31387,22.92663 0,1e-5 -10e-6,2e-5 -2e-5,3e-5 -7.24283,9.71574 -13.89118,19.81121 -20.08044,30.12437 -10e-6,1e-5 -10e-6,2e-5 -2e-5,3e-5 -15.02697,25.03717 -27.53934,51.49312 -37.83183,78.71147 -0.6397,1.69052 -1.27078,3.38438 -1.89319,5.08151 z"
           id="path4451"
           inkscape:connector-curvature="0"
           transform="translate(159.91483,-3.837188)"
           sodipodi:nodetypes="csc"
           inkscape:path-effect="#path-effect4470"
           inkscape:original-d="M 609.36843,411.64965 C 632.07562,273.80429 711.69813,167.59587 740.06831,167.54788 761.143,167.51223 929.62047,434.13715 728.38113,667.7456" />
        <path
           style="fill:#1c92cd;fill-opacity:1;stroke:none"
           d="m 898.26499,295.18595 c 10.59533,68.2937 3.02402,149.86207 -17.55957,235.81948 35.88476,-81.47114 41.94406,-173.72907 17.55957,-235.81948 z"
           id="path4453"
           inkscape:connector-curvature="0"
           sodipodi:nodetypes="ccc" />
      </g>
    </g>
  </g>
</svg>
