<svg xmlns="http://www.w3.org/2000/svg" viewBox="-22 -20 39 55">
  <path d="M12.3 2.8C16 7.3 12.1 15.1 0 0c-7.3-18.1-1-21.4 2.8-13.6C10.1-18.4 13.5-14.5 0 0c-15.2 8.3-19.6 3.3-13.9-1.6C-17.5-7.8-14-10.8 0 0c16.8-6.7 18-1.4 12.3 2.8z" fill="#2bac4c"/>
  <path d="M-20 26.9C-8.2 19-3 11.6 0 0c16.8-6.7 18-1.4 12.3 2.8C16 7.3 12.1 15.1 0 0c-7.3-18.1-1-21.4 2.8-13.6C10.1-18.4 13.5-14.5 0 0c-15.2 8.3-19.6 3.3-13.9-1.6C-17.5-7.8-14-10.8 0 0c2.1 11.9.6 22.5-6.5 33.1m-2.4-15.7c3.1.7 5.9 2.6 7.7 5.3" fill="none" stroke="#fff"/>
</svg>
