<?xml version="1.0" encoding="UTF-8" standalone="no"?>
<!-- Created with Inkscape (http://www.inkscape.org/) -->
<svg id="svg5769" xmlns:inkscape="http://www.inkscape.org/namespaces/inkscape" xmlns:rdf="http://www.w3.org/1999/02/22-rdf-syntax-ns#" xmlns="http://www.w3.org/2000/svg" sodipodi:docname="for_parcly_2000px.svg" inkscape:export-ydpi="850.75507" inkscape:export-filename="C:\Users\Liam\Desktop\ponies\Mane6\Twilight Sparkle\underused.png" height="2094.7" xmlns:dc="http://purl.org/dc/elements/1.1/" width="2155.2" inkscape:export-xdpi="850.75507" version="1.1" xmlns:cc="http://creativecommons.org/ns#" xmlns:xlink="http://www.w3.org/1999/xlink" inkscape:version="0.48.5 r10040" xmlns:sodipodi="http://sodipodi.sourceforge.net/DTD/sodipodi-0.dtd">
<sodipodi:namedview id="namedview5771" fit-margin-left="10" inkscape:zoom="0.35067563" borderopacity="1" inkscape:current-layer="g8270" inkscape:cx="2030.0067" guidetolerance="10" inkscape:window-maximized="1" showgrid="false" fit-margin-right="10" showguides="true" bordercolor="#666666" inkscape:window-x="0" inkscape:guide-bbox="true" objecttolerance="10" inkscape:object-nodes="false" inkscape:window-y="27" fit-margin-bottom="10" inkscape:window-width="1920" inkscape:pageopacity="0" inkscape:pageshadow="2" pagecolor="#ffffff" gridtolerance="10" inkscape:cy="870.72386" inkscape:window-height="1014" fit-margin-top="10"/>
<metadata id="metadata5775">
<rdf:RDF>
<cc:Work rdf:about="">
<dc:format>image/svg+xml</dc:format>
<dc:type rdf:resource="http://purl.org/dc/dcmitype/StillImage"/>
<dc:title/>
</cc:Work>
</rdf:RDF>
</metadata>
<defs id="defs5773">
<linearGradient id="linearGradient7462" inkscape:collect="always">
<stop id="stop7464" stop-color="#210045" offset="0"/>
<stop id="stop7466" stop-color="#64128d" offset="1"/>
</linearGradient>
<clipPath id="clipPath4562-1" clipPathUnits="userSpaceOnUse">
<path id="path4564-4" style="block-progression:tb;color:#000000;text-transform:none;text-indent:0" d="m39.469 903.16c2.5359-13.502 12.415-33.821 31.344-60.125l4.714-44.59 208.68-138.11 119.14 34.14-1.1 29.83c-22.678 50.476-42.052 82.514-54.719 93.281l107.42 39.29 55.4-221.59-327.07-75.12-283.05 191.23 18.215 153.28z" sodipodi:nodetypes="ccccccc" inkscape:connector-curvature="0" stroke="#ff0" fill="none"/>
</clipPath>
<clipPath id="clipPath4566-8" clipPathUnits="userSpaceOnUse">
<path id="path4568-1" style="block-progression:tb;color:#000000;text-transform:none;text-indent:0" d="m396.71 758.99c0.0463-10.786 0.88897-21.614 2.0563-32.452l-328.14 120.25c-8.5435 7.4925-18.33 13.585-28.805 18.046l-80.886 71.721 229.17 62.226 220.07-120.66z" sodipodi:nodetypes="cccc" inkscape:connector-curvature="0" stroke="#000" fill="none"/>
</clipPath>
<clipPath id="clipPath6014-3" clipPathUnits="userSpaceOnUse">
<path id="path6016-1" d="m351.89 710c-5.4625-4.2411-10.22-9.5642-14.768-15.195l-110.97 6.7c-9.8538 7.5689-20.08 14.696-30.482 21.607l-21.428 96.327 169.71-51.265z" sodipodi:nodetypes="cccc" inkscape:connector-curvature="0" stroke="#999" fill="none"/>
</clipPath>
<clipPath id="clipPath6018-2" clipPathUnits="userSpaceOnUse">
<path id="path6020-4" style="block-progression:tb;color:#000000;text-transform:none;text-indent:0" d="m204.41 765.41c-1.3781-20.753 4.8989-41.734 12.156-62.125l37.586-35.512 74.953 8.4853 17.804 14.089c-4.3972 14.735-9.143 29.28-16.188 42.5l72.939 10.931 4.5-86-176-31.5-185 59 27 125.5z" sodipodi:nodetypes="cccccc" inkscape:connector-curvature="0" stroke="#000" fill="none"/>
</clipPath>
<clipPath id="clipPath5212-2" clipPathUnits="userSpaceOnUse">
<path id="path5214-2" d="m-17.967 339.3c5.6754-8.9479 14.083-9.947 22.131-0.50471 30.475-46.14-42.829-41.273-22.131 0.50471z" sodipodi:nodetypes="ccc" inkscape:connector-curvature="0" stroke="#a66ebe" stroke-width="1px" fill="none"/>
</clipPath>
<clipPath id="clipPath5169-1" clipPathUnits="userSpaceOnUse">
<use id="use5171-3" xlink:href="#ellipse5103" height="2080.7537" width="2134.5825" y="0" x="0"/>
</clipPath>
<clipPath id="clipPath5294-1" clipPathUnits="userSpaceOnUse">
<use id="use5296-9" xlink:href="#ellipse5246" height="2080.7537" width="2134.5825" y="0" x="0"/>
</clipPath>
<clipPath id="clipPath7788-1" clipPathUnits="userSpaceOnUse">
<path id="path7790-5" sodipodi:nodetypes="ccsccc" inkscape:connector-curvature="0" fill="#622e86" d="m792.12 540.5-28.875 96.25s20.75-4.875 38.75-4.875 47.942 13.608 53.422 32.523l15.24-104.95c0.43-2.12-12.64-70.58-78.53-18.95z"/>
</clipPath>
<radialGradient id="radialGradient5848" gradientUnits="userSpaceOnUse" cy="711.39" cx="696.26" gradientTransform="matrix(.62781 .12211 -.10162 .52241 98.657 -245.43)" r="56.964" inkscape:collect="always">
<stop id="stop5844" stop-color="#e6458b" stop-opacity=".2" offset="0"/>
<stop id="stop5846" stop-color="#e6458b" stop-opacity="0" offset="1"/>
</radialGradient>
<clipPath id="clipPath4794-9" clipPathUnits="userSpaceOnUse">
<path id="path4796-1" d="m707.58 273.29c356.52-417.03 178.68-613.56-316.23-137.04 235.27-144.12 393.04-22.83 316.23 137.04z" sodipodi:nodetypes="ccc" inkscape:connector-curvature="0" stroke="#000" stroke-width="1.7222" fill="none"/>
</clipPath>
<linearGradient id="linearGradient3286" x1="10.877" xlink:href="#linearGradient7462" gradientUnits="userSpaceOnUse" x2="11.721" y1="322.18" y2="331.32" inkscape:collect="always"/>
<linearGradient id="linearGradient3288" x1="108.59" xlink:href="#linearGradient7462" gradientUnits="userSpaceOnUse" x2="108.92" y1="299.12" y2="305.47" inkscape:collect="always"/>
</defs>
<g id="g8270" transform="matrix(2.9628 0 0 2.9628 7.6853 1.0771)">
<path id="path7917" opacity=".25" inkscape:connector-curvature="0" d="m305.17 617.93a108.89 24.726 0 0 0 -108.88 24.726 108.89 24.726 0 0 0 75.609 23.528 188.09 28.041 0 0 0 -10.246 9.0418 188.09 28.041 0 0 0 188.09 28.042 188.09 28.041 0 0 0 188.09 -28.042 188.09 28.041 0 0 0 -188.09 -28.04 188.09 28.041 0 0 0 -38.109 0.6135 108.89 24.726 0 0 0 2.4277 -5.1425 108.89 24.726 0 0 0 -108.89 -24.726z"/>
<path id="path3054" style="block-progression:tb;color:#000000;text-transform:none;text-indent:0" d="m335.08 170.1c-2.7566-4.4162-6.1309-8.4613-10.316-12.045-37.586-32.185-108.59-0.19213-159.6-36.984-62.828-45.314-60.201 22.961-16.465 49.312-58.903 0.40389-40.096 34.677 34.09 65.159-58.576 13.164-28.647 44.797 46.451 30.878-41.237 27.593 1.9996 31.18 41.455 23.164-26.687 19.697-10.086 27.562 42.305 22.96-37.183 21.137-18.096 31.498 34.032 23.004l36.837-3.7265c-54.67-41.15-22.15-119.02-48.79-161.71z" inkscape:transform-center-x="115.5319" inkscape:transform-center-y="-105.82639" inkscape:connector-curvature="0" stroke="#1c92cd" stroke-miterlimit="20" stroke-width="4.8489" fill="#11a2f9"/>
<path id="path4390" d="m283.83 467.38c-5.0898 40.734 0.0555 155.13 5.5814 166.6 4.7056 9.7677 69.379 10.37 62.695-1.0846-6.7521-11.571-21.377-101.51-13.563-164.35" fill-rule="evenodd" sodipodi:nodetypes="cssc" inkscape:connector-curvature="0" stroke-dashoffset="7.8" stroke="#1c92cd" stroke-width="5" fill="#11a2f9"/>
<path id="path4440" inkscape:original-d="M -251.44638,-512.33529" inkscape:connector-curvature="0" fill="#11a2f9" d="m318.32 491.82c11.421-3.8707 50.849-12.932 36.001-80.544l-97.04 40.328z"/>
<path id="path4434" d="m346.47 478.88c-4.7468 5.0359-10.55 8.1801-15.765 10.027-7.1067 2.515-12.386 2.9188-12.386 2.9188s4.9035-2.0778 11.075-5.7426c4.5467-2.6924 9.2597-6.1679 13.432-10.626 9.3823-9.9876 16.357-27.521 9.6696-60.71l-74.848 31.106c-9.704 4.0328-20.367 5.7571-20.367 5.7571s8.7446-6.3414 18.449-10.374l77.632-32.263 2.7601-1.147 0.64112 2.9194c7.9269 36.096 0.57962 56.562-10.292 68.135z" fill-rule="evenodd" sodipodi:nodetypes="cc" inkscape:connector-curvature="0" inkscape:original-d="m 318.32357,491.82361 c 11.42069,-3.8707 50.84937,-12.93188 36.0011,-80.54432 l -97.03986,40.32825" fill="#1c92cd"/>
<path id="path4388" d="m223.57 479.98c-5.5434 40.734 0.0604 155.13 6.0789 166.6 5.125 9.7677 75.564 10.37 68.284-1.0846-7.354-11.571-23.282-101.51-14.772-164.35" fill-rule="evenodd" sodipodi:nodetypes="cssc" inkscape:connector-curvature="0" stroke="#1c92cd" stroke-width="5" fill="#6dc6fb"/>
<path id="path4416" inkscape:original-d="M -251.44638,-512.33529" inkscape:connector-curvature="0" fill="#6dc6fb" d="m259.46 497.03c34.352-8.8518 55.419-39.905 50.855-76.493l-16.583 22.809c15.684-2.4952 87.688-29.586 125.47-94.817l-65.6-112.28s2.4952 117.27-68.083 140.09c-70.578 22.813-48.478 94.104-47.765 114.42z"/>
<path id="path4408" d="m293.73 443.35c15.684-2.4952 87.688-29.586 125.47-94.817" inkscape:connector-curvature="0" stroke="#1c92cd" stroke-width="5" fill="none"/>
<path id="path9836" d="m417.01 296.63c15.06-1.0259 19.701 6.0234 20.985 31.807 2.5886 52.007 16.909 141.72 27.981 186.92 8.3787 34.204-60.043 31.6-66.392-5.568-5.0902-29.799-6.2289-107.87-4.426-162.91 0.89891-27.441 6.0179-49.168 21.852-50.247z" fill-rule="evenodd" sodipodi:nodetypes="ssssss" inkscape:connector-curvature="0" stroke-dashoffset="7.8" stroke="#1c92cd" stroke-width="5" fill="#11a2f9"/>
<path id="path8994-1" d="m484.48 364.36c-10.085 18.87-28.677 28.307-100.28 24.734-49.566-2.4732-90.774-26.18-98.215-39.521-5.1454-9.2254 7.6239-6.4234 35.573-1.1215-44.26-28.455-28.397-33.039 23.048-16.696-19.797-23.886-17.61-31.632 19.223-15.178 62.703 28.01 137.02 17.144 120.65 47.783z" fill-rule="evenodd" sodipodi:nodetypes="sssccss" inkscape:connector-curvature="0" stroke="#9964ac" stroke-miterlimit="30" stroke-width="5" fill="#ae80c4"/>
<path id="path4365" d="m358.75 399.2c89.472-45.17 86.638-113.22 81.895-144.93l-68.848-33.715-22.813 99.807" fill-rule="evenodd" sodipodi:nodetypes="cc" inkscape:connector-curvature="0" stroke="#1c92cd" stroke-width="5" fill="#6dc6fb"/>
<path id="path4432" inkscape:connector-curvature="0" fill-rule="evenodd" fill="#6dc6fb" d="m310.48 432.83-0.26734 15.417-25.665 1.6932 7.5747-16.575z"/>
<path id="path4406" d="m297.09 476.52c-7.4067 8.7952-16.648 14.144-24.554 17.131-7.6797 2.9015-13.077 3.3751-13.077 3.3751s5.1339-1.7283 12.017-5.6411c7.208-4.0977 14.952-9.9279 21.787-18.082 3.2959-3.9225 6.1073-8.2393 8.3825-12.882 4.6284-9.4126 6.9169-18.69 7.9418-26.808 0.9787-7.7522 0.72775-13.08 0.72775-13.08s1.5114 5.1157 1.7725 13.194c0.26861 8.3106-0.99188 18.74-5.9522 28.894-2.4526 5.0048-5.4869 9.6647-9.0443 13.898z" fill-rule="evenodd" sodipodi:nodetypes="cc" inkscape:connector-curvature="0" inkscape:original-d="m 259.45636,497.03021 c 34.35166,-8.8518 55.41885,-39.90545 50.85524,-76.49304" fill="#1c92cd"/>
<path id="path4412" d="m237.76 490.75c-0.71-20.31-22.81-91.6 47.77-114.42 70.58-22.81 68.08-140.08 68.08-140.08" inkscape:connector-curvature="0" stroke="#1c92cd" stroke-width="5" fill="none"/>
<g id="g3018" transform="matrix(.083751 .024650 -.035979 .091994 242.65 373.21)">
<path id="path3014" inkscape:connector-curvature="0" fill="#5a318e" d="m428.86 620.36c55.426 96 166.28 192 332.55 160l83.138-112c-221.7 96-332.55 0-387.98-64zm193.99-48c55.426-96 83.138-240-27.713-368l-138.56-16c193.99 144 166.28 288 138.56 368zm-138.56-144c-110.85 0-249.42 48-304.84 208l55.426 128c27.713-240 166.28-288 249.42-304z"/>
<path id="path3016" inkscape:connector-curvature="0" fill="#54a2e1" d="m401.15 508.36c-55.426 96-83.138 240 27.713 368l138.56 16c-193.99-144-166.28-288-138.56-368zm138.56 144c110.85 0 249.42-48 304.84-208l-55.426-128c-27.713 240-166.28 288-249.42 304zm55.426-192c-55.426-96-166.28-192-332.55-160l-83.138 112c221.7-96 332.55-0.00001 387.98 64z"/>
<path id="path4120" stroke-linejoin="round" sodipodi:r2="55.425625" inkscape:rounded="0" sodipodi:type="star" sodipodi:sides="6" sodipodi:r1="178.16846" inkscape:flatsided="true" sodipodi:cy="512" transform="matrix(.86603 .5 -.5 .86603 324.6 -159.04)" sodipodi:arg2="1.4146197" sodipodi:arg1="0.8910208" inkscape:randomized="0" d="m624 650.56-176 27.713l-112-138.56 64-166.28 176-27.713 112 138.57z" stroke="#576ab7" sodipodi:cx="512" stroke-width="16" fill="none"/>
</g>
<g id="g4532">
<path id="path6212" sodipodi:nodetypes="cscccccscc" inkscape:connector-curvature="0" fill="#f3a4d9" d="m212.05 382.6c-22.88-72.6-132.73-81.07-147.66 20.71-4.4934 30.626 9.4564 70.178 0.46768 99.745 14.222-17.335 20.002-37.481 22.134-64.643 12.493 93.048-24.759 134.96-75.812 91.113 7.5999 25.204 23.671 44.012 48.6 45.776-15.057 5.665-32.713 3.2781-50.88-10.713 52.991 92.852 188.12 73.994 152.43-103-17.893-88.731 20.499-89.668 36.319-72.018z"/>
<path id="path6052" sodipodi:nodetypes="sccscccs" inkscape:connector-curvature="0" fill="#961370" d="m118.01 436.51c-19.762-92.152 68.425-101.18 86.969-50.488l-7.333 3.5487c-15.82-17.65-54.21-16.71-36.32 72.02 35.69 176.99-99.438 195.85-152.43 102.99 18.168 14 35.824 16.38 50.881 10.72-24.929-1.77-41.001-20.57-48.6-45.78 30.25 49.39 142.27 72.22 106.83-93.01z"/>
<path id="path5896" d="m212.05 382.6c-22.88-72.6-132.73-81.07-147.66 20.71-4.4934 30.626 9.4564 70.178 0.46768 99.745 14.222-17.335 20.002-37.481 22.134-64.643 12.493 93.048-24.759 134.96-75.812 91.113 7.5999 25.204 23.671 44.012 48.6 45.776-15.057 5.665-32.713 3.2781-50.88-10.713 52.991 92.852 188.12 73.994 152.43-103-17.893-88.731 20.499-89.668 36.319-72.018z" sodipodi:nodetypes="cscccccscc" inkscape:connector-curvature="0" stroke="#d91e9b" stroke-miterlimit="20" stroke-width="4.8613" fill="none"/>
</g>
<g id="g6031" inkscape:transform-center-x="129.36271" inkscape:transform-center-y="-101.81446" transform="matrix(.34457 .50051 -.50051 .34457 508.2 -130.18)">
<path id="path6022" style="block-progression:tb;color:#000000;text-transform:none;text-indent:0" d="m273.91 434.78c-8.5881 0.12157-17.18 1.432-25.812 4.2812-77.527 25.588-92.976 153.14-188.47 193.75-117.61 50.015-18.98 104.59 55.562 65.344-49.716 83.503 14.726 86.213 121.09 7.5-31.423 93.936 38.788 78.688 83.25-39.219 3.7503 81.775 45.727 23.796 68.094-38.75 5.0242 54.492 30.302 37.77 68.531-40.125-1.9029 70.541 29.02 52.439 61.531-28.406l26.188-55.188c-104.78 42.05-186.95-70.35-269.96-69.18z" inkscape:connector-curvature="0" transform="translate(-63.342 166.33)" fill="#6dc6fb"/>
<path id="path7624" style="block-progression:tb;color:#000000;text-transform:none;text-indent:0" d="m411.68 800.43c0.6287-0.27943 1.2436-0.59894 1.8356-0.95306 2.0379-1.1871 4.0239-2.7199 5.8642-4.471 2.1009-1.9917 4.1744-4.2877 6.1632-6.8294s3.8927-5.3283 5.7192-8.2404c4.4066-6.9841 8.4903-14.953 12.073-23.174 4.5386-10.406 8.3108-21.266 11.011-31.274-4.8906 9.0161-10.193 19.127-15.758 28.897-4.3566 7.6448-8.8478 15.06-13.4 21.506-1.9075 2.6866-3.7779 5.203-5.6418 7.4436-1.8638 2.2406-3.7217 4.2052-5.557 5.8596-1.5868 1.4237-3.0588 2.566-4.4512 3.3446-0.40652 0.21811-0.79024 0.41373-1.1514 0.58028-0.73849 0.34058-1.4308 0.58011-2.0661 0.64019-0.72391 0.0838-1.4506 0.0249-1.964-0.2319-0.63454-0.22322-1.2929-0.86577-1.9658-1.6519-0.89155-1.0836-1.5739-2.5297-2.2182-4.1391-0.83242-2.1408-1.4042-4.4715-1.8752-6.9034-1.3548-7.0324-1.6072-14.384-1.5867-21.842 0.0463-10.786 0.88897-21.614 2.0563-32.452 0.52534-4.4544 0.32516-9.2456-1.2359-13.91-0.00001-0.00002-0.00001-0.00004-0.00002-0.00007-1.3771-3.9579-3.8573-7.477-7.1534-10.101-3.5879-2.7824-7.6849-4.4684-11.739-5.4007-5.0428-1.1902-10.123-1.5055-15.041-1.3934-13.29 0.28604-26.203 3.1301-38.628 6.6008-16.296 4.5246-32.129 10.404-47.622 16.879-18.064 7.5457-35.728 15.978-53.06 24.988-18.604 9.67-36.844 20.028-54.707 30.99-17.907 10.988-35.45 22.591-52.505 34.891-15.99 11.53-31.58 23.679-46.447 36.71-0.000007 0.00001-0.000014 0.00001-0.000021 0.00002-8.5435 7.4925-18.33 13.585-28.805 18.046-0.000018 0.00001-0.000035 0.00001-0.000053 0.00002-9.7148 4.1369-20.026 6.8942-30.514 8.2027-9.4797 1.1772-19.091 1.2039-28.468-0.18789-7.9179-1.1939-15.651-3.2817-22.47-6.9324-5.2862-2.9094-10.132-6.551-12.579-11.34-1.0828-2.0283-1.7663-4.2635-1.8973-6.4807-0.17336-2.3811 0.29855-4.89 1.1794-7.2918 2.462-6.9659 8.4121-12.687 14.822-17.877 0.000015-0.00002 0.00003-0.00003 0.000045-0.00004 10.644-8.4247 23.124-14.609 35.965-20.096 11.853-5.05 23.002-11.65 33.202-19.45 9.8751-7.5542 18.851-16.17 27.054-25.39 16.292-18.325 29.602-38.828 42.526-59.217 6.258-9.8602 12.435-19.713 18.91-29.306 6.1251-9.0696 12.495-17.91 19.52-26.121 6.5689-7.6702 13.692-14.804 21.643-20.75 0.00001-0.00001 0.00003-0.00002 0.00004-0.00003 7.7111-5.7697 16.239-10.429 25.295-13.408 10.495-3.4738 21.752-4.688 32.846-3.8453 11.293 0.84631 22.476 3.7522 33.347 7.6501 11.71 4.2081 23.058 9.5999 34.288 15.36 11.862 6.0891 23.567 12.618 35.425 18.999 12.044 6.4834 24.249 12.827 36.873 18.42 7.2244 3.2027 14.598 6.1536 22.13 8.7011 5.5267 1.8694 11.079 3.4761 16.637 4.7731h0.00001c13.923 3.2491 27.873 4.4087 40.975 3.2926 7.9014-0.67896 15.445-2.1806 22.485-4.2951 7.0394-2.1146 13.575-4.8416 19.507-7.9752-6.4463 1.7812-13.203 3.3028-20.259 4.3999-7.0553 1.0972-14.41 1.7703-22.01 1.8105-12.383 0.0757-25.453-1.536-38.846-4.8792h-0.00001c-5.2588-1.3127-10.567-2.8882-15.923-4.7028-7.2546-2.4577-14.404-5.3215-21.455-8.4398-12.321-5.4522-24.342-11.706-36.321-18.15-11.787-6.343-23.538-12.896-35.562-19.071-11.374-5.8452-23.036-11.374-35.233-15.77-11.33-4.0929-23.213-7.1486-35.447-8.0995-12.086-0.92807-24.382 0.41273-35.963 4.2252-9.9707 3.3004-19.262 8.3584-27.585 14.603-8.5476 6.4176-16.098 13.953-22.926 21.953-7.3057 8.552-13.859 17.633-20.071 26.845-6.5742 9.7431-12.792 19.659-19.034 29.495-12.917 20.331-25.968 40.49-41.746 58.184-0.000013 0.00002-0.000025 0.00003-0.000038 0.00005-7.9317 8.9022-16.535 17.173-25.937 24.354-9.699 7.4113-20.272 13.672-31.471 18.432-13.156 5.5683-26.244 12.112-37.787 21.175-0.000008 0.00001-0.000016 0.00001-0.000024 0.00002-7.0349 5.4073-13.832 12.289-17.364 21.359-1.2498 3.2988-1.885 6.9118-1.6693 10.604 0.23213 3.4524 1.2277 6.7792 2.8337 9.7555 3.7156 6.683 9.6589 11.417 15.873 14.618 7.8947 4.1671 16.489 6.5379 25.054 7.7816 10.169 1.4989 20.501 1.4804 30.629 0.21248 11.219-1.3986 22.246-4.3485 32.658-8.7805 0.000018 0 0.000037-0.00001 0.000056-0.00002 11.241-4.7843 21.74-11.325 30.945-19.391 0.000016-0.00001 0.000031-0.00003 0.000046-0.00004 14.633-12.829 30.025-24.82 45.853-36.237 16.879-12.173 34.257-23.667 52.01-34.561 17.709-10.867 35.784-21.132 54.213-30.71 17.173-8.925 34.634-17.263 52.454-24.705 0.00002-0.00001 0.00003-0.00002 0.00005-0.00002 15.3-6.3861 30.817-12.156 46.677-16.552 12.168-3.3511 24.42-6.0986 36.646-6.3113 4.498-0.072 8.9046 0.17036 13.02 1.1747 3.2629 0.82102 6.326 2.0045 8.637 3.8929 2.077 1.6304 3.693 3.9324 4.561 6.4499 0.00001 0.00002 0.00001 0.00003 0.00002 0.00005 1.1282 3.0918 1.1966 6.7231 0.84071 10.43-1.1902 10.997-2.0483 22.099-2.1024 33.274v0.00006c-0.0486 7.677 0.25091 15.54 1.7279 23.376 0 0.00002 0.00001 0.00004 0.00001 0.00006 0.51165 2.7278 1.214 5.5169 2.2672 8.2785 0.773 2.0756 1.8532 4.2193 3.4117 6.2318 1.207 1.5895 2.885 3.0191 5.0246 4.0132 2.0508 0.86833 4.2095 1.1274 6.2601 0.83264 1.5612-0.23964 2.9908-0.68471 4.278-1.2568z" clip-path="url(#clipPath4562-1)" sodipodi:nodetypes="cssssc" inkscape:connector-curvature="0" inkscape:path-effect="#path-effect4527-7" inkscape:original-d="m 454.34928,725.48597 c -36.23982,90.11661 -70.53514,102.30194 -59.55664,0.62132 8.18052,-75.76635 -210.07349,25.98875 -321.524788,123.6899 C -0.78359429,914.71265 -133.0813,854.17076 -3.7020979,799.15145 91.790382,758.54268 107.22928,630.9911 184.75585,605.40353 c 92.083,-30.39192 180.14447,111.27062 295.76638,64.87797" fill="#1c92cd"/>
<path id="path4510" style="block-progression:tb;color:#000000;text-transform:none;text-indent:0" d="m405.88 725.95c-45.52 101.32-76.022 128.55-81.599 68.054-22.367 62.546-64.336 120.53-68.086 38.76-44.46 117.91-114.68 133.16-83.25 39.23-115.69 85.6-181.8 74.91-105.37-31.3" clip-path="url(#clipPath4566-8)" sodipodi:nodetypes="ccccc" inkscape:connector-curvature="0" stroke="#1c92cd" stroke-miterlimit="20" stroke-width="8" fill="none"/>
<path id="path4233" d="m212.8 701.95c-7.3001 20.511-13.839 41.992-12.396 63.716 0.40179 6.0507 1.5139 12.23 4.6704 17.408 2.2762 3.7336 5.9234 6.7161 10.195 7.6513 4.8322 1.0579 9.9074-0.19054 14.429-2.1971 6.4853-2.8782 12.178-7.3034 17.372-12.138 16.338-15.208 28.24-34.596 38.409-54.465 4.2618 9.5504 8.885 19.262 16.355 26.581l0.00001 0.00002c2.3119 2.265 4.9923 4.2676 8.095 5.1884 2.6384 0.78306 5.5339 0.59807 8.0785-0.45039 0.00002-0.00001 0.00002-0.00001 0.00003 0.00001 3.1816-1.3109 5.8209-3.6812 8.0911-6.2672-0.00001-0.00002-0.00001-0.00002 0.00001-0.00003 3.2426-3.6938 5.8211-7.9244 8.1326-12.262 7.2635-13.631 12.089-28.421 16.506-43.221" clip-path="url(#clipPath6014-3)" sodipodi:nodetypes="ccc" inkscape:connector-curvature="0" stroke="#1c92cd" stroke-miterlimit="20" stroke-width="8" fill="none"/>
<path id="path5953" d="m198.12 660.31c3.1219-0.85147 9.383-2.5139 17.675-3.8302 6.231-0.99103 13.614-1.7565 21.575-1.9324 7.9616-0.17595 16.496 0.24367 24.959 1.3161 10.349 1.3085 20.575 3.5993 29.687 6.1959 9.1115 2.5966 17.109 5.468 23.201 7.605-5.5449-3.4587-13.175-7.4617-22.136-11.031-8.9606-3.5693-19.251-6.6706-29.837-8.6347-8.7044-1.6128-17.577-2.4446-25.904-2.5612-8.327-0.11652-16.101 0.47567-22.683 1.3765-8.7056 1.1939-15.305 2.8686-18.641 3.7784-8.1878 2.2323-16.198 5.1039-23.942 8.5648-12.478 5.5769-24.268 12.657-35.084 20.992-9.6835 7.4585-18.622 15.932-26.468 25.362l-0.00001 0.00001c-6.5189 7.8182-12.365 16.373-16.752 25.772-1.7662 3.7829-3.2872 7.7565-4.3619 11.921-0.000001 0.00001-0.000002 0.00001-0.000003 0.00001-0.89279 3.4145-1.4584 7.0522-1.3818 10.825v0.00002c0.04009 3.0781 0.66635 6.3313 2.1755 9.4226 1.4467 2.8569 3.692 5.2452 6.4753 6.8646 1.9254 1.0758 3.913 1.6727 5.8022 1.9223 2.272 0.31874 4.4695 0.30501 6.5382 0.11043 5.372-0.49675 10.438-1.8994 15.202-3.5302 6.1136-2.0692 12.001-4.5921 17.73-7.291 0.00001-0.00001 0.00001-0.00001 0.00002-0.00001 6.583-3.0976 13.012-6.4608 19.331-9.9662 13.298-7.3752 26.201-15.395 38.823-23.78 10.503-6.9748 20.879-14.209 30.929-21.926l0.00002-0.00002c15.811-12.119 34.804-20.316 54.48-22.512 0.00001 0 0.00001-0.00001 0.00002-0.00001 8.8511-0.96653 17.814-0.68902 26.041 1.8283 7.555 2.3016 14.543 6.6218 19.34 12.652 4.7061 5.882 9.9002 11.636 16.079 16.487 2.0103 1.6078 4.1938 3.1104 6.5406 4.3972 3.5016 1.92 7.1767 3.2099 10.967 3.7354 3.4036 0.39215 6.6732 0.0493 9.7155-0.83676 3.0423-0.88609 5.8618-2.3202 8.3547-4.1944 3.17-2.4065 5.9038-5.3011 8.323-8.6596 2.4192-3.3586 4.512-7.1926 6.4557-11.427-3.0666 3.3454-6.046 6.3398-9.0054 8.8628s-5.8998 4.5885-8.9844 6.141c-2.1958 1.1062-4.4905 1.9075-6.8026 2.347-2.3121 0.43945-4.6456 0.51934-6.9151 0.0798-2.7028-0.42542-5.4207-1.4893-8.2129-3.0635-1.8814-1.0607-3.7218-2.3264-5.5114-3.6866-5.4625-4.2411-10.22-9.5642-14.768-15.195-6.0098-7.4138-14.305-12.616-23.264-15.298-9.5812-2.8572-19.613-3.2318-29.247-2.1193-21.271 2.4082-41.59 11.14-58.458 24.118-9.8538 7.5689-20.08 14.696-30.482 21.607-12.489 8.2941-25.211 16.203-38.277 23.447-6.2075 3.4414-12.478 6.7236-18.857 9.7234-5.5667 2.6149-11.172 5.0244-16.886 6.9509-4.5142 1.5038-8.9605 2.7765-13.344 3.1403-1.6643 0.13472-3.2418 0.16618-4.6779-0.0572-1.1686-0.1975-2.2086-0.46523-2.9595-0.93462l-0.00001-0.00001c-1.4041-0.79823-2.6017-2.0778-3.332-3.5382-0.88669-1.6601-1.2282-3.7794-1.3213-6.0209 0-0.00001 0-0.00001-0.000001-0.00002-0.08751-2.7869 0.3953-5.6952 1.1333-8.6363 0.000001-0.00001 0.000003-0.00002 0.000005-0.00002 0.90937-3.5681 2.2651-7.0796 3.8663-10.535 3.9902-8.6066 9.4691-16.581 15.649-24.03l0.00001-0.00001c7.4369-8.9449 15.953-17.011 25.201-24.14 0.00001-0.00001 0.00001-0.00001 0.00002-0.00001 10.326-7.9555 21.576-14.713 33.464-20.025 7.3731-3.2939 14.997-6.0276 22.783-8.151z" clip-path="url(#clipPath6018-2)" sodipodi:nodetypes="csssc" inkscape:path-effect="#path-effect5970-8" inkscape:connector-curvature="0" inkscape:original-d="M 315.21158,669.66403 C 170.00331,599.26738 63.839412,748.74049 98.671592,768.85086 c 19.814618,11.43998 98.650258,-40.15385 129.920188,-64.1687 32.22246,-24.74638 83.22313,-34.97161 105.41478,-7.36622 20.49146,25.49042 41.17079,35.95363 63.31779,2.00825" fill="#1c92cd"/>
</g>
<path id="path7854" sodipodi:nodetypes="cscccccsc" inkscape:connector-curvature="0" fill="#273771" d="m354.65 368.76c-36.837-16.769-81.455 4.8954-100.85 52.854-20.925 51.738-13.771 133.31 27.746 208.39 0 0-126.81-39.346-138.38-45.407-11.02-27.55-20.214-61.165-21.811-83.322-4.0852 32.375-0.69217 70.558 1.5118 78.823-15.333-7.1906-28.833-14.207-28.833-14.207-3.5394-127.03 74.994-284.01 163.45-284.01 41.892 0 78.857 9.738 114.81 73.098"/>
<path id="path6335" sodipodi:nodetypes="ccscccc" inkscape:connector-curvature="0" fill="#622e86" d="m361.81 360.49-3.306 3.1682c-9.7067-9.3225-39.4-24.41-58.956-23.417-161.21 8.1801-54.675 267.09-24.827 286.5l-38.178-11.356c-78.154-153.72-86.71-306.27 32.143-292.79 38.407-0.0548 74.292 4.235 93.125 37.892z"/>
<path id="path6333" sodipodi:nodetypes="cssccscc" inkscape:connector-curvature="0" fill="#e6458b" d="m366.48 358.44c-29.141-32.656-62.393-50.723-98.961-51.818-82.802-2.4809-104.08 83.853-102.08 129.35 2.4348 55.438 8.3843 110.65 28.442 165.97l55.714 19.091c-73.734-143.99-84.042-294.71 24.608-294.71 32.31 0 62.327 10.181 86.506 37.743z"/>
<path id="path6326" d="m354.65 368.76c-36.837-16.769-81.455 4.8954-100.85 52.854-20.925 51.738-13.771 133.31 27.746 208.39 0 0-126.81-39.346-138.38-45.407-11.02-27.55-20.214-61.165-21.811-83.322-4.0852 32.375 0.16138 70.119 2.3654 78.384-15.333-7.1906-29.687-13.746-29.687-13.746-3.5394-127.03 74.994-284.03 163.45-284.03 41.892 0 78.857 9.738 114.81 73.098" sodipodi:nodetypes="cscccccsc" inkscape:connector-curvature="0" stroke="#132042" stroke-miterlimit="30" stroke-width="5" fill="none"/>
<path id="path6330" d="m332.58 363.9c-39.74-7.013-95.065 3.8961-105.19 70.519-3.689 24.262 2.8826 55.822 16.302 86.793m127.07-167.05c-30.902-35.167-69.011-54.388-105.19-55.325-45.364-1.1744-129.04 35.822-132.86 155.84-3.8138 120 32.727 137.92 32.727 137.92" inkscape:connector-curvature="0" stroke="#132042" stroke-width="2.5" fill="none"/>
<path id="path6892" d="m545.58 435.76c-1.8504 63.927 9.7013 125.84 37.413 225.74 4.1372 14.914-60.868 14.307-63.988 2.6607-16.328-60.935-25.412-175.35-14.965-196.66" sodipodi:nodetypes="cssc" inkscape:connector-curvature="0" stroke="#9964ac" stroke-width="5.5789" fill="#ae80c4"/>
<path id="path6942" d="m420.4 483.67c-17.659 43.263-9.6833 117.61 2.5173 163.68 5.5972 21.136-53.348 12.744-61.821 7.2908-9.2571-5.958-27.166-131.78 17.936-183.3" sodipodi:nodetypes="cssc" inkscape:connector-curvature="0" stroke="#9964ac" stroke-width="5.5789" fill="#ae80c4"/>
<path id="path4419" sodipodi:nodetypes="ccccccsscccssssccc" inkscape:connector-curvature="0" fill="#d4a4e8" d="m693.01 208.53c-17.89-108.53-123.19-186.14-183.7-78.14l-49.82 15.022 37.487 135.85c-2.1558 16.88 3.5188 35.479-9.8169 60.675l-1.4619 28.977c-43.636-1.1688-75.195-43.636-121.56-14.805-46.364 28.831-24.401 103.95-23.037 113.3 1.3636 9.3506 3.8928 23.721-3.75 39.461l43.005-13.153 8.4054-17.649c37.085 22.691 112.06 7.1235 143.39-21.525 21.949-20.073 22.758-34.314 27.674-80.441 1.2807-12.018 4.3133-24.103 7.3349-36.188 12.524-50.091 91.762-38.733 120.77-82.01 27.453-40.962 10.377-50.481 5.5166-49.469-4.4526 0.92702-8.989 1.573-19.606-0.45101z"/>
<g id="0" inkscape:path-effect="#path-effect7910-7" transform="matrix(-2.8014 -.41064 -.41064 2.8014 377.17 407.15)">
<path id="path7873" d="m7.9227-10.008c0.38686 0.36944 0.76518 0.74232 1.1348 1.1184-0.4143-0.1502-0.8298-0.2987-1.2464-0.4453 0.1549 0.7187 0.2803 1.4451 0.3766 2.1764-0.3102-0.7409-0.6518-1.4756-1.0247-2.2017-0.35957 0.13241-0.71905 0.26638-1.0785 0.40196 0.17755-0.40128 0.34741-0.79991 0.50942-1.1955-0.56345-0.45197-1.1398-0.89806-1.7287-1.3379 0.58086 0.23462 1.1584 0.47289 1.7325 0.71491-0.16313-0.70563-0.3555-1.4021-0.57756-2.0867 0.47834 0.66178 0.92791 1.3355 1.3486 2.0189 0.34728-0.05036 0.69511-0.09958 1.0435-0.14766-0.15774 0.32598-0.32099 0.65424-0.48963 0.98458zm-2.5736 6.2997c-0.078126 0.031771-0.15626 0.063625-0.2344 0.095562-0.063178-0.23675-0.12938-0.47333-0.19862-0.70967 0.20123-0.63175 0.38401-1.2613 0.54803-1.8873-0.00324 0.8297-0.04181 1.6646-0.11502 2.5014zm-3.2665 0.050336c0.00789 0.1011 0.015261 0.20223 0.022116 0.30339-0.3461-0.1499-0.6939-0.2988-1.0433-0.4463-0.42906-0.6953-0.88542-1.3878-1.3689-2.0756 0.82973 0.7314 1.627 1.4717 2.3901 2.2188zm-0.8614 3.326c-0.1307 0.20069-0.26304 0.40177-0.39696 0.60316-0.67748-0.06376-1.3558-0.12337-2.0349-0.17828 0.81112-0.14674 1.6217-0.28884 2.4319-0.42488zm1.1534 3.2482c0.017794-0.018449 0.035575-0.036895 0.053344-0.055338 0.051303 0.53185 0.091469 1.0651 0.1213 1.5992-0.3388 0.8956-0.707 1.7953-1.1042 2.6961 0.3816-1.4197 0.6937-2.8351 0.9296-4.24zm2.6113 0.6344c0.037-0.1644 0.073-0.3286 0.108-0.4926 0.2365 0.1272 0.4723 0.2542 0.7076 0.3807 0.2965 1.3747 0.5285 2.7451 0.7241 4.0972-0.4739-1.3047-0.9748-2.6419-1.5397-3.9853zm2.0253-2.6617c-0.2127-0.34436-0.4305-0.68944-0.6537-1.0346 0.1337-0.17662 0.2664-0.35249 0.3981-0.52762 0.9042 0.34466 1.8004 0.69347 2.6893 1.041-0.811 0.16421-1.6219 0.33863-2.4337 0.52122zm2.8718 7.894c-0.2698 1.0858-0.5597 2.1741-0.8635 3.2651 0.0347-1.067 0.0718-2.1512 0.095-3.248-0.5052 0.2821-1.0144 0.5671-1.5277 0.8535 0.4525-0.6485 0.8914-1.2899 1.318-1.9228-0.3483-0.6363-0.6968-1.2904-1.0535-1.9562 0.4943 0.3243 0.988 0.6406 1.4837 0.9454 0.2466-1.0849 0.4664-2.1665 0.6538-3.2448 0.0992 1.0438 0.1692 2.078 0.2242 3.098 0.438-0.1587 0.874-0.3157 1.31-0.4703-0.374 0.5346-0.755 1.0776-1.146 1.6286 0.205 0.5061 0.409 1.0012 0.619 1.4827-0.375-0.136-0.745-0.2801-1.113-0.4312zm-12.818-19.412c-0.33846-0.12105-0.6779-0.24105-1.0183-0.36001 0.21715 0.67216 0.40795 1.3536 0.57271 2.0425-0.32645-0.68348-0.67981-1.3598-1.0605-2.0269-0.24904 0.17019-0.49876 0.34194-0.7492 0.5153 0.07337-0.39499 0.13892-0.78633 0.19666-1.1738-0.50182-0.3842-1.0139-0.76421-1.5364-1.1397 0.48472 0.18689 0.96669 0.3759 1.4459 0.56706-0.23794-0.62901-0.50002-1.2484-0.78652-1.8566 0.47547 0.58695 0.92658 1.1845 1.3537 1.7912 0.27651-0.08754 0.55328-0.17403 0.83029-0.25949-0.09893 0.30204-0.20244 0.60683-0.31055 0.91426 0.36121 0.32606 0.71524 0.65488 1.0622 0.98623zm-0.3214 14.061c-0.3724-0.1753-0.7466-0.3486-1.1227-0.5192-0.1425 0.9082-0.3217 1.8152-0.5366 2.7178-0.0209-0.9058-0.0785-1.8076-0.174-2.7042-0.43093 0.20232-0.86327 0.40237-1.2969 0.59912 0.34325-0.49006 0.67635-0.98686 0.99889-1.488-0.41705-0.53081-0.84932-1.0522-1.2962-1.5632 0.5331 0.22968 1.0624 0.46667 1.5875 0.71 0.10633-0.84818 0.17967-1.6969 0.21898-2.5431 0.23023 0.81258 0.4273 1.633 0.59145 2.4599 0.40122-0.12063 0.80199-0.24123 1.2023-0.36144-0.30365 0.45674-0.61589 0.91239-0.93657 1.3653 0.26421 0.43808 0.51872 0.88056 0.76375 1.3269zm3.0152 9.3559c-0.24698-0.18761-0.4928-0.37731-0.73789-0.56858-0.32622 0.94373-0.68049 1.8854-1.0608 2.8229 0.20652-0.96288 0.39099-1.9271 0.54862-2.8913-0.39442 0.21213-0.79084 0.42004-1.1891 0.62275 0.41228-0.51842 0.81368-1.043 1.2042-1.5718-0.18373-0.54451-0.37368-1.0885-0.57211-1.6306 0.32307 0.26832 0.64511 0.53639 0.96695 0.80312 0.29695-0.90486 0.56588-1.8114 0.8052-2.7176-0.02993 0.88886-0.087212 1.78-0.16824 2.6719 0.33478-0.10766 0.66918-0.21753 1.0031-0.32927-0.33043 0.4465-0.66836 0.8915-1.0138 1.3345 0.075997 0.48501 0.14683 0.96999 0.21391 1.4543z" sodipodi:nodetypes="cccccccccccccccccccccccccccccccccccccccccccccccccccccccccccccccccccccccccccccccccccccccccccccc" inkscape:connector-curvature="0" inkscape:original-d="m 6.45,-9.65 0.85,1.1 -1.15,-0.4 -0.1,2.2 -0.55,-2.2 -1.2,0.45 0.85,-1.25 -1.3,-1.35 1.5,0.7 0.2,-2.2 0.6,2.1 1.1,-0.2 z m -3.75,6.4443808 -0.25,0.1 -0.15,-0.7 L 3.1,-5.7 z m -3.4,0.08146 0,0.3 -1.05,-0.45 L -2.9,-5.35 z M -1.7,0 -2.1,0.55 -4.25,0.35 z m 1.45,2.9758475 0.05,-0.05 0.35,1.45 L -0.5,6.8 z m 2.85,0.5870762 0.05,-0.45 0.8,0.35 L 4.95,7.25 z M 4.466106,1.1 l -0.75,-0.95 0.4,-0.5 L 7,0.55 z M 8.75,8.65 8.6,11.8 7.95,8.6 6.55,9.3 7.5,7.55 6,5.65 7.75,6.6 7.9,3.5 8.65,6.5 9.95,6.1 9.05,7.65 10,9.2 z m -13.1,-18.85 -0.9,-0.4 -0.1,2.1 -0.4,-2.1 -0.95,0.5 0.65,-1.2 -1.05,-1.25 1.2,0.65 0.1,-2 0.5,1.95 0.95,-0.25 -0.7,0.95 z M -6.15,3.4 -7.4,2.9 -7.55,5.45 -8.15,2.9 -9.45,3.45 -8.55,2.05 -10,0.5 l 1.7,0.75 0.2,-2.4 0.65,2.35 1.25,-0.3 -0.9,1.25 z m 5.5,8.45 -0.95,-0.5 -0.05,2.55 -0.5,-2.6 -1,0.6 0.7,-1.45 -1.1,-1.45 1.25,0.7 0.1,-2.45 0.55,2.4 0.95,-0.3 -0.65,1.2 z" fill="#fff"/>
<path id="path7875" d="m6.8353-0.6712c-0.1317 0.17498-0.2645 0.3507-0.3982 0.52713 0.2231 0.34518 0.4407 0.69019 0.6534 1.0344 0.7891 1.3581 1.5004 2.7057 2.1776 4.0044-1.1546-0.45-2.3089-0.9285-3.4718-1.4156-0.2351-0.1264-0.4708-0.2534-0.7072-0.3806-0.0352 0.1641-0.0713 0.3283-0.1084 0.4927-0.574 3.3238-1.5326 6.7068-2.7689 10.093 0.3178-3.033 0.4914-6.1021 0.325-9.1419-0.0288-0.5343-0.0678-1.0676-0.118-1.5996-0.0178 0.0185-0.0356 0.0369-0.0535 0.0554-1.6302 0.7799-3.2835 1.5729-4.9584 2.3293 1.2514-1.6665 2.3907-3.3729 3.4173-5.056 0.13396-0.20139 0.2663-0.40247 0.397-0.60316 0.0166-0.03641 0.0331-0.0728 0.0496-0.10919-0.6433-0.79235-1.3194-1.5742-2.029-2.3402-1.1319-1.1674-2.345-2.3234-3.636-3.4596 1.8534 0.73828 3.6712 1.508 5.4443 2.3127 0.35018 0.14749 0.69881 0.29634 1.0458 0.4466-0.00729-0.10114-0.015095-0.20224-0.023418-0.30332-0.040034-3.0162-0.53361-5.9999-1.507-8.7936 1.8815 2.5915 3.3275 5.3559 4.3421 8.1612 0.070028 0.23628 0.13703 0.47281 0.201 0.70953 0.07807-0.031933 0.15613-0.063783 0.23419-0.095551 1.4373-0.3357 2.8791-0.6447 4.3283-0.93-0.454 0.6758-0.9273 1.3549-1.4193 2.0362-0.4583 0.6644-0.9296 1.3398-1.4165 2.026z" sodipodi:nodetypes="ccccccccccccccccccccccccc" inkscape:connector-curvature="0" inkscape:original-d="M 4.2,-0.35 3.8,0.15 4.55,1.1 7.35,4.85 3.45,3.5 2.65,3.15 2.6,3.6 2.15,12.7 0.15,4.45 -0.2,3 -0.25,3.05 -5.15,5.15 -2.1,0.55 -1.7,0 l 0.05,-0.1 -5.4,-5.75 5.3,2.45 1.05,0.45 0,-0.3 0.65,-8.95 2.35,8.3 0.15,0.7 0.25,-0.1 4.55,-1.1 z" fill="#ec448c"/>
</g>
<path id="path6917" d="m388.94 476.92c-22.28 71.717-1.1178 155.46 7.6363 189.43 4.1633 16.158-74.202 17.321-76.941 0.972-13.092-78.168 2.3851-154.77 5.794-165.28 3.2369-9.9798 15.86-12.327 15.86-12.327" sodipodi:nodetypes="csssc" inkscape:connector-curvature="0" stroke="#a66ebe" stroke-width="5.5789" fill="#d4a4e8"/>
<path id="path6920" d="m485.76 368.4-0.13478 5.032c-10.998-0.31824-21.645-3.2169-31.702-7.0212-9.8641-3.7146-19.267-8.2013-28.869-11.79-9.2888-3.4488-18.883-6.0904-28.49-6.0073-5.0576 0.0265-10.116 0.78265-14.97 2.221-5.6518 1.6685-11.054 4.2626-16.131 7.4136-5.2236 3.249-9.9018 7.3815-13.715 12.19-3.6101 4.5422-6.4693 9.7018-8.6243 15.149-4.2884 10.803-5.8038 22.663-5.8895 34.495v0.00001c-0.0631 10.454 1.0518 20.932 2.8466 31.309v0.00001c0.64334 3.7139 1.3841 7.4213 2.174 11.129v0.00001c0.27348 1.2832 0.55585 2.5761 0.82966 3.8823 0.17324 0.81839 0.36159 1.6984 0.50255 2.6498 0.84801 5.7591 1.6526 11.68 1.5281 17.755-0.0203 0.90983-0.0621 1.8194-0.12527 2.7276-0.16142 2.3204-0.64108 4.7813-1.3414 7.1011-0.70031 2.3199-1.6188 4.4957-2.5526 6.3238-0.9339 1.8281-1.8783 3.3108-2.5836 4.3309-0.70533 1.0201-1.1658 1.5861-1.1658 1.5861s0.17991-0.70974 0.44596-1.9022c0.26605-1.1924 0.60828-2.8679 0.91497-4.8025s0.57405-4.1274 0.77513-6.361c0.20109-2.2336 0.33668-4.5069 0.48456-6.6262 0.0579-0.82955 0.0964-1.6605 0.11551-2.4918 0.13889-5.5382-0.64856-11.179-1.4767-16.914-0.10358-0.72548-0.27382-1.5034-0.44819-2.3436-0.26794-1.2786-0.54913-2.5659-0.82614-3.8657v-0.00001c-0.79926-3.7494-1.5522-7.52-2.2107-11.318v-0.00001c-1.8392-10.594-2.9787-21.368-2.9205-32.197 0.0517-12.251 1.6844-24.718 6.2412-36.315 2.3103-5.8612 5.4158-11.448 9.3631-16.429 4.1872-5.2737 9.2937-9.788 15-13.336 5.386-3.3554 11.197-6.1334 17.359-7.9653 5.307-1.5725 10.833-2.3978 16.373-2.4284 10.524-0.0255 20.714 2.7225 30.28 6.3263 9.8745 3.6964 19.281 8.1843 28.878 11.794 9.7764 3.6595 19.877 6.4512 30.064 6.7004z" sodipodi:nodetypes="cssc" inkscape:path-effect="#path-effect6933-9" inkscape:connector-curvature="0" inkscape:original-d="m 337.35094,508.87181 c 7.64285,-15.7403 5.11363,-30.11038 3.75,-39.46103 -1.36364,-9.35065 -23.32654,-84.47335 23.03709,-113.30451 46.36364,-28.83117 77.92209,13.63636 121.55845,14.80519" fill="#a66ebe"/>
<path id="path5089" d="m487.16 341.93c13.336-25.196 7.6611-43.794 9.8169-60.675" sodipodi:nodetypes="cc" inkscape:connector-curvature="0" stroke="#a66ebe" stroke-width="5" fill="none"/>
<path id="path9046" d="m422.2 396.4c1.5187 2.1996 2.5259 4.5873 3.2121 6.7429 0.46482 1.4478 0.74192 2.7016 0.87984 3.8332 0.24692 1.9083-0.12623 2.9847-0.12623 2.9847s-0.15227-1.0931-0.88693-2.6968c-0.47913-1.014-1.0221-1.9772-1.7863-3.2608-1.1436-1.9137-2.3622-3.8795-3.7598-5.8966l-0.00006-0.00009 2.4674-1.7065 0.00007 0.00009z" fill-rule="evenodd" sodipodi:nodetypes="cc" inkscape:connector-curvature="0" inkscape:original-d="m 426.16236,409.96311 c 0.35451,-2.99536 -3.1906,-9.803 -5.19949,-12.70759" fill="#a66ebe"/>
<path id="path9038" inkscape:original-d="M -251.44638,-512.33529" inkscape:connector-curvature="0" fill="#d4a4e8" d="m467.84 374.95c-4.0985 20.999-28.677 28.307-100.28 24.734-49.566-2.4732-90.774-26.18-98.215-39.521-5.1454-9.2254 7.6239-6.4234 35.573-1.1215-44.26-28.455-28.397-33.039 23.048-16.696-19.797-23.886-17.483-31.913 19.223-15.178 53.541 24.41 127.37 13.351 120.65 47.783z"/>
<path id="path9040" d="m453.7 392.89c0.36985 1.1561 0.53544 2.2759 0.68405 3.281 0.2398 1.5618 0.42436 3.1765 0.58344 4.567 0.22321 1.9363 0.34529 3.1163 0.57892 4.5691 0.35803 2.0474 0.86316 3.2054 0.86316 3.2054s-0.96541-0.87878-1.8917-2.8845c-0.59163-1.255-1.1305-2.6696-1.6884-4.4311-0.44928-1.4175-0.85169-2.8952-1.2408-4.4672-0.25987-1.039-0.45412-2.0481-0.74137-2.9112v0.00001l-0.00003-0.00007 2.8527-0.92846 0.00002 0.00008v0.00001z" fill-rule="evenodd" sodipodi:nodetypes="cc" inkscape:connector-curvature="0" inkscape:original-d="m 456.41392,408.51081 c -2.00889,-2.45075 -3.30876,-12.61682 -4.13595,-15.15833" fill="#a66ebe"/>
<path id="path8994" d="m467.84 374.95c-4.0985 20.999-28.677 28.307-100.28 24.734-49.566-2.4732-90.774-26.18-98.215-39.521-5.1454-9.2254 7.6239-6.4234 35.573-1.1215-44.26-28.455-28.397-33.039 23.048-16.696-19.797-23.886-17.483-31.913 19.223-15.178 53.541 24.41 127.37 13.351 120.65 47.783z" sodipodi:nodetypes="sssccss" inkscape:connector-curvature="0" stroke="#a66ebe" stroke-miterlimit="30" stroke-width="5" fill="none"/>
<path id="path8996" stroke-width="0" inkscape:connector-curvature="0" fill="none" d="m361.54 398.13c-7.4596-17.848 22.953-21.924 32.851-21.924-20.801-10.259-19.223-20.378 19.223-22.205-6.1686-3.2323-5.1644-9.416-4.8774-10.54"/>
<path id="path8998" d="m390.85 376.99c-15.445-0.33214-25.762-1.042-35.882-2.9074-11.502-2.11-18.897-5.3995-23.284-7.7883-4.4135-2.4034-6.0091-3.8545-6.0091-3.8545s1.885 1.0319 6.4931 2.8104c4.6453 1.7928 11.974 4.1715 23.3 5.6864 10.357 1.3768 19.679 1.7026 35.47 2.0545l0.00077 0.00002-0.0876 3.999-0.00077-0.00002z" fill-rule="evenodd" sodipodi:nodetypes="cc" inkscape:connector-curvature="0" inkscape:original-d="m 325.67757,362.43742 c 17.50157,10.6808 39.54079,11.98853 65.21931,12.55075" fill="#a66ebe"/>
<path id="path9000" d="m413.48 356c-11.993-0.79292-22.317-2.1521-30.657-3.5528-13.931-2.3363-22.947-4.8827-28.768-6.8108-5.7264-1.8969-8.0104-3.0155-8.0104-3.0155s2.4754 0.56256 8.3471 1.749c6.1285 1.2383 14.901 2.8727 28.935 4.6684 8.2531 1.0539 18.611 2.1899 30.417 2.9705l0.00045 0.00003-0.2639 3.9913-0.00044-0.00003z" fill-rule="evenodd" sodipodi:nodetypes="cc" inkscape:connector-curvature="0" inkscape:original-d="m 346.04819,342.62167 c 23.42361,7.45665 52.80251,10.40731 67.56764,11.38353" fill="#a66ebe"/>
<path id="path9002" d="m361.54 398.13c-10.611-14.997 19.212-22.152 29.355-23.146-19.679-11.329-6.0928-19.507 22.719-20.983-7.5032-2.6682-5.5994-9.3693-4.8774-10.54" sodipodi:nodetypes="cccc" inkscape:connector-curvature="0" stroke="#a66ebe" stroke-miterlimit="30" stroke-width="4" fill="none"/>
<path id="path5395" inkscape:original-d="M -251.44638,-512.33529" inkscape:connector-curvature="0" fill="#273771" d="m463.05 207.96c6.6076 29.153 8.4715 60.551 3.5234 94.41-4.923 33.687-11.709 35.93-8.226 52.59 3.3331 15.944 17.592 48.741 51.818 53.992 28.18-36.511 37.778-75.222 37.785-87.235-29.09 5.166-40.344-3.9256-51.135-19.921 19.983 9.6539 25.207 11.509 40.105 10.323-5.1894-19.729-12.169-66.43-12.169-66.43s-5.1583 3.9884-13.627 5.2537c-6.6188 0.98905-21.567 1.176-30.817-30.13z"/>
<path id="path6956" inkscape:connector-curvature="0" fill="#622e86" d="m468.84 291.68c9.5477 24.258 29.41 63.754 64.943 73.367l-9.8664 23.011s-47.741-20.22-57.627-83.364z"/>
<path id="path6954" inkscape:connector-curvature="0" fill="#e6458b" d="m517.8 395.52c-13.077-13.867-36.506-20.039-53.112-83.171l3.6322-16.065s3.768 61.825 56.713 88.199z"/>
<path id="path6947" d="m463.05 207.96c6.6076 29.153 8.4715 60.551 3.5234 94.41-4.923 33.687-11.709 35.93-8.226 52.59 3.3331 15.944 17.592 48.741 51.818 53.992 28.18-36.511 37.778-75.222 37.785-87.235-29.09 5.166-40.344-3.9256-51.135-19.921 19.983 9.6539 25.207 11.509 40.105 10.323-5.1894-19.729-12.169-66.43-12.169-66.43s-5.1583 3.9884-13.627 5.2537c-6.6188 0.98905-21.567 1.176-30.817-30.13z" sodipodi:nodetypes="csscccccscc" inkscape:connector-curvature="0" stroke="#132042" stroke-miterlimit="30" stroke-width="5" fill="none"/>
<path id="path6951" d="m538.72 358.42c-25.65-15.214-44.699-20.867-70.21-71.249m62.778 1.7692c-9.9565 9.9673-43.185-13.672-63.521-41.785" sodipodi:nodetypes="cccc" inkscape:connector-curvature="0" stroke="#132042" stroke-width="2.5" fill="none"/>
<path id="path5433" d="m673.83 207.99c-19.161-14.178-35.498-39.519-39.366-60.203-3.8681-20.684 6.7146-29.784 24.805-21.332 13.981 23.044 29.058 44.361 33.733 82.079-6.3519 1.5972-13.84 0.65883-19.172-0.54472z" fill-rule="evenodd" sodipodi:nodetypes="csccc" inkscape:connector-curvature="0" fill="#fff"/>
<path id="path5084" stroke-width="3.6001" inkscape:connector-curvature="0" fill="#fff" d="m696.07 245.11c-32.812 4.2824-64.789-10.593-100.33 37.941-29.42-22.314-12.288-47.023 15.567-50.611 15.318-1.9732 30.146 10.929 62.658 13.592z"/>
<path id="path5087" inkscape:connector-curvature="0" fill-rule="evenodd" fill="#ad047a" d="m588.53 242.05c-20.028 19.959 2.891 38.145 7.2159 41.006 5.1655-7.3162 9.705-11.831 9.705-11.831-10.502-13.57-11.411-15.841-16.921-29.175z"/>
<path id="path5078" d="m588.53 242.05c1.6054 7.4466 9.2402 21.548 16.921 29.175" inkscape:connector-curvature="0" stroke="#b0d8e7" stroke-width="3.6001px" fill="none"/>
<path id="path5072" d="m696.07 245.11c-32.812 4.2824-64.789-10.593-100.33 37.941-29.42-22.314-12.288-47.023 15.567-50.611 15.318-1.9732 30.146 10.929 62.658 13.592" sodipodi:nodetypes="ccsc" inkscape:connector-curvature="0" stroke="#a66ebe" stroke-width="5" fill="none"/>
<path id="path5080" d="m593.47 255.57c3.3169-3.7381 7.6192-6.0284 11.432-7.5644 3.7055-1.5415 6.6766-2.238 9.2138-2.4067 2.3563-0.15668 3.7227 0.16187 3.7227 0.16187s-1.4053 0.0672-3.5675 0.71219c-2.4529 0.73175-4.7776 1.8674-8.2291 3.8515-3.4053 2.0124-7.1201 4.457-9.8671 7.6215l-0.00014 0.00016-2.7047-2.3759 0.00015-0.00017z" fill-rule="evenodd" sodipodi:nodetypes="cc" inkscape:connector-curvature="0" inkscape:original-d="m 617.83593,245.76227 c -6.98634,-0.23793 -18.31928,5.65035 -23.01616,10.99738" fill="#b0d8e7"/>
<path id="path5199" d="m555.02 242.28c-2.6555 0.70575-4.9509 1.4985-6.7789 2.9432-1.7965 1.3639-3.1382 3.2878-3.9646 4.5691-0.86776 1.3454-1.3344 2.2019-1.3344 2.2019s0.14133-0.96192 0.61682-2.5322c0.45644-1.5074 1.3253-3.8198 3.1482-5.8677 1.93-2.0932 4.6168-3.4933 7.5702-4.2208l0.00018-0.00005 0.74268 2.9066-0.00018 0.00004z" fill-rule="evenodd" sodipodi:nodetypes="cc" inkscape:connector-curvature="0" inkscape:original-d="m 542.94626,251.99241 c 2.57502,-6.89619 5.60825,-9.6093 11.70673,-11.16752"/>
<path id="path5201" d="m559.97 250.31c-1.8184 1.2777-3.2142 1.9176-4.4075 3.1409-1.084 0.99873-1.5649 2.449-1.7616 3.5094-0.20082 1.0828-0.15399 1.789-0.15399 1.789s-0.37948-0.59382-0.62643-1.7727c-0.23891-1.1405-0.32296-2.9912 0.7679-4.8677v-0.00001c1.1206-1.8185 2.7797-3.1384 4.4876-4.2748l0.0001-0.00006 1.694 2.4759-0.0001 0.00007z" fill-rule="evenodd" sodipodi:nodetypes="cc" inkscape:connector-curvature="0" inkscape:original-d="m 553.64267,258.75214 c -1.2931,-5.24969 2.21052,-7.44303 5.47614,-9.67734"/>
<path id="path5203" d="m546.68 235.05c-2.321 1.3894-4.2248 3.1554-5.5267 5.2029-2.5306 3.9143-3.1503 7.7977-3.1503 7.7977s-0.78534-3.8652 1.2042-8.7916c1.0921-2.6404 3.1251-5.116 5.9368-6.786l0.00017-0.0001 1.536 2.577-0.00015 0.00009z" fill-rule="evenodd" sodipodi:nodetypes="cc" inkscape:connector-curvature="0" inkscape:original-d="m 537.99814,248.05523 c 0.67277,-6.29299 2.49698,-11.06319 7.90921,-14.28914"/>
<ellipse id="path5184" sodipodi:rx="13.291594" sodipodi:ry="16.884907" sodipodi:cx="-5.9817924" d="m 7.3098011,327.68396 c 0,9.32528 -5.9508491,16.88491 -13.2915935,16.88491 -7.3407446,0 -13.2915936,-7.55963 -13.2915936,-16.88491 0,-9.32528 5.950849,-16.88491 13.2915936,-16.88491 7.3407444,0 13.2915935,7.55963 13.2915935,16.88491 z" clip-path="url(#clipPath5212-2)" cy="327.68" rx="13.292" ry="16.885" transform="matrix(2.9979 -1.6671 1.9652 3.2292 -44.522 -858.11)" sodipodi:cy="327.68396" cx="-5.9818" fill="#fff"/>
<path id="ellipse5186" inkscape:original-d="m 633.35944,229.25887 c 0.51673,-22.47558 -11.62425,-47.42207 -30.77047,-63.22518 -19.14611,-15.80306 -41.53435,-19.35669 -56.74129,-9.00635 -15.20704,10.35034 -22.01017,32.57021 -14.53192,56.31481 -3.19615,1.26597 -11.17447,2.24817 -16.33085,-0.23292" sodipodi:nodetypes="csscc" inkscape:connector-curvature="0" d="m633.36 229.26s1.2684-4.2115-0.53576-15.165c-0.8817-5.353-2.7934-12.87-7.0255-21.447-4.1554-8.4216-11.165-19.011-22.061-28.004-5.9386-4.9017-14.979-10.931-26.117-13.756-11.116-2.8185-23.01-2.0057-32.787 4.6491-8.8879 6.0494-14.347 15.413-16.786 25.259-2.4519 9.8964-1.6583 19.162-0.31999 25.834 0.37856 1.8873 0.83758 3.7482 1.3689 5.5778-0.50283 0.14424-1.0494 0.28126-1.6152 0.406-1.23 0.27115-2.4731 0.46837-3.6384 0.60216-3.1683 0.36375-5.5226 0.24006-6.8604 0.12048-1.3868-0.12397-1.9965-0.22678-1.9965-0.22678s0.38442 0.49996 1.6994 1.2009c1.315 0.70105 3.664 1.5748 7.2448 1.736 1.2851 0.0578 2.6877 0.0185 4.094-0.14721 1.3791-0.16251 2.8123-0.45594 3.9535-0.88851 0.52985-0.20084 1.0406-0.4489 1.526-0.74119-0.16378-0.48695-0.32223-0.97569-0.47532-1.4661-0.70274-2.2512-1.296-4.5487-1.7642-6.883-1.271-6.3366-1.9999-15.034 0.28606-24.259 2.2734-9.1741 7.3066-17.693 15.313-23.143 8.7092-5.9277 19.468-6.7635 29.867-4.13 10.444 2.6446 19.001 8.3232 24.711 13.036 10.401 8.5846 17.356 18.638 21.653 26.616 4.3659 8.108 6.685 15.304 7.9641 20.418 2.6244 10.492 2.3018 14.8 2.3018 14.8z"/>
<path id="path5074" d="m572.7 246.85c-1.7714 5.0646-2.7773 9.8329-3.4299 13.983-0.62254 3.959-0.85685 6.6634-0.85685 6.6634s-0.52142-2.6623-0.64287-6.7567c-0.12407-4.1832 0.24006-9.5166 2.0963-14.876 3.2374-9.3029 9.0906-16.233 17.007-20.295 7.9163-4.0617 17.823-5.264 29.176-3.4656 6.5336 1.0392 12.383 3.2342 16.853 5.3043 4.3708 2.0241 7.0834 3.721 7.0834 3.721s-12.151-4.1292-24.406-6.0623c-10.883-1.724-20.112-0.53551-27.337 3.1717-7.2253 3.7072-12.52 9.9242-15.543 18.612z" fill-rule="evenodd" sodipodi:nodetypes="cc" inkscape:connector-curvature="0" inkscape:original-d="M 568.41333,267.49519 C 567.3256,227.14498 596.6968,211.72 639.98639,231.12734" fill="#a66ebe"/>
<path id="path5076" inkscape:connector-curvature="0" fill-rule="evenodd" fill="#a66ebe" d="m677.26 222.69c2.8415 1.4274 9.6839 1.9628 11.456-0.71375-1.2701 5.4719-5.6406 7.7916-11.456 0.71375z"/>
<path id="path5095" d="m693.01 208.53c-17.89-108.53-123.19-186.14-183.7-78.14l-49.82 15.022" sodipodi:nodetypes="cc" inkscape:connector-curvature="0" stroke="#a66ebe" stroke-width="3.6001px" fill="none"/>
<path id="path5431" d="m673.83 207.99s-2.3886-2.0301-7.9928-8.0986c-4.6422-5.0268-15.887-17.886-23.793-35.01-0.7041-1.525-1.4769-3.304-2.2387-5.2699-2.7436-7.0804-4.812-15.284-4.1517-22.255 0.26837-2.8333 0.97396-5.224 2.0849-7.1072 1.1-1.8646 2.5775-3.2024 4.4173-4.0278 4.3718-1.9632 8.6887-1.1207 12.765 1.5349 2.2638 1.4748 4.2433 3.3748 5.8511 5.1709 3.2548 3.6358 6.336 8.3419 9.2077 13.805 0.31694 0.60291 0.62809 1.2088 0.9334 1.8177 0.68374-0.29331 1.326-0.6751 1.9104-1.1356 0.80203-0.63197 1.7216-1.5867 2.5354-2.5559 0.83492-0.99437 1.6146-2.0641 2.275-3.0925 1.8417-2.8678 2.5975-5.1249 2.8936-6.5525 0.29217-1.4084 0.19092-2.0024 0.19092-2.0024s-0.32025 0.49978-1.1026 1.6138c-0.75245 1.0715-2.1391 2.9506-4.2478 5.1811-0.78244 0.82758-1.6331 1.6694-2.5103 2.4573-0.17259 0.15504-0.34421 0.30613-0.51292 0.45146-2.6079-4.8513-5.472-9.169-8.5926-12.655-1.7456-1.95-3.998-4.1197-6.6698-5.8411-4.9159-3.1672-10.676-4.3979-16.524-1.7055-2.5956 1.1945-4.6424 3.1167-6.0913 5.6262-1.4373 2.4894-2.2339 5.4611-2.5157 8.681-0.68442 7.8207 1.6607 16.639 4.492 23.899 0.79763 2.045 1.6031 3.8922 2.3324 5.4718 8.3484 18.082 20.328 30.007 25.807 34.791 6.3368 5.534 9.2473 6.8076 9.2473 6.8076z" fill-rule="evenodd" sodipodi:nodetypes="csscc" inkscape:connector-curvature="0" inkscape:original-d="m 673.83333,207.98641 c -14.86131,-11.28651 -28.76245,-29.86721 -35.70524,-47.72445 -6.94259,-17.85727 -5.65993,-31.74842 3.23276,-35.79799 8.98221,-4.09034 19.95738,1.28494 30.33933,21.37783 2.2775,-1.63636 7.52786,-7.37706 9.02225,-12.63417"/>
<g id="g5173" transform="matrix(3.6001 0 .41671 3.6001 -44.522 -858.11)">
<g id="g5139" clip-path="url(#clipPath5169-1)" fill-rule="evenodd">
<ellipse id="ellipse5103" sodipodi:rx="3.0758231" sodipodi:ry="5.7966685" sodipodi:cx="11.057296" d="m 14.133119,326.07764 c 0,3.20141 -1.377093,5.79667 -3.075823,5.79667 -1.6987304,0 -3.0758233,-2.59526 -3.0758233,-5.79667 0,-3.20141 1.3770929,-5.79667 3.0758233,-5.79667 1.69873,0 3.075823,2.59526 3.075823,5.79667 z" cy="326.08" rx="3.0758" transform="rotate(-24.812)" ry="5.7967" sodipodi:cy="326.07764" cx="11.057" fill="url(#linearGradient3286)"/>
<path id="path5113" sodipodi:nodetypes="cccc" inkscape:connector-curvature="0" fill="#8c4fab" d="m148.2 292.29-5.2804 0.56075 2.1028 2.7336z"/>
<path id="path5115" sodipodi:nodetypes="cccc" inkscape:connector-curvature="0" fill="#ccaed7" d="m148.2 292.29-5.1636 3.458 2.3131 0.7243z"/>
</g>
<ellipse id="path5101" sodipodi:rx="1.6342176" sodipodi:ry="4.059391" d="m 31.320941,325.46942 c 0,2.24194 -0.731664,4.05939 -1.634217,4.05939 -0.902554,0 -1.634218,-1.81745 -1.634218,-4.05939 0,-2.24194 0.731664,-4.05939 1.634218,-4.05939 0.902553,0 1.634217,1.81745 1.634217,4.05939 z" cy="325.47" rx="1.6342" transform="rotate(-21.617)" ry="4.0594" sodipodi:cy="325.46942" cx="29.687" sodipodi:cx="29.686724"/>
<ellipse id="path7444-9" sodipodi:rx="1.0533516" sodipodi:ry="1.4942173" sodipodi:cx="97.971245" d="m 99.024596,294.57913 c 0,0.82524 -0.471601,1.49422 -1.053351,1.49422 -0.58175,0 -1.053352,-0.66898 -1.053352,-1.49422 0,-0.82523 0.471602,-1.49422 1.053352,-1.49422 0.58175,0 1.053351,0.66899 1.053351,1.49422 z" cy="294.58" rx="1.0534" transform="matrix(1 0 .16113 .98693 0 0)" ry="1.4942" sodipodi:cy="294.57913" cx="97.971" fill="#fff"/>
<ellipse id="path7446-4" sodipodi:rx="0.39124492" sodipodi:ry="0.6235345" sodipodi:cx="104.79195" d="m 105.18319,295.04312 c 0,0.34437 -0.17516,0.62354 -0.39124,0.62354 -0.21608,0 -0.39125,-0.27917 -0.39125,-0.62354 0,-0.34437 0.17517,-0.62353 0.39125,-0.62353 0.21608,0 0.39124,0.27916 0.39124,0.62353 z" cy="295.04" rx=".39124" transform="matrix(1 0 .14480 .98946 0 0)" ry=".62353" sodipodi:cy="295.04312" cx="104.79" fill="#fff"/>
</g>
<g id="g5298" transform="matrix(3.6001 0 .41671 3.6001 -44.522 -858.11)">
<g id="g5260" clip-path="url(#clipPath5294-1)" fill-rule="evenodd">
<ellipse id="ellipse5246" sodipodi:rx="2.2049265" sodipodi:ry="4.1856074" sodipodi:cx="108.72767" d="m 110.9326,302.5564 c 0,2.31164 -0.98718,4.1856 -2.20493,4.1856 -1.21775,0 -2.20493,-1.87396 -2.20493,-4.1856 0,-2.31165 0.98718,-4.18561 2.20493,-4.18561 1.21775,0 2.20493,1.87396 2.20493,4.18561 z" cy="302.56" rx="2.2049" ry="4.1856" transform="matrix(.99417 -.10781 .17639 .98432 0 0)" sodipodi:cy="302.5564" cx="108.73" fill="url(#linearGradient3288)"/>
<path id="path5250" sodipodi:nodetypes="cccc" inkscape:connector-curvature="0" fill="#8c4fab" d="m164.6 285.35-3.1075 2.0794 3.1434 0.67328z"/>
<path id="path5252" sodipodi:nodetypes="cccc" inkscape:connector-curvature="0" fill="#ccaed7" d="m165.58 287.65-4.0822-0.217 3.0608 1.5654z"/>
</g>
<ellipse id="path5101-8" sodipodi:rx="1.2761028" sodipodi:ry="2.9449615" d="m 77.271083,314.80347 c 0,1.62645 -0.571331,2.94496 -1.276103,2.94496 -0.704772,0 -1.276103,-1.31851 -1.276103,-2.94496 0,-1.62646 0.571331,-2.94496 1.276103,-2.94496 0.704772,0 1.276103,1.3185 1.276103,2.94496 z" cy="314.8" rx="1.2761" ry="2.945" transform="matrix(.97783 -.20942 .27662 .96098 0 0)" sodipodi:cy="314.80347" cx="75.995" sodipodi:cx="75.99498"/>
<ellipse id="ellipse5135" sodipodi:rx="0.6523543" sodipodi:ry="1.1693088" sodipodi:cx="123.85149" d="m 124.50384,287.57498 c 0,0.64579 -0.29207,1.16931 -0.65235,1.16931 -0.36029,0 -0.65236,-0.52352 -0.65236,-1.16931 0,-0.64579 0.29207,-1.16931 0.65236,-1.16931 0.36028,0 0.65235,0.52352 0.65235,1.16931 z" cy="287.57" rx=".65235" ry="1.1693" transform="matrix(1 0 .12752 .99184 0 0)" sodipodi:cy="287.57498" cx="123.85" fill="#fff"/>
<ellipse id="ellipse5137" sodipodi:rx="0.24230304" sodipodi:ry="0.48841819" sodipodi:cx="128.82976" d="m 129.07206,288.06799 c 0,0.26975 -0.10848,0.48842 -0.2423,0.48842 -0.13382,0 -0.24231,-0.21867 -0.24231,-0.48842 0,-0.26974 0.10849,-0.48842 0.24231,-0.48842 0.13382,0 0.2423,0.21868 0.2423,0.48842 z" cy="288.07" rx=".2423" ry=".48842" transform="matrix(1 0 .11448 .99343 0 0)" sodipodi:cy="288.06799" cx="128.83" fill="#fff"/>
</g>
<path id="path5195" d="m529.68 203.7c-4.8057 0.65422-9.2887-1.2153-12.1-4.1894v-0.00001c-2.4755-2.6914-3.3418-5.7059-3.6179-7.7303-0.28179-2.0658-0.061-3.2622-0.061-3.2622s0.32241 1.1791 1.2383 2.8891c0.91007 1.6992 2.4566 3.8891 4.7957 5.417 2.4891 1.6774 5.8248 2.3548 9.0758 1.9207l0.66923 4.955z" fill-rule="evenodd" sodipodi:nodetypes="cc" inkscape:connector-curvature="0" inkscape:original-d="m 529.34457,201.22451 c -8.48184,1.14557 -14.60467,-5.0576 -15.44446,-12.70432"/>
<path id="path5197" d="m529.84 185.39c-3.017-0.61531-5.9523-2.2095-7.8304-4.7782-1.77-2.726-1.8819-5.5066-1.787-7.2208 0.0996-1.7984 0.38641-2.8168 0.38641-2.8168s0.31376 1.0166 0.96646 2.5969c0.61902 1.4988 1.6559 3.7107 3.313 4.9374 1.4727 1.2852 3.5726 1.7349 6.089 2.4126l0.00018 0.00004-1.1374 4.8689-0.00019-0.00005z" fill-rule="evenodd" sodipodi:nodetypes="cc" inkscape:connector-curvature="0" inkscape:original-d="m 520.60883,170.57587 c 0.51649,8.32468 3.79038,10.97768 9.79987,12.38149"/>
<path id="path5442" d="m662.32 130.14c0.6272-0.2007 1.1998-1.0791 1.9397-2.0315 0.94229-1.3492 1.7233-2.8593 2.4049-4.3119 0.86964-1.8654 1.5019-3.5239 1.9759-5.049v-0.00001c0.81521-2.6728 0.88456-4.4882 0.88456-4.4882s0.64028 1.7294 0.53101 4.7222c-0.0549 1.6585-0.29289 3.589-0.84648 5.7203-0.42923 1.6716-1.056 3.4754-2.0446 5.2203-0.60055 1.1946-1.5959 2.5567-3.2952 3.4673l-0.77489 0.17533 0.77489-0.17533c-0.15193 0.0726-0.91517-1.5625-0.91517-1.5625s-0.62121-1.6932-0.6346-1.6869l0.77488 3.4247-0.77488-3.4247z" fill-rule="evenodd" sodipodi:nodetypes="cc" inkscape:connector-curvature="0" inkscape:original-d="m 669.52626,114.25773 c 0.78446,5.06483 -2.96177,16.08986 -6.57044,17.56758"/>
<path id="path5444" d="m653.1 124.56c2.3053-4.6885 2.6876-15.544 1.9678-19.707" inkscape:connector-curvature="0" stroke="#000" stroke-width="3.6001px" fill="none"/>
<path id="path6895" d="m392.98 483.19c-7.5469-3.5755-13.068-8.9259-16.547-14.023-3.3483-4.9059-4.3285-8.6998-4.3285-8.6998s2.1532 3.2684 6.2241 7.0868c4.3758 4.1044 9.8373 7.7746 16.804 11.123 18.491 8.8211 45.125 9.6606 70.734 4.7525s50.183-15.554 64.592-28.731c10.768-9.848 16.073-17.875 19.517-29.325 3.4447-11.451 4.8983-26.46 7.3574-49.536 1.306-12.256 4.3742-24.446 7.3955-36.529 3.287-13.146 11.086-22.414 21.08-29.311 9.994-6.8976 22.171-11.568 34.716-15.999 25.089-8.8626 51.459-16.804 65.319-37.484l0.00001-0.00001c8.7968-13.126 12.854-22.861 14.226-29.771 1.3717-6.9104 0.12554-10.887-1.491-13.126-0.76123-1.0321-1.701-1.916-2.7506-2.437-0.82999-0.33854-1.4997-0.65446-1.9358-0.55637-2.7832 0.4183-5.43 0.53114-7.9335 0.31566-7.3936-0.66941-12.127-2.9531-12.127-2.9531s5.2439 0.50258 12.101-0.28882c2.2543-0.25589 4.5255-0.75896 7.0492-1.4466 1.8044-0.36843 3.4945-0.0814 4.8141 0.54482 1.9688 0.83344 3.6327 2.2049 4.8366 3.8946 2.575 3.5665 3.9023 9.1632 2.3415 17.026-1.5608 7.8629-5.9418 18.101-14.977 31.582l0.00001-0.00001c-15.145 22.597-42.895 30.615-67.807 39.415-12.456 4.4001-24.249 8.9869-33.541 15.4-9.2919 6.4131-16.094 14.51-19.069 26.409-3.0219 12.086-6.019 24.066-7.2743 35.846-2.4564 23.051-3.8652 38.227-7.5412 50.447s-9.7508 21.35-20.931 31.575c-15.49 14.166-40.696 24.906-67.025 29.952-26.329 5.0461-53.79 4.409-73.828-5.1503z" sodipodi:nodetypes="csssssc" inkscape:connector-curvature="0" inkscape:original-d="m 372.10636,460.46861 c 23.16462,45.8156 122.66822,30.2553 160.04153,-3.92351 21.94877,-20.07268 22.75806,-34.31389 27.67352,-80.44139 1.28067,-12.01804 4.31329,-24.1032 7.33489,-36.18794 12.52442,-50.09084 91.76165,-38.73251 120.76609,-82.00953 27.45296,-40.96169 10.37681,-50.48083 5.51655,-49.46882 -4.4526,0.92702 -8.98902,1.57302 -19.60561,-0.45101" fill="#a66ebe"/>
<path id="path4108" sodipodi:nodetypes="cssc" inkscape:connector-curvature="0" fill="#d4a4e8" d="m470.74 432.61c-36.121 51.468-42.03 209.13-32.667 240.29 5.4567 18.16 77.648 18.879 74.651 3.8885-10.788-53.963-30.048-96.512-12.522-231.64"/>
<path id="path6864" d="m494.62 482.12c1.1473-9.0456 2.5231-18.294 3.6389-25.272 1.1158-6.9784 1.9457-11.692 1.9457-11.692s0.40151 4.9303 0.52359 12.087c0.12209 7.1564-0.007 16.526-1.1473 25.507-2.045 16.113-3.5257 32.279-4.2006 48.48-0.83608 20.073-0.37232 40.199 2.0072 60.096 1.8046 15.123 4.8045 30.116 8.3682 44.993 3.1746 13.243 6.7221 26.481 9.4235 39.983 0.27535 1.3785 0.12507 2.8149-0.45555 4.141-0.65257 1.3649-1.5655 2.4156-2.5432 3.1718l-0.00002 0.00002c-2.6439 2.0758-5.6468 3.1498-8.4272 3.8601h-0.00001c-3.8695 1.0512-7.7953 1.6155-11.67 1.9538-4.5309 0.40091-9.0725 0.49276-13.59 0.35009-8.9702-0.26897-18.066-1.3481-26.789-4.1158-3.4572-1.0836-6.9655-2.5184-10.157-4.7092-1.2899-0.88475-2.5368-1.9533-3.6266-3.2538-0.00001-0.00001-0.00001-0.00002-0.00002-0.00002-0.96611-1.1477-1.7566-2.5196-2.2398-4.0767-0.76555-2.5648-1.2443-5.1375-1.627-7.6512-0.52314-3.402-0.87748-6.805-1.1541-10.19-0.73433-8.9751-0.95775-17.956-0.98563-26.902-0.0755-23.52 1.2417-47.018 3.4804-70.399 2.3661-24.747 5.7582-49.468 11.258-73.789 0.81749-3.6165 1.6839-7.2279 2.6168-10.826 1.5961-6.1562 4.3169-13.326 7.4717-19.854 1.481-3.0683 3.0514-6.0129 4.6133-8.6475 1.562-2.6346 3.1152-4.9574 4.5058-6.8541 2.7813-3.7933 4.8819-5.9012 4.8819-5.9012s-0.40773 0.60743-1.0885 1.7175c-0.68073 1.1101-1.6283 2.7273-2.6851 4.7605-1.0569 2.0332-2.22 4.4845-3.3816 7.225s-2.3224 5.7694-3.4433 8.9092c-2.3716 6.6675-4.4637 13.844-6.0331 19.9-0.91726 3.5397-1.7718 7.1006-2.5811 10.675-5.4414 24.039-8.8 48.552-11.158 73.162-2.2244 23.25-3.534 46.583-3.4577 69.906 0.0299 8.8741 0.24777 17.724 0.96896 26.51 0.27225 3.3124 0.61273 6.5978 1.1125 9.8371 0.37646 2.4152 0.80414 4.7621 1.4738 6.9734v0.00001c0.22349 0.79445 0.70128 1.5827 1.3016 2.3257 0.69937 0.85916 1.6131 1.6218 2.6271 2.336 2.5543 1.7966 5.6185 3.0127 8.8245 4.053 8.1036 2.5959 16.745 3.5971 25.427 3.8821 4.3466 0.13553 8.6886 0.0494 12.992-0.33302 3.697-0.33304 7.3308-0.84495 10.794-1.7966 0-0.00001 0.00001-0.00001 0.00002-0.00001 2.5532-0.74657 4.9442-1.5064 6.5917-2.9174l0.00002-0.00002c0.54186-0.47845 0.98539-0.91844 1.135-1.3397 0.1531-0.30773 0.18943-0.73469 0.1137-1.1124-2.655-13.292-6.1889-26.468-9.3828-39.798-3.5964-14.999-6.6305-30.183-8.4706-45.565-2.413-20.215-2.8871-40.608-2.0382-60.898 0.68472-16.366 2.177-32.673 4.2354-48.901z" sodipodi:nodetypes="cssc" inkscape:path-effect="#path-effect6879-2" inkscape:connector-curvature="0" inkscape:original-d="m 468.64863,431.24127 c -31.91124,48.88795 -39.93633,210.49914 -30.57249,241.66114 5.45674,18.1595 77.64814,18.8793 74.65141,3.8885 -10.78751,-53.9634 -33.38667,-96.0865 -10.05809,-231.2109" fill="#a66ebe"/>
<path id="path7792" sodipodi:nodetypes="ccccccssc" inkscape:connector-curvature="0" fill="#273771" d="m456.72 156.84c10.113-13.293 58.794-34.601 58.336 43.134 58.336-56.922 89.449-80.61 164.76-89.449-7.4246-20.153-15.556-34.648-18.385-37.477 18.385 8.8388 29.138 32.656 30.552 37.605l25.663-0.12868c0-13.325-51.544-74.337-92.59-75.19-50.17-1.0431-94.097 40.788-117.25 68.75-23.399 28.259-58.665 31.761-51.083 52.755z"/>
<path id="path7777" sodipodi:nodetypes="ccsccc" inkscape:connector-curvature="0" fill="#622e86" d="m501.68 111.83 10.125-10.75s20.75-4.875 38.75-4.875 47.942 13.608 53.422 32.523l-19.269 12.551s-27.633-29.449-83.029-29.449z"/>
<path id="path7775" sodipodi:nodetypes="ccccc" inkscape:connector-curvature="0" fill="#e6458b" d="m495.61 117.24c35.263-3.8802 56.935 0.49545 62.932 42.426l29.345-21.39c-11.28-26.19-43.62-36.46-87.14-26.88z"/>
<path id="path7764" d="m707.91 91.848c-16.89-22.802-52.7-55.891-82.86-56.518-50.17-1.0431-94.097 40.788-117.25 68.75-23.399 28.259-58.665 31.761-51.083 52.755 10.113-13.293 58.794-34.601 58.336 43.134 58.336-56.922 89.449-80.61 164.76-89.449-7.4246-20.153-15.556-34.648-18.385-37.477 18.385 8.8388 29.138 32.656 30.552 37.605 8.5543-0.0429 12.481-0.79775 25.663-0.12868-2.2668-5.5974-4.9832-12.528-9.7336-18.672z" sodipodi:nodetypes="csscccccc" inkscape:connector-curvature="0" stroke="#132042" stroke-miterlimit="30" stroke-width="5" fill="none"/>
<path id="path7770" d="m547.94 63.851c43.841-8.1317 80.964-21.213 126.22 47.023m-132.11-39.29c50.506-17.192 88.196-12.065 123.97 39.647m-171.83 8.4853c18.738 14.849 41.012 44.901 39.598 60.811" inkscape:connector-curvature="0" stroke="#132042" stroke-width="2.5" fill="none"/>
<path id="path7779" d="m798.75 632.76c14.113-58.253 27.161-91.925 34.084-91.588 6.9233 0.33672 8.2548 77.446 6.3908 107.08" clip-path="url(#clipPath7788-1)" sodipodi:nodetypes="csc" inkscape:connector-curvature="0" transform="translate(-251.45 -535.67)" stroke="#a66ebe" stroke-width="5" fill="#d4a4e8"/>
<path id="path5804" d="m568.41 28.743c3.5 8.75 14.5 16.25 18.75 17m-32.135 22.939c3.4828 11.435 9.1423 27.593 31.998 27.841m-25.63-47.366c4.233 12.915 13.379 23.009 27.028 22.109" sodipodi:nodetypes="cccccc" inkscape:connector-curvature="0" stroke="#a66ebe" stroke-width="2.5" fill="none"/>
<g id="g5857" transform="translate(-255.95 -532.34)">
<path id="path5785" inkscape:original-d="M 85.017745,-102.98934" inkscape:connector-curvature="0" fill="#d4a4e8" d="m754.43 764.68c-79.476-31.277-65.065-100.35-48.063-113.24 15.103-11.447 40.972 41.695 44.588 55.427z"/>
<path id="path5091" d="m718.99 740.3c8.0077 7.511 16.237 13.231 23.527 17.67 6.9766 4.2477 11.914 6.7058 11.914 6.7058s-5.3649-1.2701-13.049-4.4734c-7.8682-3.2801-17.393-8.3968-25.809-16.251-18.741-17.533-25.155-38.383-25.021-56.115 0.13333-17.731 6.3506-32.364 14.306-38.393v-0.00001c2.7274-2.0671 6.1073-2.5286 9.1815-1.6802 3.0742 0.84838 5.9464 2.785 8.7613 5.3477 5.6299 5.1253 11.076 12.913 15.888 21.112 3.7463 6.383 6.5502 12.908 8.5886 18.678 1.4988 4.2317 2.3824 7.2037 2.9912 9.9727 0.55008 2.5021 0.68722 3.9901 0.68722 3.9901s-2.4792-5.3853-6.5296-12.677c-3.3076-5.9285-6.0249-10.575-10.05-17.432-4.6713-7.9587-10.009-15.455-14.942-19.945-2.4662-2.2451-4.8197-3.6992-6.7255-4.2252-1.9059-0.52597-3.2603-0.34539-4.8312 0.84521v-0.00001c-5.6466 4.2796-12.202 17.937-12.326 34.446-0.12413 16.509 5.7194 35.849 23.437 52.426z" fill-rule="evenodd" sodipodi:nodetypes="csc" inkscape:connector-curvature="0" inkscape:original-d="m 754.43474,764.67612 c -79.47639,-31.27718 -65.06547,-100.35396 -48.0632,-113.24007 15.10325,-11.4468 40.97201,41.69503 44.58767,55.4272" fill="#a66ebe"/>
<path id="path5093" d="m709.55 703.05c-2.6489-5.5295-3.9851-10.863-4.4139-15.47-0.40744-4.3778 0.0592-7.2533 0.0592-7.2533s0.16677 2.9074 1.1719 7.0491c1.0983 4.5255 2.8424 9.1174 5.4397 14.599 0.45226 0.94917 0.93586 1.8975 1.4517 2.8404 3.3567 6.1215 7.1223 10.891 10.991 14.591 3.6371 3.479 6.5634 5.2865 6.5634 5.2865s-3.2109-1.236-7.3678-4.3333c-4.3354-3.2304-8.9056-7.9823-12.379-14.344-0.53891-0.98496-1.0437-1.9748-1.5154-2.965z" fill-rule="evenodd" inkscape:connector-curvature="0" inkscape:original-d="m 705.19916,680.32631 c -0.16334,11.07688 6.49426,33.81422 25.61726,44.36584" fill="#a66ebe"/>
</g>
<path id="path4386" inkscape:original-d="M -251.44638,-512.33529" inkscape:connector-curvature="0" fill="#6dc6fb" d="m422.16 327.12c3.1139 4.8956 4.206 14.359 4.9862 22.681 2.8888 30.814 22.764 108.55 22.455 198.68-0.0333 9.7136-65.719 18.366-65.374-3.0863 1.302-81.089-3.3392-139.68-0.27889-177.45 1.5866-19.582 2.432-25.833 4.6757-37.118z"/>
<path id="path4349" inkscape:original-d="M -263.9223,-565.09059" inkscape:connector-curvature="0" fill="#6dc6fb" d="m417.61 254.06c37.81 21.432 87.816 11.279 106.96-12.687 7.8604-9.8403-7.0688-5.6742-10.45-19.099 13.855 9.5818 18.279 6.186 21.528 0.53269 1.2563-2.1861 1.1728-10.213-0.59428-13.083-5.4039-8.777-23.051-4.178-20.958-18.134 17.619-117.44-121.01-152.43-158.64-50.576 0.79845 85.646 5.6505 130.39-16.398 152.26z"/>
<circle id="path5840" sodipodi:rx="56.963657" sodipodi:ry="56.963657" sodipodi:cx="465.50351" d="m 522.46717,208.96091 c 0,31.46016 -25.5035,56.96365 -56.96366,56.96365 -31.46016,0 -56.96366,-25.50349 -56.96366,-56.96365 0,-31.46016 25.5035,-56.96366 56.96366,-56.96366 31.46016,0 56.96366,25.5035 56.96366,56.96366 z" cy="208.96" sodipodi:cy="208.96091" cx="465.5" r="56.964" fill="url(#radialGradient5848)"/>
<path id="path9818" d="m426.3 362.7c-0.66042-4.2996-1.1168-8.5422-1.2882-12.701-0.20918-5.1632-0.28401-8.5264-0.65892-12.604-0.34628-3.5169-0.6039-5.4723-1.195-7.5541-0.5009-1.7641-0.99959-2.7235-0.99959-2.7235s0.7396 0.78308 1.6785 2.4376c1.0409 1.8343 1.9194 4.0409 2.8634 7.3961 1.0797 3.7674 1.8626 7.7952 2.577 12.648 0.7326 4.9304 1.1667 7.131 1.9651 12.343 5.5575 36.23 21.131 106.51 20.857 186.55v-0.00001c-0.009 2.6223-1.8961 4.3276-4.0076 5.6475s-4.8398 2.4102-8.0532 3.3715c-6.4268 1.9226-14.773 3.258-23.162 3.6143-8.3888 0.35627-16.78-0.24041-23.383-2.46-3.3017-1.1098-6.1904-2.6316-8.3442-4.8273-2.1538-2.1956-3.477-5.1631-3.4238-8.481 1.3002-80.974-3.3646-139.43-0.27104-177.61 0.62754-7.7453 1.1403-13.423 1.6723-18.172 1.0978-9.7871 5.4952-18.745 5.4952-18.745s0.52253 9.9254-0.52632 19.301c-0.52247 4.664-1.0318 10.296-1.6575 18.019-3.027 37.36 1.5906 96.084 0.28674 177.29-0.0328 2.0452 0.6212 3.5 1.9938 4.8994 1.3726 1.3993 3.5594 2.6452 6.3678 3.5892 5.6168 1.888 13.584 2.5434 21.578 2.2039 7.9937-0.33949 16.053-1.6477 21.941-3.409 2.9439-0.88066 5.3501-1.8923 6.8358-2.8211 1.4857-0.92873 1.6586-1.6187 1.6579-1.4248v-0.00001c0.27234-79.378-15.177-149.12-20.799-185.78z" fill-rule="evenodd" sodipodi:nodetypes="cssssc" inkscape:connector-curvature="0" inkscape:original-d="m 422.15513,327.11618 c 3.11391,4.89558 4.20596,14.35906 4.98616,22.68125 2.88881,30.81432 22.76382,108.5518 22.45459,198.68478 -0.0333,9.7136 -65.71893,18.366 -65.37447,-3.0863 1.30205,-81.08893 -3.33916,-139.67844 -0.27889,-177.44893 1.58655,-19.58155 2.43204,-25.83282 4.67568,-37.11804" fill="#1c92cd"/>
<path id="path3909" d="m417.61 254.06s3.2738 2.92 12.676 6.9125c8.732 3.7077 25.876 9.0541 48.141 6.0887 7.922-1.0551 16.575-3.2159 24.924-6.9846 6.4609-2.9165 16.054-8.3669 23.012-17.27 0.95367-1.2575 1.7179-2.4956 2.1392-3.6446 0.43821-1.195 0.5548-2.4321 0.16567-3.5961-0.37674-1.1269-1.1384-1.9148-1.8786-2.4799-0.70998-0.542-1.5916-1.0184-2.3478-1.4169-3.0315-1.5976-4.736-2.5716-6.274-4.4497-0.15239-0.18608-0.31821-0.40131-0.49098-0.64842 1.4507 0.87629 2.8547 1.6268 4.2005 2.2231 2.6857 1.19 5.059 1.7315 7.2177 1.589 2.2684-0.14976 4.015-1.0384 5.329-2.1059 1.2478-1.0138 2.1383-2.2211 2.6334-2.9823 0.25189-0.3873 0.50242-0.79877 0.75703-1.2418 0.5225-0.90918 0.82371-2.1288 0.99793-3.4916 0.14993-1.1729 0.21894-2.5916 0.16989-4.1194-0.042-1.3088-0.174-2.7596-0.43356-4.1175-0.24867-1.301-0.66083-2.7637-1.3672-3.911-1.6916-2.7475-4.267-4.386-6.8974-5.5248-2.4687-1.0688-5.5208-1.8864-7.6946-2.6485-2.3523-0.8247-3.9853-1.6587-4.9728-2.7993-0.86376-0.99774-1.4901-2.5407-1.0492-5.4795 4.6044-30.692-1.2975-55.738-12.96-74.342-11.673-18.621-28.989-30.65-47.424-35.956-20.665-5.9482-42.46-3.4702-60.951 6.7251-18.618 10.265-33.317 27.92-42.124 51.76-0.0533 0.14419-0.10627 0.28848-0.15901 0.43286 0.001 0.15226 0.003 0.30452 0.004 0.45678 0.53478 57.362 1.8091 73.823 0.42854 98.894-0.0182 0.32988-0.0368 0.65698-0.0558 0.98136-0.80373 13.714-2.3883 22.626-4.2787 29.268-1.8458 6.486-4.0213 10.826-5.814 13.766-3.6116 5.9229-5.9391 7.5559-5.9391 7.5559l3.5217 3.5492s2.6331-1.8578 6.6872-8.5008c4.1352-6.7759 9.2184-18.117 10.814-45.346 0.0194-0.33032 0.0383-0.6633 0.0568-0.99899 1.3886-25.218 0.1183-41.996-0.41686-98.754 8.4669-22.656 22.379-39.148 39.694-48.693 17.318-9.5474 37.75-11.875 57.149-6.291 17.3 4.9796 33.585 16.274 44.573 33.8 10.962 17.486 16.695 41.314 12.249 70.951-0.60185 4.0118 0.17392 7.1378 2.2136 9.4939 1.9064 2.2021 4.6402 3.3832 7.0987 4.2451 2.8458 0.99771 5.0086 1.5042 7.382 2.5373 2.154 0.9376 3.6696 2.0172 4.6066 3.539 0.23304 0.37852 0.50082 1.1336 0.71208 2.2368 0.20137 1.0517 0.31301 2.2098 0.349 3.3308 0.0415 1.2932-0.0196 2.4446-0.13211 3.3249-0.14477 1.1325-0.34379 1.5827-0.3734 1.6342-0.21525 0.37456-0.4174 0.70568-0.61214 1.0043-0.41281 0.63298-0.94585 1.4332-1.6076 2.1037-0.63927 0.64766-1.437 1.2294-2.6343 1.4557-1.2219 0.23091-2.9379 0.1107-5.3531-0.76434-2.4173-0.87582-5.196-2.3856-8.2378-4.4101-1.0668-0.70997-2.1141-1.4488-3.1408-2.2156 0.0912 1.3295 0.31381 2.6468 0.66455 3.9325 0.88796 3.2549 2.3306 5.2846 3.2814 6.449 2.0257 2.4806 3.7753 3.5379 6.8382 5.5504 0.73543 0.48324 1.3063 0.89405 1.6941 1.2909 0.38793 0.39707 0.43044 0.61256 0.41585 0.72741-0.004 0.0316-0.0607 0.33033-0.30587 0.82576-0.29616 0.59856-0.79333 1.3532-1.7068 2.429-6.4755 7.9122-15.349 12.813-21.48 15.581-7.8424 3.5399-16.01 5.7051-23.543 6.899-21.035 3.3336-37.965-0.5464-46.801-3.2661-9.554-2.9407-13.341-5.0939-13.341-5.0939z" sodipodi:nodetypes="cscssscc" inkscape:connector-curvature="0" inkscape:original-d="m 417.61254,254.0591 c 37.81043,21.43184 87.81594,11.27863 106.9592,-12.68659 7.86035,-9.84028 -7.06876,-5.67425 -10.45033,-19.09881 13.85499,9.58182 18.27906,6.18602 21.528,0.53269 1.25634,-2.18611 1.17285,-10.21297 -0.59428,-13.08315 -5.40388,-8.77697 -23.05115,-4.17797 -20.9575,-18.13374 17.61855,-117.44183 -121.01229,-152.43286 -158.6406,-50.5762 0.79845,85.64604 5.65047,130.38608 -16.39803,152.26385" fill="#1c92cd"/>
<g id="g4798" transform="matrix(.61946 -.16455 .16455 .61946 35.837 23.489)">
<path id="path4618" sodipodi:nodetypes="cccccccccc" inkscape:connector-curvature="0" fill="#961370" d="m513.76 260.48c25.654 10.15 24.549 36.152 7.7353 59.353 26.649 0.64066 45.545-10.27 55.193-31.34 13.117 16.913 12.649 38.133-1.8162 60.211 27.613-0.99173 44.696-13.178 55.697-34.18 13.079 19.413 13.885 43.57 1.6204 66.889 25.856-2.7226 43.304-15.927 53.304-39.159 13.018 21.063 13.403 45.361 0.20098 70.784 110.27-31.894 85.522-225.15-178.16-217.05z"/>
<path id="path4450" sodipodi:nodetypes="cccccc" inkscape:connector-curvature="0" fill="#f3a4d9" d="m632.19 381.42c25.856-2.7226 43.304-15.927 53.304-39.159 13.018 21.063 13.403 45.361 0.20098 70.784 110.27-31.894 85.522-225.15-178.16-217.05l2.5904 26.839c160.05-7.0028 206.06 98.99 122.06 158.58z"/>
<path id="path3973-2" d="m513.76 260.48c25.654 10.15 24.549 36.152 7.7353 59.353 26.649 0.64066 45.545-10.27 55.193-31.34 13.117 16.913 12.649 38.133-1.8162 60.211 27.613-0.99173 44.696-13.178 55.697-34.18 13.079 19.413 13.885 43.57 1.6204 66.889 25.856-2.7226 43.304-15.927 53.304-39.159 13.018 21.063 13.403 45.361 0.20098 70.784 110.27-31.894 85.522-225.15-178.16-217.05z" sodipodi:nodetypes="cccccccccc" inkscape:connector-curvature="0" stroke="#d91e9b" stroke-miterlimit="20" stroke-width="8" fill="none"/>
<g id="g3963" stroke="#1c92cd" transform="matrix(.50792 .28136 -.28136 .50792 349.69 43.522)" clip-path="url(#clipPath4794-9)">
<path id="path3954" d="m628.46 126.99 89.367 60.195c167.96-329.22 127.7-354.01-89.367-60.195z" sodipodi:nodetypes="ccc" inkscape:connector-curvature="0" stroke-width="14.618" fill="#6dc6fb"/>
<path id="path3960" stroke-width="6.8889" inkscape:connector-curvature="0" fill="none" d="m720.48 14.234c26.781 6.4325 54.138 2.9481 77.414-11.623m-121.62 67.017c33.187 11.686 65.202 9.3714 99.536-9.8598m-136.76 60.592c31.444 16.352 72.192 16.959 110.6-1.1029"/>
</g>
</g>
<g id="g5412" transform="matrix(.64850 -.20471 .20471 .64850 12.246 55.604)">
<path id="path5410" sodipodi:nodetypes="cccccccc" inkscape:connector-curvature="0" fill="#961370" d="m431.45 306.4c-33.596 71.445-17.747 182.75 53.751 240.01-22.403-0.76102-42.137-5.7388-61.749-16.42 22.559 43.262 17.523 87.251-20.022 118.37 7.5088-35.216 1.8876-62.303-17.5-87.51-4.3229 66.764-29.143 106.28-86.948 129.45 86.57-130.31 13.53-327.98 143.55-451.24z"/>
<path id="path5408" sodipodi:nodetypes="cccccc" inkscape:connector-curvature="0" fill="#f3a4d9" d="m403.43 648.35c7.3078-35.258 1.8876-62.303-17.5-87.51-4.3229 66.764-29.143 106.28-86.948 129.45 86.57-130.3 13.53-327.97 143.55-451.23l-4.1905 25.46c-127.61 201.92 23.472 292.43-34.913 383.83z"/>
<path id="path5406" d="m431.45 306.4c-33.596 71.445-17.747 182.75 53.751 240.01-22.403-0.76102-42.137-5.7388-61.749-16.42 22.559 43.262 17.523 87.251-20.022 118.37 7.5088-35.216 1.8876-62.303-17.5-87.51-4.3229 66.764-29.143 106.28-86.948 129.45 86.57-130.31 13.53-327.98 143.55-451.24z" sodipodi:nodetypes="cccccccc" inkscape:connector-curvature="0" stroke="#d91e9b" stroke-miterlimit="20" stroke-width="8" fill="none"/>
</g>
<g id="g8265">
<path id="path3966" d="m411.34 120.71c4.88-41.163-17-71.679-25.78-73.239-8.66-1.54-74.06 60.219-22.33 139.24z" inkscape:transform-center-x="69.511141" inkscape:transform-center-y="-139.25369" inkscape:connector-curvature="0" sodipodi:nodetypes="cscc" fill="#6dc6fb"/>
<path id="path2992" d="m413.86 97.144c0.71092 6.0798 0.17377 11.849-0.67325 16.356-0.82693 4.4-1.8442 7.2065-1.8442 7.2065s-0.22572-2.9778-0.65332-7.3204c-0.60827-6.1774-0.92242-8.2041-1.7954-15.661-1.6495-14.098-6.2406-25.97-11.213-34.383-2.4862-4.2065-5.0724-7.5474-7.3652-9.838s-4.3995-3.4311-5.1884-3.5713h0.00001c0.4821 0.08573-0.8119 0.14553-2.4289 1.0889-1.617 0.94338-3.7326 2.5053-6.0764 4.6124-4.6877 4.2141-10.32 10.609-15.442 18.756-10.244 16.295-18.471 39.53-13.857 66.929 2.0355 12.165 5.6277 22.784 9.3511 31.583 3.5593 8.4114 6.5583 13.803 6.5583 13.803s-4.0342-4.6648-8.7916-12.672c-4.8872-8.2252-9.8949-19.172-12.048-31.884-4.8526-28.817 3.8104-53.33 14.555-70.421 5.3721-8.5452 11.259-15.253 16.332-19.814 2.5368-2.2805 4.8624-4.0243 6.8994-5.2127 2.037-1.1885 3.6099-2.0867 5.8239-1.693h0.00001c2.72 0.48366 5.1709 2.2836 7.8468 4.9569s5.4693 6.3198 8.1358 10.831c5.3328 9.0227 10.139 21.509 11.875 36.346z" inkscape:transform-center-x="69.511141" inkscape:transform-center-y="-139.25369" inkscape:connector-curvature="0" inkscape:original-d="M 411.3409,120.70625 C 416.21881,79.546958 394.33524,49.031077 385.56325,47.471273 376.90383,45.931488 311.4965,107.68892 363.23089,186.70538" sodipodi:nodetypes="csc" fill="#1c92cd"/>
<path id="path3005" d="m380.6 77.493c-19.103 22.188-23.17 48.823-13.599 76.403-4.7959-24.631-0.11203-54.359 13.599-76.403z" fill-rule="evenodd" sodipodi:nodetypes="ccc" inkscape:connector-curvature="0" fill="#1c92cd"/>
</g>
<path id="path4345" d="m520.57 212.11c1.8872 1.1201 3.8908 1.9808 6.8058 0.80819 0.0685 0.11754-4.1958 5.818-6.8058-0.80819z" fill-rule="evenodd" sodipodi:nodetypes="ccc" inkscape:connector-curvature="0" fill="#1c92cd"/>
<path id="path4353" inkscape:original-d="m 482.30235,183.30681 c 3.86435,41.70271 -57.02588,40.72443 -71.73652,-3.02986 -6.47322,1.85855 -16.58655,2.83188 -17.37717,3.02986" sodipodi:nodetypes="ccc" inkscape:connector-curvature="0" d="m482.3 183.31s-0.19823 1.6978-0.85508 5.2011c-0.60926 3.2496-1.8501 8.6814-5.3656 13.576-0.67913 0.9455-1.5441 1.996-2.649 3.0546-3.926 3.7613-10.523 7.1447-19.981 6.9812-8.5245-0.14737-17.376-3.2173-24.814-8.7096-7.4889-5.5296-11.949-12.276-14.512-17.652-0.90008-1.8879-1.6933-3.849-2.3767-5.8784-0.1293-0.38394-0.25432-0.76932-0.37505-1.156-0.38248 0.12372-0.76679 0.24171-1.1528 0.35396-3.4006 0.98885-8.4356 1.9164-10.62 2.3424-2.1059 0.41074-3.3772 0.67718-4.3583 0.93354-0.68218 0.17826-1.1104 0.32443-1.3993 0.44946-0.36546 0.15816-0.51181 0.28605-0.58177 0.37068-0.0693 0.0839-0.0733 0.13367-0.0733 0.13367s0.0276 0.04 0.1147 0.0945c0.0907 0.0568 0.25171 0.1308 0.64653 0.1882 0.30328 0.0441 0.75928 0.0788 1.4612 0.0799 0.92608 0.001 2.4094-0.058 4.4801-0.25973 2.2453-0.21878 6.2633-0.72239 9.8757-1.628 0.62189 1.7324 1.3231 3.4173 2.1023 5.0517 2.6864 5.6349 7.2544 12.804 15.076 18.82 7.751 5.9627 17.128 9.5132 26.403 9.9034 10.332 0.43466 18.022-3.0829 22.804-7.536 1.3289-1.2372 2.3695-2.4781 3.1782-3.604 4.2959-5.9811 4.4324-12.422 4.115-15.825-0.34916-3.7441-1.1431-5.2856-1.1431-5.2856z"/>
<path id="path4357" d="m412.73 186.16c-17.276 6.0874-17.774 4.6727-17.774 4.6727s-0.49851-1.4147 16.777-7.5022l0.00017-0.00006 0.99703 2.8295-0.00017 0.00006z" fill-rule="evenodd" sodipodi:nodetypes="cc" inkscape:connector-curvature="0" inkscape:original-d="m 394.95153,190.8309 17.27576,-6.0875"/>
<path id="path4361" d="m415.2 190.91c-14.762 7.8804-15.468 6.5572-15.468 6.5572s-0.70641-1.3232 14.055-9.2037l0.70523 1.321c0.00015-0.00007 0.001 0.002 0.001 0.002l0.001 0.002 0.70523 1.321z" fill-rule="evenodd" sodipodi:nodetypes="cc" inkscape:connector-curvature="0" inkscape:original-d="m 399.73573,197.4665 14.76173,-7.88051"/>
</g>
</svg>
