<svg xmlns="http://www.w3.org/2000/svg" xmlns:inkscape="http://www.inkscape.org/namespaces/inkscape" xmlns:sodipodi="http://sodipodi.sourceforge.net/DTD/sodipodi-0.dtd" xmlns:xlink="http://www.w3.org/1999/xlink" height="1024" viewBox="0 0 1792 1024" width="1792">
  <defs>
    <linearGradient id="linearGradient25809">
      <stop offset="0" stop-color="#91dee4" />
      <stop offset="1" stop-color="#c1ecef" />
    </linearGradient>
    <inkscape:path-effect effect="powerstroke" id="path-effect25777" interpolator_type="CubicBezierSmooth" offset_points="0.19,3.5" start_linecap_type="zerowidth" />
    <inkscape:path-effect effect="powerstroke" id="path-effect25767" interpolator_type="CubicBezierSmooth" offset_points="0.32,3.5" start_linecap_type="zerowidth" />
    <inkscape:path-effect effect="powerstroke" id="path-effect16165" interpolator_type="CubicBezierSmooth" offset_points="0.3,1.75 | 11,1.75" start_linecap_type="zerowidth" />
    <inkscape:path-effect effect="powerstroke" end_linecap_type="zerowidth" id="path-effect16103" interpolator_type="CubicBezierSmooth" offset_points="0.26,1.75 | 1.69,1.75" start_linecap_type="zerowidth" />
    <inkscape:path-effect effect="powerstroke" id="path-effect16097" interpolator_type="CubicBezierSmooth" offset_points="0.84,1.75" start_linecap_type="zerowidth" />
    <inkscape:path-effect bendpath1="m 159.65,517.50294 h 43.2" bendpath2="m 207.49907,523.58125 c -10.99098,10.00307 -12.74448,23.60447 -1.6314,35.73092" bendpath3="m 159.65,561.66357 h 43.2" bendpath4="m 167.81319,520.28428 c -14.24154,11.52294 -16.18427,27.04263 -3.76003,40.12702" effect="envelope" id="path-effect4356" yy="false" />
    <inkscape:path-effect effect="powerstroke" end_linecap_type="zerowidth" id="path-effect4579" interpolator_type="CubicBezierSmooth" offset_points="0.23,1.75 | 1.81,1.75" start_linecap_type="zerowidth" />
    <inkscape:path-effect effect="powerstroke" end_linecap_type="zerowidth" id="path-effect4573" interpolator_type="CubicBezierSmooth" miter_limit="20" offset_points="0.57,3.5 | 6.65,3.5" start_linecap_type="zerowidth" />
    <inkscape:path-effect effect="join_type" id="path-effect4470" line_width="7" />
    <inkscape:path-effect effect="powerstroke" id="path-effect4453" interpolator_type="CubicBezierSmooth" offset_points="0.53,3.5" start_linecap_type="zerowidth" />
    <inkscape:path-effect effect="powerstroke" id="path-effect4389" interpolator_type="CubicBezierSmooth" offset_points="0.6,3.5" start_linecap_type="zerowidth" />
    <inkscape:path-effect effect="powerstroke" end_linecap_type="zerowidth" id="path-effect4387" interpolator_type="CubicBezierSmooth" offset_points="0.53,3.5 | 3.69,3.5" start_linecap_type="zerowidth" />
    <inkscape:path-effect effect="powerstroke" id="path-effect4355" interpolator_type="CubicBezierSmooth" offset_points="0.54,3.5" start_linecap_type="zerowidth" />
    <inkscape:path-effect effect="powerstroke" id="path-effect11685" interpolator_type="CubicBezierSmooth" offset_points="0.28,3.5 | 2,3.5" start_linecap_type="zerowidth" />
    <inkscape:path-effect effect="powerstroke" id="path-effect11683" interpolator_type="CubicBezierSmooth" offset_points="0.31,3.5" start_linecap_type="zerowidth" />
    <inkscape:path-effect effect="powerstroke" id="path-effect11671" interpolator_type="CubicBezierSmooth" offset_points="0.22,3.5" start_linecap_type="zerowidth" />
    <linearGradient id="linearGradient10735">
      <stop offset="0" stop-color="#230f38" />
      <stop offset="1" stop-color="#5c2594" />
    </linearGradient>
    <inkscape:path-effect effect="powerstroke" end_linecap_type="zerowidth" id="path-effect12897" interpolator_type="CubicBezierSmooth" offset_points="0.2,3.5 | 1.66,3.5" start_linecap_type="zerowidth" />
    <clipPath id="clipPath10747">
      <use xlink:href="#ellipse4764" />
    </clipPath>
    <clipPath id="clipPath10763">
      <use xlink:href="#ellipse4158" />
    </clipPath>
    <clipPath id="clipPath11616">
      <use xlink:href="#ellipse4186" />
    </clipPath>
    <clipPath id="clipPath11650">
      <use xlink:href="#path10982" />
    </clipPath>
    <clipPath id="clipPath4481">
      <path d="m 599.3338,130.87159 c -62.19795,20.59404 31.35079,107.45692 43.28948,29.41238 1.66825,-11.95853 5.95082,-21.15184 15.76817,-28.58296 85.87246,-100.231255 28.80024,-131.47252877 -35.6297,-24.07446 -4.56834,11.1509 -11.49632,19.48594 -23.42795,23.24504 z" />
    </clipPath>
    <clipPath id="clipPath115">
      <path d="m 319.12542,382.52387 -7.07439,-131.63076 c 114.22068,-1.6329 112.89887,113.01564 7.07439,131.63076 z" />
    </clipPath>
    <clipPath id="clipPath16744">
      <path d="m 300.62347,563.87799 c 30.36322,-25.46803 58.07687,2.81929 28.21862,31.59304 -63.76497,61.44891 -99.34787,28.06866 -28.21862,-31.59304 z" />
    </clipPath>
    <filter color-interpolation-filters="sRGB" height="1.2656693" id="filter19860" width="1.0987673" x="-0.04938364" y="-0.13283464">
      <feGaussianBlur stdDeviation="1.6665579" />
    </filter>
    <linearGradient gradientUnits="userSpaceOnUse" id="linearGradient25811" x1="388.04288" x2="1733.5238" y1="406.36215" y2="406.36215" xlink:href="#linearGradient25809" />
    <linearGradient gradientUnits="userSpaceOnUse" id="linearGradient25825" x1="428.267" x2="421.78052" y1="397.80029" y2="466.78757" xlink:href="#linearGradient10735" />
    <linearGradient gradientUnits="userSpaceOnUse" id="linearGradient25827" x1="662.19769" x2="664.09637" y1="207.95151" y2="274.01474" xlink:href="#linearGradient10735" />
    <filter color-interpolation-filters="sRGB" height="1.074643" id="filter1002" width="1.0353737" x="-0.017686868" y="-0.037321494">
      <feGaussianBlur stdDeviation="3.1523081" />
    </filter>
    <inkscape:path-effect effect="powerstroke" end_linecap_type="zerowidth" id="path-effect4537" interpolator_type="CubicBezierSmooth" offset_points="0.39,3.5 | 1.74,3.5" start_linecap_type="zerowidth" />
  </defs>
  <g inkscape:groupmode="layer" inkscape:label="Drawing">
    <rect fill="url(#linearGradient25811)" height="1024" width="1792" />
    <g transform="translate(0-13)">
      <path d="M 775.2837,911.95807 -4.4280684,1388.028 -207.56218,-3.2697788 C 161.246,-324.86786 681.7629,127.22577 383.79992,570.56575 766.69499,405.19137 948.56422,684.33963 775.2837,911.95807 Z" fill="#fff" />
      <path fill="#c1ecef" inkscape:original-d="M 241.08079,524.87208 C 341.52698,449.28163 223.06509,324.09469 128.13699,384.93171 -8.2241555,472.32213 117.73351,710.53916 313.69373,604.60294 743.95031,372.00596 958.8082,670.8833 775.2837,911.95807 L -4.4280684,1388.028 -207.56218,-3.2697788 C 161.246,-324.86786 681.7629,127.22577 383.903,570.61269" inkscape:path-effect="#path-effect25777" />
    </g>
    <g transform="translate(0-13)">
      <path d="m 1443.3135,627.26766 c -199.294,-138.42791 -366.3912,247.8353 -117.9781,329.65949 l 757.913,70.55225 40.041,-909.9065 c -345.5152,-176.669513 -512.0401,71.79458 -430.4287,277.27313 -101.6917,-14.29831 -233.6871,54.31354 -249.5472,232.42163 z" fill="#fff" />
      <path fill="#c1ecef" inkscape:original-d="m 1743.2523,511.10403 c -37.7794,-34.86277 -98.3737,-0.81722 -83.5436,59.33415 19.8012,80.31413 179.5707,52.61104 150.6713,-77.56221 -34.3793,-154.8566 -342.3016,-143.71754 -367.0665,134.39169 -199.294,-138.42791 -366.3912,247.8353 -117.9781,329.65949 l 757.913,70.55225 40.041,-909.9065 c -345.5152,-176.669513 -512.0401,71.79458 -430.6411,277.20966" inkscape:path-effect="#path-effect25767" />
    </g>
    <g transform="translate(865.94684 4.464495)">
      <path d="M 112.19345,268.55002 C 43.998334,281.27685 6.8376683,283.56097 4.4523229,273.95292 1.9928242,264.04619 26.815445,244.67783 90.836638,230.609 251.04313,195.40312 453.36206,276.65226 429.29778,295.62216 c -49.64321,39.1338 -77.99104,95.25162 -27.66216,138.66107 27.18188,23.4448 9.613,52.0625 -14.92983,58.90898 L 347.81475,469.17076 C 279.80024,467.91447 262.04498,446.2357 292.2389,431.94698 241.39523,428.24459 242.3564,404.4362 276.85297,390.17936 231.18764,387.47044 225.19414,347.68938 256.27027,339.85557 199.16325,325.42068 188.01626,289.70079 244.03829,275.3507 201.42876,250.43035 156.0117,260.3725 112.19345,268.55002 Z" style="fill:#11a2f9;stroke-miterlimit:20;stroke:#1c92cd;stroke-width:7" />
      <path d="m 471.62367,700.06714 c -0.37694,28.30188 -8.44628,51.10129 -28.32084,67.5894 -44.81551,37.17929 8.33064,154.79762 49.73165,128.46389 52.589,-33.45001 58.57882,-138.11173 40.9287,-221.12831 -10.29243,-48.40999 -63.02627,-51.70414 -110.33654,-7.50226 z" fill="#11a2f9" stroke="#1c92cd" stroke-width="7" />
      <g>
        <path d="m 314.37274,643.75596 -95.42427,-38.09201 -36.20263,43.24639 c 13.10416,52.40635 13.43433,116.11045 -0.85366,172.166 -14.73241,57.79912 104.12709,116.74697 119.86827,40.83993 9.8272,-47.38869 -2.77982,-126.92744 -24.79236,-174.38542 17.75319,-8.53988 30.16303,-25.01576 37.40465,-43.77489 z" fill="#11a2f9" />
        <path fill="#1c92cd" inkscape:original-d="m 247.61291,693.48089 c 34.05047,0.75302 56.05349,-21.99059 66.75983,-49.72493 l -95.42427,-38.09201 -36.20263,43.24639 c 13.10416,52.40635 13.43433,116.11045 -0.85366,172.166 -14.73241,57.79912 104.12709,116.74697 119.86827,40.83993 9.8272,-47.38869 -2.77982,-126.92744 -24.73517,-174.3116" inkscape:path-effect="#path-effect4453" />
      </g>
      <g>
        <path d="M 223.7097,458.709 C 161.89279,363.9033 33.361785,389.50469 2.3803033,491.98615 -16.097469,553.10747 8.8988264,578.26359 -5.16751,635.4717 c 21.173997,-22.51467 30.459056,-43.74887 34.817257,-69.71537 24.662668,102.3022 12.854309,197.70099 -84.965024,246.58769 75.436544,1.4985 110.05405,-11.45396 136.41792,-36.1358 -4.703973,20.52873 -16.852698,41.49123 -37.0394,56.76489 C 152.55545,810.39878 200.10124,720.73953 167.08956,598.10644 136.85049,485.77311 175.65573,459.05141 197.98835,478.87502 Z" fill="#f3a4d9" />
        <path d="M 81.102643,776.20822 C 76.39867,796.73695 64.249945,817.69945 44.063243,832.97311 152.55545,810.39878 200.10124,720.73953 167.08956,598.10644 136.85049,485.77311 175.65573,459.05141 197.98835,478.87502 l 14.97393,-12.21915 C 156.19415,402.31559 56.210957,429.34088 82.277115,559.5176 108.34327,689.69433 76.729971,782.66912 -55.315277,812.34402 c 75.436544,1.4985 110.05405,-11.45396 136.41792,-36.1358 z" fill="#961370" />
        <path d="M 223.7097,458.709 C 161.89279,363.9033 33.361785,389.50469 2.3803033,491.98615 -16.097469,553.10747 8.8988264,578.26359 -5.16751,635.4717 c 21.173997,-22.51467 30.459056,-43.74887 34.817257,-69.71537 24.662668,102.3022 12.854309,197.70099 -84.965024,246.58769 75.436544,1.4985 110.05405,-11.45396 136.41792,-36.1358 -4.703973,20.52873 -16.852698,41.49123 -37.0394,56.76489 C 152.55545,810.39878 200.10124,720.73953 167.08956,598.10644 136.85049,485.77311 175.65573,459.05141 197.98835,478.87502 Z" style="fill:none;stroke-miterlimit:8;stroke:#d91e9b;stroke-width:7" />
      </g>
      <path d="m 443.2838,654.68097 c -58.45916,52.15305 -149.53726,45.49161 -201.78938,-4.25056 -9.85513,18.52107 -24.60336,32.78875 -43.31245,39.61864 15.04004,52.65729 19.53835,128.72117 5.73853,176.10986 C 181.44995,943.32296 67.180969,874.3208 86.535872,819.66213 106.72773,762.63986 111.95933,702.2309 103.7065,650.32455 c -3.963548,-24.92883 12.21175,-43.16619 39.74564,-43.02311 -15.14222,-52.73504 -10.48112,-116.16277 37.73771,-151.26383 75.34284,-54.84608 129.01987,17.71148 177.56363,4.00897 11.4963,-42.1103 4.99333,-98.20739 15.60274,-171.40875 32.30264,-222.877339 349.25921,-154.76442 272.64814,67.02637 12.5676,5.84895 14.2306,14.65638 12.3328,21.23396 -11.4584,39.7141 -67.8412,75.4945 -146.65018,64.75396 -42.08788,100.95724 3.33208,148.1397 -69.40318,213.02885 z" fill="#6dc6fb" />
      <path d="m 231.31736,510.00027 c 1.67885,-39.05711 19.75786,-64.33866 54.98212,-73.17658 l 28.92964,6.51647 c -31.63744,6.59617 -48.37362,43.49971 -45.56894,78.97 z" fill="#42215f" />
      <g transform="matrix(1.3723906.19617098-.67877827 3.2484142 310.13776-1269.1603)" inkscape:path-effect="#path-effect4356">
        <path fill="#54a2e1" inkscape:original-d="m 163.30577,526.50294 c 14.87436,-2.23686 19.89397,5.25736 22.33416,10.0839 l 1.89545,-0.51699 c -1.74115,-6.61576 -6.81077,-14.19659 -17.43179,-14.99275 z m 15.58846,35.16063 c -9.37436,-11.76314 -5.39397,-19.85737 -2.43416,-24.38391 l -1.39545,-1.38301 c -4.85885,4.81577 -8.88923,12.9966 -4.26821,22.59275 z M 201.55,530.58325 c -5.5,14 -14.5,14.6 -19.9,14.3 l -0.5,1.9 c 6.6,1.8 15.7,1.2 21.7,-7.6 z" />
        <path fill="#5a318e" inkscape:original-d="m 199.19423,552.66357 c -14.87436,2.23686 -19.89397,-5.25737 -22.33416,-10.08391 l -1.89545,0.51699 c 1.74115,6.61577 6.81077,14.1966 17.43179,14.99275 z m -15.58846,-35.16063 c 9.37436,11.76314 5.39397,19.85736 2.43417,24.3839 l 1.39544,1.38301 c 4.85885,-4.81576 8.88923,-12.99659 4.26821,-22.59275 z M 160.95,548.58325 c 5.5,-14 14.5,-14.6 19.9,-14.3 l 0.5,-1.9 c -6.6,-1.8 -15.7,-1.2 -21.7,7.6 z" />
        <path fill="#576ab7" font-variant-east-asian="normal" vector-effect="none" inkscape:original-d="m 182.48047,527.93872 -10.69727,4.75391 -1.24023,11.64453 9.47656,6.89062 10.69727,-4.7539 1.24023,-11.64453 z m -0.1211,1.14844 8.54297,6.21094 -1.11914,10.49609 -9.64258,4.28516 -8.54296,-6.21094 1.11914,-10.4961 z" />
      </g>
      <g transform="translate(0 2)">
        <g clip-path="url(#clipPath10763)">
          <ellipse cx="470.1871" cy="-368.55722" fill="#fff" id="ellipse4158" rx="69.841949" ry="58.120152" transform="rotate(67.602353)" />
          <g clip-path="url(#clipPath10747)">
            <ellipse cx="439.83521" cy="431.17511" fill="url(#linearGradient25825)" id="ellipse4764" rx="42.507027" ry="51.784752" transform="rotate(343.76293)" />
            <path d="m 553.78355,291.86632 -39.07426,67.82 -26.66273,-35.17054 z" fill="#8f4dd3" />
            <path d="m 553.78355,291.86632 -68.03566,14.89393 9.70675,28.07467 z" fill="#62289e" />
            <ellipse cx="432.24966" cy="-443.43811" rx="41.535973" ry="34.094398" transform="rotate(73.762937)" />
            <ellipse cx="592.13751" cy="-5.8126001" fill="#fff" rx="14.36674" ry="19.713081" transform="rotate(27.877504)" />
            <ellipse cx="617.10242" cy="11.483599" fill="#fff" rx="5.0549631" ry="6.9360805" transform="rotate(27.877504)" />
          </g>
        </g>
        <path d="m 478.36426,237.89218 c -23.11926,-26.52799 -27.09263,-22.48123 -4.10367,3.64074 m -7.8739,10.26962 c -30.56505,-17.84864 -32.8092,-13.19104 -2.84527,4.69036 m -6.64977,12.51285 c -30.08661,-3.86526 -31.20588,1.50253 3.81737,5.81478 8.31664,-41.9172 46.13294,-55.83541 77.3954,-39.51163 29.68904,15.50221 49.93683,56.39969 34.72089,98.597 22.11717,-37.62334 1.06123,-85.57425 -32.35351,-103.11107 -32.99353,-17.31576 -74.58884,-2.65509 -83.58015,38.21092 z" />
      </g>
      <path fill="#1c92cd" inkscape:original-d="M 344.77976,491.14355 C 374.97254,446.81339 360.89962,381.48385 374.35622,288.63783 406.65886,65.760492 723.61543,133.87341 646.59196,356.0973" inkscape:path-effect="#path-effect11683" />
      <path fill="#1c92cd" inkscape:original-d="m 155.48185,639.63823 c -27.17657,-56.6941 -32.80656,-141.00475 25.708,-183.60062 75.34284,-54.84608 129.01987,17.71148 177.63743,3.93255" inkscape:path-effect="#path-effect11685" />
      <g>
        <path d="m 657.15944,273.41479 c 23.77975,-1.30369 24.12738,2.57038 0.3661,4.65559 m -2.59455,-20.15275 c 25.79869,-4.14476 26.50182,-0.20028 0.82078,4.58081" />
        <g clip-path="url(#clipPath11650)">
          <path d="m 618.60656,338.15719 c -9.25309,-56.14247 5.92915,-89.40349 34.01876,-93.16908 11.22368,33.82094 7.87179,70.96063 -5.17451,110.04952 -12.66555,-2.77933 -23.93838,-8.78919 -28.84425,-16.88044 z" fill="#fff" id="path10982" />
          <g clip-path="url(#clipPath11616)" transform="translate(-15.179647-6.904173)scale(1.0235071)">
            <ellipse cx="667.8924" cy="239.09584" fill="url(#linearGradient25827)" id="ellipse4186" rx="17.764521" ry="45.252625" transform="rotate(4.7608741)" />
            <path d="m 651.05583,297.76934 -18.38654,43.18851 -15.39383,-20.4365 z" fill="#8f4dd3" />
            <path d="m 651.05583,297.76934 -37.8641,7.91075 8.08187,23.50854 z" fill="#62289e" />
            <ellipse cx="670.54358" cy="234.45993" rx="13.303088" ry="37.310467" transform="rotate(5.0614885)" />
            <ellipse cx="-133.3812" cy="686.07928" fill="#fff" rx="16.767664" ry="5.8229947" transform="rotate(282.37928)" />
            <ellipse cx="-163.23679" cy="692.75183" fill="#fff" rx="5.3395319" ry="2.3898737" transform="rotate(281.80867)" />
          </g>
        </g>
        <path d="m 618.60656,338.15719 c -12.18404,-52.69402 1.80992,-87.90422 33.13275,-95.43694 22.34005,-5.37248 23.46844,-1.45658 1.38601,4.01786 -30.07982,7.45707 -40.59538,38.65068 -34.51876,91.41908 z" />
      </g>
      <path fill="#1c92cd" inkscape:original-d="m 618.60656,338.15719 c 18.2512,23.57922 44.5123,12.87096 40.6383,39.12875 -3.9282,26.62552 -65.623,93.3633 -190.4308,54.52115" inkscape:path-effect="#path-effect4537" />
      <path fill="#1c92cd" inkscape:original-d="m 205.45577,588.65701 c 24.95609,100.79824 160.17182,135.30323 237.82803,66.02396 72.73525,-64.88916 27.3153,-112.07161 69.23155,-213.10163" inkscape:path-effect="#path-effect11671" />
      <path fill="#1c92cd" inkscape:original-d="m 163.90007,694.1451 c 35.25681,3.50302 62.31016,-14.99059 77.44627,-43.97493" inkscape:path-effect="#path-effect4355" />
      <path d="m 143.53449,607.07816 c -27.61624,0.0802 -43.791538,18.31756 -39.82799,43.24639 8.25283,51.90635 3.02123,112.31531 -17.170628,169.33758 -19.354903,54.65867 94.914078,123.66083 117.384628,46.49678 13.79982,-47.38869 9.30151,-123.45257 -5.76216,-176.14003" fill="none" stroke="#1c92cd" stroke-width="7" />
      <g>
        <path d="m 397.38996,632.4457 c -0.4474,6.8313 0.0428,13.27124 2.59941,19.85111 51.43691,-23.72607 95.13289,-7.01468 93.83186,39.06267 -2.39548,84.83833 -32.86321,185.14621 -91.85029,205.27156 -46.43795,15.84381 -70.39204,-110.98199 -18.08166,-136.5623 17.15822,-8.39054 28.85301,-21.65741 36.74158,-39.08395 -23.07511,-4.20432 -75.05283,10.67052 -91.87255,-21.1264 -10.43327,-19.72363 -6.97495,-47.54511 13.53313,-69.4232 z" fill="#6dc6fb" />
        <path fill="#1c92cd" inkscape:original-d="m 427.33003,701.04927 c -7.03103,27.4172 -20.24238,47.67523 -43.44075,59.01947 -52.31039,25.5803 -28.35629,152.40611 18.08166,136.5623 58.98708,-20.12535 89.45482,-120.43323 91.85029,-205.27156 1.39689,-49.47231 -49.07823,-65.0919 -105.46695,-33.27397" inkscape:path-effect="#path-effect4387" />
        <path fill="#1c92cd" inkscape:original-d="m 342.29144,630.43519 c -20.50808,21.87809 -23.9664,49.69957 -13.53313,69.4232 16.81972,31.79692 68.79744,16.92208 91.98951,21.13309" inkscape:path-effect="#path-effect4389" />
        <path d="m 397.25164,653.55961 c -1.78998,-7.10624 -1.90716,-14.08903 0.13832,-21.11391 0.89302,6.82472 2.39901,12.83694 5.77497,18.84916 z" fill="#1c92cd" />
      </g>
      <g id="g4585">
        <path d="m 332.46651,497.38771 c 24.06111,-8.3838 40.2604,-38.69477 11.17719,-59.73473 -62.81558,-45.4431 -9.8212,-117.29936 16.28586,-140.97205 l -161.64512,22.33635 c -59.38309,-5.20162 -62.9877,32.26717 -4.1162,42.50209 -30.51895,9.78203 -23.59019,40.186 22.15505,40.00364 -33.52664,16.40838 -32.9813,40.22993 17.99471,40.71181 -29.23057,16.16829 -10.1408,36.68167 57.81715,33.63721 z" fill="#6dc6fb" />
        <path fill="#1c92cd" inkscape:original-d="m 277.28797,416.31652 c -40.5045,-72.31034 34.00808,-77.78327 19.73166,-113.50383 -12.83616,-32.11729 -72.6774,-7.58072 -31.4909,29.57387" inkscape:path-effect="#path-effect4579" />
        <path fill="#1c92cd" inkscape:original-d="m 332.46651,497.38771 c 24.06111,-8.3838 40.2604,-38.69477 11.17719,-59.73473 -62.81558,-45.4431 -9.8212,-117.29936 16.28586,-140.97205 l -161.64512,22.33635 c -59.38309,-5.20162 -62.9877,32.26717 -4.1162,42.50209 -30.51895,9.78203 -23.59019,40.186 22.15505,40.00364 -33.52664,16.40838 -32.9813,40.22993 17.99471,40.71181 -29.23057,16.16829 -10.1408,36.68167 57.81715,33.63721" inkscape:path-effect="#path-effect4573" />
        <path d="m 44.306431,290.54259 c -65.714569,17.15757 -104.196533,21.63898 -107.184328,12.20089 -3.080618,-9.73151 20.468357,-30.62983 83.47249,-48.71641 157.661397,-45.25989 357.375267,20.66126 348.960897,44.92984 -9.5051,27.41414 -89.91123,-1.94901 -237.97013,61.01418 C 62.831062,389.20939 55.304604,358.8136 94.173302,324.79638 -36.2631,394.09917 -15.241786,324.90773 44.306431,290.54259 Z" style="fill:#6dc6fb;stroke-miterlimit:20;stroke:#1c92cd;stroke-width:7" />
      </g>
      <path d="m 318.82608,573.48868 c -14.8881,-21.40245 -56.67113,-71.99572 -69.01684,-73.89278 -12.25557,-1.88328 -56.26636,25.46813 -82.21803,40.08982 26.06052,113.04874 158.86601,44.77314 151.23487,33.80296 z" style="stroke:#42215f;stroke-miterlimit:8;fill:#5c347c;stroke-width:5" />
      <g id="g183">
        <g>
          <path d="M 396.42542,155.35853 C 264.42298,329.9918 372.39114,502.13664 282.56639,607.32084 c 67.14737,-30.30871 88.69159,-80.41418 83.62165,-136.2069 21.62403,23.20358 24.71513,61.2053 8.54883,95.71265 44.33501,-29.34391 52.42146,-71.27813 36.66679,-113.97221 19.08562,7.81149 36.99744,8.14101 56.34212,1.72963 -54.10891,-20.72732 -97.35253,-100.80312 -77.08914,-187.5102 z" fill="#f3a4d9" fill-rule="evenodd" />
          <path d="m 390.65664,267.07381 c -20.26339,86.70708 22.98023,166.78288 77.08914,187.5102 -19.34468,6.41138 -37.2565,6.08186 -56.34212,-1.72963 15.75467,42.69408 7.66822,84.6283 -36.66679,113.97221 90.84852,-108.32245 -92.25286,-132.08678 19.48146,-368.72709 z" fill="#961370" fill-rule="evenodd" />
          <path d="M 396.42542,155.35853 C 264.42298,329.9918 372.39114,502.13664 282.56639,607.32084 c 67.14737,-30.30871 88.69159,-80.41418 83.62165,-136.2069 21.62403,23.20358 24.71513,61.2053 8.54883,95.71265 44.33501,-29.34391 52.42146,-71.27813 36.66679,-113.97221 19.08562,7.81149 36.99744,8.14101 56.34212,1.72963 -54.10891,-20.72732 -97.35253,-100.80312 -77.08914,-187.5102 z" style="fill:none;stroke-miterlimit:20;stroke:#d91e9b;stroke-width:7" />
        </g>
        <g>
          <path d="m 468.2599,185.82311 c 19.66044,13.06645 26.54257,35.6215 14.09949,60.80415 29.25207,-9.85698 44.3548,-28.36155 46.62783,-55.79676 20.60125,14.89226 24.99232,34.19878 18.24785,59.99548 27.78657,-9.22108 42.26914,-28.33029 43.5997,-57.06791 21.35374,17.27909 28.06949,38.13965 21.82265,63.62582 28.45857,-11.33449 40.99391,-31.02213 39.69766,-58.95458 18.58724,15.56772 25.99514,34.97657 23.51037,60.12514 72.71626,-67.20125 3.46665,-222.461481 -142.75859,-146.87013 -27.12801,14.02382 -63.20713,20.37441 -98.3111,20.71232 z" fill="#f3a4d9" />
          <path d="m 544.63199,139.51275 c -26.13368,10.26779 -60.98226,15.21019 -95.83623,15.2981 l 19.46414,31.01226 c 19.66044,13.06645 26.54257,35.6215 14.09949,60.80415 29.25207,-9.85698 44.3548,-28.36155 46.62783,-55.79676 20.60125,14.89226 24.99232,34.19878 18.24785,59.99548 27.78657,-9.22108 42.26914,-28.33029 43.5997,-57.06791 21.35374,17.27909 28.06949,38.13965 21.82265,63.62582 48.25402,-54.4181 1.76585,-145.29178 -68.02543,-117.87114 z" fill="#961370" />
          <path d="m 468.2599,185.82311 c 19.66044,13.06645 26.54257,35.6215 14.09949,60.80415 29.25207,-9.85698 44.3548,-28.36155 46.62783,-55.79676 20.60125,14.89226 24.99232,34.19878 18.24785,59.99548 27.78657,-9.22108 42.26914,-28.33029 43.5997,-57.06791 21.35374,17.27909 28.06949,38.13965 21.82265,63.62582 28.45857,-11.33449 40.99391,-31.02213 39.69766,-58.95458 18.58724,15.56772 25.99514,34.97657 23.51037,60.12514 72.71626,-67.20125 3.46665,-222.461481 -142.75859,-146.87013 -27.12801,14.02382 -63.20713,20.37441 -98.3111,20.71232 z" fill="none" stroke="#d91e9b" stroke-width="7" />
          <g clip-path="url(#clipPath4481)">
            <path d="M 564.48605,170.92369 C 715.93018,17.829768 718.37822,19.408111 611.43344,208.6171 Z" fill="#6dc6fb" stroke="#1c92cd" stroke-width="7" />
            <path d="m 635.01321,99.79389 c 14.70293,-0.64195 26.94873,-2.58574 39.91531,-6.543318 M 606.0338,128.4005 c 16.98971,4.04387 33.36848,4.68063 49.66096,1.98277 M 580.43,154.28348 c 18.57859,9.33857 36.09777,13.29021 54.15058,13.468" fill="none" stroke="#1c92cd" stroke-width="3.5" />
          </g>
          <path d="m 622.16425,113.1227 c -5.70258,5.61662 -11.8033,11.6771 -18.30796,18.1766 8.83044,12.42704 21.27242,21.27183 36.97391,25.01118 4.36794,-7.847 8.42985,-15.19699 12.18018,-22.0546 -12.53541,-2.95769 -23.28005,-10.41454 -30.84613,-21.13318 z" fill="#ebebeb" />
          <path d="m 628.0652,120.01029 -16.60705,21.05181 11.41413,8.97094 8.671,-26.82981 z" fill="#fff" />
          <path fill="#d7d7d7" inkscape:original-d="m 622.16425,113.1227 c -5.70258,5.61662 -11.8033,11.6771 -18.30796,18.1766 8.83044,12.42704 21.27242,21.27183 36.97391,25.01118 4.36794,-7.847 8.42985,-15.19699 12.18018,-22.0546 -12.53541,-2.95769 -23.28005,-10.41454 -30.84613,-21.13318 z" inkscape:path-effect="#path-effect4470" />
          <path d="m 544.63199,139.51275 85.79938,83.79732 c 11.88191,-50.72853 -29.33108,-105.98343 -85.79938,-83.79732 z" fill="#961370" />
        </g>
        <g>
          <path d="m 398.57787,291.52302 c -59.24623,-101.02264 11.28008,-180.53246 26.49651,-179.87116 15.10863,0.65659 51.88668,39.85757 50.15364,91.53018 -28.94588,22.39753 -54.03757,52.84192 -76.65015,88.34098 z" fill="#6dc6fb" />
          <path d="m 421.55317,162.22032 c -17.69363,17.39324 -20.50765,58.96746 -6.42904,79.65928 -9.46807,-24.33677 -7.92021,-57.47518 6.42904,-79.65928 z" fill="#1c92cd" />
          <path fill="#1c92cd" inkscape:original-d="m 398.57787,291.52302 c -59.24623,-101.02264 11.28008,-180.53246 26.49651,-179.87116 15.10863,0.65659 51.88668,39.85757 50.15364,91.53018" inkscape:path-effect="#path-effect12897" />
        </g>
      </g>
      <use clip-path="url(#clipPath115)" xlink:href="#g4585" />
      <g opacity=".6">
        <g>
          <path d="M 352.47404,374.68071 C 202.67475,338.86742 111.47661,424.12444 147.45214,613.80144 Z" fill="#8f9fc9" />
          <path d="M 172.62612,584.44058 298.36309,437.79129 C 178.30503,395.64437 140.24713,482.6555 172.62612,584.44058 Z" fill="#7689bb" />
          <path d="M 352.47404,374.68071 C 202.67475,338.86742 111.47661,424.12444 147.45214,613.80144 Z" style="stroke:#fff;fill:none;stroke-miterlimit:10.66666603;stroke-width:3.5" />
        </g>
        <path d="m 339.85467,507.27437 c 168.89121,-44.95776 176.59331,-10.42378 174.90424,14.42471 17.9007,7.17983 29.19891,3.32387 34.91378,-6.42092 -22.76245,-3.96675 -31.53267,-16.57186 -24.96578,-38.7761 8.00748,6.19986 16.27182,9.31328 24.03632,9.69461 6.05096,-4.44676 12.37758,-8.15668 18.91606,-11.29428 -7.50805,-5.09913 -11.87764,-11.65903 -15.92253,-21.13145 C 480.80878,460.15122 431.24,434.00429 401.8146,376.72838 316.25148,337.84149 164.62811,440.85841 124.85342,664.95282 l 172.32365,5.46526 c -19.23865,-56.38407 -10.64568,-114.81677 27.03112,-163.4913 5.05335,1.64316 10.57213,1.69835 15.64648,0.34759 z" fill="#7689bb" />
        <path d="m 536.77812,466.32989 c 5.08688,-0.23476 8.61483,1.68206 11.48038,5.84282 -5.03628,0.41268 -8.8539,-1.39074 -11.48038,-5.84282 z" style="fill:none;stroke-miterlimit:20;stroke:#fff;stroke-width:2.5" />
        <path fill="#fff" inkscape:original-d="m 295.17596,468.89777 c 11.3618,33.57738 28.48313,42.68776 44.67871,38.3766 168.89122,-44.95773 176.59331,-10.42378 174.90424,14.42471 17.9007,7.17983 29.19891,3.32387 34.91378,-6.42092 -22.76245,-3.96675 -31.53267,-16.57186 -24.96578,-38.7761 8.00748,6.19986 16.27182,9.31328 24.03632,9.69461 6.05096,-4.44676 12.37758,-8.15668 18.91606,-11.29428 -7.50805,-5.09913 -11.87764,-11.65903 -15.92253,-21.13145 C 480.80878,460.15122 431.24,434.00429 401.8146,376.72838 316.25148,337.84149 164.62811,440.85841 124.85342,664.95282 l 172.32365,5.46526 C 277.93842,614.03401 286.53139,555.60131 324.20533,506.9077" inkscape:path-effect="#path-effect16165" />
        <path d="m 413.517,433.16644 c -33.02175,17.61432 -57.31874,14.86955 -80.9932,-7.56633 22.96615,-3.20517 49.09687,-13.28085 70.17943,-10.61637 3.82188,5.59102 7.4295,11.65469 10.81377,18.1827 z" fill="#fff" />
        <path fill="#fff" inkscape:original-d="m 355.11046,397.88602 c 6.89815,4.5125 3.89205,12.8263 -2.98039,13.71644 -12.58298,1.62978 -17.19015,-21.82458 -0.51479,-24.83637 25.29557,-4.56871 46.049,15.82163 61.90172,46.40035 -33.02175,17.61432 -57.31874,14.86955 -80.9932,-7.56633 22.96615,-3.20517 49.09687,-13.28085 70.18504,-10.75176" inkscape:path-effect="#path-effect16097" />
        <path d="m 443.44605,427.92066 c 0.74029,7.47755 2.24141,15.58017 4.42487,22.08251 22.9799,4.09488 48.57724,5.57043 73.72292,4.4652" style="fill:none;stroke-miterlimit:10.66666603;stroke:#fff;stroke-width:3.5" />
        <path d="m 305.63238,395.90946 c -20.6114,-22.81159 -54.428,-28.76558 -89.71236,-15.85442 31.75186,10.60868 43.81053,34.25026 78.27679,35.61802 z" fill="#7689bb" />
        <path fill="#fff" inkscape:original-d="m 305.63238,395.90946 c -20.6114,-22.81159 -54.428,-28.76558 -89.71236,-15.85442 31.75186,10.60868 43.81053,34.25026 78.27679,35.61802" inkscape:path-effect="#path-effect16103" />
      </g>
      <path d="m 277.24978,570.96222 41.5763,2.52646 c 7.63117,10.97016 -5.76186,103.95449 -16.00379,112.82261 -51.62083,44.69657 -70.02554,49.6802 -125.2559,44.05264 z" style="stroke:#42215f;stroke-linejoin:round;fill:#6f3f95;stroke-width:5" />
      <path d="m 105.90877,653.3624 c 6.26126,-31.5695 13.18844,-66.92982 15.30914,-103.95856 1.18947,-20.77167 69.92359,-55.51265 87.52114,-52.08793 18.31085,3.56354 66.36556,60.66655 68.51073,73.64631 4.25252,25.73038 -2.88492,83.22721 -14.44837,104.2926 -12.21628,22.25466 -77.04325,55.94386 -85.23502,55.10911 -12.29841,-1.25322 -75.01909,-60.05299 -71.65762,-77.00153 z" style="stroke:#42215f;stroke-miterlimit:8;fill:#6f3f95;stroke-width:5" />
      <g>
        <path d="m 213.78718,599.86576 c -16.21004,8.64656 -31.33665,17.79335 -46.576,27.21671 m 17.67356,19.55351 c 4.83996,-21.69682 6.88376,-44.08729 10.65923,-66.35787 m -23.91747,13.0641 c 12.10241,12.40606 25.79212,26.10861 37.76179,38.9353 m -63.54111,7.30459 -21.85484,12.78712 m 55.742,24.70458 -5.2688,31.13754 m 52.25141,-58.66832 17.72702,17.66294 m -9.29294,-79.80879 21.85484,-12.75548 m -56.83376,-24.8014 4.7348,-31.13754 m -50.59428,56.18631 -17.71189,-18.87752 m 17.71189,18.87752 c 15.99741,-7.17786 29.12395,-5.60975 41.23134,5.38905 14.67313,-7.08981 30.39977,-4.54855 39.60706,7.11906 -1.86361,17.13838 -9.75305,32.13847 -25.76274,44.88034 -0.87899,22.75043 -12.22157,35.77697 -29.65395,44.79629 -11.81397,-15.19138 -16.43638,-29.74315 -12.52316,-49.99133 -12.40426,-16.12788 -14.87708,-33.57622 -12.89855,-52.19341 z m -8.46545,64.69304 c 10.0518,12.34426 24.05842,14.48115 39.03756,7.05388 12.74953,11.40956 28.59525,11.94276 41.83221,2.90704 3.61271,-17.86541 -0.81232,-36.82921 -12.92977,-49.67726 4.04558,-19.67753 -1.53446,-38.93529 -13.61507,-50.02547 -15.49782,7.64408 -26.54263,22.78692 -28.54561,43.50192 -16.93045,9.83944 -23.94958,26.97153 -25.77932,46.23989 z m -9.24644,-83.57056 c -2.13072,29.71677 -6.29152,64.19604 -12.6084,96.35768 15.58524,20.69737 30.05749,36.39475 50.4732,55.84212 24.46572,-12.41443 46.20092,-24.39994 69.97843,-41.00538 6.77471,-32.64027 10.72394,-64.59018 12.5619,-92.56427 -14.05151,-24.13371 -30.98538,-41.3673 -52.09896,-55.93894 -24.87283,8.05076 -47.02723,19.68342 -68.30617,37.30879 z" style="stroke:#b4a8fe;stroke-miterlimit:8;fill:none;stroke-width:2" />
        <g id="g13444">
          <ellipse cx="238.51451" cy="520.49921" rx="5.47153" ry="5.8478036" style="stroke:#451a7b;stroke-miterlimit:8;fill:#58219e;stroke-width:1.5" transform="rotate(10.8162)" />
          <ellipse cx="510.60782" cy="256.56799" fill="#fff" id="path13424" rx="1.4802605" ry="1.1401476" transform="rotate(49.256449)" />
        </g>
        <g id="g13440">
          <ellipse cx="244.21251" cy="617.51111" rx="5.47153" ry="5.8478036" style="stroke:#0d7bd3;stroke-miterlimit:8;fill:#45a4f0;stroke-width:1.5" transform="rotate(10.8162)" />
          <use transform="translate(-12.608408 96.357842)" xlink:href="#path13424" />
        </g>
        <use transform="translate(120.40514 18.630148)" xlink:href="#g13444" />
        <use transform="translate(37.864805 152.1998)" xlink:href="#g13444" />
        <use transform="translate(120.45163 14.836726)" xlink:href="#g13440" />
        <use transform="translate(80.914567-133.66648)" xlink:href="#g13440" />
        <use transform="translate(58.943235 24.266568)" xlink:href="#g13444" />
        <use transform="translate(9.2464453 83.570558)" xlink:href="#g13444" />
        <use transform="translate(90.116215 93.531478)" xlink:href="#g13444" />
        <use transform="translate(30.320287-77.480174)" xlink:href="#g13440" />
        <use transform="translate(111.15869-64.972064)" xlink:href="#g13440" />
        <use transform="translate(60.892397-5.7332541)" xlink:href="#g13440" />
        <use transform="translate(55.741997 24.704566)" xlink:href="#g13440" />
        <use transform="translate(89.794837-52.503474)" xlink:href="#g13440" />
        <use transform="translate(63.571375-6.1712524)" xlink:href="#g13444" />
        <use transform="translate(72.787555 76.265968)" xlink:href="#g13444" />
        <use transform="translate(30.610445 71.070928)" xlink:href="#g13444" />
        <use transform="translate(47.634157-59.027024)" xlink:href="#g13440" />
      </g>
      <use clip-path="url(#clipPath16744)" xlink:href="#g183" />
      <path d="m 355.11046,397.88602 c 6.89815,4.5125 3.89205,12.8263 -2.98039,13.71644 -12.58298,1.62978 -17.19015,-21.82458 -0.51479,-24.83637 25.29557,-4.56871 46.049,15.82163 61.90172,46.40035 -33.02175,17.61432 -57.31874,14.86955 -80.9932,-7.56633 22.96615,-3.20517 49.09687,-13.28085 70.18504,-10.75176 m -97.07646,-18.93889 c -20.6114,-22.81159 -54.428,-28.76558 -89.71236,-15.85442 31.75186,10.60868 43.81053,34.25026 78.27679,35.61802 m 0.97915,53.22471 c 11.3618,33.57738 28.48313,42.68776 44.67871,38.3766 168.89122,-44.95773 176.59331,-10.42378 174.90424,14.42471 17.9007,7.17983 29.19891,3.32387 34.91378,-6.42092 -22.76245,-3.96675 -31.53267,-16.57186 -24.96578,-38.7761 8.00748,6.19986 16.27182,9.31328 24.03632,9.69461 6.05096,-4.44676 12.37758,-8.15668 18.91606,-11.29428 -7.50805,-5.09913 -11.87764,-11.65903 -15.92253,-21.13145 -70.92798,6.38028 -120.49676,-19.76665 -149.92216,-77.04256 -29.86608,-13.57359 -67.78081,-9.85789 -106.17809,10.2614 m -31.66426,20.3278 c -28.6664,21.88878 -56.4263,52.93069 -80.05437,92.74817 M 292.84,569.39333 c 5.83688,-21.88712 16.26518,-42.96867 31.36533,-62.48563 m 13.34082,-135.4331 c -39.22624,-7.44832 -74.04216,-6.17085 -103.11171,3.508 m -15.32276,6.13167 c -47.20822,22.3205 -76.00798,70.27818 -79.20135,142.1253 m 408.34817,-51.06686 -11.48038,-5.84282 m -93.33207,-38.40923 c 0.74029,7.47755 2.24141,15.58017 4.42487,22.08251 22.9799,4.09488 48.57724,5.57043 73.72292,4.4652" style="stroke-linecap:round;stroke:#fff;filter:url(#filter1002);stroke-linejoin:round;fill:none;stroke-width:3.5" />
      <path d="m 413.517,433.16644 c -33.02175,17.61432 -57.31874,14.86955 -80.9932,-7.56633 22.96615,-3.20517 49.09687,-13.28085 70.17943,-10.61637 3.82188,5.59102 7.4295,11.65469 10.81377,18.1827 z" fill="#fff" filter="url(#filter19860)" />
      <path d="m 598.55306,378.36159 c 9.7071,18.76823 23.6711,27.52093 47.2827,24.78316 l -4.8144,7.03855 c -20.947,2.56358 -37.8679,-9.34301 -42.4683,-31.82171 z m 46.3376,-6.79762 c -5.2441,3.52904 -8.9307,2.04917 -10.6885,-4.00795 -2.6795,10.28832 5.3809,13.82863 10.6885,4.00795 z" fill="#1c92cd" />
    </g>
    <text style="line-height:55.63473892px;font-family:Junction;font-size:44.50775146px;text-align:center;text-anchor:middle" x="420.75223" y="692.05145" xml:space="preserve"><tspan x="420.75223" y="692.05145" sodipodi:role="line"><tspan>Parcly Taxel</tspan> and Spindle</tspan><tspan x="420.75223" y="747.68622" sodipodi:role="line">in Sapporo, Takayama and Tokyo</tspan><tspan x="426.53302" y="803.32092" sodipodi:role="line">29 November – 13 December 2016 </tspan></text>
    <g transform="rotate(356.18391 1509.8215 2021.9776)">
      <rect fill="#898989" height="224.58705" width="18.675293" x="1622.8221" y="733.13293" />
      <path d="m 1585.4409,687.8886 h 64.0444 l 88.3679,41.6212 -88.3679,41.6212 h -64.0444 z" fill="#fff" stroke="#dadada" stroke-width="7" />
      <circle cx="1632.1598" cy="729.50983" fill="#bc002d" r="24.645939" />
    </g>
    <path d="M 371.51105,1119.3613 C 1029.6574,401.62751 1273.4199,1236.2749 2154.2918,817.22027 2119.1616,1264.8623 1246.7644,1064.4447 371.51105,1119.3613 Z" fill="#fff" stroke="#c1ecef" stroke-width="7" />
  </g>
</svg>