<svg xmlns="http://www.w3.org/2000/svg" xmlns:inkscape="http://www.inkscape.org/namespaces/inkscape" xmlns:sodipodi="http://sodipodi.sourceforge.net/DTD/sodipodi-0.dtd" xmlns:xlink="http://www.w3.org/1999/xlink" height="1024" viewBox="0 0 1792 1024" width="1792">
  <defs>
    <inkscape:path-effect effect="powerstroke" id="path-effect7840" interpolator_type="CubicBezierSmooth" offset_points="0.74,2.5 | 11,2.5" start_linecap_type="zerowidth" />
    <inkscape:path-effect effect="powerstroke" id="path-effect6581" interpolator_type="CubicBezierSmooth" offset_points="0.43,2.5" start_linecap_type="zerowidth" />
    <inkscape:path-effect effect="powerstroke" end_linecap_type="zerowidth" id="path-effect6549" interpolator_type="CubicBezierSmooth" offset_points="0.19,2.5 | 6.57,2.5" start_linecap_type="zerowidth" />
    <inkscape:path-effect effect="powerstroke" id="path-effect6547" interpolator_type="CubicBezierSmooth" offset_points="0.36,2.5" start_linecap_type="zerowidth" />
    <inkscape:path-effect effect="powerstroke" id="path-effect6545" interpolator_type="CubicBezierSmooth" offset_points="0.32,2.5 | 3,2.5" start_linecap_type="zerowidth" />
    <inkscape:path-effect effect="powerstroke" id="path-effect5602" interpolator_type="CubicBezierSmooth" offset_points="0.37,2.5 | 3,2.5" start_linecap_type="zerowidth" />
    <inkscape:path-effect effect="powerstroke" id="path-effect5574" interpolator_type="CubicBezierSmooth" offset_points="0.5,2.5 | 2,2.5" start_linecap_type="zerowidth" />
    <inkscape:path-effect effect="powerstroke" end_linecap_type="zerowidth" id="path-effect5570" interpolator_type="CubicBezierSmooth" offset_points="0.16,2.5 | 0.73,2.5" start_linecap_type="zerowidth" />
    <inkscape:path-effect effect="powerstroke" end_linecap_type="zerowidth" id="path-effect5558" interpolator_type="CubicBezierSmooth" offset_points="0.36,2.5 | 1.71,2.5" start_linecap_type="zerowidth" />
    <inkscape:path-effect bendpath1="m -21.6,-22.080316 h 43.2" bendpath2="m 20.397587,-21.631014 c -11.3262469,14.2652234 -10.521944,28.9701105 2.331923,41.625806" bendpath3="m -21.6,22.080316 h 43.2" bendpath4="m -16.574981,-20.388965 c -11.879882,14.4872888 -11.772547,29.7259575 1.193074,43.996966" effect="envelope" id="path-effect6567" yy="false" />
    <inkscape:path-effect effect="powerstroke" id="path-effect5824" interpolator_type="CubicBezierSmooth" offset_points="0.36,4 | 3,4" start_linecap_type="zerowidth" />
    <inkscape:path-effect effect="powerstroke" end_linecap_type="zerowidth" id="path-effect5822" interpolator_type="CubicBezierSmooth" offset_points="0.46,4 | 4.77,4" start_linecap_type="zerowidth" />
    <linearGradient id="linearGradient5236">
      <stop offset="0" stop-color="#230f38" />
      <stop offset="1" stop-color="#5c2594" />
    </linearGradient>
    <inkscape:path-effect effect="powerstroke" end_linecap_type="zerowidth" id="path-effect1008" interpolator_type="CubicBezierSmooth" offset_points="0.3,4 | 2.73,4" start_linecap_type="zerowidth" />
    <inkscape:path-effect effect="join_type" id="path-effect983" line_width="8" />
    <inkscape:path-effect effect="powerstroke" id="path-effect3347" interpolator_type="CubicBezierSmooth" offset_points="0.63,4 | 6,4" start_linecap_type="zerowidth" />
    <inkscape:path-effect effect="powerstroke" end_linecap_type="zerowidth" id="path-effect3335" interpolator_type="CubicBezierSmooth" offset_points="0.18,4 | 2.82,4" start_linecap_type="zerowidth" />
    <inkscape:path-effect effect="powerstroke" end_linecap_type="zerowidth" id="path-effect4994" interpolator_type="CubicBezierSmooth" offset_points="0.45,4 | 3.44,4" start_linecap_type="zerowidth" />
    <inkscape:path-effect effect="powerstroke" end_linecap_type="zerowidth" id="path-effect890" interpolator_type="CubicBezierSmooth" offset_points="0.2,4 | 1.7,4" start_linecap_type="zerowidth" />
    <clipPath id="clipPath5478">
      <use xlink:href="#path5242" />
    </clipPath>
    <clipPath id="clipPath5500">
      <use xlink:href="#path5026" />
    </clipPath>
    <clipPath id="clipPath5742">
      <use xlink:href="#path5504" />
    </clipPath>
    <clipPath id="clipPath5775">
      <use xlink:href="#path12893-0" />
    </clipPath>
    <linearGradient gradientUnits="userSpaceOnUse" id="linearGradient8554" x1="117.22243" x2="49.422886" y1="1476.1967" y2="1480.5743" xlink:href="#linearGradient5236" />
    <linearGradient gradientUnits="userSpaceOnUse" id="linearGradient8568" x1="387.55664" x2="450.73666" y1="-1307.2958" y2="-1307.7949" xlink:href="#linearGradient5236" />
    <clipPath id="clipPath4589">
      <path d="m 1316.4013,139.03367 59.3651,-0.86556 18.9285,11.16698 -46.7021,49.83002 -14.9651,-31.40558 18.0097,-53.09015 -57.5052,-63.943242 -20.6514,30.268467 z" />
    </clipPath>
    <filter color-interpolation-filters="sRGB" height="1.390637" id="filter8986" width="1.1993685" x="-0.099684273" y="-0.19531851">
      <feGaussianBlur stdDeviation="2.8655781" />
    </filter>
    <filter color-interpolation-filters="sRGB" height="1.0387635" id="filter6090" width="1.0229111" x="-0.011455551" y="-0.019381736">
      <feGaussianBlur stdDeviation="5.9066439" />
    </filter>
    <clipPath id="clipPath4465">
      <use xlink:href="#rect4434" />
    </clipPath>
    <clipPath id="clipPath4667">
      <use xlink:href="#use4642" />
    </clipPath>
  </defs>
  <g>
    <rect fill="#292033" height="1024" width="1792" />
    <path d="m 1316.38,196.06124 -421.23671,623.14598 183.32541,1.4532 235.6083,-348.54126 z m -656.29592,-2.99857 191.43779,-283.198737 107.05928,1.85739 -299.52397,443.093337 z m -41.48792,59.72012 -388.04044,574.03795 -83.35334,-9.83257 468.95351,-693.73469 z m 693.98044,-301.753374 -587.90643,869.704704 58.08104,4.59116 532.05439,-787.081437 z m -724.29351,-38.855261 -617.619819,913.660485 -11.723791,-160.17571 512.58352,-758.277654 z" fill="#fff" opacity=".05" />
    <rect height="975.04138" width="32.323254" x="625.71393" y="-102.90756" />
    <g clip-path="url(#clipPath4465)">
      <path d="m -23.645483,773.54063 h 629.565793 v -839.849125 h -629.565793 z m -25.992952,-891.34398 h 681.551695 v 1004.83282 h -681.551695 z m 721.992955,891.34398 h 629.56578 v -839.849125 h -629.56578 z m -25.99295,-891.34398 h 681.55173 v 1004.83282 h -681.55173 z" fill="#bbd1dc" id="rect4434" />
      <path d="m 1210.9553,-169.33709 -722.01839,1068.09993 h -170 l 722.01839,-1068.09993 z m 490,0 -722.0184,1068.09993 37.265,21.8801 736.809,-1089.98003 z" fill="#fff" opacity=".3" />
    </g>
    <path d="m 1973.6509,425.71243 -253.5569,375.09298 -290.6201,-7.62264 543.388,-803.847512 z" fill="#fff" opacity=".05" />
    <g clip-path="url(#clipPath4667)">
      <path d="m 1310.5174,731.77027 h 650.714 v -768.078765 h -650.714 z m -40.1558,-879.57362 h 716.8628 v 1034.83282 h -716.8628 z" fill="#98b9cb" id="use4642" />
      <path d="m 1923.4911,-237.23839 -722.0184,1068.0999 h -161.9737 l 722.0184,-1068.0999 z m 208.3122,520.82493 -518.3184,766.76136 -15.3029,-119.86216 441.3849,-652.95174 z" fill="#fff" opacity=".3" />
    </g>
    <rect fill="#a19f9a" height="167.59763" width="1792" y="856.40234" />
  </g>
  <g>
    <g>
      <ellipse cx="1309.9972" cy="948.20532" opacity=".25" rx="229.73024" ry="41.045265" />
      <g>
        <path d="m 1246.3964,515.50887 c -54.752,-106.51906 -192.8292,-93.55751 -236.5921,10.94293 -26.10074,62.32547 -2.5271,91.52479 -23.55863,150.21129 24.73763,-21.39479 36.82173,-42.7355 44.23503,-69.59353 14.8272,110.36686 -7.9831,209.49844 -116.26723,250.31194 79.24128,9.7862 117.08913,-0.0804 147.52543,-23.1917 -7.1852,21.09663 -22.2548,41.8397 -45.1646,55.71998 116.6552,-11.95572 176.4582,-101.15709 155.0547,-233.8327 -19.6055,-121.53238 24.1485,-145.43692 45.4986,-122.14041 z" fill="#f3a4d9" />
        <path d="m 1061.7389,834.1898 c -7.1852,21.09663 -22.2548,41.8397 -45.1646,55.71998 116.6552,-11.95572 176.4582,-101.15709 155.0547,-233.8327 -19.6055,-121.53238 24.1485,-145.43692 45.4986,-122.14041 l 17.0913,-11.23243 c -52.7527,-73.90183 -160.9355,-56.33499 -147.6635,83.52522 13.2711,139.86017 -30.1201,234.3028 -172.34193,251.15204 79.24128,9.7862 117.08913,-0.0804 147.52543,-23.1917 z" fill="#961370" />
        <path d="m 1246.3964,515.50887 c -54.752,-106.51906 -192.8292,-93.55751 -236.5921,10.94293 -26.10074,62.32547 -2.5271,91.52479 -23.55863,150.21129 24.73763,-21.39479 36.82173,-42.7355 44.23503,-69.59353 14.8272,110.36686 -7.9831,209.49844 -116.26723,250.31194 79.24128,9.7862 117.08913,-0.0804 147.52543,-23.1917 -7.1852,21.09663 -22.2548,41.8397 -45.1646,55.71998 116.6552,-11.95572 176.4582,-101.15709 155.0547,-233.8327 -19.6055,-121.53238 24.1485,-145.43692 45.4986,-122.14041 z" style="stroke-miterlimit:8;stroke-width:8;stroke:#d91e9b;fill:none" />
      </g>
      <g>
        <path d="m 1516.7802,778.1369 c -21.6685,45.19944 50.2409,145.12543 72.8509,103.33302 46.973,-86.82526 -18.3102,-214.51529 -48.5989,-219.71759 -27.3579,-4.69891 -48.602,-10.10885 -61.7463,-34.51961 l -44.8202,24.54695 c 13.0039,48.38444 50.3995,75.82983 93.1282,79.97999 0.4776,15.25963 -2.4067,28.84055 -10.8137,46.37724 z" fill="#6dc6fb" />
        <path fill="#1c92cd" inkscape:original-d="m 1526.3113,718.23467 c 2.9673,21.25244 1.3099,37.28842 -9.5311,59.90223 -21.6685,45.19944 50.2409,145.12543 72.8509,103.33302 46.973,-86.82526 -18.3102,-214.51529 -48.5989,-219.71759 -27.3579,-4.69891 -48.602,-10.10885 -61.7463,-34.51961 l -44.8202,24.54695 c 13.0039,48.38444 50.3995,75.82983 93.1632,79.8459" inkscape:path-effect="#path-effect3347" />
      </g>
      <path d="m 1348.9893,635.56999 c -72.5502,94.07399 -104.1159,172.87823 -59.0124,275.37238 10.2675,23.33204 -121.1812,31.74516 -122.3552,-0.66042 -2.7461,-75.80758 18.9299,-160.39853 65.9593,-226.44859 z" fill="#11a2f9" stroke="#1c92cd" stroke-width="8" />
      <g>
        <path d="m 1380.1905,525.08255 c 35.7365,43.43481 8.3637,127.7959 -53.9443,91.69044 -54.2589,-31.44132 -89.357,-154.02604 -74.3205,-168.80879 10.333,-10.15858 79.144,28.83301 118.5024,68.96753 z" fill="#11a2f9" stroke="#1c92cd" stroke-width="8" />
        <path d="m 1249.3574,475.89765 71.207,109.37494 m -41.8227,-132.95304 60.0416,62.01717 m -87.153,-67.01528 78.9786,102.27491" fill="none" stroke="#1c92cd" stroke-width="4" />
      </g>
      <path d="m 1191.6665,560.66904 c 23.4744,-63.30017 68.0015,-83.0933 115.6292,-75.13115 29.1319,4.87011 52.2418,28.67026 102.6307,27.39233 10.7633,-22.81011 19.7367,-46.45505 23.8416,-74.18624 l -109.744,-73.87255 c -71.652,-245.73676 283.8923,-260.19153 254.9022,-33.74445 -22.018,171.98683 -46.1613,298.71392 -114.2435,345.92861 -47.5663,32.98703 -138.0859,29.71658 -185.2697,-11.05176 -63.5648,90.10462 -90.4538,172.73728 -47.8503,279.23143 9.4684,23.66759 -121.1812,31.74516 -122.3552,-0.66042 -2.7461,-75.80758 18.2228,-154.81274 54.7522,-223.8628 3.7254,-7.04189 14.6274,-10.64059 27.5234,-11.59335 -0.9137,-35.66874 -24.1937,-82.71548 0.1834,-148.44965 z" fill="#6dc6fb" />
      <g transform="matrix(1.0528146.59518254-1.113445 2.7625962 1233.9993 565.74228)" inkscape:path-effect="#path-effect6567">
        <path fill="#54a2e1" inkscape:original-d="m -17.944229,-13.080316 c 14.874356,-2.23686 19.8939713,5.2573687 22.3341636,10.0839058 l 1.8954483,-0.5169873 c -1.7411543,-6.6157675 -6.81076951,-14.1965985 -17.4317929,-14.9927515 z m 15.5884576,35.160632 c -9.3743556,-11.76314 -5.3939709,-19.8573687 -2.4341632,-24.3839058 l -1.3954483,-1.3830127 c -4.8588461,4.8157676 -8.8892301,12.9965988 -4.2682071,22.5927515 z m 22.6557714,-31.080316 c -5.5,14 -14.5,14.6 -19.9,14.3 l -0.5,1.9 c 6.6,1.8 15.7,1.2 21.7,-7.6 z" />
        <path fill="#5a318e" inkscape:original-d="m 17.944229,13.080316 c -14.874356,2.23686 -19.8939713,-5.2573687 -22.3341636,-10.0839058 l -1.8954483,0.5169873 c 1.7411543,6.6157675 6.81076951,14.1965985 17.4317929,14.9927515 z m -15.5884576,-35.160632 c 9.3743556,11.76314 5.3939709,19.8573687 2.4341632,24.3839058 l 1.3954483,1.3830127 c 4.8588461,-4.8157676 8.8892301,-12.9965988 4.2682071,-22.5927515 z m -22.6557714,31.080316 c 5.5,-14 14.5,-14.6 19.9,-14.3 l 0.5,-1.9 c -6.6,-1.8 -15.7,-1.2 -21.7,7.6 z" />
        <path fill="#576ab7" inkscape:original-d="m 1.2304688,-11.644531 -10.6972657,4.753906 -1.2402341,11.6445312 9.4765622,6.8906248 10.6972657,-4.753906 1.2402341,-11.6445312 z m -0.1210938,1.148437 8.5429688,6.2109378 -1.1191407,10.4960937 -9.6425781,4.2851565 -8.5429688,-6.2109378 1.1191407,-10.4960937 z" />
      </g>
      <path fill="#1c92cd" inkscape:original-d="m 1399.8715,534.12648 c 14.8331,-29.83799 28.5281,-59.11584 33.8965,-95.3825 l -109.8341,-74.3179 c -71.652,-245.4794 283.9838,-259.75708 254.9923,-33.2991 -22.018,171.98683 -46.1613,298.71393 -114.2435,345.92861 -61.9515,42.96308 -196.7649,24.42235 -213.7685,-58.43029" inkscape:path-effect="#path-effect5822" />
      <path fill="#1c92cd" inkscape:original-d="m 1190.5348,723.02999 c 7.2432,-37.13645 -26.5586,-87.69246 1.1317,-162.36095 23.4744,-63.30018 68.0015,-83.0933 115.6292,-75.13115 29.1319,4.87011 52.2418,28.67026 102.4953,27.26879" inkscape:path-effect="#path-effect5824" />
      <g transform="translate(2.5857864-6.1715732)">
        <path d="m 1343.2016,536.02475 c 40.8349,38.6806 24.1078,125.77979 -42.1879,97.65915 -57.7315,-24.48799 -107.7238,-141.78957 -94.6314,-158.3188 8.997,-11.35875 69.8487,14.66933 112.7314,43.35561 z" fill="#6dc6fb" />
        <path fill="#1c92cd" inkscape:original-d="m 1343.2016,536.02475 c 40.8349,38.6806 24.1078,125.77979 -42.1879,97.65915 -57.7315,-24.48799 -107.7238,-141.78957 -94.6314,-158.3188 8.997,-11.35875 69.8487,14.66933 112.7314,43.35561" inkscape:path-effect="#path-effect1008" />
        <path d="m 1302.1728,507.81098 c -4.25,7.5 0.1206,15.42582 7.3706,22.42582 -19.4613,-1.58705 -25.1557,10.69204 6.0284,36.28002 -26.5143,-4.34152 -34.1871,5.35615 -6.0949,33.1363 -22.0859,-3.71185 -29.878,13.87676 -10.0742,33.59943" fill="none" stroke="#1c92cd" stroke-width="6" />
        <path d="m 1207.2891,503.40171 84.1898,99.72657 m -57.9478,-126.75843 67.252,54.11369 m -94.7734,-55.71973 91.0234,91.71973" fill="none" stroke="#1c92cd" stroke-width="4" />
      </g>
      <path d="m 1279.3984,666.03446 c -63.5502,90.07399 -90.4392,172.70665 -47.8357,279.2008 9.4684,23.66759 -121.1812,31.74516 -122.3552,-0.66042 -2.7461,-75.80758 18.2228,-154.81274 54.7522,-223.8628 3.7254,-7.04189 14.6274,-10.64059 27.4588,-11.57947" fill="none" stroke="#1c92cd" stroke-width="8" />
      <g>
        <g clip-path="url(#clipPath5742)">
          <ellipse cx="501.20401" cy="1398.1187" fill="#fff" id="path5504" rx="66.024887" ry="55.621925" transform="rotate(302.05864)" />
          <g clip-path="url(#clipPath5478)" transform="translate(0-5)">
            <ellipse cx="83.77919" cy="1460.7032" fill="url(#linearGradient8554)" id="path5242" rx="47.985344" ry="40.424778" transform="rotate(286.01914)" />
            <path d="m 1453.1078,377.24845 -36.2549,-52.59564 53.8007,20.35935 z" fill="#8f4dd3" />
            <path d="m 1475.5949,336.40661 -58.742,-11.7538 51.0121,33.94259 z" fill="#62289e" />
            <ellipse cx="81.785004" cy="1458.356" rx="38.127079" ry="32.119801" transform="rotate(286.01874)" />
            <ellipse cx="1444.2399" cy="-278.95328" fill="#fff" rx="13.001202" ry="18.549395" transform="rotate(22.999293)" />
            <ellipse cx="1456.2227" cy="-298.70883" fill="#fff" rx="4.287086" ry="5.88692" transform="rotate(24.545973)" />
          </g>
        </g>
        <path d="m 1398.783,354.68246 c -14.6366,-46.95675 12.9784,-86.13646 46.1608,-95.77515 26.9823,-7.83769 59.09,6.04803 64.6554,45.36777 38.4708,-0.0756 38.2986,-5.86828 4.5006,-5.74907 -7.9473,-39.47212 -40.8749,-53.48978 -70.5243,-44.93437 -34.2774,9.89082 -68.9375,54.78184 -44.7925,101.09082 z m 108.7552,-66.8075 c 34.9382,-16.20312 33.036,-22.06585 -1.8564,-5.80251 z m -7.763,-15.21728 c 24.7772,-27.13198 21.9278,-31.30074 -3.9315,-4.78566 z" />
        <path d="m 1342.5983,394.93752 c 21.2127,12.54784 33.6622,32.91832 31.2682,57.92521 54.5481,-15.64929 10.2659,-113.41679 -31.2682,-57.92521 z" fill="#bb1c76" />
        <path d="m 1389.0959,416.7361 c -12.9127,5.43986 -17.0418,19.82048 -10.7528,35.23853 11.6539,-6.80777 14.8333,-22.7162 10.7528,-35.23853 z" fill="#ef6f2f" />
        <path d="m 1319.7747,279.32624 -0.9966,4.78281 c -29.377,-3.62378 -29.0134,-8.20635 0.9966,-4.78281 z m 4.1135,-15.51657 -2.1459,4.62642 c -27.7497,-10.30002 -26.2661,-14.87756 2.1459,-4.62642 z" />
        <g clip-path="url(#clipPath5775)">
          <path d="m 1347.1811,348.89008 c 10.1606,-34.73271 3.05,-75.53215 -23.3553,-99.5144 -14.4353,33.63789 -12.7803,73.96562 0.198,115.49575 9.1559,-2.93906 17.4444,-7.43316 23.1571,-15.98135 z" fill="#fff" id="path12893-0" />
          <g clip-path="url(#clipPath5500)" transform="translate(0-5)">
            <ellipse cx="417.74722" cy="-1312.9625" fill="url(#linearGradient8568)" id="path5026" rx="42.532051" ry="16.505756" transform="rotate(85.61013)" />
            <path d="m 1345.5601,321.99615 -26.3767,12.8693 9.3341,30.71209 z" fill="#8f4dd3" />
            <path d="m 1345.5601,321.99615 -24.9359,23.21332 -3.6332,-20.54958 z" fill="#62289e" />
            <ellipse cx="418.56671" cy="-1314.0195" rx="32.935848" ry="12.781768" transform="rotate(85.610544)" />
            <ellipse cx="-59.872417" cy="1365.6262" fill="#fff" rx="16.153055" ry="5.1371026" transform="rotate(280.1199)" />
            <ellipse cx="-34.672634" cy="1375.0453" fill="#fff" rx="4.9836588" ry="1.6707442" transform="rotate(282.09342)" />
          </g>
        </g>
        <path d="m 1347.1812,348.88995 c 15.4562,-40.47062 0.8838,-79.12197 -20.3614,-99.65983 -18.9429,-18.31215 -21.2233,-14.11131 -2.8058,3.73526 19.2362,18.63987 32.4689,48.78084 23.1672,95.92457 z" />
        <path d="m 1347.1812,348.88995 c -11.6167,18.46248 -42.3639,2.13452 -34.8507,29.70803 9.1144,33.45022 50.5521,35.31788 57.5734,-3.93143 16.1749,28.21712 22.9376,55.61607 4.6498,78.97295 40.1276,1.11698 82.3362,-11.76641 117.4441,-32.9934 z" fill="#6dc6fb" />
        <path d="m 1331.9521,375.24937 c 4.6848,4.18778 9.216,3.44819 11.1944,-2.92003 2.154,10.84618 -7.4318,12.94295 -11.1944,2.92003 z" fill="#1c92cd" />
        <path fill="#1c92cd" inkscape:original-d="m 1347.1812,348.88995 c -11.6167,18.46248 -42.3639,2.13451 -34.8507,29.70803 9.1144,33.45021 50.5521,35.31788 57.5734,-3.93143 16.1749,28.21712 22.9376,55.61607 4.6498,78.97295 40.1276,1.11698 82.3362,-11.76641 117.4441,-32.9934" inkscape:path-effect="#path-effect4994" />
      </g>
      <g>
        <path d="m 1388.1219,649.23207 c -48.1997,99.99143 -63.8738,191.99101 -48.8578,309.10075 3.5837,27.9489 133.3716,23.563 124.0577,-1.39599 -37.0025,-99.15768 -40.4813,-190.65762 -22.9065,-300.59708 z" fill="#6dc6fb" />
        <path fill="#1c92cd" inkscape:original-d="m 1388.1219,649.23207 c -48.1997,99.99143 -63.8738,191.99101 -48.8578,309.10075 3.5837,27.9489 133.3716,23.563 124.0577,-1.39599 -37.0025,-99.15768 -40.4813,-190.65762 -22.9065,-300.59708" inkscape:path-effect="#path-effect3335" />
      </g>
      <g>
        <path d="m 1565.693,249.6023 c 27.7368,95.21227 -3.5977,159.79052 -59.4808,199.80076 22.3082,2.77166 41.2517,-0.13413 56.6691,-11.83097 -10.7584,34.19634 -7.0982,69.34335 21.9423,98.48465 -5.3516,-31.83439 0.5692,-56.60864 15.2292,-78.79447 1.6823,51.09047 26.7906,83.7918 75.9959,98.47082 -79.4366,-105.98203 -28.0499,-267.46248 -95.8942,-375.96031 z" fill="#f3a4d9" />
        <path d="m 1574.4665,207.23791 -8.7735,42.36439 c 27.7368,95.21227 -3.5977,159.79052 -59.4808,199.80076 22.3082,2.77166 41.2517,-0.13413 56.6691,-11.83097 -10.7584,34.19634 -7.0982,69.34335 21.9423,98.48465 -42.8059,-79.08575 60.1413,-150.37315 -10.3571,-328.81883 z" fill="#961370" />
        <path d="m 1565.693,249.6023 c 27.7368,95.21227 -3.5977,159.79052 -59.4808,199.80076 22.3082,2.77166 41.2517,-0.13413 56.6691,-11.83097 -10.7584,34.19634 -7.0982,69.34335 21.9423,98.48465 -5.3516,-31.83439 0.5692,-56.60864 15.2292,-78.79447 1.6823,51.09047 26.7906,83.7918 75.9959,98.47082 -79.4366,-105.98203 -28.0499,-267.46248 -95.8942,-375.96031 z" fill="none" stroke="#d91e9b" stroke-width="8" />
      </g>
      <g>
        <path d="m 1514.4646,192.43676 c -28.7692,4.28581 -35.2517,29.21727 -22.6201,56.6574 -28.6789,-8.99299 -43.762,-26.69548 -46.5397,-53.35587 -19.7478,14.92137 -23.6248,33.80602 -16.528,58.77929 -27.2391,-8.40413 -41.731,-26.70799 -43.6181,-54.65564 -20.4313,17.26035 -26.5391,37.70568 -19.9332,62.3869 -27.9368,-10.44761 -40.545,-29.35466 -39.8584,-56.57261 -17.7734,15.53743 -24.585,34.58384 -21.6482,59.01388 -72.1707,-63.92042 -7.9563,-216.486928 135.9455,-145.91296 26.697,13.09299 65.0966,19.85568 99.276,19.46166 z" fill="#f3a4d9" />
        <path d="m 1514.4646,192.43676 c -28.7692,4.28581 -35.2517,29.21727 -22.6201,56.6574 -28.6789,-8.99299 -43.762,-26.69548 -46.5397,-53.35587 -19.7478,14.92137 -23.6248,33.80602 -16.528,58.77929 -27.2391,-8.40413 -41.731,-26.70799 -43.6181,-54.65564 -20.4313,17.26035 -26.5391,37.70568 -19.9332,62.3869 -48.161,-51.91856 -4.7113,-141.4 63.7928,-116.14435 25.6517,9.4571 66.0062,14.87434 99.9372,14.24208 z" fill="#961370" />
        <path d="m 1514.4646,192.43676 c -28.7692,4.28581 -35.2517,29.21727 -22.6201,56.6574 -28.6789,-8.99299 -43.762,-26.69548 -46.5397,-53.35587 -19.7478,14.92137 -23.6248,33.80602 -16.528,58.77929 -27.2391,-8.40413 -41.731,-26.70799 -43.6181,-54.65564 -20.4313,17.26035 -26.5391,37.70568 -19.9332,62.3869 -27.9368,-10.44761 -40.545,-29.35466 -39.8584,-56.57261 -17.7734,15.53743 -24.585,34.58384 -21.6482,59.01388 -72.1707,-63.92042 -7.9563,-216.486928 135.9455,-145.91296 26.697,13.09299 65.0966,19.85568 99.276,19.46166 z" fill="none" stroke="#d91e9b" stroke-width="8" />
        <path d="m 1410.3379,177.09083 c -150.5784,-145.912478 -152.9289,-144.325589 -44.9252,37.66009 z" style="clip-path:url(#clipPath4589);stroke-width:8;stroke:#1c92cd;fill:#6dc6fb" />
        <path d="m 1314.7632,128.54973 c 3.0736,-13.99608 4.3075,-26.00565 3.8266,-39.197244 m 15.8437,73.622454 c 8.0553,-14.97596 12.751,-30.22925 14.287,-46.23529 m 3.6649,76.80264 c 13.435,-15.14674 21.5356,-30.64388 26.2181,-47.58721" fill="none" stroke="#1c92cd" stroke-width="4" />
        <path d="m 1351.9261,120.99836 c 5.8128,5.48138 12.0502,11.41711 18.7183,17.80184 -8.2449,12.34326 -20.5006,20.2704 -35.6774,24.35137 -4.4456,-7.60927 -8.5732,-14.72654 -12.3773,-21.35665 12.1173,-3.23115 22.274,-10.15159 29.3364,-20.79656 z" fill="#ebebeb" />
        <path d="m 1340.5526,134.56129 3.9604,-5.01969 21.3863,15.87535 -6.125,5.375 z" fill="#fff" />
        <path fill="#d7d7d7" inkscape:original-d="m 1351.9261,120.99836 c 5.8128,5.48138 12.0502,11.41711 18.7183,17.80184 -8.2449,12.34326 -20.5006,20.2704 -35.6774,24.35137 -4.4456,-7.60927 -8.5732,-14.72654 -12.3773,-21.35665 12.1173,-3.23115 22.274,-10.15159 29.3364,-20.79656 z" inkscape:path-effect="#path-effect983" />
        <path d="m 1345.1796,218.03894 c -4.4949,-45.67961 32.6874,-90.79257 83.8387,-71.93445 z" fill="#961370" />
      </g>
      <g>
        <path d="m 1566.8294,293.51285 c 61.3571,-90.36301 3.8364,-172.36759 -11.0166,-173.96977 -11.9317,-1.28703 -49.3134,36.10036 -52.9984,90.17266 z" fill="#6dc6fb" />
        <path fill="#1c92cd" inkscape:original-d="m 1566.8294,293.51285 c 61.3571,-90.36301 3.8364,-172.3676 -11.0166,-173.96977 -11.9317,-1.28704 -49.3134,36.10036 -52.9984,90.17266" inkscape:path-effect="#path-effect890" />
        <path d="m 1555.9182,168.19075 c 13.7245,24.12033 11.689,54.97092 -1.7814,77.51865 8.6424,-26.29474 10.3315,-51.63627 1.7814,-77.51865 z" fill="#1c92cd" />
      </g>
    </g>
    <g>
      <g opacity=".6">
        <g>
          <path d="m 898.47237,791.87752 c -37.42101,-41.30761 -86.81956,13.4267 -149.16203,-18.56241 62.0023,0.799 110.13677,-56.07936 176.00053,-1.4026" style="stroke-miterlimit:20;stroke-width:5;stroke:#fff;fill:#7689bb" />
          <path d="m 769.40045,592.74139 c 0.67391,36.38631 15.06138,54.22933 27.39416,53.88137 l 238.55419,-6.73063 c 7.9908,14.69685 12.7886,28.49703 8.513,32.56753 -97.05389,92.39874 -129.5866,72.99032 -159.23974,121.5393 -37.80395,8.71796 -41.75821,41.53987 -12.90832,60.249 5.11564,-16.38807 15.34127,-28.67828 28.15306,-37.82111 37.65173,-26.86924 109.4844,-86.46599 170.4742,-130.39633 9.8502,-7.09501 -6.8623,-82.15859 -16.1975,-82.54632 l -235.82111,-9.79474 z" fill="#7689bb" />
          <path fill="#fff" inkscape:original-d="m 1030.7086,631.71965 c 10.5433,17.42533 18.2205,35.91583 13.1532,40.74001 -97.0543,92.3983 -129.5866,72.99032 -159.23974,121.5393 -37.80395,8.71796 -41.75821,41.53987 -12.90832,60.249 5.11564,-16.38807 15.34127,-28.67828 28.15306,-37.82111 37.65173,-26.86924 109.4844,-86.46599 170.4742,-130.39633 9.8502,-7.09501 -6.8623,-82.15859 -16.1975,-82.54632 l -235.82111,-9.79474 -48.92194,-0.94807 c 0.67391,36.38631 15.0614,54.23027 27.39416,53.88137 l 238.50039,-6.74712" inkscape:path-effect="#path-effect6581" />
          <path d="m 884.62206,793.99896 c 2.15265,8.8037 7.92998,17.15709 15.24474,22.42789" fill="#5a318e" stroke="#fff" stroke-width="5" />
        </g>
        <g>
          <path d="m 1108.6842,205.02051 c -190.56858,-150.481766 -368.31195,21.41513 -582.05453,-71.00971 32.43458,41.58224 70.84309,62.50839 121.18875,67.54718 -89.72328,71.53591 -259.72092,12.09524 -380.75342,160.79801 150.74548,-31.53138 309.43522,-29.46143 457.60614,2.46896 -30.40906,3.59086 -60.7147,10.38894 -86.57049,24.01257 64.10066,4.60001 121.40772,18.05214 169.42889,47.91953 z" fill="#8f9fc9" />
          <path d="m 724.67114,364.82495 c -30.40906,3.59086 -60.7147,10.38894 -86.57049,24.01257 64.10066,4.60001 121.40772,18.05214 169.42889,47.91953 l 265.03696,-203.94421 c -194.03453,-110.93955 -257.07306,10.73219 -419.66115,17.76967 -180.84929,7.8279 -114.16221,66.86458 -12.82689,64.04828 43.59291,-1.21153 61.13251,18.03507 39.99356,41.54039 14.95868,2.58549 29.83115,5.47132 44.59912,8.65377 z" fill="#7689bb" />
          <path d="m 1108.6842,205.02051 c -190.56858,-150.481766 -368.31195,21.41513 -582.05453,-71.00971 32.43458,41.58224 70.84309,62.50839 121.18875,67.54718 -89.72328,71.53591 -259.72092,12.09524 -380.75342,160.79801 150.74548,-31.53138 309.43522,-29.46143 457.60614,2.46896 -30.40906,3.59086 -60.7147,10.38894 -86.57049,24.01257 64.10066,4.60001 121.40772,18.05214 169.42889,47.91953 z" style="stroke-miterlimit:20;stroke-width:5;stroke:#fff;fill:none" />
        </g>
        <path d="m 1075.3377,339.61744 c 153.7344,16.23009 181.0659,50.75228 171.2749,77.06501 31.2717,13.27103 48.3556,4.80165 47.4195,-13.88926 5.8908,-1.81708 11.9291,-2.86685 18.5849,-3.46347 -5.6731,-8.20182 -7.5509,-16.65664 -7.9414,-27.96759 -75.2175,-21.57694 -120.4761,-72.01505 -127.9279,-142.37672 -72.4235,-54.44769 -185.08515,-59.51707 -308.88738,121.855 -143.59873,210.37437 -222.03254,-37.69446 -361.59075,81.29344 -111.45603,95.02786 -191.70024,158.1317 -208.81817,22.85106 -23.25245,-183.76086 -252.639859,-82.22299 -218.934416,108.19384 20.832298,117.69079 176.346626,110.80761 157.194566,190.42567 -8.77058,36.46064 -59.76428,20.28457 -52.19933,-31.34314 7.56527,-51.62993 54.94625,-66.20185 108.43472,-54.41505 -58.46649,-41.0987 -125.21403,-9.55147 -134.50824,48.10765 -15.57471,96.62194 103.44474,124.1912 117.10382,46.46982 17.9294,-102.01991 -123.21377,-87.17186 -139.79084,-211.54135 -16.06195,-120.50479 126.11243,-142.0338 126.11243,-41.30018 0,107.28201 68.34039,149.22232 144.54387,79.27235 164.02247,-150.56224 210.37321,123.50195 423.3539,73.2744 167.57488,-39.5194 104.08254,-246.31384 223.71352,-337.03124 5.6885,9.04618 13.7301,13.55565 22.8623,14.51976 z" fill="#7689bb" />
        <path d="m 416.2966,542.03591 c -19.96997,-16.13591 51.97366,-44.58933 82.14477,-103.23838 -107.37527,91.22854 -184.27549,148.27963 -200.98997,16.18738 -23.25244,-183.76086 -252.639859,-82.22299 -218.934416,108.19384 20.832298,117.69079 176.346626,110.80761 157.194566,190.42567 -8.77058,36.46064 -59.76428,20.28457 -52.19933,-31.34314 7.56527,-51.62993 54.94625,-66.20185 108.43472,-54.41505 -58.46649,-41.0987 -125.21403,-9.55147 -134.50824,48.10765 -15.57471,96.62194 103.44474,124.1912 117.10382,46.46982 17.9294,-102.01991 -123.21377,-87.17186 -139.79084,-211.54135 -16.06195,-120.50479 126.11243,-142.0338 126.11243,-41.30018 0,107.28201 68.34039,149.22232 144.54387,79.27235 33.20699,-30.48191 61.59089,-43.55941 87.51089,-45.4471 -12.92987,-19.01109 -59.77423,12.24185 -76.62227,-1.37151 z" fill="#8f9fc9" />
        <path d="m 1200.8813,299.59947 c -2.0237,9.94725 -2.8602,21.14997 -1.6717,32.84184 26.28,13.47598 53.5171,22.94836 78.9952,29.62773" style="stroke-miterlimit:6;stroke-width:5;stroke:#fff;fill:none" />
        <path d="m 1284.0993,378.23531 c 5.0694,1.5801 8.4685,5.15319 9.4492,10.53862 -5.8478,-1.56747 -8.8642,-4.85889 -9.4492,-10.53862 z" style="stroke-miterlimit:20;stroke-width:3;stroke:#fff;fill:none" />
        <g>
          <path d="m 1095.248,268.80882 c 21.3591,-4.69732 42.8522,-4.85791 63.6436,0.27733 2.5704,10.38553 4.1007,20.51104 5.3481,30.56583 -28.73,4.02115 -54.8411,-6.83821 -68.9917,-30.84316 z" fill="#fff" />
          <path fill="#fff" inkscape:original-d="m 1172.5475,298.50422 c -42.3443,7.59196 -71.6096,-9.87107 -81.3255,-40.69203" inkscape:path-effect="#path-effect5570" />
          <path fill="#fff" inkscape:original-d="m 1127.7061,246.45188 c -11.9471,14.367 -28.1108,-8.78398 -11.339,-16.36422 17.7904,-8.04059 43.9497,15.85728 47.6284,69.61001" inkscape:path-effect="#path-effect5574" />
          <path d="m 1095.248,268.80882 c 21.3591,-4.69732 42.8522,-4.85791 63.6436,0.27733" style="stroke-miterlimit:6;stroke-width:5;stroke:#fff;fill:none" />
        </g>
        <path d="m 1052.3482,325.1559 c -119.50378,90.65918 -56.01144,297.45362 -223.58632,336.97302 -212.98069,50.22755 -259.33143,-223.83664 -423.3539,-73.2744 -76.20348,69.94997 -144.54387,28.00966 -144.54387,-79.27235 0,-100.73362 -142.17438,-79.20461 -126.11243,41.30018 16.57707,124.36949 157.72024,109.52144 139.79084,211.54135 -13.65908,77.72138 -132.67854,50.15212 -117.10382,-46.46982 2.52653,-15.67399 9.29865,-29.4184 18.99589,-40.29847" style="stroke-miterlimit:6;stroke-width:5;stroke:#fff;fill:none" />
        <path fill="#fff" inkscape:original-d="m 1262.6759,385.4318 c 6.2298,9.80342 14.3319,16.81317 23.7944,20.48387 8.1242,-3.8989 16.4849,-5.71988 26.1467,-6.58595 -5.6731,-8.20182 -7.5509,-16.65664 -7.9414,-27.96759 -75.2175,-21.57694 -120.4761,-72.01505 -127.9279,-142.37672 -72.4235,-54.44769 -185.08515,-59.51707 -308.88738,121.855 -143.59873,210.37437 -222.03254,-37.69446 -361.59075,81.29344 -111.45603,95.02786 -191.70024,158.1317 -208.81817,22.85106 -23.25245,-183.76086 -252.639859,-82.22299 -218.934416,108.19384 20.832298,117.69079 176.346626,110.80761 157.194566,190.42567 -8.77058,36.46064 -59.76428,20.28457 -52.19933,-31.34314 2.02198,-13.79922 6.88817,-24.95123 13.95499,-33.66031" inkscape:path-effect="#path-effect7840" />
        <path fill="#fff" inkscape:original-d="m 1044.7624,282.57781 c -1.6661,38.91461 12.2615,55.1062 30.5753,57.03963 153.7344,16.23011 181.0659,50.75228 171.2749,77.06501 31.2717,13.27103 48.3556,4.80165 47.2977,-13.94222" inkscape:path-effect="#path-effect5602" />
        <g>
          <path d="m 829.34597,811.84183 c 17.32643,-27.25386 9.61894,-38.49631 -14.16689,-42.2938 -35.03657,-5.5937 -55.08589,-60.2603 -9.39035,-88.21472 -23.60992,34.08465 -10.54547,66.59802 23.44932,66.68034 35.45865,0.0859 44.90841,22.33117 24.52807,54.3331" style="stroke-miterlimit:20;stroke-width:5;stroke:#fff;fill:#7689bb" />
          <path d="m 766.44653,585.99481 c -9.18113,35.2154 -0.14904,56.28182 11.81917,59.27858 l 231.5022,57.96651 c 3.7233,16.30916 4.6145,30.89235 -0.6018,33.65642 -118.40721,62.74331 -144.48693,35.26765 -186.15327,74.00043 -38.75348,-1.81917 -51.42775,28.71404 -28.70499,54.52147 9.35276,-14.39668 22.51844,-23.46738 37.32384,-28.80906 43.5106,-15.6983 128.77272,-53.673 199.36272,-79.49309 11.4007,-4.1701 15.5885,-80.95755 6.7052,-83.85281 l -224.40634,-73.13907 z" fill="#7689bb" />
          <path fill="#fff" inkscape:original-d="m 813.29326,600.12419 224.40634,73.13907 c 8.8833,2.89526 4.6955,79.68271 -6.7052,83.85281 -70.59,25.82009 -155.85212,63.79479 -199.36272,79.49309 -14.8054,5.34168 -27.97108,14.41238 -37.32384,28.80906 -22.72276,-25.80743 -10.04849,-56.34064 28.70499,-54.52147 41.66634,-38.73278 67.74578,-11.25765 186.15327,-74.00043 6.1821,-3.27586 3.7857,-23.15286 -1.658,-42.77859" inkscape:path-effect="#path-effect6549" />
          <path d="m 823.01283,810.89675 c -0.30577,9.0579 3.00002,18.66147 8.61885,25.71241" fill="#5a318e" stroke="#fff" stroke-width="5" />
          <path fill="#fff" inkscape:original-d="m 766.44653,585.99481 c -9.18113,35.2154 -0.14927,56.28273 11.81917,59.27858 l 231.4549,57.93611" inkscape:path-effect="#path-effect6547" />
          <path fill="#fff" inkscape:original-d="m 818.50413,513.20295 c 21.96928,8.60981 14.3864,46.04909 -13.35733,40.49416 -37.08289,-7.42485 -36.4392,-82.99587 19.27749,-86.84615 51.74958,-3.57614 87.09036,69.51402 23.00589,145.19145" inkscape:path-effect="#path-effect6545" />
        </g>
        <g>
          <path d="m 1056.4521,222.02755 c -22.3928,-17.76737 -35.3656,-36.30878 -42.4023,-74.53577 29.1947,26.77284 57.3803,23.34626 71.9877,57.88916 z" fill="#7689bb" />
          <path fill="#fff" inkscape:original-d="m 1056.4521,222.02755 c -22.3928,-17.76737 -35.3656,-36.30878 -42.4023,-74.53577 29.1947,26.77284 57.3803,23.34626 71.9877,57.88916" inkscape:path-effect="#path-effect5558" />
        </g>
        <path d="m 224.23977,669.74317 c 18.91476,-7.15548 42.64029,-7.42072 67.70717,-1.89694 -29.9044,-21.02113 -61.97521,-23.03729 -87.41661,-12.27512" style="stroke-miterlimit:6;stroke-width:5;stroke:#fff;fill:none" />
      </g>
      <path d="m 1095.248,268.80882 c 21.3591,-4.69732 42.8522,-4.85791 63.6436,0.27733 m -31.1855,-22.63427 c -11.9471,14.367 -28.1108,-8.78398 -11.339,-16.36422 17.7904,-8.04059 43.9497,15.85728 47.6284,69.61001 m 8.552,-1.19345 c -42.3443,7.59196 -71.6096,-9.87107 -81.3255,-40.69203 m -866.98223,411.93098 c 18.91476,-7.15548 42.64029,-7.42072 67.70717,-1.89694 -29.9044,-21.02113 -61.97521,-23.03729 -87.41661,-12.27512 m 613.9738,-142.36816 c 21.96928,8.60981 14.3864,46.04909 -13.35733,40.49416 -37.08289,-7.42485 -36.4392,-82.99587 19.27749,-86.84615 51.74958,-3.57614 87.09036,69.51402 23.00589,145.19145 m -80.98365,-26.0476 c -9.18113,35.2154 -0.14927,56.28273 11.81917,59.27858 l 231.4549,57.93611 m -186.70777,107.68725 c -0.30577,9.0579 3.00002,18.66147 8.61885,25.71241 m -18.33842,-236.48497 224.40634,73.13907 c 8.8833,2.89526 4.6955,79.68271 -6.7052,83.85281 -70.59,25.82009 -155.85212,63.79479 -199.36272,79.49309 -14.8054,5.34168 -27.97108,14.41238 -37.32384,28.80906 -22.72276,-25.80743 -10.04849,-56.34064 28.70499,-54.52147 41.66634,-38.73278 67.74578,-11.25765 186.15327,-74.00043 6.1821,-3.27586 3.7857,-23.15286 -1.658,-42.77859 m -172.34047,107.21296 c 9.03661,-19.73949 0.47332,-28.51585 -19.98855,-31.78266 -35.03657,-5.59371 -55.08589,-60.2603 -9.39035,-88.21472 -23.60992,34.08465 -10.54547,66.59799 23.44932,66.68034 30.32666,0.0735 41.62824,16.35616 31.51412,41.08876 m 401.92373,-403.67061 c 6.2298,9.80342 14.3319,16.81317 23.7944,20.48387 8.1242,-3.8989 16.4849,-5.71988 26.1467,-6.58595 -5.6731,-8.20182 -7.5509,-16.65664 -7.9414,-27.96759 -75.2175,-21.57694 -120.4761,-72.01505 -127.9279,-142.37672 -26.9061,-20.2279 -59.3659,-33.6406 -95.8874,-33.21004 m -43.9704,7.0748 c -51.50356,15.87017 -108.95497,59.98006 -169.02958,147.99024 -143.59879,210.37433 -222.03254,-37.69446 -361.59075,81.29344 -111.45603,95.02786 -191.70024,158.1317 -208.81817,22.85106 -23.25245,-183.76086 -252.639859,-82.22299 -218.934416,108.19384 20.832298,117.69079 176.346626,110.80761 157.194566,190.42567 -8.77058,36.46064 -59.76428,20.28457 -52.19933,-31.34314 2.02198,-13.79922 6.88817,-24.95123 13.95499,-33.66031 m 854.88099,-363.44507 c -98.50505,74.72891 -72.67447,228.36523 -154.40645,302.18365 m -60.6544,32.58005 c -2.77355,0.78592 -5.61465,1.52286 -8.52547,2.20932 -212.9807,50.22751 -259.33143,-223.83664 -423.3539,-73.2744 -76.20348,69.94997 -144.54387,28.00966 -144.54387,-79.27235 0,-100.73362 -142.17438,-79.20461 -126.11243,41.30018 16.57707,124.36949 157.72024,109.52144 139.79084,211.54135 -13.65908,77.72138 -132.67854,50.15212 -117.10382,-46.46982 2.52653,-15.67399 9.29865,-29.4184 18.99589,-40.29847 m 880.01751,-453.62786 c -22.3928,-17.76737 -35.3656,-36.30878 -42.4023,-74.53577 29.1947,26.77284 57.3803,23.34626 71.9877,57.88916 m 11.075,-9.11771 c -22.7017,-16.44148 -45.2346,-28.45359 -67.6818,-37.03602 m -14.0199,-4.92674 c -156.78059,-50.3367 -310.21881,56.9228 -488.78113,-20.28967 32.43458,41.58224 70.84309,62.50839 121.18875,67.54718 -89.72328,71.53591 -259.72092,12.09524 -380.75342,160.79801 150.74548,-31.53138 309.43522,-29.46143 457.60614,2.46896 -30.40906,3.59086 -60.7147,10.38894 -86.57049,24.01257 56.89614,4.083 108.43999,15.14009 152.88868,38.46016 m 253.77307,-144.71987 c -1.6661,38.91461 12.2615,55.1062 30.5753,57.03963 153.7344,16.23011 181.0659,50.75228 171.2749,77.06501 31.2717,13.27103 48.3556,4.80165 47.2977,-13.94222 m -93.029,-103.14076 c -2.0237,9.94725 -2.8602,21.14997 -1.6717,32.84184 26.28,13.47598 53.5171,22.94836 78.9952,29.62773 m 15.3437,26.70489 -9.4492,-10.53862 m -389.82585,433.25108 c 1.72224,1.8401 3.60075,3.50465 5.59335,4.94046 m 130.8418,-184.7072 c 10.5433,17.42533 18.2205,35.91583 13.1532,40.74001 -1.2557,1.19545 -2.5006,2.37218 -3.7348,3.53058 m -30.3389,26.70658 c -63.24944,51.79165 -92.46572,50.18924 -116.33703,78.85352 m -40.39334,47.12225 c 1.36215,9.16383 7.60043,18.40583 18.65601,25.57537 5.11564,-16.38807 15.34127,-28.67829 28.15306,-37.82111 6.36561,-4.54266 13.70821,-10.02078 21.81025,-16.20049 m 69.72944,-54.38438 c 7.10605,-5.55032 14.31641,-11.1604 21.56401,-16.75806 m 29.2268,-22.30162 c 9.5247,-7.16244 18.9572,-14.13483 28.1437,-20.75178 9.8502,-7.095 -6.8623,-82.15859 -16.1975,-82.54632 l -131.22212,-5.45026 m 21.23056,44.42012 91.14306,-2.57842 m -147.42772,142.91516 c -7.47265,-4.75583 -15.37437,-6.69283 -23.71164,-7.03654 m -28.52643,2.91444 c -25.41341,4.56523 -54.14207,11.15694 -86.31887,-5.35359 17.92762,0.23103 34.69583,-4.36004 51.06845,-9.6822 m 45.44066,-13.48846 c 21.55711,-4.12885 43.66951,-2.85637 68.10416,13.28116" style="stroke:#fff;filter:url(#filter6090);stroke-miterlimit:20;stroke-width:5;fill:none" />
      <path d="m 1095.248,268.80882 c 21.3591,-4.69732 42.8522,-4.85791 63.6436,0.27733 2.5704,10.38553 4.1007,20.51104 5.3481,30.56583 -28.73,4.02115 -54.8411,-6.83821 -68.9917,-30.84316 z" fill="#fff" filter="url(#filter8986)" />
    </g>
  </g>
  <text font-size="28.83468246px" font-family="Junction" fill="#fff" x="40.904903" y="65.452278" xml:space="preserve"><tspan sodipodi:role="line">Parcly Taxel and Spindle in Hong Kong</tspan><tspan y="101.49562" sodipodi:role="line">2 – 6 June 2017</tspan></text>
</svg>
