<svg xmlns="http://www.w3.org/2000/svg" xmlns:inkscape="http://www.inkscape.org/namespaces/inkscape" xmlns:sodipodi="http://sodipodi.sourceforge.net/DTD/sodipodi-0.dtd" xmlns:xlink="http://www.w3.org/1999/xlink" height="781" viewBox="0 0 1361 781" width="1361">
  <defs>
    <inkscape:path-effect effect="powerstroke" id="path-effect5756" interpolator_type="CubicBezierSmooth" offset_points="2.5,5" />
    <inkscape:path-effect effect="powerstroke" id="path-effect4228" interpolator_type="CubicBezierSmooth" offset_points="0.19,5 | 1,5" start_linecap_type="zerowidth" />
    <inkscape:path-effect effect="powerstroke" end_linecap_type="zerowidth" id="path-effect4224" interpolator_type="CubicBezierSmooth" offset_points="0.51,5 | 2.88,5" start_linecap_type="zerowidth" />
    <inkscape:path-effect effect="powerstroke" id="path-effect6228" interpolator_type="CubicBezierSmooth" miter_limit="20" offset_points="0.22,5" start_linecap_type="zerowidth" />
    <inkscape:path-effect effect="powerstroke" id="path-effect6214" interpolator_type="CubicBezierSmooth" offset_points="0.37,5" start_linecap_type="zerowidth" />
    <inkscape:path-effect effect="powerstroke" end_linecap_type="zerowidth" id="path-effect6202" interpolator_type="CubicBezierSmooth" offset_points="0.72,5 | 1.8,5" start_linecap_type="zerowidth" />
    <inkscape:path-effect effect="powerstroke" id="path-effect6185" interpolator_type="CubicBezierSmooth" offset_points="0.36,5" start_linecap_type="zerowidth" />
    <inkscape:path-effect effect="powerstroke" end_linecap_type="zerowidth" id="path-effect6168" interpolator_type="CubicBezierSmooth" offset_points="0.28,5 | 0.73,5" start_linecap_type="zerowidth" />
    <inkscape:path-effect effect="powerstroke" end_linecap_type="zerowidth" id="path-effect5159" interpolator_type="CubicBezierSmooth" offset_points="0.28,5 | 1.85,5" start_linecap_type="zerowidth" />
    <clipPath id="clipPath6967">
      <path d="m 177.5,417 c -32,-66.5 -27.5,-196 63,-182 36,79 -11,191.5 -63,182 z" />
    </clipPath>
    <linearGradient id="linearGradient8265">
      <stop offset="0" stop-color="#7f57ba" />
      <stop offset="1" stop-color="#6f3f95" />
    </linearGradient>
    <linearGradient gradientUnits="userSpaceOnUse" id="linearGradient9056" x1="598.35638" x2="598.35638" y1="342.97159" y2="153.25415" xlink:href="#linearGradient8265" />
    <clipPath id="clipPath9120">
      <path d="m 504.11665,143.69482 385.15681,-667.11121 192.57844,333.55562 z" />
    </clipPath>
    <clipPath id="clipPath9251">
      <use xlink:href="#path5769" />
    </clipPath>
  </defs>
  <g inkscape:groupmode="layer" inkscape:label="Drawing">
    <g transform="translate(-2.9033455)">
      <path d="m 761.65815,394.8565 139.32638,149.95264 c 107.15207,17.47371 243.19357,6.17281 334.50377,-39.92042 45.5012,-22.96892 -11.3524,-165.30335 -49.6106,-140.54032 -89.7097,58.06565 -189.4117,79.93897 -283.93965,78.55836 -7.73283,-0.11294 -14.58001,6.7301 -16.3707,18.17433 -41.94495,-18.54506 -69.87414,-55.56462 -123.9092,-66.22459 z" fill="#11a2f9" />
      <path fill="#1c92cd" inkscape:original-d="M 907.33515,468.27393 C 851.37407,454.7076 823.97844,407.15097 761.65815,394.8565 l 139.32638,149.95264 c 107.15207,17.47371 243.19357,6.17281 334.50377,-39.92042 45.5012,-22.96892 -11.3524,-165.30335 -49.6106,-140.54032 -89.7097,58.06565 -189.4117,79.93897 -283.93965,78.55836 -7.73283,-0.11294 -14.28023,6.7301 -16.58501,18.03183" inkscape:path-effect="#path-effect6214" />
    </g>
    <path d="m 519.1866,432.23365 c -79.27351,47.55231 -24.64795,155.52899 74.78541,84.6037 C 787.47188,378.81488 723.16172,317.09189 555.00143,414.48441 Z" style="stroke-width:10;stroke:#1c92cd;stroke-miterlimit:20;fill:#11a2f9" />
    <g>
      <path d="m 745,395 c 148,-152 309.4289,17.79289 428.5,25.5 -30.5,10.5 -66,11 -104,4 64.5,39.5 156.9142,65.08579 231.9142,65.08579 -33,19 -76.2426,27.62132 -126.2426,24.62132 50.5,18.5 99.5355,27.58578 145.5355,29.08578 C 980.70711,636.29289 876,393 791,417 Z" fill="#f3a4d9" />
      <path d="m 1301.4173,489.5665 c -32.9987,19.00236 -76.2457,27.64061 -126.2457,24.64061 50.5,18.5 99.5355,27.58578 145.5355,29.08578 C 980.70711,636.29289 876,393 791,417 L 761.94614,403.12544 C 931.68192,301.16136 1086.1306,545.67445 1301.4173,489.5665 Z" fill="#961370" />
      <path d="m 745,395 c 148,-152 309.4289,17.79289 428.5,25.5 -30.5,10.5 -66,11 -104,4 64.5,39.5 156.9142,65.08579 231.9142,65.08579 -33,19 -76.2426,27.62132 -126.2426,24.62132 50.5,18.5 99.5355,27.58578 145.5355,29.08578 C 980.70711,636.29289 876,393 791,417 Z" style="stroke-width:10;stroke:#d91e9b;stroke-miterlimit:20;fill:none" />
    </g>
    <path d="m 117.04395,536.14387 c 20.41399,87.14277 164.13083,120.19322 289.48936,56.42791 103.88261,-2.33333 203.77341,16.48921 319.77413,-25.05232 53.93885,21.30989 127.55396,21.50528 177.74248,0.70736 109.31828,35.84474 254.05748,35.02243 342.65738,-4.30731 41.6848,-18.504 3.6886,-159.48348 -37.0051,-142.58783 -91.2112,37.87002 -208.7641,62.50917 -297.34697,41.65331 -7.52786,-1.77235 -15.77021,5.52467 -18.36742,17.49375 C 863.44677,458.35909 846.09713,428.24658 804.53955,406.0754 658.81733,328.33186 567.7639,436.52583 443.51889,425.10074 425.48104,150.28879 33.192275,241.64478 132.04976,517.61131 c -10.27339,4.62199 -17.18577,9.22681 -15.00581,18.53256 z" fill="#6dc6fb" />
    <g transform="matrix(-0.07891016,0.17012141,0.2416558,0.07604867,678.14797,353.68245)">
      <path d="m 428.86157,620.36218 c 55.42564,96.00002 166.27687,192.00001 332.55375,160.00001 l 83.13843,-112 c -221.7025,96 -332.55373,0 -387.97938,-64.00001 z m 193.98968,-48 c 55.42563,-96.00002 83.13844,-240 -27.71281,-368 l -138.56406,-16 c 193.98969,144 166.27687,287.99999 138.56406,368.00001 z m -138.56406,-144 c -110.85127,0 -249.41532,48 -304.84095,208 l 55.42563,128 c 27.71281,-240 166.27687,-288 249.41533,-304.00001 z" fill="#5a318e" />
      <path d="m 401.14875,508.3622 c -55.42563,96.00001 -83.13844,239.99998 27.71281,367.99999 l 138.56406,15.99999 c -193.98969,-144 -166.27687,-287.99997 -138.56406,-368 z m 138.56406,143.99998 c 110.85127,0 249.41532,-47.99999 304.84095,-207.99999 l -55.42563,-128 c -27.71281,240 -166.27687,287.99999 -249.41533,304 z m 55.42563,-192 c -55.42564,-96.00002 -166.27688,-192 -332.55376,-160 l -83.13843,112 c 221.7025,-96 332.55374,-1e-5 387.97939,64 z" fill="#54a2e1" />
      <path style="stroke-width:15.99933243;stroke:#576ab7;stroke-linejoin:round;fill:none" transform="rotate(30,459.07546,526.18113)" sodipodi:arg1="0.8910208" sodipodi:arg2="1.4146197" sodipodi:cx="512" sodipodi:cy="512" sodipodi:r1="178.16846" sodipodi:r2="55.425625" sodipodi:sides="6" sodipodi:type="star" inkscape:flatsided="true" />
    </g>
    <path fill="#1c92cd" inkscape:original-d="m 698.04879,552.86873 c 64.72404,42.97252 189.96454,40.94144 240.36442,-5.74476" inkscape:path-effect="#path-effect6168" />
    <path fill="#1c92cd" inkscape:original-d="M 914.57503,492.70571 C 869.56122,471.08623 854.64738,432.80818 804.53955,406.0754 658.81733,328.33187 567.7639,436.52583 443.51889,425.10074 425.48104,150.28879 33.192275,241.64478 132.1807,517.1316" inkscape:path-effect="#path-effect6185" />
    <path d="m 904.08434,568.17144 c 109.28386,35.90012 254.02306,35.07781 342.62296,-4.25193 41.6848,-18.504 3.6886,-159.48348 -37.0051,-142.58783 -91.2112,37.87002 -208.7641,62.50917 -297.34697,41.65331 -7.52786,-1.77235 -15.77021,5.52467 -18.21641,17.64905 M 726.01388,567.47742 C 606.34229,610.48071 503.60701,588.88139 395.64954,592.8657" fill="none" stroke="#1c92cd" stroke-width="10" />
    <path d="m 350.95351,467.5398 c 51.12199,13.92611 48.80835,21.87912 4.23446,8.98377 -49.18756,115.10604 -178.85571,57.77964 -138.03469,-41.38648 -22.0578,109.04036 96.51399,135.55908 133.80023,32.40271 z m -6.76038,22.89386 c 44.5183,21.60723 42.73392,27.06622 -3.9648,6.48595 z m -13.13058,18.3737 c 39.82064,29.9809 35.165,35.96958 -5.09522,5.50382 z" />
    <path d="m 128.09111,489.20346 c -26.6401,9.73927 -28.217793,4.41913 -1.49819,-5.67554 z m -3.61133,-15.9929 c -28.185985,6.23668 -29.304657,0.75246 -0.87332,-5.80463 z M 118.5929,456.9021 c -24.665247,3.06992 -25.406228,-1.49915 3.81707,-6.89466 13.65156,95.1525 49.60089,90.12601 42.99647,-14.2723 17.92528,111.39973 -34.43302,117.15822 -46.81354,21.16696 z" />
    <g>
      <path d="m 375.18081,301.99582 c -27.78427,11.26345 -40.17936,48.24659 -22.03604,75.07566 -29.39173,-9.62151 -53.04352,-35.98841 -53.92466,-68.34603 -22.32056,19.61959 -29.13304,44.97818 -22.06657,78.37968 -34.45118,-17.78413 -49.75657,-41.41855 -51.61737,-76.53725 -28.45299,23.60894 -39.76943,52.75511 -33.16759,85.76433 -27.1023,-18.0682 -40.77565,-46.46024 -42.18986,-79.34071 -21.56676,24.04163 -33.09189,53.48276 -31.67767,89.89876 C 65.889402,344.90437 72.688678,252.67271 135.82843,212.82842 231.56206,152.41579 340.01829,237.7071 423,240 Z" fill="#f3a4d9" />
      <g id="g6963">
        <path d="m 375.18081,301.99582 c -27.78427,11.26345 -40.17936,48.24659 -22.03604,75.07566 -29.39173,-9.62151 -53.04352,-35.98841 -53.92466,-68.34603 -22.32056,19.61959 -29.13304,44.97818 -22.06657,78.37968 -34.45118,-17.78413 -49.75657,-41.41855 -51.61737,-76.53725 -28.45299,23.60894 -39.76943,52.75511 -33.16759,85.76433 -27.10488,-40.94163 -33.01705,-109.9241 6.22014,-141.06184 46.89918,-37.21812 128.27262,11.27301 205.25433,9.56591 z" fill="#961370" />
        <path d="m 375.18081,301.99582 c -27.78427,11.26345 -40.17936,48.24659 -22.03604,75.07566 -29.39173,-9.62151 -53.04352,-35.98841 -53.92466,-68.34603 -22.32056,19.61959 -29.13304,44.97818 -22.06657,78.37968 -34.45118,-17.78413 -49.75657,-41.41855 -51.61737,-76.53725 -28.45299,23.60894 -39.76943,52.75511 -33.16759,85.76433 -27.1023,-18.0682 -40.77565,-46.46024 -42.18986,-79.34071 -21.56676,24.04163 -33.09189,53.48276 -31.67767,89.89876 C 65.889402,344.90437 72.688678,252.67271 135.82843,212.82842 231.56206,152.41579 340.01829,237.7071 423,240 Z" fill="none" stroke="#d91e9b" stroke-width="10" />
      </g>
      <g>
        <path d="M 182.32029,343.1086 C 88.521273,93.906407 86.096558,95.32348 237.77192,295.83241 Z" fill="#6dc6fb" stroke="#1c92cd" stroke-width="10" />
        <path d="m 148.10265,179.05325 c -3.50556,11.97735 -8.37263,23.31223 -14.74399,33.84559 m 43.72012,3.78996 c -5.64224,17.21103 -13.90387,32.93861 -25.16522,46.67558 m 54.31265,-9.40764 c -8.27359,21.74143 -20.53724,40.82772 -37.49148,56.14735" fill="none" stroke="#1c92cd" stroke-width="5" />
        <path d="m 198.96791,244.52432 c -9.35298,11.979 -27.05244,22.73253 -43.95245,26.03961 -3.41179,-9.10512 -6.61002,-17.6774 -9.58831,-25.72207 14.05014,-4.03857 27.22018,-11.73566 36.6203,-22.56641 5.29494,6.93065 10.9327,14.34891 16.92046,22.24887 z" fill="#ebebeb" />
        <path d="m 156.91705,240.24009 7.72271,28.47666 5.24265,-2.12132 -2.35876,-32.38657 z" fill="#fff" />
        <path fill="#d7d7d7" inkscape:original-d="m 145.42715,244.84186 c 14.05014,-4.03857 27.22018,-11.73566 36.6203,-22.56641 5.29494,6.93065 10.9327,14.34891 16.92046,22.24887 -9.35298,11.979 -27.05244,22.73253 -43.95245,26.03961 -3.41179,-9.10512 -6.61002,-17.6774 -9.58831,-25.72207 14.05014,-4.03857 27.22018,-11.73566 36.6203,-22.56641" inkscape:path-effect="#path-effect5756" />
      </g>
      <use clip-path="url(#clipPath6967)" xlink:href="#g6963" />
    </g>
    <path d="m 392.0639,599.15329 28.64021,-14.15253 -28.97264,0.40054 z" fill="#6dc6fb" />
    <path d="m 167.94009,501.53425 c -21.43893,16.21553 -55.37725,15.48076 -50.89614,34.60962 2.07756,8.86863 5.43221,17.177 9.91484,24.88011 40.96974,-4.85172 53.30297,-34.12365 40.9813,-59.48973 z" fill="#6dc6fb" />
    <path fill="#1c92cd" inkscape:original-d="m 167.94009,501.53425 c -21.43893,16.21553 -55.37725,15.48076 -50.89614,34.60962 21.71884,92.71296 183.00745,124.1974 313.50366,43.02708" inkscape:path-effect="#path-effect6202" />
    <g>
      <path d="m 529.40477,431.46095 c -79.74046,46.76508 -26.1867,155.2773 73.94405,85.34003 C 798.20581,380.70125 734.50997,318.34456 565.39359,414.06722 Z" fill="#6dc6fb" />
      <path fill="#1c92cd" inkscape:original-d="m 529.40477,431.46095 c -79.74046,46.76508 -26.1867,155.2773 73.94405,85.34003 194.85699,-136.09973 131.16115,-198.45642 -37.95523,-102.73376 36.8297,-4.06701 42.59074,7.17023 2.70588,34.718 54.41959,-14.74413 67.89812,-3.00716 19.05375,31.75655 46.18898,-14.76543 70.52826,-14.37828 -2.8661,48.2418" inkscape:path-effect="#path-effect6228" />
      <path d="m 716.60247,410.87986 -86.92388,65.29646 M 594.67681,421.78976 704.2281,368.1103 m -88.52099,78.95036 107.14645,-63.43934" style="stroke-width:5;stroke:#1c92cd;stroke-miterlimit:20;fill:none" />
    </g>
    <path d="m 138.14761,576.75174 c 21.13423,-2.84789 35.36295,-10.44073 43.75667,-26.92844 -2.84787,18.73602 -15.32714,28.97989 -35.56204,34.67564 z m -3.13629,-42.0436 c 5.08321,8.9856 13.2692,5.23253 9.9001,-4.17257 -0.81307,5.24916 -4.94974,7.06519 -9.9001,4.17257 z" fill="#1c92cd" />
    <g transform="translate(44)">
      <path d="M 496.37764,579.75527 C 462.50447,706.66227 338.69963,716.90328 256.54106,615.0238 228.54105,636.48187 205.96413,665.98999 193.8225,695.69326 178.70009,732.68871 40.176973,728.51232 42.547727,688.27241 47.262388,608.24828 230.52863,444.94507 387.3821,585.90467 c 19.40448,-12.28049 34.15228,-27.4474 49.48679,-45.89233 z" fill="#6dc6fb" />
      <path d="m 383.3005,582.36348 7.93036,7.55272 c 19.28036,-13.59514 33.82716,-29.71392 45.63803,-49.90386 -16.25789,16.44862 -32.60702,30.04377 -53.56839,42.35114 z" fill="#1c92cd" />
      <path fill="#1c92cd" inkscape:original-d="m 496.37764,579.75527 c -33.87317,126.907 -157.67801,137.14801 -239.9117,35.17661" inkscape:path-effect="#path-effect4228" />
      <path d="m 117.41573,683.72102 c 45.21987,-7.02076 80.42869,5.37257 87.43234,22.5063 15.41687,37.71581 158.97385,32.01429 153.41101,-7.42085 C 348.96344,632.9094 254.59786,575.83518 141.42719,584.20824 Z" fill="#6dc6fb" stroke="#1c92cd" stroke-width="10" />
      <path d="M 280.25484,599.85725 C 241.37887,620.69453 209.21499,658.03708 193.8225,695.69326 178.70009,732.68871 40.176974,728.51232 42.547727,688.27241 47.436407,605.29457 244.3007,432.77648 404.76215,602.51411 Z" fill="#6dc6fb" />
      <path fill="#1c92cd" inkscape:original-d="M 280.25484,599.85725 C 241.37887,620.69453 209.21499,658.03708 193.8225,695.69326 178.70009,732.68871 40.176974,728.51232 42.547727,688.27241 47.436407,605.29457 244.3007,432.77648 404.76215,602.51411" inkscape:path-effect="#path-effect4224" />
    </g>
    <g>
      <path d="m 447.13413,409.16234 c 18.79899,133.44574 -21.94113,192.85995 -90.92389,243.85995 38.19849,-1.97308 74.26703,-15.32842 98.26703,-37.82842 28.6871,53.24439 86.25716,85.98637 161.32085,88.92388 -35.3259,-17.62742 -61.81118,-41.7315 -76.81118,-73.7315 67.16399,34.75231 128.84777,46.31728 202.84777,40.31728 C 477.74935,605.15223 552.48441,434.14509 466.56053,287.45166 Z" fill="#f3a4d9" />
      <path d="m 447.13413,409.16234 c 18.79899,133.44574 -21.94113,192.85995 -90.92389,243.85995 38.19849,-1.97308 74.26703,-15.32842 98.26703,-37.82842 28.6871,53.24439 86.25716,85.98637 161.32085,88.92388 C 412.13603,648.14466 538.80974,524.24554 457.85763,341.97728 Z" fill="#961370" />
      <path d="m 447.13413,409.16234 c 18.79899,133.44574 -21.94113,192.85995 -90.92389,243.85995 38.19849,-1.97308 74.26703,-15.32842 98.26703,-37.82842 28.6871,53.24439 86.25716,85.98637 161.32085,88.92388 -35.3259,-17.62742 -61.81118,-41.7315 -76.81118,-73.7315 67.16399,34.75231 128.84777,46.31728 202.84777,40.31728 C 477.74935,605.15223 552.48441,434.14509 466.56053,287.45166 Z" style="stroke-width:10;stroke:#d91e9b;stroke-miterlimit:20;fill:none" />
    </g>
    <g>
      <path d="m 364.12881,324.41549 c 5.83578,-68.43771 59.95461,-115.96022 69.96273,-115.32143 13.49605,0.86142 96.04064,128.01222 2.65263,242.06594 z" fill="#6dc6fb" />
      <path fill="#1c92cd" inkscape:original-d="m 364.12881,324.41549 c 5.83578,-68.43771 59.95461,-115.96022 69.96273,-115.32143 13.49605,0.86142 96.04064,128.01222 2.65263,242.06594" inkscape:path-effect="#path-effect5159" />
      <path d="m 431.25576,280.77599 c 9.39407,31.13226 5.71368,68.82294 -7.01891,99.32812 20.42521,-29.7094 23.19993,-70.67978 7.01891,-99.32812 z" fill="#1c92cd" />
    </g>
    <g clip-path="url(#clipPath9251)">
      <path d="m 215.14645,89.93934 c -1.0371,-13.578114 19.64644,-15.964466 21,-4.585787 1.59902,13.442215 -19.88383,19.199127 -21,4.585787 z M 303,70 c 1.61699,-28.82937 43.98872,-31.8703 41,2.5 -3,34.5 -42.9848,32.88714 -41,-2.5 z m 119.40434,4.167812 c 8.27024,-45.958174 75.63023,-25.759791 69.18463,24.708794 -6.35653,49.771044 -79.60273,33.185074 -69.18463,-24.708794 z M 573,116 c -8,-67 89,-121 112,-36 72.79269,-85.7408613 180.85919,12.676007 126,87 86,45 30,175 -67,102 -20,86 -184,55 -127,-30 -81.05025,24.92893 -85,-127 -44,-123 z" fill="url(#linearGradient9056)" id="path5769" />
      <g fill="#b4a8fe" transform="matrix(-0.00486088,0.55540033,-0.55540033,-0.00486088,915.64949,-80.542562)">
        <circle cx="315.46201" cy="410.991" fill="#b4a8fe" r="3.5" />
        <circle cx="305.16501" cy="483.22601" fill="#b4a8fe" r="3.5" />
        <circle cx="452.73901" cy="502.83899" fill="#b4a8fe" r="3.5" />
        <circle cx="297.57401" cy="275.901" fill="#b4a8fe" r="5" />
        <circle cx="251.696" cy="450.24799" fill="#b4a8fe" r="6.5" />
        <circle cx="287.81799" cy="195.517" fill="#b4a8fe" r="3.5" />
        <circle cx="294.936" cy="252.007" fill="#b4a8fe" r="3.5" />
        <circle cx="388.78799" cy="318.431" fill="#b4a8fe" r="3.5" />
        <circle cx="425.13199" cy="620.44598" fill="#b4a8fe" r="3.5" />
        <circle cx="461.96701" cy="555.95203" fill="#b4a8fe" r="5" />
        <circle cx="262.52802" cy="278.97299" fill="#b4a8fe" r="3.5" />
        <circle cx="518.34198" cy="635.24799" fill="#b4a8fe" r="3.5" />
        <circle cx="365.388" cy="471.01801" fill="#b4a8fe" r="3.5" />
        <circle cx="320.746" cy="486.18301" fill="#b4a8fe" r="3.5" />
        <circle cx="279.819" cy="334.70401" fill="#b4a8fe" r="3.5" />
        <circle cx="335.53601" cy="263.81201" fill="#b4a8fe" r="3.5" />
        <circle cx="275.67801" cy="455.17899" fill="#b4a8fe" r="3.5" />
        <circle cx="495.436" cy="627.98199" fill="#b4a8fe" r="6.5" />
        <circle cx="268.965" cy="442.78101" fill="#b4a8fe" r="3.5" />
        <circle cx="511.784" cy="602.83197" fill="#b4a8fe" r="11" />
        <circle cx="386.07001" cy="411.32401" fill="#b4a8fe" r="5" />
        <circle cx="266.63901" cy="370.72601" fill="#b4a8fe" r="5" />
        <circle cx="357.948" cy="267.638" fill="#b4a8fe" r="3.5" />
        <circle cx="480.99799" cy="541.625" fill="#b4a8fe" r="3.5" />
        <circle cx="240.13499" cy="313.228" fill="#b4a8fe" r="3.5" />
        <circle cx="367.96799" cy="436.284" fill="#b4a8fe" r="3.5" />
        <circle cx="341.505" cy="483.315" fill="#b4a8fe" r="3.5" />
        <circle cx="463.81" cy="477.181" fill="#b4a8fe" r="3.5" />
      </g>
      <text style="clip-path:url(#clipPath9120);-inkscape-font-specification:'DejaVu Sans Mono';fill:#b4a8fe;font-size:24.79261971px;font-family:'DejaVu Sans Mono'" transform="rotate(30)" x="414.97025" y="-274.02115" xml:space="preserve"><tspan fill="#b4a8fe" x="414.97025" y="-274.02115" sodipodi:role="line">rd, cnt, reob = {}, 0, set()</tspan><tspan fill="#b4a8fe" x="414.97025" y="-243.03038" sodipodi:role="line">    for k in rn.findall(".//*"):</tspan><tspan fill="#b4a8fe" x="414.97025" y="-212.0396" sodipodi:role="line">        cits, irk = refsof(k), k.get("id")</tspan><tspan fill="#b4a8fe" x="414.97025" y="-181.04883" sodipodi:role="line">        if irk == None:</tspan><tspan fill="#b4a8fe" x="414.97025" y="-150.05804" sodipodi:role="line">            while "q" + str(cnt) in rd: cnt += 1</tspan><tspan fill="#b4a8fe" x="414.97025" y="-119.06728" sodipodi:role="line">            irk = "q" + str(cnt)</tspan><tspan fill="#b4a8fe" x="414.97025" y="-88.0765" sodipodi:role="line">            k.set("id", irk)</tspan><tspan fill="#b4a8fe" x="414.97025" y="-57.085728" sodipodi:role="line">        rd[irk] = cits</tspan><tspan fill="#b4a8fe" x="414.97025" y="-26.094952" sodipodi:role="line">        for i in cits: reob.add(cits[i])</tspan></text>
      <path d="M 528.93057,281.70068 860.73352,90.134145 M 528.09628,85.664172 885.26185,291.87382" fill="none" stroke="#fff" stroke-width="30" />
    </g>
    <path d="m 215.14645,89.93934 c -1.0371,-13.578114 19.64644,-15.964466 21,-4.585787 1.59902,13.442215 -19.88383,19.199127 -21,4.585787 z M 303,70 c 1.61699,-28.82937 43.98872,-31.8703 41,2.5 -3,34.5 -42.9848,32.88714 -41,-2.5 z m 119.40434,4.167812 c 8.27024,-45.958174 75.63023,-25.759791 69.18463,24.708794 -6.35653,49.771044 -79.60273,33.185074 -69.18463,-24.708794 z M 573,116 c -8,-67 89,-121 112,-36 72.79269,-85.7408613 180.85919,12.676007 126,87 86,45 30,175 -67,102 -20,86 -184,55 -127,-30 -81.05025,24.92893 -85,-127 -44,-123 z" fill="none" stroke="#004786" stroke-width="7" />
  </g>
</svg>