<svg xmlns="http://www.w3.org/2000/svg" xmlns:inkscape="http://www.inkscape.org/namespaces/inkscape" xmlns:xlink="http://www.w3.org/1999/xlink" height="1080" viewBox="0 0 1920 1080" width="1920">
  <defs>
    <inkscape:path-effect effect="powerstroke" id="path-effect4389" interpolator_type="CubicBezierSmooth" miter_limit="20" offset_points="0.2,1.75 | 12,1.75" start_linecap_type="zerowidth" />
    <inkscape:path-effect effect="powerstroke" id="path-effect4410" interpolator_type="CubicBezierSmooth" offset_points="0.53,3.5 | 6,3.5" start_linecap_type="zerowidth" />
    <inkscape:path-effect effect="powerstroke" end_linecap_type="zerowidth" id="path-effect4402" interpolator_type="CubicBezierSmooth" offset_points="0.48,3.5 | 6.58,3.5" start_linecap_type="zerowidth" />
    <inkscape:path-effect effect="powerstroke" id="path-effect4371" interpolator_type="CubicBezierSmooth" offset_points="0.57,3.5" start_linecap_type="zerowidth" />
    <inkscape:path-effect effect="powerstroke" end_linecap_type="zerowidth" id="path-effect4360" interpolator_type="CubicBezierSmooth" offset_points="0.32,3.5 | 3.17,3.5" start_linecap_type="zerowidth" />
    <inkscape:path-effect effect="powerstroke" end_linecap_type="zerowidth" id="path-effect5749" interpolator_type="CubicBezierSmooth" offset_points="0.46,3.5 | 11.46,3.5" start_linecap_type="zerowidth" />
    <inkscape:path-effect effect="powerstroke" id="path-effect5016" interpolator_type="CubicBezierSmooth" offset_points="0.88,3.5" start_linecap_type="zerowidth" />
    <inkscape:path-effect effect="powerstroke" end_linecap_type="zerowidth" id="path-effect4998" interpolator_type="CubicBezierSmooth" offset_points="0.24,3.5 | 3.56,3.5" start_linecap_type="zerowidth" />
    <inkscape:path-effect effect="powerstroke" end_linecap_type="zerowidth" id="path-effect4370" interpolator_type="CubicBezierSmooth" offset_points="0.21,3.5 | 1.7,3.5" start_linecap_type="zerowidth" />
    <linearGradient id="linearGradient4518">
      <stop offset="0" stop-color="#195f65" />
      <stop offset="1" stop-color="#2bb1b9" />
    </linearGradient>
    <inkscape:path-effect effect="powerstroke" end_linecap_type="zerowidth" id="path-effect4312" interpolator_type="CubicBezierSmooth" offset_points="0.26,3.5 | 2.84,3.5" start_linecap_type="zerowidth" />
    <inkscape:path-effect effect="join_type" id="path-effect5150" line_width="7" />
    <inkscape:path-effect effect="powerstroke" id="path-effect4398" interpolator_type="CubicBezierSmooth" offset_points="0.34,3.5" start_linecap_type="zerowidth" />
    <inkscape:path-effect effect="powerstroke" end_linecap_type="zerowidth" id="path-effect4396" interpolator_type="CubicBezierSmooth" offset_points="0.22,3.5 | 3.74,3.5" start_linecap_type="zerowidth" />
    <inkscape:path-effect effect="powerstroke" end_linecap_type="zerowidth" id="path-effect4391" interpolator_type="CubicBezierSmooth" offset_points="0.4,3.5 | 0.64,3.5" start_linecap_type="zerowidth" />
    <inkscape:path-effect effect="powerstroke" id="path-effect4379" interpolator_type="CubicBezierSmooth" offset_points="0.63,3.5" start_linecap_type="zerowidth" />
    <inkscape:path-effect effect="powerstroke" end_linecap_type="zerowidth" id="path-effect4249" interpolator_type="CubicBezierSmooth" offset_points="0.29071838,3.5 | 1.648811,3.5" start_linecap_type="zerowidth" />
    <linearGradient id="linearGradient851">
      <stop offset="0" stop-color="#e66100" />
      <stop offset="1" stop-color="#fad542" />
    </linearGradient>
    <clipPath id="clipPath4321">
      <use xlink:href="#ellipse822-5" />
    </clipPath>
    <linearGradient gradientTransform="translate(5.8766496e-6,-3.8973559e-6)" gradientUnits="userSpaceOnUse" id="linearGradient4294" x1="795.34552" x2="794.55811" y1="408.79407" y2="444.06949" xlink:href="#linearGradient851" />
    <clipPath id="clipPath4319">
      <use xlink:href="#path4327" />
    </clipPath>
    <clipPath id="clipPath5225">
      <path d="m 556.612,400.0012 c -0.14272,9.52202 1.42018,19.30607 5.06573,29.15114 3.00462,8.11419 6.34781,15.82035 9.82969,23.18186 L 553.41818,623.55204 663.18671,656.75786 864.10853,392.21102 687.76363,264.97544 533.20681,333.98488 Z" />
    </clipPath>
    <clipPath id="clipPath4532">
      <use xlink:href="#path4356" />
    </clipPath>
    <linearGradient gradientUnits="userSpaceOnUse" id="linearGradient4363" x1="-218.49844" x2="-264.72073" y1="1168.0883" y2="1167.9092" xlink:href="#linearGradient4518" />
    <clipPath id="clipPath4423">
      <use xlink:href="#path4342" />
    </clipPath>
    <clipPath id="clipPath4424">
      <path d="m 1663.1168,551.73038 c -96.6962,-102.87286 -228.8589,-99.95489 -270.061,-23.08308 l -25.5621,7.95827 68.4915,250.55187 363.6409,144.41694 -55.1593,-383.96259 z" />
    </clipPath>
    <clipPath id="clipPath4446">
      <path d="m 1525.524,626.19315 142.0529,76.34648 -18.4298,124.85116 -138.5806,-36.80517 z" />
    </clipPath>
    <clipPath id="clipPath4460">
      <path d="m 1264.4571,836.0373 c -5.0677,4.43604 -7.4176,13.64267 -3.9105,19.82227 l -3.9894,85.7505 -146.0205,-1.64118 94.7906,-255.98211 101.6892,26.38975 z" />
    </clipPath>
  </defs>
  <g inkscape:groupmode="layer" inkscape:label="Drawing">
    <g>
      <path d="m 1216.9601,702.8257 c -10.4526,70.97245 -33.5644,136.73852 -79.5572,207.23343 -13.5778,20.81113 94.4305,23.12991 102.7355,1.78628 23.8059,-61.18053 32.1417,-136.38852 25.0785,-194.05416 z" style="stroke:#b9ae4b;fill:#eeecb8;clip-path:url(#clipPath4460);stroke-width:7" />
      <path d="m 1193.0067,835.57008 c 20.5349,3.82635 51.2897,3.88912 71.4504,0.46722 -1.1542,6.63258 -2.4576,13.24964 -3.9105,19.82227 -18.6747,2.64063 -55.6133,3.91149 -73.9772,-0.91871 z" fill="#746b4f" />
      <ellipse cx="1401.4055" cy="362.21896" rx="16.680111" ry="33.352379" style="stroke:#e6bb52;stroke-miterlimit:20;fill:#f6df7c;stroke-width:5" transform="rotate(20.983381)" />
      <ellipse cx="1401.4055" cy="362.21896" fill="#f2f1e4" rx="10.87772" ry="25.285772" transform="rotate(20.983381)" />
      <ellipse cx="1400.2366" cy="364.40753" fill="#1b1b0b" rx="2.2726367" ry="4.1953797" transform="rotate(20.983381)" />
      <path d="m 1176.307,842.10597 5.0088,-13.38593 1.0075,0.32322 -4.6584,12.14003 5.612,1.3712 -0.3138,1.17568 z m 7.0773,-2.09782 1.3127,3.44295 -3.0782,2.60381 z m -3.9526,-10.91169 3.6326,-4.36742 0.9711,5.41774 z" fill="#1b1b0b" />
    </g>
    <g>
      <path d="m 1330.408,708.68776 100.5314,-7.55757 c -13.6513,41.2901 -20.1649,102.28396 -9.5579,129.23469 13.5679,34.47391 -63.2417,61.16068 -76.9758,34.19955 -20.0869,-39.43252 -4.9495,-89.49291 12.2403,-126.21675 -14.6067,-5.24717 -22.6761,-14.35627 -26.238,-29.65992 z" fill="#eeecb8" />
      <path fill="#b9ae4b" inkscape:original-d="m 1370.76,741.53246 c -23.6606,-3.66905 -35.757,-13.10239 -40.352,-32.8447 l 100.5314,-7.55757 c -13.6513,41.2901 -20.1649,102.28396 -9.5579,129.23469 13.5679,34.47391 -63.2417,61.16068 -76.9758,34.19955 -20.0869,-39.43252 -4.9495,-89.49291 12.3776,-126.00101" inkscape:path-effect="#path-effect5016" />
    </g>
    <g>
      <path d="m 1650.452,773.43988 c 7.5868,104.77422 87.9798,118.15499 103.6831,71.55681 18.9344,-56.18628 -63.131,-97.44252 -73.7624,-55.64138 93.6349,-368.15863 -316.0371,-405.81339 -285.3428,-215.21273 l 28.4501,14.50429 c 12.9861,-112.64085 166.5041,-63.17084 115.7709,71.92853 -34.6887,92.37388 40.5226,152.43723 86.1698,126.86779 7.7344,-4.33243 12.3233,-10.33544 14.433,-17.14812 z" fill="#365a93" />
      <path clip-path="url(#clipPath4424)" fill="#282f53" id="path4390" inkscape:original-d="m 1712.8577,807.13026 c 14.6627,32.67495 -43.6707,26.20572 -32.485,-17.77495 93.6349,-368.15863 -316.0371,-405.81339 -285.3428,-215.21273 l 28.4501,14.50429 c 12.9861,-112.64085 166.5041,-63.17084 115.7709,71.92853 -34.6887,92.37388 40.5226,152.43715 86.1698,126.86779 43.5214,-24.37869 -12.5526,-101.65383 -49.5103,-78.43413 -30.4751,19.14681 7.9931,64.58725 31.7879,45.13733" inkscape:path-effect="#path-effect4402" />
      <path d="m 1680.3727,789.35531 c 10.6314,-41.80114 92.6968,-0.5449 73.7624,55.64138 -15.7033,46.59818 -96.0963,33.21741 -103.6831,-71.55681" fill="none" stroke="#282f53" stroke-width="7" />
      <path d="m 1684.6113,878.54388 c 38.9581,88.94145 -155.155,87.57112 -81.6601,-134.59889 64.2079,-194.09624 -74.3232,-325.10594 -202.7467,-225.69999 34.3758,-82.83743 189.7242,-78.62722 259.7261,34.98561 38.2595,112.42413 -21.8076,216.01645 -2.3759,298.9287 10.2507,2.98057 20.4017,11.19149 27.0566,26.38457 z" fill="#ff8cdb" />
      <path fill="#e53d7a" inkscape:original-d="m 1655.4451,878.52682 c 11.163,26.93785 -14.8999,37.5706 -29.3026,10.36415 -19.2457,-36.35494 37.2998,-58.67599 58.4688,-10.34709 38.9581,88.94144 -155.155,87.57112 -81.6601,-134.59889 64.2079,-194.09624 -74.3232,-325.10594 -202.7467,-225.69999 34.3758,-82.83743 189.7242,-78.62722 259.7261,34.98561 38.2595,112.42413 -21.8076,216.01645 -2.4331,298.93585" inkscape:path-effect="#path-effect4410" />
      <g clip-path="url(#clipPath4446)">
        <path d="m 1539.2509,660.5754 c -34.6887,92.37388 40.5226,152.43715 86.1698,126.86779 43.5214,-24.37869 -12.5526,-101.65383 -49.5103,-78.43413 -30.4751,19.14681 7.9931,64.58725 31.7879,45.13733" fill="#365a93" />
        <use xlink:href="#path4390" />
      </g>
    </g>
    <path d="M 1267.1814,368.13856 C 1100.891,151.47813 884.69341,321.40611 1044.0713,415.24728 Z" fill="#ff8cdb" stroke="#e53d7a" stroke-width="7" />
    <path d="m 1036.4131,570.00584 c 0.287,-10.54304 14.0384,-12.47673 19.548,-3.82427 -1.2709,5.57654 -7.2155,7.51655 -19.548,3.82427 z" fill="#ef6f2f" />
    <path d="m 1144.7661,586.9001 c -54.5343,12.2697 -99.701,3.49094 -124.8902,-19.1392 11.8697,-0.97076 25.0975,1.2224 35.7041,6.17215 -3.7983,-48.26895 -52.4499,-0.82638 -59.96193,-55.02042 -2.43584,-17.5729 30.61703,-5.56405 28.33073,-21.31508 -26.99736,-185.99106 203.5613,-207.12067 225.1812,-76.20852 9.3995,56.91572 -4.9632,113.87751 8.5948,176.0584 157.4768,-86.3646 225.4455,0.16519 185.0936,129.67426 -6.8531,21.99478 24.617,1.40061 35.6236,19.55022 43.3046,71.40828 63.2578,161.13954 54.828,197.04718 -4.9638,21.14389 -104.4885,18.79733 -96.8685,-2.06398 25.5161,-69.85547 11.3335,-149.33168 -49.8775,-207.08255 -3.1009,-2.92566 -6.1229,-5.8891 -9.0115,-9.03441 -125.7847,20.43364 -207.8867,6.11384 -232.7464,-138.63805 z" fill="#f7fbcf" />
    <g transform="matrix(-1.0324571.00596239.15416283 1.0411961 1399.2037 638.98944)">
      <g id="W">
        <path d="m 2.5,19.7 c 0,0 -21.8,13.8 -25.6,13.8 L -24.2,6.4 c 6.2,0 26.7,13.3 26.7,13.3 z m 8.7,2.4 24.5,-10 5.3,7.9 -7,9 3,11 -3.5,2.7 z" fill="#60ccfb" />
        <path d="m -4.9,24.4 -5.8,3.3 -7.1,-14.8 -4.9,-6.3 10,4 z M 11.2,22.1 27.7,37.4 19.8,18.6 Z m 15.2,-6 6.1,14.5 5.9,-5.1 L 31.2,14 Z" fill="#faff5f" />
        <path d="m -23.1,33.5 c -2.4,0 -10.4,-7.3 -4.2,-13.5 3.1,-3.1 -1,-13.6 3.1,-13.6 6.9,4 8.6,9.5 4.2,11.7 -8,4 9.9,5.8 -3.1,15.4 z m 56.6,9.2 c 9.5,-0.9 3,-7.9 3,-10.7 0,-6.4 14.9,-5 -0.8,-19.9 8.5,12.6 -5.7,12.6 -5.7,18.8 0,3.5 8.9,2.7 3.5,11.8 z" fill="#359fed" />
        <path d="m -24.2,6.4 c 6.9,4 8.6,9.5 4.2,11.7 -8,4 9.9,5.8 -3.1,15.4 M 2.5,19.7 c 0,0 -21.8,13.8 -25.6,13.8 -2.4,0 -10.4,-7.3 -4.2,-13.5 3.1,-3.1 -1,-13.6 3.1,-13.6 6.2,0 26.7,13.3 26.7,13.3 z m 8.7,2.4 24.5,-10 c 15.7,14.9 0.8,13.5 0.8,19.9 0,2.8 6.5,9.8 -3,10.7 z m 24.5,-10 C 44.2,24.7 30,24.7 30,30.9 c 0,3.5 8.9,2.7 3.5,11.8" fill="none" stroke="#237ac1" />
        <ellipse cx="18.299999" cy="12.7" fill="#60ccfb" rx="11.1" ry="9.1999998" transform="rotate(40)" />
        <path d="m -2.8,14.1 c 5.2,4.3 9.4,10.5 11.5,17.5 l 5.1,-2.2 C 11.4,21.6 8,14.5 2.2,11.4 Z" fill="#faff5f" />
        <ellipse cx="18.299999" cy="12.7" fill="none" rx="11.1" ry="9.1999998" stroke="#237ac1" transform="rotate(40)" />
      </g>
      <use transform="matrix(-.87-.15-.04.86 12-47.8)" xlink:href="#W" />
      <use transform="rotate(171-1.2 7.4)scale(.91)" xlink:href="#W" />
    </g>
    <path d="m 1016.1676,518.95792 c -1.2467,4.05286 -4.0897,5.73146 -8.2161,5.26633 4.1226,5.12512 10.9642,1.16342 8.2161,-5.26633 z" fill="#b9ae4b" />
    <g>
      <g clip-path="url(#clipPath4423)">
        <path d="m 1066.6976,519.0822 c -8.1742,-41.16652 10.8328,-73.89824 46.4354,-91.16803 17.105,13.96022 37.8463,24.30952 54.3774,24.80564 6.6417,22.93174 -6.3163,61.37531 -36.6329,83.76391 -19.5535,-10.98467 -39.497,-17.83538 -64.1799,-17.40152 z" fill="#fff" id="path4342" />
        <g clip-path="url(#clipPath4532)">
          <ellipse cx="-241.43788" cy="1160.312" fill="url(#linearGradient4363)" id="path4356" rx="34.971264" ry="22.613611" transform="rotate(282.24983)" />
          <path d="m 1077.587,490.01773 13.783,36.24126 16.6379,-15.30279 z" fill="#ade3e6" />
          <path d="m 1077.587,490.01773 35.757,10.332 -14.268,21.9275 z" fill="#6dd0d8" />
          <ellipse cx="1166.7461" cy="206.08853" rx="16.463146" ry="28.577879" transform="rotate(14.116425)" />
          <ellipse cx="1090.4124" cy="473.88947" fill="#fff" rx="8.8977699" ry="13.915511" />
          <ellipse cx="856.3335" cy="815.53845" fill="#fff" rx="3.1948686" ry="4.1069236" transform="rotate(340.87796)" />
        </g>
      </g>
      <path d="m 1103.3409,412.85381 c 13.6152,20.04059 44.5694,37.41775 65.641,37.41775 28.2862,0 28.2726,4.63858 -0.1783,4.63858 -20.8421,0 -53.8172,-17.20004 -69.2894,-39.2634 -6.3855,-9.10574 -2.2772,-11.7773 3.8267,-2.79293 z m 62.2371,39.54981 5.3199,0.8839 c 1.5399,7.44898 0.9623,15.64686 -2.7388,23.96913 0.1897,-8.89003 -0.5121,-16.73084 -2.5811,-24.85303 z m -49.7382,-22.85337 c -33.1229,15.56333 -55.3282,43.03406 -49.1422,89.53195 -11.5692,-45.24715 12.9111,-78.17727 45.2448,-92.98004 z m 53.9259,38.39564 c 21.8627,17.29601 19.6258,20.2895 -0.8596,5.09124 m 0.4642,-13.92567 c 26.3766,7.14711 25.8956,11.99176 0.4012,4.83617" />
      <path d="m 1063.7018,525.94395 c 8.1915,2.05791 15.8043,6.4135 21.2776,10.64313 -8.2663,-2.55037 -16.5815,-5.72698 -21.2776,-10.64313 z m -9.7084,-6.49563 c 28.2531,-5.91443 63.861,3.63451 85.078,22.53142 -25.8686,-14.82984 -52.7014,-22.01445 -85.078,-22.53142 z" fill="#b9ae4b" />
    </g>
    <g>
      <path d="m 261.03637,612.69937 c 28.12548,-210.80595 238.93669,-171.418 271.61153,-23.31448 l -17.18297,23.07243 c -55.27687,-50.75318 -115.02873,18.96086 -79.4446,117.19695 33.23588,91.75333 16.88475,145.28494 -46.43146,168.56645 11.19748,-12.77564 19.83851,-25.41249 27.36667,-42.49279 -46.42983,53.49163 -114.26334,50.60162 -162.82259,8.32207 62.58304,0.16772 99.05139,-10.45823 111.12181,-25.52083 21.11486,-26.3491 -106.57439,-192.47607 -10.90504,-292.92166 -32.82558,9.79561 -64.57561,32.13446 -93.31335,67.09186 z" style="stroke:#4ad0cd;stroke-miterlimit:20;fill:#ace9e9;stroke-width:7" />
      <path d="m 361.81893,715.53018 c -49.2135,-160.37967 71.27639,-231.0083 162.19489,-111.99015 -75.55227,-151.38214 -286.95216,-74.65161 -226.5955,106.97551 23.46611,70.61493 6.49707,106.90451 -56.75076,101.56502 24.55454,35.04046 104.02525,52.10773 124.5872,26.44861 21.38731,-26.68908 12.91517,-69.71343 -3.43583,-122.99899 z" fill="#fff" stroke="#74ecea" stroke-width="7" />
    </g>
    <g>
      <path d="m 800.69074,314.39081 c 99.5912,-83.49351 123.76277,-69.09087 30.46901,34.1156 z" fill="#8cffdb" stroke="#2fb17b" stroke-width="7" />
      <path d="m 827.20747,292.33516 c -1.5519,17.44492 6.75442,31.10865 24.02653,33.6853 m 10.22001,-56.97652 c -1.1981,11.82608 1.72437,22.09273 13.507,25.77741" fill="none" stroke="#2fb17b" stroke-width="2" />
    </g>
    <path d="m 564.66742,739.85883 c -16.29407,26.81124 -14.59761,108.36074 14.91803,176.57537 9.39629,21.7161 101.88951,16.69514 89.95954,-4.05444 -49.10085,-85.40022 -60.34542,-140.4258 -11.75523,-190.47542 l -82.46765,-42.79632 c 11.40945,14.85868 18.20095,30.99553 17.95428,54.85065 -0.12165,11.76339 -24.73167,-0.47978 -28.60897,5.90016 z" fill="#62dfb2" stroke="#2fb17b" stroke-width="7" />
    <g>
      <path d="m 769.71295,741.55367 c -21.28882,28.95854 37.61006,109.49561 60.89742,87.30893 47.13448,-44.90666 14.02299,-141.90099 -16.72082,-173.4265 -12.11522,-12.42326 -60.42865,-7.45509 -87.98915,45.26798 2.06707,51.29487 42.50644,8.80951 59.7934,11.03164 -2.64695,10.66046 -8.11509,19.1184 -15.98085,29.81795 z" fill="#62dfb2" />
      <path fill="#2fb17b" inkscape:original-d="m 787.1046,696.51843 c 0.21223,19.00034 -6.13414,29.72199 -17.39165,45.03524 -21.28883,28.95854 37.61006,109.49561 60.89742,87.30893 47.13448,-44.90666 14.02299,-141.90099 -16.72082,-173.4265 -12.11522,-12.42326 -60.42865,-7.45509 -87.98915,45.26798 2.06707,51.29487 42.50644,8.80951 59.93178,10.97769" inkscape:path-effect="#path-effect4379" />
    </g>
    <g>
      <path d="m 580.69747,731.48739 c -9.69568,5.96815 -20.4448,10.03325 -31.68103,11.13042 11.96124,33.97484 20.94427,117.28629 -2.85433,145.38231 -23.10004,27.27131 -87.96345,-24.22058 -75.28456,-50.38489 17.58231,-36.28308 14.13425,-88.82935 11.13271,-120.23088 -1.23618,-12.93266 29.18585,-17.00745 41.12795,-15.50868 -8.54128,-23.51325 -33.21118,-65.65774 -2.75484,-106.38244 41.86387,-55.97828 112.24313,1.63054 139.97442,3.29925 -6.9312,-59.57895 -64.03987,-137.12576 -37.52804,-224.92686 40.45523,-133.97843 270.01071,-93.04393 216.51681,90.38462 -3.77293,12.93723 27.22331,11.48005 23.90512,25.79551 -5.34324,23.05196 -41.70546,64.56745 -114.15662,57.18408 78.36204,132.44775 -3.3676,217.71071 -168.39759,184.25756 z" fill="#8cffdb" />
    </g>
    <g transform="matrix(1.0323794.00659614-89122e-8.93284323 568.21118 645.97327)">
      <path d="m -4.5,-45.7 c -5.6,8.1 -15,-1.8 -8,-7.4 8.5,-6.8 27.5,0.8 -1.9,44.9 -14,21 -17.1,38.9 -2.5,47.5 14.6,8.6 31.8,6.1 34.1,-29.6 2.3,-35.7 17.8,-30.8 19.1,-22.8 1.3,8 -9.4,7.2 -8.3,1.5 -2.5,3.1 -3.8,11.4 -4.9,30.8 -1.8,31.3 -17.3,41.5 -38.3,33.4 -21,-8.1 -31.9,-31.8 -6.4,-62.8 13.9,-17 17.7,-29.2 17.1,-35.5 z M 21,-10.2 C 13.2,-13.9 3.6,-21.7 -2.9,-28.5 l 2.2,-5.6 c 6.6,8 16.7,15.9 23.9,19.8 z" fill="#f3ba36" />
      <path d="m -1.9,-52.7 c 2.2,2.1 1.2,4.3 0.3,2.9 -0.9,-1.4 -1.8,-2.4 -3.1,-3.3 -1.3,-0.9 0.6,-1.7 2.8,0.4 z m 5.2,23.4 c -2.9,3.6 15.4,14.7 16.6,13.1 z m 24.8,13.6 c -1.2,0.1 -1,-2 2.4,-1.5 3.4,0.5 4.1,3 2,2.2 -2.1,-0.8 -3.2,-0.8 -4.4,-0.7 z" fill="#ffe8a9" />
      <path d="m -21.988229,-10.554875 c -25.230168,30.671682 -15.380763,55.162343 6.724073,63.672465 21.828116,8.403588 37.222338,-3.175579 38.860794,-33.896097 1.574289,-29.517416 4.151353,-32.0344 8.446796,-32.299484 -4.859384,-0.646774 -7.68431,0.390252 -9.445185,32.242751 C 20.911908,49.669007 5.985463,60.206145 -14.907186,52.183474 -36.515427,43.88602 -45.885047,20.089785 -21.214485,-9.9213772 1.452712,-37.495494 -2.5943677,-52.971242 -9.1751619,-51.165802 -3.204567,-51.29496 -0.8103671,-36.30027 -21.988229,-10.554875 Z" fill="#b78000" />
      <path d="m -4.5,-45.7 c -5.6,8.1 -15,-1.8 -8,-7.4 8.5,-6.8 27.5,0.8 -1.9,44.9 -14,21 -17.1,38.9 -2.5,47.5 14.6,8.6 31.8,6.1 34.1,-29.6 2.3,-35.7 17.8,-30.8 19.1,-22.8 1.3,8 -9.4,7.2 -8.3,1.5" fill="none" stroke="#b78000" />
      <path d="M 14.6,-13.6 -3.2,44.8 M -17.8,40.4 6.7,-19.5 m -5.5,-4.9 -27.1,55.6" fill="none" stroke="#40ba8f" stroke-linecap="round" />
      <path d="M 21,-10.2 C 13.2,-13.9 3.6,-21.7 -2.9,-28.5 m 2.2,-5.6 c 6.6,8 16.7,15.9 23.9,19.8" fill="none" stroke="#b78000" />
    </g>
    <g>
      <g clip-path="url(#clipPath4319)">
        <path d="m 715.1201,474.27736 c -19.94766,-27.6152 -22.76502,-63.61001 -3.22621,-87.62836 l 79.92957,29.19499 c 8.7386,19.28433 11.49213,41.57814 3.59543,61.88012 -27.48769,1.74233 -54.69661,-0.1299 -80.29879,-3.44675 z" fill="#fff" id="path4327" />
        <g clip-path="url(#clipPath4321)">
          <ellipse cx="800.44318" cy="425.02814" fill="url(#linearGradient4294)" id="ellipse822-5" rx="17.761185" ry="31.062103" transform="rotate(1.6787823)" />
          <path d="m 791.1529,453.48969 -16.43531,26.19868 -8.02134,-12.17638 z" fill="#ffffd9" />
          <path d="m 791.1529,453.48969 -28.08095,3.37776 7.38252,18.57382 z" fill="#ffff61" />
          <ellipse cx="804.95221" cy="418.96756" rx="12.504992" ry="24.570623" transform="rotate(2.1704378)" />
          <ellipse cx="891.9588" cy="78.058617" fill="#fff" rx="7.1935554" ry="12.080692" transform="rotate(24.077278)" />
          <ellipse cx="907.81824" cy="15.424323" fill="#fff" rx="2.5718808" ry="3.5816152" transform="rotate(28.811192)" />
        </g>
      </g>
      <path d="m 708.51499,391.40318 c -27.21951,-9.28748 -29.34861,-4.60381 -2.14272,4.067 m -2.06744,2.64225 c -30.37871,2.24569 -29.97612,6.31329 -1.89665,4.7423 m 109.4909,23.12268 c -0.71462,-11.07972 -3.48435,-20.05551 -9.33687,-29.61676 2.7782,9.02678 3.5497,15.70715 3.6346,22.68128 L 712.32677,384.7149 c -23.05706,-16.38621 -26.06817,-11.88269 -1.91282,4.30144 z M 788.8799,414.5443 c 9.62722,19.93636 12.49938,40.42406 6.53899,63.17981 10.60337,-18.64335 6.96373,-45.05694 -1.0898,-61.30259 z m -74.01816,-26.45166 -4.96082,-2.0476 c -7.77678,8.39149 -12.94322,21.21635 -11.24027,36.95946 2.60233,-16.60204 7.42728,-25.89608 16.20109,-34.91186 z" />
      <path d="m 763.27608,492.97 c 6.47004,-1.98721 13.41037,-6.49513 23.78744,-6.98035 -6.60355,4.23247 -14.67354,7.23409 -23.78744,6.98035 z m -53.62763,-19.80746 c 32.16464,3.2891 61.73783,4.52915 92.06612,3.4631 -25.17854,6.58217 -67.8975,4.40628 -92.06612,-3.4631 z" fill="#2fb17b" />
    </g>
    <path fill="#2fb17b" inkscape:original-d="m 658.17853,629.99966 c 19.4166,-62.26102 -66.7975,-151.9831 -35.34878,-256.13404 40.45523,-133.97843 270.01071,-93.04393 216.51681,90.38462 -3.77293,12.93723 27.22332,11.48005 23.90512,25.79551 -6.45485,27.84772 -58.1777,82.64046 -163.8892,45.64238" inkscape:path-effect="#path-effect4396" />
    <path d="m 782.08273,513.89093 c -0.15881,4.7145 1.75041,8.02141 8.02376,8.26172 -7.9248,3.72801 -11.969,-1.53278 -8.02376,-8.26172 z m 63.48874,3.91083 c -29.78446,8.94943 -22.5222,-25.90597 -57.61344,-2.35183 32.9744,-13.2606 25.31266,12.97108 52.93766,8.92406 z m -3.87072,-28.932 c 0.15533,4.23744 2.46706,6.59467 6.57322,7.21339 -5.30859,3.88348 -10.89177,-1.71399 -6.57322,-7.21339 z" fill="#2fb17b" />
    <path fill="#2fb17b" inkscape:original-d="m 525.42985,714.28339 c 2.55307,-17.46683 -42.14649,-69.18188 -5.04648,-118.79016 42.26426,-56.51367 113.59199,2.7429 140.73832,3.42857" inkscape:path-effect="#path-effect4398" />
    <path fill="#2fb17b" inkscape:original-d="m 535.3657,743.258 c 48.06812,3.69069 91.56699,-45.11053 98.98474,-88.44738" inkscape:path-effect="#path-effect4391" />
    <path d="m 523.27978,701.93756 c -12.08367,-1.56066 -42.5057,2.51413 -41.26952,15.44679 3.00154,31.40153 6.4496,83.9478 -11.13271,120.23088 -12.67889,26.16431 52.18452,77.6562 75.28456,50.38489 23.7986,-28.09602 14.81557,-111.40747 2.79909,-145.68333 m 31.5417,-10.85088 c 165.22456,33.47463 246.9542,-51.78833 168.46878,-184.24867" fill="none" stroke="#2fb17b" stroke-width="7" />
    <g>
      <path d="m 685.47156,708.80907 c -12.8366,50.83486 1.34634,152.03532 38.98806,232.72878 12.55602,26.91664 121.22729,19.07219 101.87959,-5.12887 -45.60239,-57.0417 -75.43593,-136.30623 -97.30039,-224.0428 z" fill="#8cffdb" />
      <path fill="#2fb17b" inkscape:original-d="m 685.47156,708.80907 c -12.8366,50.83486 1.34634,152.03532 38.98806,232.72878 12.55602,26.91664 121.22729,19.07219 101.87959,-5.12887 -45.60239,-57.0417 -75.43593,-136.30623 -97.30039,-224.0428" inkscape:path-effect="#path-effect4312" />
    </g>
    <path d="m 676.02814,307.55011 c 130.54375,105.63575 165.89725,33.25372 234.1508,100.68351 0.40437,-67.20675 -67.22209,-171.34041 -178.00534,-142.11373 12.73528,-11.38173 24.57716,-18.43287 40.88267,-25.90841 -140.21226,-40.51133 -248.79878,106.92937 -203.27014,191.73472 45.0521,83.91772 16.79813,129.38896 -31.18901,115.65486 12.09474,35.07857 57.01419,45.76927 87.55393,17.75862 C 582.5198,406.05521 600.3993,327.7538 676.02814,307.55011 Z" style="stroke:#4ad0cd;stroke-miterlimit:20;fill:#ace9e9;stroke-width:7" />
    <g clip-path="url(#clipPath5225)">
      <path d="m 645.81016,302.2654 c -47.78385,11.56769 -102.51571,67.16206 -80.85034,125.67099 24.53175,66.2498 98.00651,114.9431 85.53594,198.31254 29.89796,-43.35486 19.81568,-99.92333 -19.46255,-148.24401 17.28429,4.99298 39.46227,4.49457 54.6473,-0.45518 -32.87061,-16.53293 -67.3263,-46.49722 -69.75544,-90.14183 z m 171.26617,86.08731 c -75.09682,5.27303 -90.99102,-51.13768 -140.42125,-75.27969 82.6732,-0.0842 101.98159,56.31207 140.42125,75.27969 z" style="stroke:#74ecea;stroke-miterlimit:20;fill:#fff;stroke-width:7" />
      <path d="m 578.91927,605.22878 c 51.88439,17.62714 72.95381,-18.7581 66.11077,-58.68994 -7.38348,-43.08553 -41.55868,-65.9841 -80.07022,-118.60245 27.40136,73.99941 84.47501,114.48144 13.95945,177.29239 z" fill="#ace9e9" />
      <path fill="#4ad0cd" inkscape:original-d="m 578.91927,605.22878 c 51.88439,17.62714 72.95381,-18.7581 66.11077,-58.68994 -7.38348,-43.08553 -41.55868,-65.9841 -80.07022,-118.60245 27.40136,73.99941 84.47501,114.48144 13.95945,177.29239 z" inkscape:path-effect="#path-effect5150" />
    </g>
    <g>
      <path d="m 626.57272,411.75975 c -40.24617,-58.51681 -9.96986,-134.92258 29.54736,-156.51405 10.66081,-5.82486 31.996,40.2188 27.48625,77.05835 z" fill="#8cffdb" />
      <path fill="#2fb17b" inkscape:original-d="m 626.57272,411.75975 c -40.24617,-58.51681 -9.96986,-134.92258 29.54736,-156.51405 10.66081,-5.82486 31.996,40.2188 27.48625,77.05835" inkscape:path-effect="#path-effect4249" />
      <path d="m 649.70159,295.44361 c -11.15533,21.98906 -18.42375,45.76599 -12.7748,70.04944 -11.13428,-20.06679 -5.53307,-50.18264 12.7748,-70.04944 z" fill="#2fb17b" />
    </g>
    <path fill="#b9ae4b" inkscape:original-d="m 1156.5487,584.0385 c -59.7705,16.31342 -109.6865,7.96707 -136.6728,-16.2776 11.8697,-0.97076 25.0975,1.2224 35.7041,6.17215 -3.7983,-48.26895 -52.4499,-0.82638 -59.96193,-55.02042 -2.43584,-17.5729 30.61703,-5.56405 28.33073,-21.31508 -26.99736,-185.99106 203.5613,-207.12067 225.1812,-76.20852 9.3995,56.91572 -4.9632,113.87751 8.5948,176.0584 157.4768,-86.3646 225.4455,0.16519 185.0936,129.67426 -6.8531,21.99478 24.617,1.40061 35.6236,19.55022 43.3046,71.40828 63.2578,161.13954 54.828,197.04718 -4.9638,21.14389 -104.4885,18.79733 -96.8685,-2.06398 25.5161,-69.85547 11.3335,-149.33169 -49.8775,-207.08255 -25.2418,-23.81494 -45.2462,-50.13353 -47.1087,-81.64421" inkscape:path-effect="#path-effect5749" />
    <path d="m 1144.7894,586.82809 c 24.8364,144.8239 106.9384,159.1437 232.7534,138.57097" fill="none" stroke="#b9ae4b" stroke-width="7" />
    <g>
      <path d="m 1305.2226,740.87981 c 10.6076,-16.97062 13.9178,-43.41541 10.0632,-63.9393 l 8.9397,-1.47663 c 3.9543,16.3275 3.0582,45.10848 -2.5759,64.88274 z" fill="#9e9780" />
      <path d="m 1304.5918,678.79127 c 3.0194,19.48064 0.6816,45.52996 -9.8982,59.02778 l 10.529,3.06076 c 10.6076,-16.97062 13.9178,-43.41541 10.0632,-63.9393 z" fill="#aaa590" />
      <path d="m 1334.8045,734.6852 c 4.9949,-14.55583 4.05,-44.16448 -3.0348,-60.6713 l -7.5442,1.44998 c 3.9543,16.3275 3.0582,45.10848 -2.5759,64.88274 z" fill="#c7c0a8" />
      <path d="m 1304.5918,678.79127 c 3.0194,19.48064 0.6816,45.52996 -9.8982,59.02778 10.6298,4.96335 28.9565,5.28786 40.1109,-3.13385 4.9949,-14.55583 4.05,-44.16448 -3.0348,-60.6713 z m 19.6337,-3.32739 c 3.9543,16.3275 3.0582,45.10848 -2.5759,64.88274 m -16.427,0.53319 c 10.6076,-16.97062 13.9178,-43.41541 10.0632,-63.9393" style="stroke:#817c6b;stroke-miterlimit:20;fill:none;stroke-width:3.5" />
      <path d="m 1304.5428,712.80474 c -6.8726,-1.82348 -7.3053,-13.26743 1.2657,-12.30605 10.1965,1.14372 22.4633,0.89262 32.7334,-1.42461 4.9782,-1.12323 6.6081,7.93729 1.0434,9.98096 -10.6177,3.89942 -25.6772,6.23455 -35.0425,3.7497 z" style="stroke:#817c6b;stroke-miterlimit:20;fill:#d4cba6;stroke-width:3.5" />
      <path d="m 1327.9923,804.25099 c 6.1622,53.21075 50.7357,37.36783 30.2346,-53.46982 l -11.7708,29.6072 8.0208,-4.30605 c 7.076,57.83539 -17.4374,57.63951 -23.1175,16.14385 z" style="stroke:#809a9a;stroke-miterlimit:20;fill:#aabec0;stroke-width:3.5" />
      <path d="m 1347.5182,869.34298 c 16.5429,-0.39102 26.2752,-45.93865 26.2322,-99.67658 l -15.2639,29.44159 6.0691,0.0318 c -4.1936,59.97883 -32.2925,77.85489 -31.1663,2.69501 l 0.8552,-57.07362 c 40.9815,-94.36891 -50.0459,-93.65048 -11.3434,-0.39466 l -1.447,50.36866 c -0.9412,32.76147 -31.5154,41.82967 -22.521,-29.12252 l 9.1458,4.55605 c -2.9359,-9.86612 -6.6195,-18.91018 -12.7708,-27.3572 -21.7035,63.19355 4.9987,114.45589 30.835,81.49111 0.3785,25.42348 12.1896,45.25748 21.3751,45.04036 z m -18.6197,-135.34676 c -24.2338,-66.3841 25.9059,-66.72566 0,0 z" fill="#aabec0" />
      <path fill="#809a9a" inkscape:original-d="m 1327.3525,808.71416 c -5.5716,32.44763 9.1761,60.88858 20.1657,60.62882 16.5429,-0.39103 26.2752,-45.93865 26.2322,-99.67658 l -15.2639,29.44159 6.0691,0.0318 c -4.1936,59.97883 -32.2925,77.85489 -31.1663,2.69501 l 0.8552,-57.07362 c 40.9815,-94.36891 -50.0459,-93.65048 -11.3434,-0.39466 l -1.447,50.36866 c -0.9412,32.76147 -31.5154,41.82967 -22.521,-29.12252 l 9.1458,4.55605 c -2.9359,-9.86612 -6.6195,-18.91018 -12.7708,-27.3572 -21.7035,63.19355 4.9987,114.45589 30.8333,81.5329" inkscape:path-effect="#path-effect4389" />
      <path d="m 1328.8985,733.99622 c -24.2338,-66.3841 25.9059,-66.72566 0,0 z" style="stroke:#809a9a;stroke-miterlimit:20;fill:none;stroke-width:3.5" />
      <path d="m 1325.3188,686.10285 c -83.1402,18.32642 -165.154,-6.0494 -181.8865,-79.58487 -13.1978,62.32665 65.7358,117.80879 184.2376,91.41172 10.2212,-2.27683 8.0638,-14.12258 -2.3511,-11.82685 z" style="stroke:#817c6b;stroke-miterlimit:20;fill:#9e9780;stroke-width:3.5" />
    </g>
    <g>
      <path d="m 1273.1549,720.81349 c 13.3659,93.668 -28.5616,148.20661 -83.1321,92.85402 -70.2843,-71.29156 -66.213,-130.69238 -41.1459,-174.1098 14.3886,-24.92175 92.2485,22.16388 78.0128,52.62283 -8.5651,18.32595 -15.9493,31.29066 -4.3558,49.87225 5.0285,-9.15797 8.0985,-19.59658 11.082,-31.73742 z" fill="#f7fbcf" />
      <path fill="#b9ae4b" inkscape:original-d="m 1273.1549,720.81349 c 13.3659,93.668 -28.5616,148.20661 -83.1321,92.85402 -70.2843,-71.29156 -66.213,-130.69238 -41.1459,-174.1098 14.3886,-24.92175 92.2485,22.16387 78.0128,52.62283 -12.6467,27.05906 -19.8029,40.7377 23.0845,83.72416" inkscape:path-effect="#path-effect4998" />
      <path d="m 1233.6159,710.31537 c -3.4443,9.83669 -7.8047,19.90664 -12.7967,28.55713 l 3.6269,8.56996 c 5.0255,-13.18513 7.6786,-24.31141 9.1698,-37.12709 z" fill="#b9ae4b" />
    </g>
    <g>
      <path d="m 1243.6061,361.79044 c -40.6005,-65.13267 -95.0807,-75.36683 -150.4275,-69.22278 -101.37677,11.25384 -53.4302,139.28353 11.6187,118.36809 20.7361,-6.66736 32.3374,-23.02928 35.1851,-39.72193 15.279,12.92065 34.5852,14.87726 54.0336,10.0822 z" fill="#365a93" />
      <path fill="#282f53" inkscape:original-d="m 1093.1786,292.56766 c -101.37677,11.25384 -53.4302,139.28352 11.6187,118.36809 52.4103,-16.8517 46.4659,-95.63441 -8.5702,-76.33704 -20.8968,7.32707 -17.1106,33.4008 4.1081,29.73977 13.5306,-2.33455 16.8583,-14.13318 7.4444,-20.55492" inkscape:path-effect="#path-effect4360" />
      <path d="m 1139.7898,370.66751 c 15.4716,13.46696 34.7778,15.42357 54.2262,10.62851" fill="none" stroke="#282f53" stroke-width="7" />
      <path d="m 1284.9279,408.81392 -47.2561,3.73398 c 33.7765,77.47759 -47.1572,143.79637 1.2661,233.3063 52.1875,96.4681 173.2111,12.99129 134.434,-68.83555 -18.2477,-38.50597 -64.0026,-48.37801 -92.4413,-9.41349 9.4949,-75.28057 39.129,-117.78353 3.9973,-158.79124 z" fill="#365a93" />
      <path fill="#282f53" inkscape:original-d="m 1305.3214,607.41418 c -6.9391,-21.68849 20.3284,-21.25248 20.9168,-4.99159 0.7923,21.89652 -55.6263,48.23248 -45.218,-34.94 9.4053,-75.158 39.0394,-117.66096 3.9077,-158.66867 l -47.2561,3.73398 c 33.7765,77.47759 -47.1572,143.79637 1.2661,233.3063 52.1875,96.4681 173.2111,12.99129 134.434,-68.83555 -18.2477,-38.50597 -64.0026,-48.37801 -92.5308,-9.29092" inkscape:path-effect="#path-effect4371" />
      <path d="m 1166.9076,400.1912 c 30.5719,-75.40775 142.6016,-40.09421 167.6627,-1.1908 4.6643,7.24064 -44.1958,35.27561 -102.2958,19.76585 z" fill="#f7fbcf" />
      <path fill="#b9ae4b" inkscape:original-d="m 1166.9076,400.1912 c 30.5719,-75.40775 142.6016,-40.09421 167.6627,-1.1908 4.6643,7.24064 -44.1958,35.27561 -102.2958,19.76585" inkscape:path-effect="#path-effect4370" />
    </g>
  </g>
</svg>