<svg xmlns="http://www.w3.org/2000/svg" xmlns:inkscape="http://www.inkscape.org/namespaces/inkscape" height="809.99969" viewBox="0 0 639.99975 809.99969" width="639.99976">
  <defs>
    <inkscape:path-effect effect="powerstroke" end_linecap_type="zerowidth" id="path-effect4420" interpolator_type="CubicBezierSmooth" offset_points="0.46,2 | 1.77,2" start_linecap_type="zerowidth" />
  </defs>
  <g transform="translate(0-270.00031)" inkscape:groupmode="layer" inkscape:label="Drawing">
    <path d="m 418.09011,581.4857 c 54.71806,-47.10111 76.86765,-65.41855 81.81032,-96.48754 3.75403,-23.59733 12.72352,-151.23033 56.15262,-192.39476 19.29722,-18.29093 84.27693,92.56149 72.48047,104.806 -35.75946,37.1177 -52.11935,94.59908 -58.84436,141.08663 -8.41464,58.16737 -59.43311,44.48931 -133.92006,128.03247 z m -14.03598,-130.82907 c 6.9102,-53.30114 3.54722,-91.86015 -6.74994,-96.02749 -6.96242,-2.81774 -35.26825,27.98147 -43.70993,53.00796 l -89.28159,8.76473 c -25.5566,-20.06071 -67.1492,-28.05243 -71.28606,-21.78336 -6.32713,9.58828 20.99798,66.05133 39.66153,86.69569 z" fill="#da65cf" stroke="#953299" stroke-width="4" />
    <path d="m 470.6112,1044.4982 c -52.74827,24.9255 -182.53117,22.707 -232.37314,0.7166 -6.58507,-25.3643 -17.26716,-97.84113 -14.92552,-106.58025 3.21532,32.17966 259.61712,30.17829 262.93403,0.2175 1.86831,9.15934 -7.95398,76.98325 -15.63537,105.64615 z" fill="#3e3361" />
    <path d="m 470.6112,1044.4982 c -52.74827,24.9255 -182.53117,22.707 -232.37314,0.7166 -1.43201,-5.5158 -3.05776,-13.2595 -4.74852,-22.1257 71.75785,22.8125 169.67038,23.0722 241.82669,0.8465 -1.638,7.9403 -3.21196,14.9912 -4.70503,20.5626 z" fill="#312b50" />
    <path d="m 223.31254,938.63455 c 7.1264,-26.59609 257.69373,-25.47295 262.93403,0.2175 -3.31691,29.96079 -259.71871,31.96216 -262.93403,-0.2175 z" fill="#655691" />
    <path d="m 223.31254,938.63455 c 3.21532,32.17966 259.61712,30.17829 262.93403,0.2175 m -262.93403,-0.2175 c 7.1264,-26.59609 257.69373,-25.47295 262.93403,0.2175 1.86831,9.15934 -7.95398,76.98325 -15.63537,105.64615 -52.74827,24.9255 -182.53117,22.707 -232.37314,0.7166 -6.58507,-25.3643 -17.26716,-97.84113 -14.92552,-106.58025 z" fill="none" stroke="#201b32" stroke-width="4" />
    <path d="m 276.39103,832.26789 c 59.41931,34.49865 120.87886,37.68306 182.50793,-5.40624 m -197.98609,-154.41078 c 86.81019,41.71062 141.87907,21.68367 182.71058,-10.61074 m -208.2256,-246.44921 c 51.73861,26.36442 103.81553,29.65673 150.72172,-11.82492 m -132.19101,530.96269 c 24.40548,21.77305 162.69957,17.32508 190.47885,6.25429 46.13337,-264.70956 -23.12577,-270.43315 -26.42326,-424.88624 -4.55236,-213.23058 -214.47734,-191.79161 -195.68794,-11.83924 14.18877,135.8907 96.45324,244.62036 31.63235,430.47119 z" fill="#fc93f4" stroke="#c156b3" stroke-width="4" />
    <path d="m 323.69703,342.07542 c -7.61405,3.36721 -15.44387,4.72273 -23.16261,2.16242 m 30.12282,35.86234 c -14.37567,6.72497 -30.51109,5.13651 -40.57892,-3.96044 m -2.84763,11.87813 c 1.95033,-15.98766 14.80585,-36.36522 13.30373,-43.78003 -4.31092,-21.27964 -3.72939,-37.87368 11.91324,-50.97479 -2.90896,44.50214 24.3759,44.17467 17.42276,100.19046 -16.56997,5.59805 -31.41926,3.53447 -42.63973,-5.43564 z" fill="#da65cf" stroke="#953299" stroke-width="4" />
    <path d="m 322.57524,534.8859 c -8.02552,80.47582 -1.17087,85.82065 13.35236,84.77119 25.20574,-1.82139 3.68909,-31.29551 12.75519,-74.9321 z" fill="#612568" stroke="#c156b3" stroke-width="4" />
    <ellipse cx="525.01929" cy="-314.95416" fill="#fff" rx="43.075127" ry="37.196938" transform="rotate(83.781518)" />
    <ellipse cx="247.28046" cy="513.34125" fill="#fff" rx="41.429867" ry="47.976959" transform="rotate(357.00428)" />
    <ellipse cx="198.47511" cy="530.13586" fill="#66ced8" rx="29.930618" ry="32.809574" transform="rotate(352.18031)" />
    <ellipse cx="296.31604" cy="531.62671" fill="#66ced8" rx="26.874125" ry="29.459087" transform="rotate(352.18031)" />
    <path d="m 233.91748,512.18767 c -4.37528,-34.4394 13.68587,-53.79163 34.08074,-56.66322 22.76316,-3.20504 47.84716,14.67625 46.12398,55.87125 9.06324,-40.97045 -21.30506,-65.80698 -47.168,-62.41129 -23.53243,3.0897 -42.48117,27.48352 -33.03672,63.20326 z" />
    <path d="m 405.79592,500.98468 c 4.26696,-36.00962 -17.14485,-53.8556 -37.54448,-53.3938 -19.70018,0.44596 -38.68727,17.96578 -33.59154,52.68928 -10.12234,-32.22469 8.4629,-57.64737 33.22053,-58.34658 23.26095,-0.65694 48.95569,22.79569 37.91549,59.0511 z" />
    <path d="m 326.00351,518.71107 c 11.46622,-8.1055 27.3128,-11.34309 42.6815,-9.30551 9.55435,48.1534 -33.85773,57.28131 -50.74889,27.21785 z" fill="#fc93f4" />
    <path fill="#c156b3" inkscape:original-d="m 326.00351,518.71107 c 11.46622,-8.1055 27.3128,-11.34309 42.6815,-9.30551 9.55435,48.1534 -33.85773,57.28131 -50.74889,27.21785" inkscape:path-effect="#path-effect4420" />
    <path d="m 279.71232,721.73101 c 47.24491,-139.58693 -100.13026,-165.96887 -123.21751,-226.48548 -17.83949,-46.76109 -21.12851,-175.60889 -75.507522,-216.12438 -17.578035,-13.09664 -79.387258,101.20719 -67.915951,112.67849 70.998885,70.99889 43.150262,157.9608 104.926813,192.13373 130.12993,71.98398 118.94503,109.84468 161.71417,137.79764 z" fill="#da65cf" />
    <path d="m 13.071337,391.79964 c 48.553971,-29.31253 62.67865,-69.06078 67.915951,-112.67849 -17.578035,-13.09664 -79.387258,101.20719 -67.915951,112.67849 z" fill="#fc93f4" />
    <path d="m 279.71232,721.73101 c 47.24491,-139.58693 -100.13026,-165.96887 -123.21751,-226.48548 -17.83949,-46.76109 -21.12851,-175.60889 -75.507522,-216.12438 -17.578035,-13.09664 -79.387258,101.20719 -67.915951,112.67849 70.998885,70.99889 43.150262,157.9608 104.926813,192.13373 130.12993,71.98398 118.94503,109.84468 161.71417,137.79764 z m -266.640983,-329.93137 c 48.553971,-29.31253 62.67865,-69.06078 67.915951,-112.67849" fill="none" stroke="#953299" stroke-width="4" />
  </g>
</svg>