<?xml version="1.0" encoding="UTF-8" standalone="no"?>
<!-- Created with Inkscape (http://www.inkscape.org/) -->

<svg
   xmlns:dc="http://purl.org/dc/elements/1.1/"
   xmlns:cc="http://creativecommons.org/ns#"
   xmlns:rdf="http://www.w3.org/1999/02/22-rdf-syntax-ns#"
   xmlns:svg="http://www.w3.org/2000/svg"
   xmlns="http://www.w3.org/2000/svg"
   xmlns:xlink="http://www.w3.org/1999/xlink"
   xmlns:sodipodi="http://sodipodi.sourceforge.net/DTD/sodipodi-0.dtd"
   xmlns:inkscape="http://www.inkscape.org/namespaces/inkscape"
   id="svg2985"
   version="1.1"
   inkscape:version="0.48.2 r9819"
   width="1920"
   height="1080"
   sodipodi:docname="Non-Assertive Fluttershy.svg">
  <metadata
     id="metadata2991">
    <rdf:RDF>
      <cc:Work
         rdf:about="">
        <dc:format>image/svg+xml</dc:format>
        <dc:type
           rdf:resource="http://purl.org/dc/dcmitype/StillImage" />
        <dc:title />
      </cc:Work>
    </rdf:RDF>
  </metadata>
  <defs
     id="defs2989">
    <linearGradient
       inkscape:collect="always"
       id="linearGradient3801">
      <stop
         style="stop-color:#035350;stop-opacity:1"
         offset="0"
         id="stop3803" />
      <stop
         id="stop3809"
         offset="0.28684622"
         style="stop-color:#047975;stop-opacity:1" />
      <stop
         style="stop-color:#00ada8;stop-opacity:1"
         offset="1"
         id="stop3805" />
    </linearGradient>
    <linearGradient
       inkscape:collect="always"
       id="linearGradient3790">
      <stop
         style="stop-color:#035350;stop-opacity:1"
         offset="0"
         id="stop3792" />
      <stop
         id="stop3806"
         offset="0.31136745"
         style="stop-color:#047975;stop-opacity:1" />
      <stop
         style="stop-color:#00ada8;stop-opacity:1"
         offset="1"
         id="stop3794" />
    </linearGradient>
    <linearGradient
       inkscape:collect="always"
       xlink:href="#linearGradient3790"
       id="linearGradient3796"
       x1="1331.7169"
       y1="438.92786"
       x2="1322.7473"
       y2="499.22342"
       gradientUnits="userSpaceOnUse" />
    <clipPath
       clipPathUnits="userSpaceOnUse"
       id="clipPath3816">
      <path
         transform="matrix(0.99966891,0.02573074,-0.02573074,0.99966891,12.658597,-33.136562)"
         d="m 1359.2976,464.77606 a 35.05209,48.592274 0 1 1 -70.1042,0 35.05209,48.592274 0 1 1 70.1042,0 z"
         sodipodi:ry="48.592274"
         sodipodi:rx="35.05209"
         sodipodi:cy="464.77606"
         sodipodi:cx="1324.2455"
         id="path3818"
         style="fill:none;stroke:#000000"
         sodipodi:type="arc" />
    </clipPath>
    <linearGradient
       inkscape:collect="always"
       xlink:href="#linearGradient3801"
       id="linearGradient3807"
       x1="1220.951"
       y1="432.05145"
       x2="1224.5905"
       y2="484.05145"
       gradientUnits="userSpaceOnUse" />
    <clipPath
       clipPathUnits="userSpaceOnUse"
       id="clipPath3815">
      <path
         transform="translate(-1.2374369,-1.4142136)"
         d="m 1239.0279,455.80145 a 16.882175,37.830212 0 1 1 -33.7643,0 16.882175,37.830212 0 1 1 33.7643,0 z"
         sodipodi:ry="37.830212"
         sodipodi:rx="16.882175"
         sodipodi:cy="455.80145"
         sodipodi:cx="1222.1458"
         id="path3817"
         style="fill:none;stroke:#000000"
         sodipodi:type="arc" />
    </clipPath>
    <clipPath
       clipPathUnits="userSpaceOnUse"
       id="clipPath3831">
      <path
         sodipodi:nodetypes="cc"
         inkscape:connector-curvature="0"
         id="path3833"
         d="m 1223.855,490.109 c -5.3505,5.67205 -14.3874,7.34725 -21.9409,9.62098 L 1168,381.99997 l 85.5001,-4.5 -14,123.00001 z"
         style="fill:none;stroke:#000000;stroke-width:0.1;stroke-linecap:butt;stroke-linejoin:miter;stroke-miterlimit:4;stroke-opacity:1;stroke-dasharray:none" />
    </clipPath>
    <clipPath
       clipPathUnits="userSpaceOnUse"
       id="clipPath3843">
      <path
         sodipodi:nodetypes="ssccs"
         inkscape:connector-curvature="0"
         id="path3845"
         d="m 1223.6482,399.50287 c 8.2293,1.57438 11.9374,52.69629 0.9572,90.35613 -2.0911,7.17204 -13.6556,10.14097 -13.6556,10.14097 -8.6867,-19.65955 -13.2962,-48.7701 -12.1997,-80.5 0,0 8.0822,-23.21422 24.8981,-19.9971 z"
         style="fill:#ffffff;stroke:none"
         clip-path="none" />
    </clipPath>
    <clipPath
       clipPathUnits="userSpaceOnUse"
       id="clipPath3847">
      <path
         clip-path="none"
         style="fill:#ffffff;stroke:none"
         d="m 1224.1356,401.16708 c 8.2293,1.57438 11.9374,52.69629 0.9572,90.35613 -2.0911,7.17204 -13.6556,10.14097 -13.6556,10.14097 -8.6867,-19.65955 -13.2962,-48.7701 -12.1997,-80.5 0,0 8.0822,-23.21422 24.8981,-19.9971 z"
         id="path3849"
         inkscape:connector-curvature="0"
         sodipodi:nodetypes="ssccs" />
    </clipPath>
  </defs>
  <sodipodi:namedview
     pagecolor="#ffffff"
     bordercolor="#666666"
     borderopacity="1"
     objecttolerance="10"
     gridtolerance="10"
     guidetolerance="10"
     inkscape:pageopacity="0"
     inkscape:pageshadow="2"
     inkscape:window-width="1366"
     inkscape:window-height="706"
     id="namedview2987"
     showgrid="false"
     inkscape:zoom="0.465625"
     inkscape:cx="1501.5551"
     inkscape:cy="540"
     inkscape:window-x="-8"
     inkscape:window-y="-8"
     inkscape:window-maximized="1"
     inkscape:current-layer="layer2" />
  <g
     inkscape:groupmode="layer"
     id="layer2"
     inkscape:label="Drawing"
     style="display:inline">
    <g
       id="g4607">
      <path
         sodipodi:nodetypes="ccssscssc"
         inkscape:connector-curvature="0"
         id="path4074"
         d="m 1584.1757,607.64824 -24.2467,-25.8812 c 124.7064,-183.85044 304.54,-47.21014 304.54,130.01875 0,106.20854 -94.0196,102.29986 -73.3532,138.09508 23.6062,40.88719 182.8107,-76.39732 260.5081,16.42075 27.3501,32.67271 -29.8468,72.52995 -57.8243,38.21075 80.4275,18.1195 8.7406,-104.58173 -133.7455,-15.7078 -96.8081,60.3828 -196.2003,-0.25682 -155.689,-97.66348 58.9411,-141.71962 -45.8864,-245.45472 -120.1894,-183.49285 z"
         style="fill:#f3b6cf;fill-opacity:1;stroke:#eb81b4;stroke-width:6;stroke-linecap:butt;stroke-linejoin:miter;stroke-miterlimit:4;stroke-opacity:1;stroke-dasharray:none" />
      <path
         sodipodi:nodetypes="csccsc"
         inkscape:connector-curvature="0"
         id="path4584"
         d="m 1572.5041,592.74188 c 88.0939,-88.09395 221.0364,-10.56255 221.0364,78.838 0,81.41454 -106.4886,212.49801 -18.3159,241.2413 0,0 23.3289,0.91103 36.9072,-3.90038 -93.0505,-16.06516 -47.4317,-98.59119 -6.1505,-160.01877 23.069,-34.32731 46.5928,-94.92825 32.0447,-151.38784"
         style="fill:none;stroke:#eb81b4;stroke-width:2.5;stroke-linecap:butt;stroke-linejoin:miter;stroke-miterlimit:4;stroke-opacity:1;stroke-dasharray:none" />
    </g>
    <g
       id="g4057">
      <path
         style="fill:#fee78f;fill-opacity:1;stroke:none"
         d="m 1531.5327,739.86018 c 0,0 -42.5407,112.89726 -28.8094,121.25472 62.6776,38.14829 104.4779,-8.30722 105.2375,-24.00609 1.0006,-20.67606 -18.324,-40.27134 -8.9601,-100.05561 0,0 -9.7781,-57.27566 -115.8442,-20.85965 28.6379,25.45584 48.3762,23.66663 48.3762,23.66663 z"
         id="path4055"
         inkscape:connector-curvature="0"
         sodipodi:nodetypes="cssccc" />
      <path
         sodipodi:nodetypes="cssc"
         inkscape:connector-curvature="0"
         id="path3913"
         d="m 1531.5327,739.86018 c 0,0 -42.5407,112.89726 -28.8094,121.25472 62.6776,38.14829 104.4779,-8.30722 105.2375,-24.00609 1.0006,-20.67606 -18.324,-40.27134 -8.9601,-100.05561"
         style="fill:none;stroke:#ead463;stroke-width:6;stroke-linecap:butt;stroke-linejoin:miter;stroke-miterlimit:4;stroke-opacity:1;stroke-dasharray:none" />
      <path
         sodipodi:nodetypes="cccc"
         inkscape:connector-curvature="0"
         id="path3915"
         d="m 1544.2088,741.62794 c -29.347,-5.93198 -42.9227,-18.86333 -42.9227,-18.86333 l -18.6599,3.50521 c 0,0 32.7518,18.85812 61.5826,15.35812 z"
         style="fill:#ead463;fill-opacity:1;stroke:none" />
    </g>
    <path
       sodipodi:nodetypes="csscc"
       inkscape:connector-curvature="0"
       id="path3886"
       d="m 1460.5001,699.99999 c 2.8848,175.01014 73.5,99.49138 73.5,163.5 0,40.94281 -13.751,53.35355 -37.8536,53.35355 -47.5775,0 -140.4393,-125.25305 -67.6464,-222.35355 z"
       style="fill:#fee78f;fill-opacity:1;stroke:#ead463;stroke-width:6;stroke-linecap:butt;stroke-linejoin:miter;stroke-miterlimit:4;stroke-opacity:1;stroke-dasharray:none" />
    <path
       style="fill:#f3b6cf;fill-opacity:1;stroke:#eb81b4;stroke-width:6;stroke-linecap:butt;stroke-linejoin:miter;stroke-miterlimit:4;stroke-opacity:1;stroke-dasharray:none"
       d="m 1249.5071,705.87004 29.7252,16.60481 c 46.229,-46.46533 35.5179,-135.93953 22.2939,-182.73999 0,0 -26.1989,-259.877 -89.5452,-238.96657 -291.32798,96.16653 55.8419,265.92795 37.5261,405.10175 z"
       id="path3917"
       inkscape:connector-curvature="0"
       sodipodi:nodetypes="cccsc" />
    <path
       style="fill:#ffffff;stroke:#b9e0f7;stroke-width:2;stroke-linecap:butt;stroke-linejoin:miter;stroke-miterlimit:20;stroke-opacity:1;stroke-dasharray:none"
       d="m 1206.6777,532.52254 35.5323,30.75917 23.1577,-34.82502 -20.524,13.24569 31.6609,-36.22667 z"
       id="path3825"
       inkscape:connector-curvature="0"
       sodipodi:nodetypes="cccccc" />
    <path
       id="path4047"
       style="fill:#fdf6af;fill-opacity:1;stroke:#000000;stroke-width:1;stroke-linecap:butt;stroke-linejoin:miter;stroke-miterlimit:4;stroke-opacity:1;stroke-dasharray:none"
       d="m 1644.5895,674.65013 c 0,-69.11969 -81.7923,-160.76864 -163.7363,-97.00209 19.3753,-321.68823 -165.8551,-324.96656 -253.1711,-221.74426 -20.1531,23.82434 -40.3607,73.34314 -19.1214,145.03553 -13.9037,3.8293 -26.9852,7.36483 -6.1256,33.52778 20.8597,26.16296 38.8909,0 40.6587,-10.25305 14.8492,13.78859 -6.364,37.47667 -6.364,37.47667 0,0 37.6535,17.32411 98.2879,0.79549 -24.9905,178.57786 108.5493,180.31684 222.7206,158.50026 30.7932,31.5307 62.6787,38.24164 71.5363,50.81547 47.1274,66.8995 51.5793,129.60059 59.6751,137.49244 72.5919,70.76345 93.3604,-12.60692 84.3884,-32.73402 -16.0046,-35.90341 -90.2446,-139.84457 -102.6649,-144.51264 -8.0002,-3.00683 -17.9183,-0.28707 -25.6499,1.96995 l -0.4338,-59.36753"
       inkscape:connector-curvature="0"
       sodipodi:nodetypes="ccscsccccsssscc" />
    <g
       transform="matrix(0.14290218,0,0.0369221,0.14290218,1578.5082,642.92921)"
       id="g3836">
      <path
         sodipodi:nodetypes="csccsc"
         inkscape:connector-curvature="0"
         id="path3004"
         d="m -271.33141,67.344934 c -10.11911,5.842266 -34.79861,-10.340234 -21.32935,-23.809512 28.82576,-28.825775 118.7995,81.101128 118.7995,81.101128 l 4.4643,-4.46428 c -42.27065,-54.603754 -80.51899,-143.105037 -38.69045,-143.105037 10.00438,0 15.40139,20.4186132 7.68849,27.0337051"
         style="fill:none;stroke:#68c8c6;stroke-width:8.61600018;stroke-linecap:butt;stroke-linejoin:miter;stroke-miterlimit:4;stroke-opacity:1;stroke-dasharray:none" />
      <path
         sodipodi:nodetypes="scscscscs"
         style="fill:#f3b6cf;fill-opacity:1;stroke:none"
         inkscape:connector-curvature="0"
         d="m -133,-31 c 37.173597,35.7963174 45.7363,108.224712 31,153 16.385746,-22.843145 143.652067,-2.86536 126,70 -13.69828,56.54466 -69.455286,41.47409 -130,25 2.03417,50.73712 -4.8556,141.07643 -68,131 -67.91642,-10.83793 -68.10857,-112.59795 -38,-151 -40.10866,26.483 -153.58168,-24.34298 -128,-80 24.22688,-52.709427 133.71488,-5.34242 184,21 -24.81107,-93.590429 -16.03905,-206.592653 23,-169 z"
         id="path5628" />
      <path
         sodipodi:nodetypes="scss"
         style="fill:#68c8c6;fill-opacity:1;stroke:none"
         inkscape:connector-curvature="0"
         d="m -183,92 c 32.39121,19.25911 73.14953,92.9399 91,146 -57.33333,-61.33333 -90.99646,-104.44942 -99,-130 -5.32446,-16.997855 3.41456,-18.726405 8,-16 z"
         id="path6138" />
      <path
         sodipodi:nodetypes="scscscscs"
         style="fill:#f3b6cf;fill-opacity:1;stroke:none"
         inkscape:connector-curvature="0"
         d="m 312,-231 c -18.25466,53.14358 -88.06672,92.80622 -133,99 42.31599,20.93292 55.60794,142.824994 -11,153 -61.43887,9.385381 -68.345552,-40.588302 -84,-114 -63.351209,33.157265 -141.885355,54.639879 -154,-6 -16.329468,-81.73718 85.564157,-113.41371 127,-105 -45.850169,-29.01739 -42.644014,-159 19,-159 62.22064,0 64.61235,126.91602 62,187 74.26772,-63.18761 192.49447,-108.84172 174,-55 z"
         id="path3779" />
      <path
         sodipodi:nodetypes="scss"
         id="path19-9"
         d="m 171,-222 c -2.48999,36.60019 -63.02228,122.925967 -99,152 34.31592,-84.70149 61.93061,-134.40049 80,-153 13.78499,-14.18942 19.38018,-4.5882 19,1 z"
         inkscape:connector-curvature="0"
         style="fill:#68c8c6;fill-opacity:1;stroke:none" />
      <path
         style="fill:none;stroke:#68c8c6;stroke-width:8.61600018;stroke-linecap:butt;stroke-linejoin:miter;stroke-miterlimit:4;stroke-opacity:1;stroke-dasharray:none"
         d="m 155.12999,-317.62241 c -10.96595,-10.96595 -8.12909,-35.27043 13.5663,-29.45717 39.90129,10.69152 -22.94117,142.09169 -22.94117,142.09169 l 7.28618,2.99232 c 32.98167,-60.66785 96.30763,-134.09151 117.19772,-97.9088 4.1441,7.17779 -2.67461,21.42308 -23.40934,21.42308"
         id="path3004-1"
         inkscape:connector-curvature="0"
         sodipodi:nodetypes="csccsc" />
      <path
         sodipodi:nodetypes="scscscscs"
         style="fill:#f3b6cf;fill-opacity:1;stroke:none"
         inkscape:connector-curvature="0"
         d="m 373,155 c -13.19911,43.01625 -65.19347,76.67296 -106,86 35.53756,18.94207 49.00183,116.13502 -5,126 -49.13983,8.9768 -57.33012,-30.52559 -72,-91 -34.6991,18.92327 -112.973683,55.07898 -128,-1 -15.595636,-58.20371 52.86721,-96.77544 102,-90 -40.98527,-26.65559 -37.91401,-132 11,-132 54.40215,0 56.86113,108.5714 57,152 69.85432,-60.37564 154.52401,-94.0751 141,-50 z"
         id="path3809" />
      <path
         style="fill:none;stroke:#68c8c6;stroke-width:8.61600018;stroke-linecap:butt;stroke-linejoin:miter;stroke-miterlimit:4;stroke-opacity:1;stroke-dasharray:none"
         d="m 240.92681,88.002361 c -7.45884,-7.458837 -9.15593,-25.809859 9.27464,-25.809859 28.85152,0 3.65862,88.076778 -20.05525,134.306928 l 6.44794,3.04129 c 26.19744,-63.8911 83.13593,-130.675164 100.80232,-100.076087 5.0022,8.664057 -3.30714,17.004927 -18.88019,17.004927"
         id="path3004-4"
         inkscape:connector-curvature="0"
         sodipodi:nodetypes="csccsc" />
      <path
         sodipodi:nodetypes="scss"
         style="fill:#68c8c6;fill-opacity:1;stroke:none"
         inkscape:connector-curvature="0"
         d="m 257,166 c 1.70488,27.40187 -43.41493,95.68877 -76,129 25.33333,-69.33333 45.04088,-112.59531 60,-129 7.19029,-7.88512 15.53611,-7.45583 16,0 z"
         id="path3820" />
    </g>
    <path
       style="fill:none;stroke:#ead463;stroke-width:6;stroke-linecap:butt;stroke-linejoin:miter;stroke-miterlimit:4;stroke-opacity:1;stroke-dasharray:none"
       d="m 1208.5607,500.93931 c -21.2393,-71.69239 -1.0317,-121.21119 19.1214,-145.03553 87.316,-103.2223 272.5464,-99.94397 253.1711,221.74426 81.944,-63.76655 163.7363,27.8824 163.7363,97.00209"
       id="path3819"
       inkscape:connector-curvature="0"
       sodipodi:nodetypes="cscc" />
    <g
       id="g3851">
      <path
         clip-path="url(#clipPath3831)"
         style="fill:#ffffff;stroke:none"
         d="m 1222.8982,399.75287 c 8.2293,1.57438 11.9374,52.69629 0.9572,90.35613 -2.0911,7.17204 -13.6556,10.14097 -13.6556,10.14097 -8.6867,-19.65955 -13.2962,-48.7701 -12.1997,-80.5 0,0 8.0822,-23.21422 24.8981,-19.9971 z"
         id="path3811"
         inkscape:connector-curvature="0"
         sodipodi:nodetypes="ssccs" />
      <path
         clip-path="url(#clipPath3847)"
         transform="translate(-1.2374369,-1.4142136)"
         d="m 1239.0279,455.80145 a 16.882175,37.830212 0 1 1 -33.7643,0 16.882175,37.830212 0 1 1 33.7643,0 z"
         sodipodi:ry="37.830212"
         sodipodi:rx="16.882175"
         sodipodi:cy="455.80145"
         sodipodi:cx="1222.1458"
         id="path3023"
         style="fill:url(#linearGradient3807);fill-opacity:1;stroke:none"
         sodipodi:type="arc" />
      <g
         clip-path="url(#clipPath3815)"
         id="g3797">
        <path
           style="fill:#9ed8d5;fill-opacity:1;stroke:none"
           d="m 1198.8751,472.24997 6.375,15.875 12.375,-15.75 -2.125,-5.25 z"
           id="path3795"
           inkscape:connector-curvature="0"
           sodipodi:nodetypes="ccccc" />
        <path
           style="fill:#68c8c6;fill-opacity:1;stroke:none"
           d="m 1195.1251,465.12497 24.875,-1.625 0.5,5.125 -27.875,8.875 z"
           id="path3025"
           inkscape:connector-curvature="0"
           sodipodi:nodetypes="ccccc" />
      </g>
      <path
         clip-path="url(#clipPath3843)"
         transform="translate(-0.75000004,0.25000002)"
         d="m 1237.4369,458.45312 a 12.993088,25.757622 0 1 1 -25.9861,0 12.993088,25.757622 0 1 1 25.9861,0 z"
         sodipodi:ry="25.757622"
         sodipodi:rx="12.993088"
         sodipodi:cy="458.45312"
         sodipodi:cx="1224.4438"
         id="path3021"
         style="fill:#000000;stroke:none"
         sodipodi:type="arc" />
      <path
         sodipodi:nodetypes="csscssc"
         inkscape:connector-curvature="0"
         id="path3014"
         d="m 1223.855,490.10873 c 9.1746,-49.09062 2.6644,-86.66347 -4.8887,-86.66347 -5.6471,0 -16.5065,15.29452 -24.7785,29.62196 -8.7234,15.10938 -25.0345,23.44069 -31.8329,16.56485 11.5405,-0.14324 19.9488,-4.23117 27.2836,-19.69751 19.4058,-40.91953 38.3778,-42.33925 40.5097,-27.68169 4.8777,33.53489 5.5828,49.39281 -6.2932,87.85586 z"
         style="fill:#000000;stroke:none" />
      <path
         sodipodi:nodetypes="cccc"
         inkscape:connector-curvature="0"
         id="path3785"
         d="m 1166.903,438.30059 c 4.8613,8.13174 19.8873,2.38649 19.8873,2.38649 l 3.9775,-7.42462 c -4.1713,4.52809 -15.0057,8.20585 -23.8648,5.03813 z"
         style="fill:#000000;stroke:none" />
      <path
         style="fill:#000000;stroke:none"
         d="m 1174.7631,426.05012 c 5.5887,7.03137 19.8457,0.90057 19.8457,0.90057 l 4.25,-9.08485 c -3.7371,4.89259 -12.2427,10.70043 -24.0957,8.18428 z"
         id="path3787"
         inkscape:connector-curvature="0"
         sodipodi:nodetypes="cccc" />
      <path
         transform="matrix(0.85480698,0.51894609,-0.51894609,0.85480698,414.22608,-561.60404)"
         d="m 1213.6737,459.07187 a 3.3721066,2.889894 0 1 1 -6.7442,0 3.3721066,2.889894 0 1 1 6.7442,0 z"
         sodipodi:ry="2.889894"
         sodipodi:rx="3.3721066"
         sodipodi:cy="459.07187"
         sodipodi:cx="1210.3016"
         id="path3789"
         style="fill:#ffffff;stroke:none"
         sodipodi:type="arc" />
      <path
         transform="matrix(0.93972292,-0.34193687,0.34193687,0.93972292,-77.267482,442.1662)"
         d="m 1223.532,442.63162 a 7.6618443,10.77805 0 1 1 -15.3237,0 7.6618443,10.77805 0 1 1 15.3237,0 z"
         sodipodi:ry="10.77805"
         sodipodi:rx="7.6618443"
         sodipodi:cy="442.63162"
         sodipodi:cx="1215.8701"
         id="path3791"
         style="fill:#ffffff;stroke:none"
         sodipodi:type="arc" />
    </g>
    <path
       style="fill:#ead463;fill-opacity:1;stroke:none"
       d="m 1365.0697,550.73055 c -37.4766,16.97056 -94.0452,21.21321 -123.0366,9.19239 13.4351,-16.97056 8.6621,-32.35014 -0.1767,-42.24963 -1.0385,22.64478 -25.7569,33.26223 -38.3606,13.78858 -23.8479,-36.84661 13.8185,-15.01316 20.3592,-41.35289 -13.9953,14.83638 -53.2122,2.32673 -25.1322,44.71165 15.5511,23.4733 39.4212,15.02602 44.9013,-6.54074 5.6569,11.66726 -0.8839,25.98617 -14.3189,33.4108 30.8166,19.35296 117.2633,9.95266 135.7645,-10.96016 z"
       id="path3821"
       inkscape:connector-curvature="0"
       sodipodi:nodetypes="cccscsccc" />
    <path
       style="fill:#ead463;fill-opacity:1;stroke:none"
       d="m 1214.1023,519.26429 c 7.6015,1.41422 10.7834,-0.35355 12.3745,-6.54073 1.4142,10.60661 -3.8891,12.9047 -12.3745,6.54073 z"
       id="path3823"
       inkscape:connector-curvature="0"
       sodipodi:nodetypes="ccc" />
    <path
       style="fill:none;stroke:#ead463;stroke-width:6;stroke-linecap:butt;stroke-linejoin:miter;stroke-miterlimit:4;stroke-opacity:1;stroke-dasharray:none"
       d="m 1335.0177,562.39782 c -24.9905,178.66624 108.5493,180.40522 222.7386,158.74548"
       id="path3827"
       inkscape:connector-curvature="0"
       sodipodi:nodetypes="cc" />
    <path
       style="fill:#fdf6af;fill-opacity:1;stroke:#ead463;stroke-width:6;stroke-linecap:butt;stroke-linejoin:miter;stroke-miterlimit:4;stroke-opacity:1;stroke-dasharray:none"
       d="m 1381.5001,775.49999 c -25.5,44.5 6.5,53.49138 6.5,84 0,42.00347 -35.9936,77.5 -55.5,77.5 -19.5064,0 -65,-92.5 17.5,-204 z"
       id="path3884"
       inkscape:connector-curvature="0"
       sodipodi:nodetypes="cssc" />
    <path
       style="font-size:medium;font-style:normal;font-variant:normal;font-weight:normal;font-stretch:normal;text-indent:0;text-align:start;text-decoration:none;line-height:normal;letter-spacing:normal;word-spacing:normal;text-transform:none;direction:ltr;block-progression:tb;writing-mode:lr-tb;text-anchor:start;baseline-shift:baseline;color:#000000;fill:#ead463;fill-opacity:1;stroke:none;stroke-width:0.1;marker:none;visibility:visible;display:inline;overflow:visible;enable-background:accumulate;font-family:Sans;-inkscape-font-specification:Sans"
       d="m 1641.5938,672.65625 6.0002,0 0,68.28603 c -8.5104,-1.72414 -6.0002,-19.62135 -6.0002,-68.28603 z"
       id="path3894"
       inkscape:connector-curvature="0"
       sodipodi:nodetypes="cccc" />
    <path
       style="fill:none;stroke:#ead463;stroke-width:6;stroke-linecap:butt;stroke-linejoin:miter;stroke-miterlimit:4;stroke-opacity:1;stroke-dasharray:none"
       d="m 1645.0233,734.01766 c 7.7316,-2.25702 17.6497,-4.97678 25.6499,-1.96995 12.4203,4.66807 86.6603,108.60923 102.6649,144.51264 8.972,20.1271 -11.7965,103.49747 -84.3884,32.73402 -8.0958,-7.89185 -12.5477,-70.59292 -59.6751,-137.49244 -11.8163,-16.77377 -61.7818,-20.91169 -100.2315,-91.50357"
       id="path3911"
       inkscape:connector-curvature="0"
       sodipodi:nodetypes="cssssc" />
    <g
       id="g4050"
       transform="translate(0,-16)">
      <path
         style="fill:#fdf6af;fill-opacity:1;stroke:none"
         d="m 1445.3138,714.97485 c 90.7436,30.58443 148.5277,-77.05448 139.1863,-105.97487 -9.4356,-29.21198 -112.5,11 -112.5,11 l -20.5,8 c -41.7569,21.54589 -27.8674,79.66742 -6.1863,86.97487 z"
         id="path3882"
         inkscape:connector-curvature="0"
         sodipodi:nodetypes="ssccs" />
      <path
         sodipodi:nodetypes="cscccc"
         inkscape:connector-curvature="0"
         id="path3835"
         d="m 1445.3138,714.97485 c 91.1198,29.4448 148.5277,-77.05448 139.1863,-105.97487 -9.4356,-29.21198 -112.5,11 -112.5,11 14.5,0 23.0607,10.20711 23.5607,20.20711 23.4393,-0.91422 41.4393,16 23.4393,39.29289 6.8536,20.91421 -21.5,38 -21.5,38"
         style="fill:none;stroke:#ead463;stroke-width:6;stroke-linecap:butt;stroke-linejoin:miter;stroke-miterlimit:4;stroke-opacity:1;stroke-dasharray:none" />
      <path
         sodipodi:nodetypes="cccccc"
         inkscape:connector-curvature="0"
         id="path3874"
         d="m 1493.6167,632.8585 76.5998,-34.19113 c 0,0 13.8241,2.38909 15.117,13.22792 l -63.6396,36.87311 c 12.5152,16.87736 -5.9409,29.61181 -1.8714,38.83021 l 60.7077,-44.57285"
         style="fill:none;stroke:#ead463;stroke-width:2.5;stroke-linecap:butt;stroke-linejoin:miter;stroke-miterlimit:4;stroke-opacity:1;stroke-dasharray:none" />
    </g>
    <path
       sodipodi:nodetypes="cccssscsssscsssscscsc"
       inkscape:connector-curvature="0"
       id="path3919"
       d="m 1246.0001,393.99997 c 40.9262,-60.57378 128.7989,-101.28687 179.3787,-50.70711 l 11.4102,64.62948 c 22.4192,142.50331 -93.4423,190.46687 -93.4423,303.85216 0,92.72801 90.2766,134.51838 119.5321,134.51838 78.1086,0 68.6417,-90.79289 40.6213,-90.79289 -16.0357,0 -24.75,17.5 -9.75,21.75 -1.25,-4.25 2,-9.5 7.25,-9.5 15.25,0 13,37 -12,37 -9.7933,0 -34.3853,-19.18844 -34.3853,-56.31025 0,-60.70298 48.4291,-116.26345 48.4291,-268.77941 0,-57.77173 -13.2951,-105.19869 -53.2484,-140.32079 -105.2595,-177.20224 -376.5079,-78.13354 -376.5079,58.35264 0,102.35507 148.7125,199.3078 148.7125,263.3078 0,21.19745 -17.9791,50.01642 -45.0022,50.01642 -15.3531,0 -37.8515,-20.89456 -37.8515,-34.01642 0,-28.5 28.7071,-24.93934 45.1466,-8.82843 -18.2324,-37.87868 -74.793,-36.69881 -74.793,10.82843 0,45.83422 101.5319,112.02405 169.7323,43.47487 9.995,-148.55012 -196.0875,-211.03896 -150.033,-349.3243 11.0565,-33.19878 73.3008,-30.5977 116.8008,20.84942 z"
       style="fill:#f3b6cf;fill-opacity:1;stroke:#eb81b4;stroke-width:6;stroke-linecap:butt;stroke-linejoin:miter;stroke-miterlimit:20;stroke-opacity:1;stroke-dasharray:none" />
    <path
       style="fill:none;stroke:#eb81b4;stroke-width:2.5;stroke-linecap:butt;stroke-linejoin:miter;stroke-miterlimit:4;stroke-opacity:1;stroke-dasharray:none"
       d="m 1229.7501,749.49999 c 9.25,-46.25001 4,-92.50001 -11.5,-108.00001"
       id="path4036"
       inkscape:connector-curvature="0"
       sodipodi:nodetypes="cc" />
    <path
       style="fill:none;stroke:#eb81b4;stroke-width:2.5;stroke-linecap:butt;stroke-linejoin:miter;stroke-miterlimit:4;stroke-opacity:1;stroke-dasharray:none"
       d="m 1281.5001,354.99997 c -57.9541,-58.65254 -173.975,-39.29289 -173.975,-39.29289 20.3282,-21.4676 36.2366,-31.26631 53.7929,-41.64645 0,0 89.4334,7.0901 140.475,67.23223 l 15.6464,-8.73223 c 0,0 -0.065,-46.38299 -42.6819,-88.47488 21.5606,-0.76777 40.3284,2.43934 40.3284,2.43934 13.466,27.20155 16.925,59.45702 15.2071,81.62133"
       id="path4038"
       inkscape:connector-curvature="0"
       sodipodi:nodetypes="cccccccc" />
    <path
       style="fill:none;stroke:#eb81b4;stroke-width:2.5;stroke-linecap:butt;stroke-linejoin:miter;stroke-miterlimit:4;stroke-opacity:1;stroke-dasharray:none"
       d="m 1465.8285,845.46446 c -124.94,-75.60615 36.4281,-297.27754 36.4645,-377.92896 1.8433,-39.47503 -14.8787,-75.91421 -14.8787,-75.91421 31.2127,184.23501 -152.2965,250.3365 -95.4142,422.3787"
       id="path4040"
       inkscape:connector-curvature="0"
       sodipodi:nodetypes="cccc" />
    <g
       id="g3822">
      <path
         sodipodi:nodetypes="cccc"
         inkscape:connector-curvature="0"
         id="path3772"
         d="m 1349.2932,531.90522 c 0.414,-15.92074 -6.7444,-22.73072 -6.7444,-22.73072 l 4.9613,-4.47076 c 6.445,8.08475 7.232,17.90735 1.7831,27.20148 z"
         style="fill:#000000;stroke:none" />
      <path
         style="fill:#000000;stroke:none"
         d="m 1369.0498,525.25814 c -1.8017,-21.27533 -17.2689,-23.28464 -17.2689,-23.28464 l 2.1916,-4.28612 c 11.9843,1.43767 20.8955,13.29132 15.0773,27.57076 z"
         id="path3774"
         inkscape:connector-curvature="0"
         sodipodi:nodetypes="cccc" />
      <path
         sodipodi:nodetypes="cccc"
         inkscape:connector-curvature="0"
         id="path3776"
         d="m 1384.0211,507.3254 c -13.2315,-15.1667 -29.6732,-8.00684 -29.6732,-8.00684 l 0.4674,-3.84793 c 10.1146,-5.64557 25.6683,-3.01092 29.2058,11.85477 z"
         style="fill:#000000;stroke:none" />
      <path
         sodipodi:nodetypes="ccc"
         inkscape:connector-curvature="0"
         id="path3778"
         d="m 1376.1755,463.09577 c -42.1251,122.02546 -140.1792,29.16395 -71.1326,-68.85257 41.0304,0.28415 71.1326,68.85257 71.1326,68.85257 z"
         style="fill:#ffffff;stroke:none" />
      <path
         transform="matrix(0.99966891,0.02573074,-0.02573074,0.99966891,12.658597,-33.136562)"
         d="m 1359.2976,464.77606 a 35.05209,48.592274 0 1 1 -70.1042,0 35.05209,48.592274 0 1 1 70.1042,0 z"
         sodipodi:ry="48.592274"
         sodipodi:rx="35.05209"
         sodipodi:cy="464.77606"
         sodipodi:cx="1324.2455"
         id="path3770"
         style="fill:url(#linearGradient3796);fill-opacity:1;stroke:none"
         sodipodi:type="arc" />
      <g
         clip-path="url(#clipPath3816)"
         id="g3810">
        <path
           style="fill:#9ed8d5;fill-opacity:1;stroke:none"
           d="m 1360.4734,484.79287 -8.662,19.09188 -16.4402,-16.61701 2.4748,-6.89429 z"
           id="path3784"
           inkscape:connector-curvature="0"
           sodipodi:nodetypes="ccccc" />
        <path
           style="fill:#68c8c6;fill-opacity:1;stroke:none"
           d="m 1338.7299,476.13081 30.5824,-0.17678 -7.2479,14.14214 -23.8648,-6.71751 z"
           id="path3782"
           inkscape:connector-curvature="0"
           sodipodi:nodetypes="ccccc" />
      </g>
      <path
         transform="matrix(0.99680125,-0.0799204,0.0799204,0.99680125,-33.221243,107.21421)"
         d="m 1346.692,468.71375 a 21.629181,32.766109 0 1 1 -43.2583,0 21.629181,32.766109 0 1 1 43.2583,0 z"
         sodipodi:ry="32.766109"
         sodipodi:rx="21.629181"
         sodipodi:cy="468.71375"
         sodipodi:cx="1325.0629"
         id="path3766"
         style="fill:#000000;stroke:none"
         sodipodi:type="arc" />
      <path
         transform="matrix(0.89537897,0.44530496,-0.44530496,0.89537897,352.11325,-534.96755)"
         d="m 1311.9391,477.59189 a 6.5909328,5.0775938 0 1 1 -13.1819,0 6.5909328,5.0775938 0 1 1 13.1819,0 z"
         sodipodi:ry="5.0775938"
         sodipodi:rx="6.5909328"
         sodipodi:cy="477.59189"
         sodipodi:cx="1305.3481"
         id="path2992"
         style="fill:#ffffff;stroke:none"
         sodipodi:type="arc" />
      <path
         transform="matrix(0.79796773,-0.60270017,0.60270017,0.79796773,-2.0234996,884.5701)"
         d="m 1331.7989,449.97824 a 14.308509,20.411203 0 1 1 -28.6171,0 14.308509,20.411203 0 1 1 28.6171,0 z"
         sodipodi:ry="20.411203"
         sodipodi:rx="14.308509"
         sodipodi:cy="449.97824"
         sodipodi:cx="1317.4904"
         id="path3762"
         style="fill:#ffffff;stroke:none"
         sodipodi:type="arc" />
      <path
         style="fill:#000000;stroke:none"
         d="m 1418.4772,470.6683 c -3.2206,7.99622 -37.4928,17.25745 -52.1595,-17.98022 -14.1878,-34.08714 -53.8467,-60.35963 -64.2185,-49.98792 -8.8425,8.84253 -19.0172,34.09084 -20.9691,57.92596 -5.9428,-24.00204 11.2224,-73.39928 26.1285,-73.39928 24.337,0 52.1796,31.98157 64.4329,62.26242 7.9082,19.54315 28.7534,26.03933 46.7857,21.17904 z"
         id="path3780"
         inkscape:connector-curvature="0"
         sodipodi:nodetypes="csscssc" />
      <path
         sodipodi:nodetypes="cccc"
         inkscape:connector-curvature="0"
         id="path3786"
         d="m 1371.046,455.64248 c 9.7384,6.01929 31.0787,4.46967 39.9678,-3.5052 -5.5067,12.45647 -18.7882,15.98054 -34.6645,12.01193 z"
         style="fill:#000000;stroke:none" />
      <path
         style="fill:#000000;stroke:none"
         d="m 1359.4852,434.1026 c 8.8673,9.00637 23.7635,8.36636 36.9943,0.85485 -6.4561,11.99191 -22.3459,14.60039 -30.7416,10.66253 z"
         id="path3788"
         inkscape:connector-curvature="0"
         sodipodi:nodetypes="cccc" />
    </g>
    <g
       id="g3906">
      <path
         style="fill:#fdf6af;fill-opacity:1;stroke:none"
         d="m 1382.5001,349.99997 c 8.2372,-41.47428 37.7907,-75.43414 48.5607,-75.43414 7.1454,0 31.6628,33.33261 33.1842,78.00394 1.255,36.8522 -9.7841,71.49574 -34.6591,90.34441 z"
         id="path3904"
         inkscape:connector-curvature="0"
         sodipodi:nodetypes="csscc" />
      <path
         sodipodi:nodetypes="cssccc"
         inkscape:connector-curvature="0"
         id="path3900"
         d="m 1382.5001,349.99997 c 1.5197,-42.53494 37.7907,-78.96967 48.5607,-78.96967 7.1454,0 34.935,29.13506 36.7197,81.53947 1.255,36.8522 -12.2589,78.92036 -38.1946,90.34441 39.8345,-42.55025 42.1127,-126.68629 0.7678,-164.38908 -15.8251,9.74666 -37.5923,40.75843 -47.8536,71.47487 z"
         style="fill:#ead463;fill-opacity:1;stroke:none" />
      <path
         sodipodi:nodetypes="ccc"
         inkscape:connector-curvature="0"
         id="path3902"
         d="m 1434.2072,322.11609 c 3.75,23.75 -2.2678,55.7071 -11.5178,78.4571 17.25,-21 20.5178,-60.2071 11.5178,-78.4571 z"
         style="fill:#ead463;fill-opacity:1;stroke:none" />
    </g>
    <path
       sodipodi:type="arc"
       style="fill:#a9b7bc;fill-opacity:1;stroke:none"
       id="path4062"
       sodipodi:cx="1505.0769"
       sodipodi:cy="966.50934"
       sodipodi:rx="257.74042"
       sodipodi:ry="32.880466"
       d="m 1762.8173,966.50934 a 257.74042,32.880466 0 1 1 -515.4808,0 257.74042,32.880466 0 1 1 515.4808,0 z"
       transform="translate(23.624161,0)" />
  </g>
</svg>
