<svg xmlns="http://www.w3.org/2000/svg" xmlns:inkscape="http://www.inkscape.org/namespaces/inkscape" xmlns:xlink="http://www.w3.org/1999/xlink" height="700" viewBox="0 0 500 700.00003" width="500">
  <defs>
    <inkscape:path-effect effect="powerstroke" end_linecap_type="zerowidth" id="path-effect8598" interpolator_type="CubicBezierSmooth" offset_points="0.39,3 | 1.51,3" start_linecap_type="zerowidth" />
    <inkscape:path-effect effect="powerstroke" end_linecap_type="zerowidth" id="path-effect4760" interpolator_type="CubicBezierSmooth" offset_points="0.35,3 | 6.45,3" start_linecap_type="zerowidth" />
    <inkscape:path-effect effect="powerstroke" id="path-effect4743" interpolator_type="CubicBezierSmooth" offset_points="0.47,3" start_linecap_type="zerowidth" />
    <inkscape:path-effect effect="powerstroke" end_linecap_type="zerowidth" id="path-effect4725" interpolator_type="CubicBezierSmooth" offset_points="0.18,3 | 2.79,3" start_linecap_type="zerowidth" />
    <linearGradient id="linearGradient4582">
      <stop offset="0" stop-color="#241a7c" />
      <stop offset="1" stop-color="#98a2ef" />
    </linearGradient>
    <clipPath id="clipPath4690-7">
      <use xlink:href="#ellipse4646" />
    </clipPath>
    <inkscape:path-effect effect="powerstroke" end_linecap_type="zerowidth" id="path-effect4611-6" interpolator_type="CubicBezierSmooth" offset_points="0.09,3 | 0.9,3" start_linecap_type="zerowidth" />
    <inkscape:path-effect effect="powerstroke" end_linecap_type="zerowidth" id="path-effect4765-2" interpolator_type="CubicBezierSmooth" offset_points="0.42,3 | 1.76,3" start_linecap_type="zerowidth" />
    <clipPath id="clipPath4596-2">
      <use xlink:href="#ellipse4572" />
    </clipPath>
    <inkscape:path-effect effect="powerstroke" end_linecap_type="zerowidth" id="path-effect4780-0" interpolator_type="CubicBezierSmooth" offset_points="0.37,3 | 1.81,3" start_linecap_type="zerowidth" />
    <clipPath id="clipPath4574">
      <use xlink:href="#path4759" />
    </clipPath>
    <clipPath id="clipPath4646">
      <use xlink:href="#path4704" />
    </clipPath>
    <linearGradient gradientUnits="userSpaceOnUse" id="linearGradient4665" x1="134.95891" x2="134.92897" y1="222.36446" y2="242.48407" xlink:href="#linearGradient4582" />
    <linearGradient gradientUnits="userSpaceOnUse" id="linearGradient4683" x1="63.763138" x2="63.399132" y1="217.74609" y2="237.09877" xlink:href="#linearGradient4582" />
    <inkscape:path-effect bendpath1="m -9.5,-20.8 h 19" bendpath2="M 11.72085,-20.734855 C 5.4069055,-6.0019736 4.4015084,6.9341904 9.9835031,20.17201" bendpath3="m -9.5,20.8 h 19" bendpath4="M -4.1390975,-21.118991 C -14.145375,-7.2787844 -15.535884,6.8645082 -9.0405144,20.222396" effect="envelope" id="path-effect5540" yy="false" />
  </defs>
  <g inkscape:groupmode="layer" inkscape:label="Drawing">
    <g>
      <path d="m 421.90815,621.10748 c -61.2488,0 -86.3199,-91.94021 -31.13989,-181.12998 57.83658,-93.48369 -53.02775,-144.3808 -88.77391,-72.7194 l -18.66354,-10.41571 c 35.45664,-145.90571 206.21393,-105.071 206.21393,29.09404 0,96.44645 -56.03224,130.60897 -55.68005,173.80614 12.58448,-4.08395 23.16992,-15.59026 23.16676,-35.09661 9.57381,12.22052 11.46512,24.47729 8.34333,34.89835 13.22257,35.8599 -7.96044,61.56317 -43.46663,61.56317 z" fill="#69328f" />
      <path d="m 421.90815,621.10748 c -44.87843,0 -70.08682,-49.29809 -58.7809,-110.77039 9.59659,103.44232 90.95663,88.51015 102.3277,49.12599 13.25528,35.9415 -8.04061,61.6444 -43.5468,61.6444 z m 67.63659,-235.17105 c 0,-26.50111 -6.74458,-49.82536 -17.71059,-68.32371 15.36319,99.54046 -86.72481,137.55469 -79.83474,216.44678 1.96027,22.44533 24.13429,31.52213 42.05258,25.5962 -0.40724,-43.20489 55.49275,-77.27282 55.49275,-173.71927 z" fill="#9be9d8" />
      <path d="m 421.90815,621.10748 c -29.47666,0 -50.46764,-21.26724 -58.20497,-53.31325 33.58818,49.92717 87.00479,46.25807 103.46207,-1.80267 8.96586,32.37478 -11.8592,55.11592 -45.2571,55.11592 z m -3.36087,-59.8855 c 5.05648,0.58321 10.44993,0.10543 15.50471,-1.56628 -0.40724,-43.20489 55.49275,-77.27282 55.49275,-173.71927 0,-14.9122 -2.13555,-28.8185 -6.03386,-41.24921 -4.14112,126.01515 -80.19735,144.42642 -64.9636,216.53476 z M 380.76932,457.9305 c 2.9594,-5.97906 6.29874,-11.97221 9.99894,-17.953 57.83658,-93.48369 -53.02775,-144.3808 -88.77391,-72.7194 l -18.66354,-10.41571 c 2.88553,-11.87409 6.66716,-22.5114 11.10425,-31.85768 93.96938,-75.21499 191.04846,23.41953 86.33426,132.94579 z" fill="#8640b4" />
      <path fill="#562875" inkscape:original-d="m 401.47403,553.61296 c 18.12942,16.105 55.56336,7.71255 55.55742,-28.967 16.08314,20.52937 10.48552,41.16106 -3.98249,53.40716" inkscape:path-effect="#path-effect8598" />
      <path d="m 465.34207,559.46271 c 13.25528,35.9415 -7.92773,61.64477 -43.43392,61.64477 -61.2488,0 -86.3199,-91.94021 -31.13989,-181.12998 57.83658,-93.48369 -53.02775,-144.3808 -88.77391,-72.7194 l -18.66354,-10.41571 c 35.45664,-145.90571 206.21393,-105.071 206.21393,29.09404 0,96.44645 -56.03224,130.60897 -55.625,173.81386" fill="none" stroke="#562875" stroke-width="6" />
    </g>
    <g>
      <path d="M 318.40273,121.88548 C 290.33059,5.7154834 170.67191,-2.6847861 117.14619,16.391733 L 233.64433,290.45503 c 37.39478,-44.0212 102.40471,-95.54442 84.7584,-168.56955 z" fill="#69328f" />
      <path d="M 139.69269,10.173982 C 137.29198,35.478011 140.378,55.615787 155.30876,79.668897 173.10959,32.07295 206.83111,18.123966 248.18187,27.697276 218.70278,11.924783 180.54388,4.7468034 139.69269,10.173982 Z" fill="#8640b4" />
      <path d="m 129.65822,13.491281 c 3.78127,22.796455 11.18903,47.144692 25.65054,66.177616 C 144.63019,57.028325 142.32788,33.727263 149.995,8.8246439 Z" fill="#9be9d8" />
      <path d="M 88.337161,75.404614 C 89.505802,30.939901 137.52785,39.634219 139.54748,104.06269 105.36357,123.08834 87.366015,112.355 88.337161,75.404614 Z" fill="#5f2d7f" />
      <path d="M 318.40273,121.88548 C 290.33059,5.7154834 170.67191,-2.6847861 117.14619,16.391733 L 233.64433,290.45503 c 37.39478,-44.0212 102.40471,-95.54442 84.7584,-168.56955 z" fill="none" stroke="#562875" stroke-width="6" />
      <path d="M 118.10183,107.39927 C 117.77338,83.463584 109.492,65.986274 93.149314,54.138012 M 226.98737,226.47014 C 331.82158,136.07104 266.27346,30.754744 206.26938,72.183391" fill="none" stroke="#562875" stroke-width="2.45721507" />
    </g>
    <g>
      <path d="m 254.84135,446.4989 -75.85417,6.44914 c 26.50392,47.21418 32.04084,126.49405 -7.62986,186.1685 -12.24518,18.41974 74.87334,19.35379 81.2918,1.83156 13.81052,-37.70236 19.74151,-94.72315 3.98812,-144.65773 -1.67907,-5.32229 -9.67414,-6.27124 -16.84428,-6.20009 3.72663,-14.79965 13.21371,-24.14316 15.04839,-43.59138 z" fill="#ddb1eb" />
      <path fill="#c394d7" inkscape:original-d="m 238.58997,498.85603 c 1.25134,-20.51875 14.08519,-29.39481 16.25138,-52.35713 l -75.85417,6.44914 c 26.50392,47.21418 32.04084,126.49405 -7.62986,186.1685 -12.24518,18.41974 74.87334,19.35379 81.2918,1.83156 13.81052,-37.70236 19.74151,-94.72315 3.98812,-144.65773 -1.67907,-5.32229 -9.67414,-6.27124 -16.94985,-6.27124" inkscape:path-effect="#path-effect4743" />
      <path d="M 114.77675,452.11872 C 90.226637,528.05943 58.710287,599.27346 8.3067037,656.12333 -5.6270763,671.83915 78.028226,677.56632 92.484982,658.02407 122.24422,617.79635 156.85413,510.74752 149.09898,457.86271 Z" style="fill:#f2c7f8;stroke:#c394d7;stroke-miterlimit:20;stroke-width:6" />
    </g>
    <path d="m 291.22146,663.38731 c -8.74721,18.41974 78.72886,19.41464 81.63962,1.83156 5.92758,-35.80694 -3.62833,-105.02174 -35.2159,-164.16264 -2.81848,-5.27701 -10.86507,-6.27124 -18.00596,-6.28375 0.77264,-25.19301 16.66655,-57.53006 1.93291,-100.06585 -16.35824,-47.22598 -54.6525,-59.87728 -129.63005,-27.19902 9.20632,-62.278 27.34759,-82.34336 48.0543,-152.95596 C 281.5673,72.789309 7.7492293,47.977741 37.915925,245.25841 l 88.947495,57.62839 c -75.205715,136.63614 7.61913,211.96605 110.35421,190.06703 12.23425,-2.60785 21.34765,-8.25031 27.74887,-15.90452 35.30336,47.11291 54.59331,126.66355 26.25496,186.338 z" fill="#f2c7f8" />
    <g transform="matrix(-1.3145682.33418065.19516969 2.0936448 298.20048 409.81961)" inkscape:path-effect="#path-effect5540">
      <path fill="ivory" inkscape:original-d="m -9.3,17.4 5.5,-3.9 5.5,3.9 -3.5,-6.6 3.5,-6.6 -5.5,3.9 -5.5,-3.9 3.5,6.6 z" />
      <path fill="#b765b8" inkscape:original-d="m -3.8,0.8 c 0.6,6.5 2.5,9 5.7,10 -3.2,1 -5.1,3.5 -5.7,10 -0.6,-6.5 -2.5,-9 -5.7,-10 3.2,-1 5.1,-3.5 5.7,-10 z" />
      <path fill="#9be9d8" inkscape:original-d="m 1.7,-6.3 c -3.3,5.2 6.4,4.5 6.4,10.9 0,2.1 -1.8,4.6 -6.8,4.7 11,-6.2 -9.8,-9.2 0.4,-15.6 z m -5.8,4.6 c -3.1,-1.6 -4.6,-3.8 -4.6,-6 0,-9.8 18.9,-1.7 13.9,-13.1 13.6,12.8 -16.2,9.6 -9.3,19.1 z" />
      <path fill="#08bab7" inkscape:original-d="M 1.7,-6.3 C -10.8,0 9.6,2.5 1.3,9.3 7.8,7.6 6.1,3.2 3.2,1 0.3,-1.2 -2,-3.3 1.7,-6.3 Z m -5.8,4.6 c -4.1,-8.2 13.6,-2.8 13.6,-12.4 0,-2.3 -1.4,-4.7 -4.3,-6.7 4.1,4.3 4.3,8.8 -4.4,10.1 -8.7,1.3 -8.2,5.5 -4.9,9 z" />
    </g>
    <path fill="#c394d7" inkscape:original-d="m 320.31946,503.75056 c -4.29101,-26.35445 17.80235,-61.26527 1.25267,-109.04393 -16.35824,-47.22598 -54.6525,-59.87728 -129.63005,-27.19902 9.20632,-62.278 27.34759,-82.34336 48.0543,-152.95596 C 281.5673,72.789309 7.7492293,47.977741 37.915925,245.25841 l 88.947495,57.62839 c -75.205715,136.63614 7.61913,211.96605 110.35421,190.06703 32.41437,-6.90945 42.92123,-35.12097 42.22107,-63.72776" inkscape:path-effect="#path-effect4760" />
    <g>
      <path d="M 45.169104,167.26289 C 23.193817,163.27143 23.785208,159.59508 46.37411,163.769 m -3.242494,10.65501 c -19.786254,-1.95366 -19.873339,-5.70056 0.907883,-3.64865" />
      <g clip-path="url(#clipPath4574)">
        <path d="m 52.174511,232.78009 c 13.77905,-23.84983 17.222043,-44.34748 12.405071,-72.56792 -5.120216,0.0896 -10.137404,-0.39476 -16.656385,-1.70395 -12.052739,27.11285 -14.616348,49.94583 -10.86002,82.6982 5.783338,-1.50288 10.771785,-4.39682 15.111334,-8.42633 z" fill="#fff" id="path4759" />
        <g clip-path="url(#clipPath4690-7)">
          <ellipse cx="62.502594" cy="226.73898" fill="url(#linearGradient4683)" id="ellipse4646" rx="7.7520347" ry="12.25806" transform="rotate(5.2847176)" />
          <path d="m 37.334185,236.30753 9.689227,11 4.90414,-7.16964 z" fill="#b9bafc" />
          <path d="m 37.334185,236.30753 15.762341,-3.6e-4 -3.10524,5.42549 z" fill="#8587ec" />
          <ellipse cx="61.037777" cy="228.97914" rx="5.2366414" ry="8.2805462" transform="rotate(5.2847176)" />
          <ellipse cx="-11.265022" cy="233.4377" fill="#fff" rx="3.0821631" ry="4.8279991" transform="rotate(346.73912)" />
          <ellipse cx="-47.474991" cy="236.11043" fill="#fff" rx="0.97745401" ry="1.4333794" transform="rotate(338.96316)" />
        </g>
      </g>
      <path d="m 69.007699,157.51264 c 2.690529,-1.48252 5.280091,-6.14027 7.390204,-11.61183 -0.278987,6.74611 -2.50861,13.05148 -5.725907,14.90899 -3.113087,1.79734 -16.67728,0.90942 -23.723524,-0.8838 -19.193611,-4.88463 -19.090798,-8.47994 -0.06769,-3.71154 10.136125,2.54076 19.932115,2.50755 22.126917,1.29818 z m -16.833188,75.26745 c 10.90821,-22.95212 15.584781,-45.49118 10.626364,-72.42725 l 3.829322,-0.2872 c 3.494294,24.75185 2.247624,50.561 -14.455686,72.71445 z" />
      <path d="m 52.174508,232.78009 c -15.448332,15.64251 -31.173918,3.60547 -30.772977,17.89167 0.747102,26.62052 45.803063,72.71446 135.983589,52.61052 z" fill="#f2c7f8" />
      <path fill="#c394d7" inkscape:original-d="m 52.174508,232.78009 c -15.448332,15.64251 -31.173918,3.60547 -30.772977,17.89167 0.747102,26.62052 45.803063,72.71446 135.983589,52.61052" inkscape:path-effect="#path-effect4765-2" />
      <path d="m 33.397242,276.82303 c 14.036793,-3.72325 27.160451,-3.52323 39.462902,3.15884 -13.292763,-2.76326 -25.49564,-2.58092 -35.998748,1.80294 m -1.710451,-28.48072 c 3.792709,3.31266 6.454697,2.56369 8.209147,-1.45905 0.35553,7.19605 -4.84095,8.18257 -8.209147,1.45905 z" fill="#c394d7" />
      <g clip-path="url(#clipPath4646)">
        <ellipse cx="246.47998" cy="91.661125" fill="#fff" id="path4704" rx="39.912838" ry="54.011219" transform="rotate(38.279099)" />
        <g clip-path="url(#clipPath4596-2)">
          <ellipse cx="131.89729" cy="231.60236" fill="url(#linearGradient4665)" id="ellipse4572" rx="9.7104788" ry="12.604948" transform="rotate(7.6167578)" />
          <path d="m 97.073304,251.39497 10.147696,10.5785 4.59519,-7.37145 z" fill="#b9bafc" />
          <path d="m 97.073304,251.39497 15.748086,-0.67013 -2.87199,5.55251 z" fill="#8587ec" />
          <ellipse cx="130.81618" cy="234.63707" rx="6.6787553" ry="8.6695375" transform="rotate(7.6167578)" />
          <ellipse cx="31.455946" cy="264.48114" fill="#fff" rx="3.5115833" ry="5.267375" transform="rotate(344.11027)" />
          <ellipse cx="-21.510542" cy="270.17078" fill="#fff" rx="1.0498507" ry="1.5747762" transform="rotate(334.1451)" />
        </g>
      </g>
      <path d="m 123.375,177.875 c 15.07021,13.07128 42.78259,25.66726 66.25,30.5 -1.32235,-38.15759 -38.7113,-49.25 -66.25,-30.5 z" fill="#f2c7f8" />
      <path d="M 91.371895,245.51429 C 90.807208,219.48409 105.46763,194.53029 130,183.125 L 126,180 c -20.32598,10.61718 -40.547512,37.91467 -34.628105,65.51429 z m 19.079855,-75.9318 c 18.47028,18.42767 46.34231,32.81636 73.34697,39.80362 29.3447,7.59273 29.53788,3.46691 0.85668,-4.30292 -27.18801,-7.36532 -50.69761,-19.28952 -69.82883,-37.56166 -1.54126,-1.47202 0.1682,-6.06207 8.99117,-12.53142 -10.84857,3.81012 -16.79818,11.16818 -13.36599,14.59238 z" />
    </g>
    <path d="m 264.79983,476.94804 c 35.47003,47.21418 54.75998,126.76482 26.42163,186.43927 -8.74721,18.41974 78.72886,19.41464 81.63962,1.83156 5.92758,-35.80694 -3.62833,-105.02174 -35.2159,-164.16264 -2.81848,-5.27701 -10.86507,-6.27124 -18.14078,-6.27124" style="fill:none;stroke:#c394d7;stroke-miterlimit:20;stroke-width:6" />
    <g>
      <path d="m 151.48253,471.88458 c 4.83077,85.13108 -3.08173,158.25976 -29.18819,204.38754 -9.83712,17.38131 80.23671,18.31166 86.62801,0.97626 13.98428,-37.93013 8.50945,-148.48475 -20.90266,-199.61981 z" fill="#f2c7f8" />
      <path fill="#c394d7" inkscape:original-d="m 151.48253,471.88458 c 4.83077,85.13108 -3.08173,158.25976 -29.18819,204.38754 -9.83712,17.38131 80.23671,18.31166 86.62801,0.97626 13.98428,-37.93013 8.50945,-148.48475 -20.90266,-199.61981" inkscape:path-effect="#path-effect4725" />
    </g>
    <g>
      <path d="m 199.07866,146.28273 c 10.73805,-34.53894 41.44296,-56.987521 48.02475,-55.752123 9.41574,1.767329 43.30837,75.450363 -17.87584,131.494523 z" fill="#f2c7f8" />
      <path fill="#c394d7" inkscape:original-d="m 199.07866,146.28273 c 10.73805,-34.53894 41.44296,-56.987521 48.02475,-55.752123 9.41574,1.767329 43.30837,75.450363 -17.87584,131.494523" inkscape:path-effect="#path-effect4780-0" />
      <path d="m 241.14741,127.2274 c 5.53631,18.7536 2.03623,40.07173 -9.60176,56.19407 7.55185,-19.46509 10.79071,-34.55535 9.60176,-56.19407 z" fill="#c394d7" />
      <path d="m 137.70782,15.415714 c 39.41317,19.352769 54.35708,6.621019 72.85033,29.206459 C 255.3998,99.38639 179.69278,171.02777 219.80342,180.3361 189.18799,224.23567 141.6792,175.71386 138.55905,129.65234 131.91911,31.62957 92.139685,43.801954 89.55788,83.526545 67.785405,19.444396 107.50909,0.587444 137.70782,15.415714 Z" fill="#69328f" />
      <path d="m 188.09837,30.393501 c 58.50398,62.77388 -41.69918,108.685759 7.81416,167.403219 -6.82291,-0.52425 -13.64816,-1.15333 -20.54599,-5.02104 -39.26108,-64.92466 28.0511,-112.559535 -17.17043,-169.58609 8.30414,2.811735 17.06849,5.336103 29.90226,7.203911 z" fill="#9be9d8" />
      <path d="m 186.48218,196.69779 c -55.50064,-73.8642 38.62768,-87.32735 -15.24548,-169.625775 -10.03647,-1.395082 -19.87182,-5.150669 -29.55555,-9.486728 48.13839,56.174086 -8.61022,117.580263 23.69223,167.680463 5.68839,5.15611 12.93888,8.75295 21.1088,11.43204 z" fill="#8640b4" />
      <path d="m 137.70782,15.415714 c 39.41317,19.352769 54.35708,6.621019 72.85033,29.206459 C 255.3998,99.38639 179.69278,171.02777 219.80342,180.3361 189.18799,224.23567 141.6792,175.71386 138.55905,129.65234 131.91911,31.62957 92.139685,43.801954 89.55788,83.526545 67.785405,19.444396 107.50909,0.587444 137.70782,15.415714 Z" style="fill:none;stroke:#562875;stroke-miterlimit:8;stroke-width:6" />
      <path d="m 231.84275,153.73365 c 7.13127,10.89347 9.86092,22.82511 0.88896,34.60842 14.37471,18.88363 -8.46373,52.25445 -43.53986,40.94155 -46.02851,-14.84529 -47.51264,-53.56976 -50.6328,-99.63128 18.57006,63.1629 86.14148,66.70092 93.2837,24.08131 z" fill="#69328f" />
      <path d="m 138.8668,129.71393 c 18.57006,63.1629 85.83373,66.63933 92.97595,24.01972 7.13127,10.89347 9.86092,22.82511 0.88896,34.60842 1.12627,1.47955 2.02409,3.04803 2.65478,4.49975 -27.27972,31.60038 -62.57975,23.25915 -90.39265,-11.20676 -3.86166,-15.04132 -4.82514,-32.70178 -6.12704,-51.92113 z" fill="#9be9d8" />
      <path d="m 138.8668,129.71393 c 18.57006,63.1629 85.83373,66.63933 92.97595,24.01972 3.08134,4.70694 5.2055,9.47231 6.08447,14.44601 -19.01058,39.16892 -66.44436,33.21068 -95.70875,-1.29295 -1.71481,-11.51088 -2.45253,-23.89924 -3.35167,-37.17278 z" fill="#8640b4" />
      <path d="m 231.84275,153.73365 c 7.13127,10.89347 9.86092,22.82511 0.88896,34.60842 14.37471,18.88363 -8.46373,52.25445 -43.53986,40.94155 -46.02851,-14.84529 -47.51264,-53.56976 -50.6328,-99.63128 18.57006,63.1629 86.14148,66.70092 93.2837,24.08131 z" style="fill:none;stroke:#562875;stroke-miterlimit:8;stroke-width:6" />
      <path d="M 91.712254,156.42779 C 29.148424,34.311653 50.960604,19.312989 122.74337,129.15067 Z" fill="#f2c7f8" />
      <path fill="#c394d7" inkscape:original-d="M 91.712254,156.42779 C 29.148424,34.311653 50.960604,19.312989 122.74337,129.15067" inkscape:path-effect="#path-effect4611-6" />
      <path d="m 59.494563,85.343461 c 10.479393,3.817823 19.86573,-0.545322 20.678082,-14.239954 M 66.826019,104.20856 c 13.151736,7.60737 28.406378,3.25321 27.035801,-16.267229 M 77.742923,128.8024 c 12.997149,7.71705 34.492877,2.16619 31.514357,-19.90189" fill="none" stroke="#c394d7" stroke-width="3" />
    </g>
    <g>
      <path d="m 235.68054,241.34257 c -45.46257,31.73625 -81.53682,120.13265 -14.43363,135.09537 12.59474,-54.20468 135.39112,-96.32458 97.15582,-254.55246 -10.02595,57.53661 -24.96974,79.14158 -82.72219,119.45709 z" fill="#69328f" />
      <path d="m 324.9589,183.78465 c -33.79917,127.90522 -112.24799,109.62282 -118.63863,187.02728 -7.92718,-4.80757 -15.10876,-10.99027 -17.74405,-18.5483 33.36117,-94.67262 106.03109,-66.12387 134.85547,-194.17617 z" fill="#9be9d8" />
      <path d="m 184.70818,340.18789 c 41.04709,-89.8651 107.29435,-63.3503 138.39846,-185.97954 l 0.81712,6.54517 C 304.14997,291.28571 226.2618,263.984 193.31134,359.69554 Z" fill="#8640b4" />
      <path d="m 235.68054,241.34257 c -45.46257,31.73625 -81.53682,120.13265 -14.43363,135.09537 12.59474,-54.20468 135.39112,-96.32458 97.15582,-254.55246 -10.02595,57.53661 -24.96974,79.14158 -82.72219,119.45709 z" fill="none" stroke="#562875" stroke-width="6" />
      <path d="m 177.26132,410.31981 c 32.95083,24.33771 71.4497,11.15137 69.03788,-30.72389 7.204,-12.17148 7.55989,-22.37034 4.81986,-33.8888 -23.52501,53.59427 -111.7255,-1.20095 -15.43852,-104.36455 -72.40722,50.54562 -106.52603,133.44524 -58.41922,168.97724 z" fill="#69328f" />
      <path d="m 235.68054,240.25947 c -96.28698,103.16361 -8.08649,159.04192 15.43852,105.44765 2.74003,11.51846 2.38414,21.44654 -4.81986,33.61802 0.12932,2.24538 0.147,4.41115 -0.003,6.3246 -34.25388,38.11422 -88.38355,17.32035 -85.5928,-55.35606 9.98729,-29.14219 34.41638,-61.71955 74.97747,-90.03421 z" fill="#9be9d8" />
      <path d="m 176.25885,301.09204 c 13.17378,-20.15319 32.83124,-41.18736 59.42169,-59.74947 -96.28698,103.1636 -8.08649,157.95882 15.43852,104.36455 2.49325,10.48104 2.42313,19.64527 -2.88021,30.40391 -28.34163,32.89283 -103.56171,8.23647 -71.98,-75.01899 z" fill="#8640b4" />
      <path d="m 177.26132,410.31981 c 32.95083,24.33771 71.4497,11.15137 69.03788,-30.72389 7.204,-12.17148 7.55989,-22.37034 4.81986,-33.8888 -23.52501,53.59427 -111.7255,-1.20095 -15.43852,-104.36455 -72.40722,50.54562 -106.52603,133.44524 -58.41922,168.97724 z" fill="none" stroke="#562875" stroke-width="6" />
    </g>
  </g>
</svg>
