<svg xmlns="http://www.w3.org/2000/svg" height="512" viewBox="0 0 512 512.00002" width="512">
  <rect fill="#230f38" height="512" width="512" />
  <path d="M 262.36417,444.85242 C 224.98028,324.26979 167.02745,366.50205 183.34822,457.1344 38.197544,388.37883 151.04557,227.95948 201.87774,333.03849 219.63559,369.74708 273.52015,359.2701 289.23491,255.15982 M 203.80079,98.505363 C 262.59665,207.3044 250.23196,252.06244 215.06163,205.84897 165.43169,140.6357 58.068247,168.35671 45.671019,297.88637 31.429519,446.6855 120.60293,442.20592 221.853,500.64053 M 282.22256,-33.04701 C 450.6424,126.67964 333.03285,376.59064 534.71765,404.5224" fill="none" stroke="#576ab7" stroke-width="16" />
  <path d="M -9.313156,-62.052119 C 50.014426,116.71575 278.41877,40.795034 278.10507,281.53901 277.85697,471.9387 234.14982,435.10477 538.00627,460.1342 L 552.48369,445.3209 C 401.26509,432.81858 382.19037,366.99217 362.37672,243.30696 342.73021,120.66511 311.96277,2.976744 139.90697,-12.502325 Z" fill="#54a2e1" />
  <path d="M 411.72091,-30.958137 C 407.55347,279.81394 445.56276,343.16277 552.1302,356.85579 L 534.63847,-30.958137 Z M -62.130229,458.39067 C 150.31617,506.31562 389.70562,520.26868 532.83718,486.59067 L 534.62322,500.42788 C 488.31595,503.37471 427.60236,497.98637 406.7976,480.0255 377.48584,454.72048 304.63242,455.41433 267.90696,434.00928 229.76233,411.77708 163.19054,407.59512 240.18456,533.30047 L -62.130229,535.21857 Z" fill="#5a318e" />
</svg>