<svg xmlns="http://www.w3.org/2000/svg" xmlns:xlink="http://www.w3.org/1999/xlink" width="1920" height="1080">
  <defs>
  <g id="Y">
    <path id="I" d="M20.3-9C14.8 5 5.8 5.6.4 5.3L-.1 7.2C6.5 9 15.6 8.4 21.6-.4Z"/>
    <use xlink:href="#I" transform="rotate(120)"/>
    <use xlink:href="#I" transform="rotate(240)"/>
  </g>
  </defs>
  <rect fill="#2d3955" width="1920" height="1080"/>
  
  <g transform="rotate(13.626745-1787.2361 5300.6718)scale(4.4975617)" id="Coco">
  <clipPath id="R2"><use xlink:href="#R1"/></clipPath>
  <clipPath id="B2"><use xlink:href="#B1"/></clipPath>
  <path d="m22.5 8.9c-6.9 3.7-23.8 4.6-31 1.3L14.9 4.8Z" fill="#b674bc"/>
  <g clip-path="url(#R2)">
    <path d="m-14.3 1.3c-3.3.5-11.2 4.9-14.1 7.4 4.9 7.5 18.1 4.7 24.9 1.4S14.2 5.3 22.5 8.9C17.8 5 10.4 1.6 7.5 1.3Z" fill="#d39cd1" id="R1"/>
    <path d="m-32 15 5.1-10.3c1.2 7.4 16.3 5.8 22.3 2.4s19.4-5.5 24.7-.4l7 5z" fill="#fbfbfb"/>
  </g>
  <g clip-path="url(#B2)">
    <path d="M7.9-3.8C15.7-19.4 30.9-15.5 28-6.6S17.9.1 17.2-3C13.4-2.9 11.3-.5 7.5 1.3L7.4-1.3Z" fill="#f55" id="B1"/>
    <path d="m11.7.2c.2-3.2.9-5.5 2.2-7-.6 1.5-1.3 3.5-1.3 5.7l1.6-.8c.4-3.5 1.7-5.7 3.3-7.3-1 1.8-2.2 4.4-2.5 7.2l2.2-1c-.4-4.2 3.8-5.7 5.1-3.8s-.8 3.6-1.5 1.7c1.2.9 1.8-1.4 0-1.7s-4.3 2.6-1.9 7z" fill="#f24c4c"/>
  </g>
  <path d="M7.9-3.8-14.3-4v5.3c1.4 3.5 18.7 3.9 21.8 0z" fill="#b674bc"/>
  <path d="m8.1-6.5-22.4.1V-4c4.6 2.3 17.2 3 22.2.2z" fill="#fbfbfb"/>
  <path d="M8.1-6.5C7-8.9-14-8.9-14.3-6.4c1.9 3.5 20.6 3.7 22.4-.1z" fill="#d39cd1"/>
  </g>
  
  <g transform="translate(1643.5112 720.63174)scale(2.940603)" id="Flutterbat">
  <path d="M2.4 31.2C4.5 27.5 9.6 26.6 14.2 29.3 11.1 20.2 12.6 15.9 21.3 19.2 19 14.2 19.8 6.8 25.5 4.8 16.9.8 7.5 9.7 5.8 17.6s-9 8.9-14 3.8-15.9-5.6-21.5 2.8c5.3-1.6 9.2 2 10.6 9.4 6-8.7 8.8-6.1 10.8 3.8 3-5.8 6.4-7.7 10.7-6.2zm1.4 5.4C4.7 29.5 3.2 19.1-.3 13.8c0 2.1-.1 3.8-.4 5.7-1.2-1.3-2.2-2.7-3.2-4.5-.3 6.7 4.1 16.5 7.7 21.6z" fill="#f3b5cf" id="B"/>
  <use transform="matrix(-1 0 0 1 11.2-41.1)" xlink:href="#B"/>
  <use transform="rotate(195-11.1-11.2)scale(.85-.85)" xlink:href="#B"/>
  </g>
  
  <g transform="rotate(22.425435-288.87365 3297.9698)scale(2.7610886)" id="Cadance">
  <clipPath id="K"><use xlink:href="#J"/></clipPath>
  <g clip-path="url(#K)">
    <path d="M-.6 26.6C-22.1 13.2-30-.5-30-12.3-30-34-8.6-32.6.6-23.8c9.2-7.5 29.3-7.6 29.3 13.8 0 12.2-9.4 24.7-30.5 36.6z" fill="#08becc" id="J"/>
    <path d="m-22.6 8.6 8.3-6.6-3.2-15-12.9-2.4v-15H0v4.5l-7.2 3.2v6h38v14.5h-20l-11.1 15.1-11 7.4z" fill="#24bad2"/>
    <path d="m-7.2-22.7-15.3-5.3 5 15-11.1 9.5 14.3 5.5 33.8-16.5 10.3-1.8V-28.9H0v3l8 2.8-8 32.7-.3 3.3 10.6 8.9 12.5-12.6-8.7-7z" fill="#50c9e4"/>
    <path d="M0 9.6-12.6-1v-12h-4.9l10.3-9.7 7.7 3.9H8v-4.3l13.2-3.8-1.7 12.4 9.2 12.3-14.6 4.4H10Z" fill="#80ccda"/>
    <path d="M14.1 2.2 0 9.6-14.3 2-12.6-4.9-17.5-13 .5-18.8-12.6-4.9 0 9.6 13.5-4.6.5-18.8 8-23.1l11.5 8.6-6 9.9z" fill="#8dfffd"/>
  </g>
  <path d="M38.8 13.2C36.3 6.9 39.5 2.2 41.9 9.3ZM37.6 12.9C46.6 5.5 37.8-2.9 35.8 7.5 33.3 4.6 35 .2 37.2.2c-2.8-3.8 0-10.9 2.7-10.6-5.8 11.4 9.7 10 5.4 21 2.4-.7 4.1 1.3 3.2 3.7-.6-.7-1.7-1.9-2.6-1.2L39.6 18C36 20.8 33 17.3 25.1 17.3c-5.4 0-6.5 3.8-6.5 5.9 0 2.9 2.4 1.8 1.6 1l-1.4-1.4c2.6-5.8 5.9-2.6 3.9 1.3 1.8.9 0 5.6-2.8 5.6-4.3 0-5.8-7.6-1-12.4 5.2-5.2 7.6-2.4 14.4-2.4C37 12.7 33 8.7 30.5 11.5 30.2 5 38.8 6 37.6 12.9Z" fill="#e4c137" id="L"/>
  <use transform="scale(-1 1)" xlink:href="#L"/>
  </g>
  
  <g transform="rotate(14.051132-342.00671 6185.7686)scale(5.7133776)" id="Scootaloo">
  <path fill="#f6b8d2" d="M0 18.6-5 13.8-5.7-13.7H5.7L5 13.8Z"/>
  <path fill="#bf5d93" d="m-12.4-12c2.2 3.7 0 4.7-4.3 3.1-.2 12.3 0 14.2 11.7 22.7v-27.4z"/>
  <path fill="#f5415f" d="m12.4-12c-2.2 3.7 0 4.7 4.3 3.1.2 12.3 0 14.2-11.7 22.7v-27.4z"/>
  <path fill="none" stroke="#ab3266" d="M0 18.6C-3.7 12.7-16.7 9.7-16.7-3v-5.9c4.3 1.6 6.5.6 4.3-3.1 7.4-2.5 17.4-2.5 24.8 0-2.2 3.7 0 4.7 4.3 3.1V-3C16.7 9.7 3.7 12.7 0 18.6Z"/>
  <path fill="#a02699" d="m-2.3-3.4c-7.4-3.3-9-.4 0 4C-7.7-1-7 2.6-1.9 3.5-3.4 5.1-.3 6.9 6.7 8.8.3 2 7 1.2 7-1.8 7-6.3-7.9-13-9.3-11.6c-.8.8 1.3 4 7 8.2z"/>
  <path fill="#fd41f8" d="m-4.3-2.3 4.9-.5-5.2-6 10.3 7.1-5.1 1.9 2.9 5.1z"/>
  </g>
  
  <g transform="rotate(8.4170911-4464.1789 9668.8451)scale(6.184106)" id="Starlight">
  <path d="m-9.3 17.4 5.5-3.9 5.5 3.9-3.5-6.6 3.5-6.6-5.5 3.9-5.5-3.9 3.5 6.6z" fill="ivory"/>
  <path d="m-3.8.8c.6 6.5 2.5 9 5.7 10-3.2 1-5.1 3.5-5.7 10-.6-6.5-2.5-9-5.7-10 3.2-1 5.1-3.5 5.7-10z" fill="#b765b8"/>
  <path d="m1.7-6.3c-3.3 5.2 6.4 4.5 6.4 10.9 0 2.1-1.8 4.6-6.8 4.7 11-6.2-9.8-9.2.4-15.6zm-5.8 4.6c-3.1-1.6-4.6-3.8-4.6-6 0-9.8 18.9-1.7 13.9-13.1 13.6 12.8-16.2 9.6-9.3 19.1z" fill="#9be9d8"/>
  <path d="M1.7-6.3C-10.8 0 9.6 2.5 1.3 9.3 7.8 7.6 6.1 3.2 3.2 1S-2-3.3 1.7-6.3Zm-5.8 4.6c-4.1-8.2 13.6-2.8 13.6-12.4 0-2.3-1.4-4.7-4.3-6.7 4.1 4.3 4.3 8.8-4.4 10.1s-8.2 5.5-4.9 9z" fill="#08bab7"/>
  </g>
  
  <g transform="rotate(30.835115 106.81098 3269.1432)scale(2.307584)" id="Lily">
  <g id="F">
    <path d="m-2.2 10.4c-3.9 2.1-12-3.1-18.6 6.5-3.4-7.2 1-15.5 10.2-16.2-1.2-5.7-5.5-7.2-11.7-6 4.9-7.6 13.4-8.6 19.7-3.2 2.5-6.6 8.7-10 16.6-9.4-3.9 4.6-4.6 9-2.6 14.1C19.1-5 23.9-.9 23.9 8.4 19 7 13.4 7.8 8.8 7.9 12.9 12.3 12.6 18.2 10.3 22.6 7.5 18.9-1 18.9-2.2 10.4Z" fill="#fff"/>
    <path d="m-2.3 10c-5.8 1.6-11.5-2.2-18.1 5.3-2.6-10.8 7-16.2 15.7-13.7-9.8-5.4-23.7 5.3-16 17.2 5.7-11.2 13.1-6 18.5-7.9zM-4.4 3.6c-4.2-1-8.7 0-11.4 2.7 3.2-1.6 7.4-2.7 11.4-2.7zm-5.1-3c-.9-5.1-5-7.7-11.1-6.7 4.4-7 13.8-6.2 17.6-1l.8-2.5c-6.8-5.6-17.9-3.4-22 5.8 7.1-2.4 11.6-.9 12.6 4.6zm21.8-4.5c-2.2-5.6-1.1-10.2 3.2-14.5-8.9-2.3-21 5.1-18.7 15.5-.1-10.9 9.7-15.1 16-14.5-3.5 4.1-4.2 7.8-2.3 13.8zM9.1 8.4C14.6 8.5 20.2 7.5 24.7 9.5 25.3-3.9 17.5-6.8 7.7-2.9 17.4-5.2 22.3-1.6 23.1 7.4 18.7 6.4 13.2 7.3 8 7.2ZM2.6 3.7C9.6 7.5 13 14.3 10 20.9 6.4 18.1-1.8 17.6-2.5 5.4-4.8 21.5 7.3 17.8 10.4 24.5 15.5 14.7 12.5 7.2 2.6 3.7ZM2.4 6.2c4 1.7 6.1 5.6 5.5 10.7C7.3 12.1 5.3 8.6 2.4 6.2Z" fill="#c3dbe3"/>
    <path d="m-1.3 2.3c-.7-5.4-4.1-8.1-9.1-9.4 4.1.2 7.3 1.4 9.2 4.8.8-5.4 2.5-8.9 6.6-11.5C2.4-10.3 1-7.4.2-2 4.3-8.5 8.3-10.6 17-10.6 9.4-9.3 4.2-7 1-.4 5.7-2.4 10.8-1.9 14.8 1 8.8-1.2 3.2-.8-1.3 2.3Z" fill="#f9d540"/>
    <circle cx="5.5" cy="-10" r=".6" fill="#f49937" id="A"/>
    <use xlink:href="#A" transform="rotate(18 13.8 13.3)scale(2.7 1)"/>
    <use xlink:href="#A" transform="translate(2.4-4.5)"/>
    <use xlink:href="#A" transform="translate(10.7-3.7)"/>
    <use xlink:href="#A" transform="translate(11.4 2.4)"/>
    <use xlink:href="#A" transform="translate(8.2 2.5)"/>
    <use xlink:href="#A" transform="translate(2.4 12.5)"/>
    <use xlink:href="#A" transform="translate(6.8 12.7)"/>
  </g>
  <use xlink:href="#F" transform="matrix(.41-.86 1.2.36-15 42.1)"/>
  <use xlink:href="#F" transform="matrix(.9-.44.63.81 35.4 27.2)"/>
  </g>
  
  <g transform="rotate(347.62886 3144.6593-6338.3705)scale(70.598416)" id="Parcly">
  <use xlink:href="#Y" fill="#54a2e1"/>
  <use xlink:href="#Y" fill="#5a318e" transform="scale(-1)"/>
  <path fill="none" stroke="#576ab7" d="M-10.18 4.52-9-6.55 1.17-11.07 10.18-4.52 9 6.55-1.17 11.07Z"/>
  </g>
  <path d="M 1637.7074,307.26301 1224.2362,745.83187 M 1344.4334,237.86654 1517.5102,815.2283 M 1137.6977,457.15103 1724.2458,595.94384" fill="none" stroke="#fff" stroke-width="4"/>
</svg>
