<?xml version="1.0" encoding="UTF-8" standalone="no"?>
<!-- Created with Inkscape (http://www.inkscape.org/) -->

<svg
   xmlns:dc="http://purl.org/dc/elements/1.1/"
   xmlns:cc="http://creativecommons.org/ns#"
   xmlns:rdf="http://www.w3.org/1999/02/22-rdf-syntax-ns#"
   xmlns:svg="http://www.w3.org/2000/svg"
   xmlns="http://www.w3.org/2000/svg"
   xmlns:xlink="http://www.w3.org/1999/xlink"
   xmlns:sodipodi="http://sodipodi.sourceforge.net/DTD/sodipodi-0.dtd"
   xmlns:inkscape="http://www.inkscape.org/namespaces/inkscape"
   id="svg2985"
   version="1.1"
   inkscape:version="0.48.3.1 r9886"
   width="1920"
   height="1080"
   sodipodi:docname="177 (Lutetium).svg"
   inkscape:export-filename="/home/parclytaxel/Pictures/177 (Lutetium).png"
   inkscape:export-xdpi="843.1839"
   inkscape:export-ydpi="843.1839">
  <metadata
     id="metadata2991">
    <rdf:RDF>
      <cc:Work
         rdf:about="">
        <dc:format>image/svg+xml</dc:format>
        <dc:type
           rdf:resource="http://purl.org/dc/dcmitype/StillImage" />
        <dc:title></dc:title>
      </cc:Work>
    </rdf:RDF>
  </metadata>
  <defs
     id="defs2989">
    <linearGradient
       inkscape:collect="always"
       id="linearGradient3858">
      <stop
         style="stop-color:#007a96;stop-opacity:1"
         offset="0"
         id="stop3860" />
      <stop
         style="stop-color:#00d2b5;stop-opacity:1"
         offset="1"
         id="stop3862" />
    </linearGradient>
    <linearGradient
       inkscape:collect="always"
       xlink:href="#linearGradient3858"
       id="linearGradient3864"
       x1="863.63177"
       y1="400.74731"
       x2="863.07642"
       y2="432.89703"
       gradientUnits="userSpaceOnUse" />
    <clipPath
       clipPathUnits="userSpaceOnUse"
       id="clipPath3872">
      <path
         inkscape:export-ydpi="3069.8125"
         inkscape:export-xdpi="3069.8125"
         inkscape:export-filename="C:\Users\tan jierui\Pictures\And All This for One Eye.png"
         sodipodi:type="arc"
         style="fill:none;stroke:#000000"
         id="path3874"
         sodipodi:cx="863.70459"
         sodipodi:cy="415.10764"
         sodipodi:rx="12.770109"
         sodipodi:ry="25.110636"
         d="m 876.4747,415.10764 a 12.770109,25.110636 0 1 1 -25.54022,0 12.770109,25.110636 0 1 1 25.54022,0 z"
         transform="matrix(0.97973676,-0.20028943,0.20028943,0.97973676,-71.65916,177.86138)" />
    </clipPath>
    <clipPath
       clipPathUnits="userSpaceOnUse"
       id="clipPath3887">
      <path
         inkscape:export-ydpi="3069.8125"
         inkscape:export-xdpi="3069.8125"
         inkscape:export-filename="C:\Users\tan jierui\Pictures\And All This for One Eye.png"
         sodipodi:nodetypes="cccc"
         inkscape:connector-curvature="0"
         id="path3889"
         d="m 794.46326,386.32978 c 8.32843,31.0681 23.08247,45.35503 74.94174,42.43222 1.792,-22.82343 -6.87808,-33.13507 -15.75568,-40.51459 z"
         style="fill:none;stroke:#ffff00;stroke-width:0.1;stroke-linecap:butt;stroke-linejoin:miter;stroke-miterlimit:4;stroke-opacity:1;stroke-dasharray:none" />
    </clipPath>
    <clipPath
       clipPathUnits="userSpaceOnUse"
       id="clipPath4647">
      <path
         style="font-size:medium;font-style:normal;font-variant:normal;font-weight:normal;font-stretch:normal;text-indent:0;text-align:start;text-decoration:none;line-height:normal;letter-spacing:normal;word-spacing:normal;text-transform:none;direction:ltr;block-progression:tb;writing-mode:lr-tb;text-anchor:start;baseline-shift:baseline;color:#000000;fill:none;stroke:#ffffff;stroke-width:0.1;stroke-miterlimit:4;stroke-dasharray:none;marker:none;visibility:visible;display:inline;overflow:visible;enable-background:accumulate;font-family:Sans;-inkscape-font-specification:Sans"
         d="m 853.43857,547.10261 c -0.3271,-0.88776 -0.66111,-1.7761 -1.00107,-2.66511 -3.71259,-9.70859 -8.1299,-19.52407 -12.15837,-29.58662 L 885.75,511.25 892,626.5 748,623 l -5,-105 57.75,-9.75 43.0625,42.59375 z"
         id="path4649"
         inkscape:connector-curvature="0"
         sodipodi:nodetypes="csc" />
    </clipPath>
  </defs>
  <sodipodi:namedview
     pagecolor="#ffffff"
     bordercolor="#666666"
     borderopacity="1"
     objecttolerance="10"
     gridtolerance="10"
     guidetolerance="10"
     inkscape:pageopacity="0"
     inkscape:pageshadow="2"
     inkscape:window-width="1364"
     inkscape:window-height="698"
     id="namedview2987"
     showgrid="false"
     fit-margin-top="0"
     fit-margin-left="0"
     fit-margin-right="0"
     fit-margin-bottom="0"
     inkscape:zoom="0.49444444"
     inkscape:cx="960"
     inkscape:cy="540"
     inkscape:window-x="0"
     inkscape:window-y="0"
     inkscape:window-maximized="1"
     inkscape:current-layer="layer2"
     showguides="false" />
  <g
     inkscape:groupmode="layer"
     id="layer2"
     inkscape:label="Drawing"
     style="display:inline">
    <g
       id="g5258">
      <path
         transform="translate(-14.206097,-12.994017)"
         d="m 955.7047,857.71814 a 223.3557,38.657715 0 1 1 -446.7114,0 223.3557,38.657715 0 1 1 446.7114,0 z"
         sodipodi:ry="38.657715"
         sodipodi:rx="223.3557"
         sodipodi:cy="857.71814"
         sodipodi:cx="732.349"
         id="path4866"
         style="fill:#a9b7bc;fill-opacity:1;stroke:none"
         sodipodi:type="arc" />
      <g
         id="g4840">
        <path
           style="fill:#4641d1;fill-opacity:0.50196078;stroke:#885de4;stroke-width:4.5;stroke-linecap:butt;stroke-linejoin:miter;stroke-miterlimit:4;stroke-opacity:1;stroke-dasharray:none"
           d="M 641.07382,577.44967 C 616.37584,486.71141 449.17585,457.70571 412.8859,478.65772 311.54247,537.16838 407.28342,568.46191 400,595.16778 c -7.81827,28.66702 -66.55888,6.16871 -80.53691,42.95302 -7.54493,19.85508 15.99803,30.64277 8.5906,51.54363 -6.68917,18.87421 -56.01357,18.77562 -57.21869,48.12045 -0.44447,10.82293 5.65659,25.65095 22.85628,46.9131 -2.35694,-64.01863 67.32373,-37.58389 119.19462,-37.58389 72.66377,0 81.88299,-67.11697 115.97316,-94.49664 5.17333,-4.15498 24.28268,-7.7735 30.06712,-16.6443 14.67751,-22.50886 -1.64196,-80.98267 73.55704,-45.10067 z"
           id="path4790"
           inkscape:connector-curvature="0"
           sodipodi:nodetypes="cssssscssscc" />
        <path
           sodipodi:nodetypes="csssssscc"
           inkscape:connector-curvature="0"
           id="path4792"
           d="M 636.87768,581.76318 C 574.68712,480.07252 441.49684,481.31047 417.50842,512.94103 c -34.64378,45.68048 15.12725,53.71809 -1.41088,88.70828 -20.53894,43.45479 -84.49739,5.06022 -68.54959,56.44149 20.83008,67.11124 -41.17034,27.7665 -31.09521,65.36738 4.34988,16.23395 122.13347,28.9288 154.27677,-27.48328 46.8218,-82.17312 55.43235,-66.44285 65.43663,-80.20743 29.14621,-40.10135 19.20994,-72.36065 96.37051,-27.70862 z"
           style="fill:#1558ce;fill-opacity:1;stroke:none" />
        <path
           sodipodi:type="star"
           style="fill:#ffffff;fill-opacity:1;fill-rule:evenodd;stroke:none"
           id="path4796"
           sodipodi:sides="4"
           sodipodi:cx="476.08694"
           sodipodi:cy="665.41711"
           sodipodi:r1="4.8322148"
           sodipodi:r2="0.24161074"
           sodipodi:arg1="0.78539816"
           sodipodi:arg2="1.5707963"
           inkscape:flatsided="false"
           inkscape:rounded="0"
           inkscape:randomized="0"
           d="m 479.50384,668.83401 -3.4169,-3.17529 -3.41689,3.17529 3.17528,-3.4169 -3.17528,-3.41689 3.41689,3.17528 3.4169,-3.17528 -3.17528,3.41689 z" />
        <path
           sodipodi:type="star"
           style="fill:#ffffff;fill-opacity:1;fill-rule:evenodd;stroke:none"
           id="path4798"
           sodipodi:sides="4"
           sodipodi:cx="452.54834"
           sodipodi:cy="673.76953"
           sodipodi:r1="4.8619518"
           sodipodi:r2="0.24309757"
           sodipodi:arg1="0.78539816"
           sodipodi:arg2="1.5707963"
           inkscape:flatsided="false"
           inkscape:rounded="0"
           inkscape:randomized="0"
           d="m 455.98626,677.20745 -3.43792,-3.19482 -3.43792,3.19482 3.19482,-3.43792 -3.19482,-3.43792 3.43792,3.19482 3.43792,-3.19482 -3.19482,3.43792 z" />
        <path
           sodipodi:type="star"
           style="fill:#ffffff;fill-opacity:1;fill-rule:evenodd;stroke:none"
           id="path4800"
           sodipodi:sides="4"
           sodipodi:cx="424.83356"
           sodipodi:cy="566.32727"
           sodipodi:r1="5.6439719"
           sodipodi:r2="0.28219858"
           sodipodi:arg1="0.78539816"
           sodipodi:arg2="1.5707963"
           inkscape:flatsided="false"
           inkscape:rounded="0"
           inkscape:randomized="0"
           d="m 428.82445,570.31816 -3.99089,-3.70869 -3.99089,3.70869 3.70869,-3.99089 -3.70869,-3.99089 3.99089,3.70869 3.99089,-3.70869 -3.70869,3.99089 z"
           transform="translate(0.7593093,1.1389639)" />
        <path
           sodipodi:type="star"
           style="fill:#ffffff;fill-opacity:1;fill-rule:evenodd;stroke:none"
           id="path4802"
           sodipodi:sides="4"
           sodipodi:cx="452.1687"
           sodipodi:cy="624.03479"
           sodipodi:r1="4.0357842"
           sodipodi:r2="0.2017892"
           sodipodi:arg1="0.78539816"
           sodipodi:arg2="1.5707963"
           inkscape:flatsided="false"
           inkscape:rounded="0"
           inkscape:randomized="0"
           d="m 455.02243,626.88852 -2.85373,-2.65194 -2.85373,2.65194 2.65194,-2.85373 -2.65194,-2.85373 2.85373,2.65194 2.85373,-2.65194 -2.65194,2.85373 z" />
        <path
           sodipodi:type="star"
           style="fill:#ffffff;fill-opacity:1;fill-rule:evenodd;stroke:none"
           id="path4804"
           sodipodi:sides="4"
           sodipodi:cx="461.66006"
           sodipodi:cy="542.409"
           sodipodi:r1="5.7074609"
           sodipodi:r2="0.28537303"
           sodipodi:arg1="1.5707963"
           sodipodi:arg2="2.3561945"
           inkscape:flatsided="false"
           inkscape:rounded="0"
           inkscape:randomized="0"
           d="m 461.66006,548.11646 -0.20178,-5.50567 -5.50568,-0.20179 5.50568,-0.20179 0.20178,-5.50567 0.20179,5.50567 5.50568,0.20179 -5.50568,0.20179 z" />
        <path
           sodipodi:type="star"
           style="fill:#ffffff;fill-opacity:1;fill-rule:evenodd;stroke:none"
           id="path4806"
           sodipodi:sides="4"
           sodipodi:cx="444.57559"
           sodipodi:cy="540.51074"
           sodipodi:r1="3.7583892"
           sodipodi:r2="0.18791945"
           sodipodi:arg1="0.78539816"
           sodipodi:arg2="1.5707963"
           inkscape:flatsided="false"
           inkscape:rounded="0"
           inkscape:randomized="0"
           d="m 447.23317,543.16832 -2.65758,-2.46966 -2.65758,2.46966 2.46966,-2.65758 -2.46966,-2.65758 2.65758,2.46966 2.65758,-2.46966 -2.46966,2.65758 z" />
        <path
           sodipodi:type="star"
           style="fill:#ffffff;fill-opacity:1;fill-rule:evenodd;stroke:none"
           id="path4808"
           sodipodi:sides="4"
           sodipodi:cx="481.02243"
           sodipodi:cy="589.86584"
           sodipodi:r1="3.0608735"
           sodipodi:r2="0.15304367"
           sodipodi:arg1="1.5707963"
           sodipodi:arg2="2.3561945"
           inkscape:flatsided="false"
           inkscape:rounded="0"
           inkscape:randomized="0"
           d="m 481.02243,592.92672 -0.10822,-2.95266 -2.95265,-0.10822 2.95265,-0.10821 0.10822,-2.95266 0.10822,2.95266 2.95265,0.10821 -2.95265,0.10822 z" />
        <path
           sodipodi:type="star"
           style="fill:#ffffff;fill-opacity:1;fill-rule:evenodd;stroke:none"
           id="path4810"
           sodipodi:sides="4"
           sodipodi:cx="476.08694"
           sodipodi:cy="579.99481"
           sodipodi:r1="3.0608735"
           sodipodi:r2="0.15304367"
           sodipodi:arg1="1.5707963"
           sodipodi:arg2="2.3561945"
           inkscape:flatsided="false"
           inkscape:rounded="0"
           inkscape:randomized="0"
           d="m 476.08694,583.05569 -0.10821,-2.95266 -2.95266,-0.10822 2.95266,-0.10822 0.10821,-2.95265 0.10822,2.95265 2.95266,0.10822 -2.95266,0.10822 z" />
        <path
           sodipodi:type="star"
           style="fill:#ffffff;fill-opacity:1;fill-rule:evenodd;stroke:none"
           id="path4812"
           sodipodi:sides="4"
           sodipodi:cx="424.83356"
           sodipodi:cy="616.44165"
           sodipodi:r1="3.5002429"
           sodipodi:r2="0.17501213"
           sodipodi:arg1="0.78539816"
           sodipodi:arg2="1.5707963"
           inkscape:flatsided="false"
           inkscape:rounded="0"
           inkscape:randomized="0"
           d="m 427.3086,618.9167 -2.47504,-2.30004 -2.47505,2.30004 2.30004,-2.47505 -2.30004,-2.47505 2.47505,2.30004 2.47504,-2.30004 -2.30003,2.47505 z" />
        <path
           sodipodi:type="star"
           style="fill:#ffffff;fill-opacity:1;fill-rule:evenodd;stroke:none"
           id="path4814"
           sodipodi:sides="4"
           sodipodi:cx="414.20322"
           sodipodi:cy="673.76953"
           sodipodi:r1="4.5716472"
           sodipodi:r2="0.22858235"
           sodipodi:arg1="1.5707963"
           sodipodi:arg2="2.3561945"
           inkscape:flatsided="false"
           inkscape:rounded="0"
           inkscape:randomized="0"
           d="m 414.20322,678.34118 -0.16164,-4.41002 -4.41001,-0.16163 4.41001,-0.16163 0.16164,-4.41002 0.16163,4.41002 4.41001,0.16163 -4.41001,0.16163 z" />
        <path
           sodipodi:type="star"
           style="fill:#ffffff;fill-opacity:1;fill-rule:evenodd;stroke:none"
           id="path4816"
           sodipodi:sides="4"
           sodipodi:cx="429.76907"
           sodipodi:cy="721.98566"
           sodipodi:r1="4.5716472"
           sodipodi:r2="0.22858235"
           sodipodi:arg1="0.78539816"
           sodipodi:arg2="1.5707963"
           inkscape:flatsided="false"
           inkscape:rounded="0"
           inkscape:randomized="0"
           d="m 433.00172,725.2183 -3.23265,-3.00406 -3.23264,3.00406 3.00406,-3.23264 -3.00406,-3.23265 3.23264,3.00406 3.23265,-3.00406 -3.00406,3.23265 z" />
        <path
           sodipodi:type="star"
           style="fill:#ffffff;fill-opacity:1;fill-rule:evenodd;stroke:none"
           id="path4818"
           sodipodi:sides="4"
           sodipodi:cx="405.47116"
           sodipodi:cy="725.40259"
           sodipodi:r1="3.0372372"
           sodipodi:r2="0.15186185"
           sodipodi:arg1="1.5707963"
           sodipodi:arg2="2.3561945"
           inkscape:flatsided="false"
           inkscape:rounded="0"
           inkscape:randomized="0"
           d="m 405.47116,728.43983 -0.10738,-2.92986 -2.92986,-0.10738 2.92986,-0.10738 0.10738,-2.92986 0.10738,2.92986 2.92986,0.10738 -2.92986,0.10738 z" />
        <path
           sodipodi:type="star"
           style="fill:#ffffff;fill-opacity:1;fill-rule:evenodd;stroke:none"
           id="path4820"
           sodipodi:sides="4"
           sodipodi:cx="380.0343"
           sodipodi:cy="726.5415"
           sodipodi:r1="3.2214766"
           sodipodi:r2="0.16107382"
           sodipodi:arg1="0.78539816"
           sodipodi:arg2="1.5707963"
           inkscape:flatsided="false"
           inkscape:rounded="0"
           inkscape:randomized="0"
           d="m 382.31223,728.81943 -2.27793,-2.11685 -2.27793,2.11685 2.11686,-2.27793 -2.11686,-2.27792 2.27793,2.11685 2.27793,-2.11685 -2.11685,2.27792 z" />
        <path
           sodipodi:type="star"
           style="fill:#ffffff;fill-opacity:1;fill-rule:evenodd;stroke:none"
           id="path4822"
           sodipodi:sides="4"
           sodipodi:cx="422.93527"
           sodipodi:cy="696.92847"
           sodipodi:r1="4.5558558"
           sodipodi:r2="0.22779278"
           sodipodi:arg1="1.5707963"
           sodipodi:arg2="2.3561945"
           inkscape:flatsided="false"
           inkscape:rounded="0"
           inkscape:randomized="0"
           d="m 422.93527,701.48432 -0.16107,-4.39478 -4.39478,-0.16107 4.39478,-0.16108 0.16107,-4.39478 0.16108,4.39478 4.39478,0.16108 -4.39478,0.16107 z" />
        <path
           sodipodi:type="star"
           style="fill:#ffffff;fill-opacity:1;fill-rule:evenodd;stroke:none"
           id="path4824"
           sodipodi:sides="4"
           sodipodi:cx="439.64008"
           sodipodi:cy="695.03021"
           sodipodi:r1="4.0357842"
           sodipodi:r2="0.2017892"
           sodipodi:arg1="0.78539816"
           sodipodi:arg2="1.5707963"
           inkscape:flatsided="false"
           inkscape:rounded="0"
           inkscape:randomized="0"
           d="m 442.49381,697.88394 -2.85373,-2.65194 -2.85373,2.65194 2.65194,-2.85373 -2.65194,-2.85373 2.85373,2.65194 2.85373,-2.65194 -2.65195,2.85373 z" />
        <path
           sodipodi:type="star"
           style="fill:#ffffff;fill-opacity:1;fill-rule:evenodd;stroke:none"
           id="path4826"
           sodipodi:sides="4"
           sodipodi:cx="395.22049"
           sodipodi:cy="677.56604"
           sodipodi:r1="3.4168918"
           sodipodi:r2="0.17084458"
           sodipodi:arg1="1.5707963"
           sodipodi:arg2="2.3561945"
           inkscape:flatsided="false"
           inkscape:rounded="0"
           inkscape:randomized="0"
           d="m 395.22049,680.98293 -0.12081,-3.29608 -3.29608,-0.12081 3.29608,-0.12081 0.12081,-3.29608 0.1208,3.29608 3.29609,0.12081 -3.29609,0.12081 z" />
        <path
           sodipodi:type="star"
           style="fill:#ffffff;fill-opacity:1;fill-rule:evenodd;stroke:none"
           id="path4828"
           sodipodi:sides="4"
           sodipodi:cx="445.3349"
           sodipodi:cy="657.0647"
           sodipodi:r1="2.4309759"
           sodipodi:r2="0.12154879"
           sodipodi:arg1="0.78539816"
           sodipodi:arg2="1.5707963"
           inkscape:flatsided="false"
           inkscape:rounded="0"
           inkscape:randomized="0"
           d="m 447.05386,658.78366 -1.71896,-1.59741 -1.71896,1.59741 1.59741,-1.71896 -1.59741,-1.71896 1.71896,1.59741 1.71896,-1.59741 -1.59741,1.71896 z" />
        <path
           sodipodi:type="star"
           style="fill:#ffffff;fill-opacity:1;fill-rule:evenodd;stroke:none"
           id="path4830"
           sodipodi:sides="4"
           sodipodi:cx="404.33221"
           sodipodi:cy="651.74957"
           sodipodi:r1="2.6575825"
           sodipodi:r2="0.13287912"
           sodipodi:arg1="1.5707963"
           sodipodi:arg2="2.3561945"
           inkscape:flatsided="false"
           inkscape:rounded="0"
           inkscape:randomized="0"
           d="m 404.33221,654.40716 -0.094,-2.56363 -2.56362,-0.094 2.56362,-0.094 0.094,-2.56362 0.094,2.56362 2.56363,0.094 -2.56363,0.094 z" />
        <path
           sodipodi:type="star"
           style="fill:#ffffff;fill-opacity:1;fill-rule:evenodd;stroke:none"
           id="path4832"
           sodipodi:sides="4"
           sodipodi:cx="550.49927"
           sodipodi:cy="506.34183"
           sodipodi:r1="4.1762009"
           sodipodi:r2="0.20881005"
           sodipodi:arg1="0"
           sodipodi:arg2="0.78539816"
           inkscape:flatsided="false"
           inkscape:rounded="0"
           inkscape:randomized="0"
           d="m 554.67547,506.34183 -4.02855,0.14765 -0.14765,4.02855 -0.14765,-4.02855 -4.02855,-0.14765 4.02855,-0.14765 0.14765,-4.02855 0.14765,4.02855 z" />
        <path
           sodipodi:type="star"
           style="fill:#ffffff;fill-opacity:1;fill-rule:evenodd;stroke:none"
           id="path4834"
           sodipodi:sides="4"
           sodipodi:cx="560.74994"
           sodipodi:cy="531.01941"
           sodipodi:r1="2.9651976"
           sodipodi:r2="0.14825988"
           sodipodi:arg1="0.78539816"
           sodipodi:arg2="1.5707963"
           inkscape:flatsided="false"
           inkscape:rounded="0"
           inkscape:randomized="0"
           d="m 562.84665,533.11612 -2.09671,-1.94845 -2.09671,1.94845 1.94845,-2.09671 -1.94845,-2.09671 2.09671,1.94845 2.09671,-1.94845 -1.94845,2.09671 z" />
        <path
           sodipodi:type="star"
           style="fill:#ffffff;fill-opacity:1;fill-rule:evenodd;stroke:none"
           id="path4836"
           sodipodi:sides="4"
           sodipodi:cx="418.75909"
           sodipodi:cy="562.5307"
           sodipodi:r1="2.6845639"
           sodipodi:r2="0.13422818"
           sodipodi:arg1="0.78539816"
           sodipodi:arg2="1.5707963"
           inkscape:flatsided="false"
           inkscape:rounded="0"
           inkscape:randomized="0"
           d="m 420.65737,564.42897 -1.89828,-1.76404 -1.89827,1.76404 1.76405,-1.89827 -1.76405,-1.89827 1.89827,1.76404 1.89828,-1.76404 -1.76405,1.89827 z" />
        <path
           sodipodi:type="star"
           style="fill:#ffffff;fill-opacity:1;fill-rule:evenodd;stroke:none"
           id="path4838"
           sodipodi:sides="4"
           sodipodi:cx="490.89346"
           sodipodi:cy="613.78412"
           sodipodi:r1="2.2779279"
           sodipodi:r2="0.11389639"
           sodipodi:arg1="1.5707963"
           sodipodi:arg2="2.3561945"
           inkscape:flatsided="false"
           inkscape:rounded="0"
           inkscape:randomized="0"
           d="m 490.89346,616.06205 -0.0805,-2.19739 -2.19739,-0.0805 2.19739,-0.0805 0.0805,-2.19739 0.0805,2.19739 2.19739,0.0805 -2.19739,0.0805 z" />
      </g>
      <g
         id="g4758">
        <path
           style="fill:#4641d1;fill-opacity:0.50196078;stroke:#885de4;stroke-width:4.5;stroke-linecap:butt;stroke-linejoin:miter;stroke-miterlimit:20;stroke-opacity:1;stroke-dasharray:none"
           d="m 998.65772,442.14765 c 6.22288,33.39186 82.19098,29.39384 85.90598,69.26174 4.6516,49.91899 -40.6308,52.36957 -44.5637,85.90605 -2.911,24.82255 44.0984,26.38769 47.7852,56.91275 5.1692,42.79936 -36.6976,53.80673 -9.6644,78.92617 22.7527,21.14194 44.0808,9.40459 48.859,-31.14094 11.1743,24.42695 4.0183,91.81209 -54.765,91.81209 -56.9128,0 -96.3052,-42.38883 -113.28862,-105.77182 C 939.68069,616.22855 808.5906,587.651 808.5906,587.651 L 768.85906,317.5839 c 29.87988,-43.38556 68.48357,-56.53426 157.85235,-22.55034 152.02319,57.80928 63.1614,99.9746 71.94631,147.11409 z"
           id="path4672"
           inkscape:connector-curvature="0"
           sodipodi:nodetypes="ssssscssccss" />
        <path
           sodipodi:nodetypes="sssssssccsss"
           inkscape:connector-curvature="0"
           id="path4674"
           d="m 957.87233,450.4302 c 0,46.09168 85.52607,35.9402 85.52607,71.63917 0,41.75014 -24.4949,48.79515 -23.526,79.07207 1.3229,41.33688 47.8848,23.61604 47.8848,57.2638 0,38.65033 -12.584,27.84682 -12.584,63.41533 0,34.4831 18.3531,60.14125 -6.9426,60.14125 -36.193,0 -68.39209,-61.45647 -70.4175,-98.32159 -2.95378,-53.7627 -99.59546,-111.0438 -173.30434,-116.28078 L 767.12167,352.02494 c 5.91268,-8.5852 6.08248,-28.96482 18.77372,-43.07867 45.40518,-50.49484 193.96684,-3.93843 193.96684,59.92704 0,46.42381 -21.9899,36.90747 -21.9899,81.55689 z"
           style="fill:#1558ce;fill-opacity:1;stroke:none" />
        <path
           sodipodi:type="star"
           style="fill:#ffffff;fill-opacity:1;fill-rule:evenodd;stroke:none"
           id="path4692"
           sodipodi:sides="4"
           sodipodi:cx="935.83893"
           sodipodi:cy="608.05371"
           sodipodi:r1="5.3287067"
           sodipodi:r2="0.26643533"
           sodipodi:arg1="0.78539816"
           sodipodi:arg2="1.5707963"
           inkscape:flatsided="false"
           inkscape:rounded="0"
           inkscape:randomized="0"
           d="m 939.60689,611.82168 -3.76796,-3.50153 -3.76797,3.50153 3.50153,-3.76797 -3.50153,-3.76796 3.76797,3.50153 3.76796,-3.50153 -3.50153,3.76796 z" />
        <path
           sodipodi:type="star"
           style="fill:#ffffff;fill-opacity:1;fill-rule:evenodd;stroke:none"
           id="path4694"
           sodipodi:sides="4"
           sodipodi:cx="910.06714"
           sodipodi:cy="592.48322"
           sodipodi:r1="3.990891"
           sodipodi:r2="0.19954453"
           sodipodi:arg1="0.78539816"
           sodipodi:arg2="1.5707963"
           inkscape:flatsided="false"
           inkscape:rounded="0"
           inkscape:randomized="0"
           d="m 912.88912,595.3052 -2.82198,-2.62244 -2.82199,2.62244 2.62244,-2.82198 -2.62244,-2.82199 2.82199,2.62244 2.82198,-2.62244 -2.62244,2.82199 z" />
        <path
           sodipodi:type="star"
           style="fill:#ffffff;fill-opacity:1;fill-rule:evenodd;stroke:none"
           id="path4696"
           sodipodi:sides="4"
           sodipodi:cx="944.16107"
           sodipodi:cy="546.04028"
           sodipodi:r1="3.990891"
           sodipodi:r2="0.19954453"
           sodipodi:arg1="0.78539816"
           sodipodi:arg2="1.5707963"
           inkscape:flatsided="false"
           inkscape:rounded="0"
           inkscape:randomized="0"
           d="m 946.98306,548.86227 -2.82199,-2.62244 -2.82198,2.62244 2.62244,-2.82199 -2.62244,-2.82198 2.82198,2.62244 2.82199,-2.62244 -2.62244,2.82198 z" />
        <path
           sodipodi:type="star"
           style="fill:#ffffff;fill-opacity:1;fill-rule:evenodd;stroke:none"
           id="path4698"
           sodipodi:sides="4"
           sodipodi:cx="979.59729"
           sodipodi:cy="617.18121"
           sodipodi:r1="4.3701534"
           sodipodi:r2="0.21850765"
           sodipodi:arg1="0.78539816"
           sodipodi:arg2="1.5707963"
           inkscape:flatsided="false"
           inkscape:rounded="0"
           inkscape:randomized="0"
           d="m 982.68746,620.27138 -3.09017,-2.87166 -3.09017,2.87166 2.87166,-3.09017 -2.87166,-3.09016 3.09017,2.87166 3.09017,-2.87166 -2.87166,3.09016 z" />
        <path
           sodipodi:type="star"
           style="fill:#ffffff;fill-opacity:1;fill-rule:evenodd;stroke:none"
           id="path4700"
           sodipodi:sides="4"
           sodipodi:cx="1001.3423"
           sodipodi:cy="625.23492"
           sodipodi:r1="3.990891"
           sodipodi:r2="0.19954453"
           sodipodi:arg1="0.78539816"
           sodipodi:arg2="1.5707963"
           inkscape:flatsided="false"
           inkscape:rounded="0"
           inkscape:randomized="0"
           d="m 1004.1643,628.05691 -2.822,-2.62244 -2.822,2.62244 2.6224,-2.82199 -2.6224,-2.82198 2.822,2.62244 2.822,-2.62244 -2.6225,2.82198 z" />
        <path
           sodipodi:type="star"
           style="fill:#ffffff;fill-opacity:1;fill-rule:evenodd;stroke:none"
           id="path4704"
           sodipodi:sides="4"
           sodipodi:cx="944.96643"
           sodipodi:cy="637.85236"
           sodipodi:r1="4.0357842"
           sodipodi:r2="0.20178922"
           sodipodi:arg1="0"
           sodipodi:arg2="0.78539816"
           inkscape:flatsided="false"
           inkscape:rounded="0"
           inkscape:randomized="0"
           d="m 949.00221,637.85236 -3.89309,0.14268 -0.14269,3.8931 -0.14269,-3.8931 -3.89309,-0.14268 3.89309,-0.14269 0.14269,-3.8931 0.14269,3.8931 z" />
        <path
           sodipodi:type="star"
           style="fill:#ffffff;fill-opacity:1;fill-rule:evenodd;stroke:none"
           id="path4706"
           sodipodi:sides="4"
           sodipodi:cx="963.75836"
           sodipodi:cy="642.68457"
           sodipodi:r1="2.6979532"
           sodipodi:r2="0.13489766"
           sodipodi:arg1="0"
           sodipodi:arg2="0.78539816"
           inkscape:flatsided="false"
           inkscape:rounded="0"
           inkscape:randomized="0"
           d="m 966.45632,642.68457 -2.60257,0.0954 -0.0954,2.60256 -0.0954,-2.60256 -2.60256,-0.0954 2.60256,-0.0954 0.0954,-2.60256 0.0954,2.60256 z" />
        <path
           sodipodi:type="star"
           style="fill:#ffffff;fill-opacity:1;fill-rule:evenodd;stroke:none"
           id="path4708"
           sodipodi:sides="4"
           sodipodi:cx="985.77179"
           sodipodi:cy="645.36914"
           sodipodi:r1="2.1643646"
           sodipodi:r2="0.10821822"
           sodipodi:arg1="0"
           sodipodi:arg2="0.78539816"
           inkscape:flatsided="false"
           inkscape:rounded="0"
           inkscape:randomized="0"
           d="m 987.93615,645.36914 -2.08784,0.0765 -0.0765,2.08785 -0.0765,-2.08785 -2.08785,-0.0765 2.08785,-0.0765 0.0765,-2.08784 0.0765,2.08784 z" />
        <path
           sodipodi:type="star"
           style="fill:#ffffff;fill-opacity:1;fill-rule:evenodd;stroke:none"
           id="path4710"
           sodipodi:sides="4"
           sodipodi:cx="1008.8591"
           sodipodi:cy="689.396"
           sodipodi:r1="3.6117113"
           sodipodi:r2="0.18058555"
           sodipodi:arg1="0.78539816"
           sodipodi:arg2="1.5707963"
           inkscape:flatsided="false"
           inkscape:rounded="0"
           inkscape:randomized="0"
           d="m 1011.4129,691.94986 -2.5538,-2.37328 -2.5539,2.37328 2.3733,-2.55386 -2.3733,-2.55387 2.5539,2.37328 2.5538,-2.37328 -2.3732,2.55387 z" />
        <path
           sodipodi:type="star"
           style="fill:#ffffff;fill-opacity:1;fill-rule:evenodd;stroke:none"
           id="path4712"
           sodipodi:sides="4"
           sodipodi:cx="1005.6376"
           sodipodi:cy="675.16779"
           sodipodi:r1="2.9530201"
           sodipodi:r2="0.147651"
           sodipodi:arg1="0"
           sodipodi:arg2="0.78539816"
           inkscape:flatsided="false"
           inkscape:rounded="0"
           inkscape:randomized="0"
           d="m 1008.5906,675.16779 -2.8486,0.1044 -0.1044,2.84862 -0.1044,-2.84862 -2.8486,-0.1044 2.8486,-0.10441 0.1044,-2.84861 0.1044,2.84861 z"
           transform="translate(0.80536913,-0.26845638)" />
        <path
           sodipodi:type="star"
           style="fill:#ffffff;fill-opacity:1;fill-rule:evenodd;stroke:none"
           id="path4714"
           sodipodi:sides="4"
           sodipodi:cx="951.94629"
           sodipodi:cy="656.64429"
           sodipodi:r1="2.2779279"
           sodipodi:r2="0.11389639"
           sodipodi:arg1="0.78539816"
           sodipodi:arg2="1.5707963"
           inkscape:flatsided="false"
           inkscape:rounded="0"
           inkscape:randomized="0"
           d="m 953.55703,658.25503 -1.61074,-1.49685 -1.61074,1.49685 1.49684,-1.61074 -1.49684,-1.61074 1.61074,1.49684 1.61074,-1.49684 -1.49684,1.61074 z" />
        <path
           sodipodi:type="star"
           style="fill:#ffffff;fill-opacity:1;fill-rule:evenodd;stroke:none"
           id="path4716"
           sodipodi:sides="4"
           sodipodi:cx="1028.9933"
           sodipodi:cy="619.32886"
           sodipodi:r1="3.7583892"
           sodipodi:r2="0.18791945"
           sodipodi:arg1="0"
           sodipodi:arg2="0.78539816"
           inkscape:flatsided="false"
           inkscape:rounded="0"
           inkscape:randomized="0"
           d="m 1032.7517,619.32886 -3.6255,0.13288 -0.1329,3.62551 -0.1329,-3.62551 -3.6255,-0.13288 3.6255,-0.13288 0.1329,-3.62551 0.1329,3.62551 z" />
        <path
           sodipodi:type="star"
           style="fill:#ffffff;fill-opacity:1;fill-rule:evenodd;stroke:none"
           id="path4722"
           sodipodi:sides="4"
           sodipodi:cx="918.92621"
           sodipodi:cy="495.83893"
           sodipodi:r1="4.5716472"
           sodipodi:r2="0.22858235"
           sodipodi:arg1="1.5707963"
           sodipodi:arg2="2.3561945"
           inkscape:flatsided="false"
           inkscape:rounded="0"
           inkscape:randomized="0"
           d="m 918.92621,500.41058 -0.16163,-4.41002 -4.41002,-0.16163 4.41002,-0.16163 0.16163,-4.41002 0.16163,4.41002 4.41002,0.16163 -4.41002,0.16163 z" />
        <path
           sodipodi:type="star"
           style="fill:#ffffff;fill-opacity:1;fill-rule:evenodd;stroke:none"
           id="path4724"
           sodipodi:sides="4"
           sodipodi:cx="987.38257"
           sodipodi:cy="480.5369"
           sodipodi:r1="4.244668"
           sodipodi:r2="0.21223338"
           sodipodi:arg1="1.3089969"
           sodipodi:arg2="2.0943951"
           inkscape:flatsided="false"
           inkscape:rounded="0"
           inkscape:randomized="0"
           d="m 988.48117,484.63693 -1.20472,-3.91623 -3.99392,0.9148 3.91624,-1.20472 -0.9148,-3.99392 1.20472,3.91624 3.99391,-0.91481 -3.91623,1.20472 z" />
        <path
           sodipodi:type="star"
           style="fill:#ffffff;fill-opacity:1;fill-rule:evenodd;stroke:none"
           id="path4728"
           sodipodi:sides="4"
           sodipodi:cx="1024.1611"
           sodipodi:cy="498.79196"
           sodipodi:r1="5.3691273"
           sodipodi:r2="0.26845634"
           sodipodi:arg1="1.5707963"
           sodipodi:arg2="2.3561945"
           inkscape:flatsided="false"
           inkscape:rounded="0"
           inkscape:randomized="0"
           d="m 1024.1611,504.16109 -0.1898,-5.1793 -5.1793,-0.18983 5.1793,-0.18983 0.1898,-5.1793 0.1899,5.1793 5.1793,0.18983 -5.1793,0.18983 z" />
        <path
           sodipodi:type="star"
           style="fill:#ffffff;fill-opacity:1;fill-rule:evenodd;stroke:none"
           id="path4730"
           sodipodi:sides="4"
           sodipodi:cx="979.06042"
           sodipodi:cy="543.08728"
           sodipodi:r1="2.4750454"
           sodipodi:r2="0.12375226"
           sodipodi:arg1="0.78539816"
           sodipodi:arg2="1.5707963"
           inkscape:flatsided="false"
           inkscape:rounded="0"
           inkscape:randomized="0"
           d="m 980.81055,544.8374 -1.75013,-1.62637 -1.75012,1.62637 1.62637,-1.75012 -1.62637,-1.75012 1.75012,1.62637 1.75013,-1.62637 -1.62637,1.75012 z" />
        <path
           sodipodi:type="star"
           style="fill:#ffffff;fill-opacity:1;fill-rule:evenodd;stroke:none"
           id="path4732"
           sodipodi:sides="4"
           sodipodi:cx="995.97314"
           sodipodi:cy="591.14093"
           sodipodi:r1="3.489933"
           sodipodi:r2="0.17449662"
           sodipodi:arg1="1.5707963"
           sodipodi:arg2="2.3561945"
           inkscape:flatsided="false"
           inkscape:rounded="0"
           inkscape:randomized="0"
           d="m 995.97314,594.63086 -0.12338,-3.36654 -3.36655,-0.12339 3.36655,-0.12339 0.12338,-3.36654 0.12339,3.36654 3.36655,0.12339 -3.36655,0.12339 z" />
        <path
           sodipodi:type="star"
           style="fill:#ffffff;fill-opacity:1;fill-rule:evenodd;stroke:none"
           id="path4734"
           sodipodi:sides="4"
           sodipodi:cx="882.68457"
           sodipodi:cy="526.97986"
           sodipodi:r1="2.4750454"
           sodipodi:r2="0.12375226"
           sodipodi:arg1="0.78539816"
           sodipodi:arg2="1.5707963"
           inkscape:flatsided="false"
           inkscape:rounded="0"
           inkscape:randomized="0"
           d="m 884.43469,528.72998 -1.75012,-1.62637 -1.75012,1.62637 1.62637,-1.75012 -1.62637,-1.75012 1.75012,1.62637 1.75012,-1.62637 -1.62637,1.75012 z" />
        <path
           sodipodi:type="star"
           style="fill:#ffffff;fill-opacity:1;fill-rule:evenodd;stroke:none"
           id="path4736"
           sodipodi:sides="4"
           sodipodi:cx="905.50336"
           sodipodi:cy="527.51678"
           sodipodi:r1="2.9651976"
           sodipodi:r2="0.14825986"
           sodipodi:arg1="1.5707963"
           sodipodi:arg2="2.3561945"
           inkscape:flatsided="false"
           inkscape:rounded="0"
           inkscape:randomized="0"
           d="m 905.50336,530.48198 -0.10484,-2.86036 -2.86036,-0.10484 2.86036,-0.10483 0.10484,-2.86036 0.10483,2.86036 2.86036,0.10483 -2.86036,0.10484 z" />
        <path
           sodipodi:type="star"
           style="fill:#ffffff;fill-opacity:1;fill-rule:evenodd;stroke:none"
           id="path4738"
           sodipodi:sides="4"
           sodipodi:cx="902.01343"
           sodipodi:cy="513.28857"
           sodipodi:r1="1.7189595"
           sodipodi:r2="0.085947968"
           sodipodi:arg1="0.78539816"
           sodipodi:arg2="1.5707963"
           inkscape:flatsided="false"
           inkscape:rounded="0"
           inkscape:randomized="0"
           d="m 903.22892,514.50406 -1.21549,-1.12954 -1.21549,1.12954 1.12954,-1.21549 -1.12954,-1.21548 1.21549,1.12954 1.21549,-1.12954 -1.12954,1.21548 z" />
        <path
           sodipodi:type="star"
           style="fill:#ffffff;fill-opacity:1;fill-rule:evenodd;stroke:none"
           id="path4740"
           sodipodi:sides="4"
           sodipodi:cx="995.16779"
           sodipodi:cy="477.58389"
           sodipodi:r1="3.2326429"
           sodipodi:r2="0.16163214"
           sodipodi:arg1="0.78539816"
           sodipodi:arg2="1.5707963"
           inkscape:flatsided="false"
           inkscape:rounded="0"
           inkscape:randomized="0"
           d="m 997.45361,479.86972 -2.28582,-2.1242 -2.28583,2.1242 2.12419,-2.28583 -2.12419,-2.28582 2.28583,2.12419 2.28582,-2.12419 -2.12419,2.28582 z" />
        <path
           sodipodi:type="star"
           style="fill:#ffffff;fill-opacity:1;fill-rule:evenodd;stroke:none"
           id="path4742"
           sodipodi:sides="4"
           sodipodi:cx="948.72485"
           sodipodi:cy="440.5369"
           sodipodi:r1="4.5001488"
           sodipodi:r2="0.22500743"
           sodipodi:arg1="1.3089969"
           sodipodi:arg2="2.0943951"
           inkscape:flatsided="false"
           inkscape:rounded="0"
           inkscape:randomized="0"
           d="m 949.88958,444.88371 -1.27723,-4.15195 -4.23431,0.96986 4.15195,-1.27723 -0.96986,-4.2343 1.27723,4.15194 4.2343,-0.96986 -4.15194,1.27723 z"
           transform="translate(0.80536913,0.26845638)" />
        <path
           sodipodi:type="star"
           style="fill:#ffffff;fill-opacity:1;fill-rule:evenodd;stroke:none"
           id="path4744"
           sodipodi:sides="4"
           sodipodi:cx="971.81207"
           sodipodi:cy="444.29529"
           sodipodi:r1="3.2326429"
           sodipodi:r2="0.16163214"
           sodipodi:arg1="1.5707963"
           sodipodi:arg2="2.3561945"
           inkscape:flatsided="false"
           inkscape:rounded="0"
           inkscape:randomized="0"
           d="m 971.81207,447.52793 -0.11429,-3.11835 -3.11835,-0.11429 3.11835,-0.11429 0.11429,-3.11835 0.11429,3.11835 3.11836,0.11429 -3.11836,0.11429 z" />
        <path
           sodipodi:type="star"
           style="fill:#ffffff;fill-opacity:1;fill-rule:evenodd;stroke:none"
           id="path4746"
           sodipodi:sides="4"
           sodipodi:cx="965.36914"
           sodipodi:cy="506.57718"
           sodipodi:r1="2.6575825"
           sodipodi:r2="0.13287912"
           sodipodi:arg1="0.78539816"
           sodipodi:arg2="1.5707963"
           inkscape:flatsided="false"
           inkscape:rounded="0"
           inkscape:randomized="0"
           d="m 967.24834,508.45637 -1.8792,-1.74631 -1.87919,1.74631 1.74631,-1.87919 -1.74631,-1.8792 1.87919,1.74632 1.8792,-1.74632 -1.74632,1.8792 z" />
        <path
           sodipodi:type="star"
           style="fill:#ffffff;fill-opacity:1;fill-rule:evenodd;stroke:none"
           id="path4748"
           sodipodi:sides="4"
           sodipodi:cx="845.10065"
           sodipodi:cy="510.06711"
           sodipodi:r1="2.4750454"
           sodipodi:r2="0.12375227"
           sodipodi:arg1="0.78539816"
           sodipodi:arg2="1.5707963"
           inkscape:flatsided="false"
           inkscape:rounded="0"
           inkscape:randomized="0"
           d="m 846.85077,511.81723 -1.75012,-1.62637 -1.75012,1.62637 1.62636,-1.75012 -1.62636,-1.75012 1.75012,1.62637 1.75012,-1.62637 -1.62637,1.75012 z"
           transform="translate(0.26845638,-0.80536913)" />
        <path
           sodipodi:type="star"
           style="fill:#ffffff;fill-opacity:1;fill-rule:evenodd;stroke:none"
           id="path4752"
           sodipodi:sides="4"
           sodipodi:cx="957.10938"
           sodipodi:cy="467.04758"
           sodipodi:r1="2.1643646"
           sodipodi:r2="0.10821822"
           sodipodi:arg1="0.78539816"
           sodipodi:arg2="1.5707963"
           inkscape:flatsided="false"
           inkscape:rounded="0"
           inkscape:randomized="0"
           d="m 958.63981,468.57801 -1.53043,-1.42221 -1.53044,1.42221 1.42222,-1.53043 -1.42222,-1.53044 1.53043,1.42222 1.53044,-1.42222 -1.42222,1.53044 z" />
        <path
           sodipodi:type="star"
           style="fill:#ffffff;fill-opacity:1;fill-rule:evenodd;stroke:none"
           id="path4754"
           sodipodi:sides="4"
           sodipodi:cx="952.74335"
           sodipodi:cy="673.95935"
           sodipodi:r1="4.8396664"
           sodipodi:r2="0.24198329"
           sodipodi:arg1="0.78539816"
           sodipodi:arg2="1.5707963"
           inkscape:flatsided="false"
           inkscape:rounded="0"
           inkscape:randomized="0"
           d="m 956.16551,677.38151 -3.42216,-3.18018 -3.42216,3.18018 3.18017,-3.42216 -3.18017,-3.42216 3.42216,3.18018 3.42216,-3.18018 -3.18018,3.42216 z" />
        <path
           sodipodi:type="star"
           style="fill:#ffffff;fill-opacity:1;fill-rule:evenodd;stroke:none"
           id="path4756"
           sodipodi:sides="4"
           sodipodi:cx="964.32281"
           sodipodi:cy="677.94574"
           sodipodi:r1="2.7179136"
           sodipodi:r2="0.13589568"
           sodipodi:arg1="1.8325957"
           sodipodi:arg2="2.6179939"
           inkscape:flatsided="false"
           inkscape:rounded="0"
           inkscape:randomized="0"
           d="m 963.61937,680.57104 0.58576,-2.55735 -2.50762,-0.7714 2.55736,0.58576 0.77139,-2.50761 -0.58576,2.55735 2.50762,0.7714 -2.55736,-0.58576 z" />
      </g>
      <path
         style="fill:#284282;fill-opacity:1;stroke:#071b42;stroke-width:4.5;stroke-linecap:butt;stroke-linejoin:miter;stroke-miterlimit:4;stroke-opacity:1;stroke-dasharray:none"
         d="m 622.18956,648.34494 c -3.69504,8.36454 -28.04895,12.96879 -35.33865,18.26702 -20.40571,14.83106 -67.24234,146.86667 -56.05347,173.00835 5.49889,12.84762 72.46524,12.51647 75.97161,-0.56949 5.12601,-19.13054 -19.11194,-59.67004 12.6943,-156.84593 3.41554,-10.43532 72.27139,-12.12528 74.30851,-53.90971 l 4.41304,-27.03969 -72.51404,7.59309 z"
         id="path3959"
         inkscape:connector-curvature="0"
         sodipodi:nodetypes="csssscccc" />
      <g
         id="g4007">
        <path
           style="fill:#a5a8d9;fill-opacity:1;stroke:#8182d3;stroke-width:4;stroke-linecap:butt;stroke-linejoin:miter;stroke-miterlimit:4;stroke-opacity:1;stroke-dasharray:none"
           d="m 527.24833,835.97331 c 27.38255,4.83222 60.13422,-1.87921 46.17449,-17.71813 10.20134,-1.61074 16.37584,4.02685 16.37584,4.02685 1.44765,-10.9552 7.71521,-16.69344 16.37585,-22.8188 0,0 6.9357,33.54443 2.14764,41.87921 -7.24832,12.61744 -61.83011,11.61388 -75.43624,3.75838 -4.78979,-2.76539 -5.63758,-9.12751 -5.63758,-9.12751 z"
           id="path3961"
           inkscape:connector-curvature="0"
           sodipodi:nodetypes="ccccssc" />
        <path
           sodipodi:type="star"
           style="fill:#ffffff;stroke:none"
           id="path3998"
           sodipodi:sides="4"
           sodipodi:cx="590.5528"
           sodipodi:cy="824.87207"
           sodipodi:r1="6.4652858"
           sodipodi:r2="0.32326427"
           sodipodi:arg1="1.5120405"
           sodipodi:arg2="2.2974387"
           inkscape:flatsided="false"
           inkscape:rounded="0"
           inkscape:randomized="0"
           d="m 590.93245,831.3262 -0.59442,-6.21252 -6.23936,0.13804 6.21251,-0.59441 -0.13804,-6.23937 0.59442,6.21252 6.23936,-0.13804 -6.21251,0.59442 z"
           transform="matrix(0.94242775,0.33440984,-0.33440984,0.94242775,309.08549,-152.27485)" />
        <path
           transform="matrix(0.33901111,0.0503932,-0.0503932,0.33901111,406.76468,513.66807)"
           d="m 590.93245,831.3262 -0.59442,-6.21252 -6.23936,0.13804 6.21251,-0.59441 -0.13804,-6.23937 0.59442,6.21252 6.23936,-0.13804 -6.21251,0.59442 z"
           inkscape:randomized="0"
           inkscape:rounded="0"
           inkscape:flatsided="false"
           sodipodi:arg2="2.2974387"
           sodipodi:arg1="1.5120405"
           sodipodi:r2="0.32326427"
           sodipodi:r1="6.4652858"
           sodipodi:cy="824.87207"
           sodipodi:cx="590.5528"
           sodipodi:sides="4"
           id="path4003"
           style="fill:#ffffff;stroke:none"
           sodipodi:type="star" />
        <path
           sodipodi:type="star"
           style="fill:#ffffff;stroke:none"
           id="path4005"
           sodipodi:sides="4"
           sodipodi:cx="590.5528"
           sodipodi:cy="824.87207"
           sodipodi:r1="6.4652858"
           sodipodi:r2="0.32326427"
           sodipodi:arg1="1.5120405"
           sodipodi:arg2="2.2974387"
           inkscape:flatsided="false"
           inkscape:rounded="0"
           inkscape:randomized="0"
           d="m 590.93245,831.3262 -0.59442,-6.21252 -6.23936,0.13804 6.21251,-0.59441 -0.13804,-6.23937 0.59442,6.21252 6.23936,-0.13804 -6.21251,0.59442 z"
           transform="matrix(0.53391995,-0.0211264,0.0211264,0.53391995,267.30967,417.05438)" />
      </g>
      <path
         sodipodi:nodetypes="csscc"
         inkscape:connector-curvature="0"
         id="path3996"
         d="m 801.80615,638.05567 c -42.66084,120.64347 -27.31935,194.08411 -14.82233,206.58113 8.53444,8.53444 71.84514,8.88206 81.51862,0.79746 9.58236,-8.00844 -64.72825,-46.6536 -36.47191,-223.77352 z"
         style="fill:#284282;fill-opacity:1;stroke:#071b42;stroke-width:4.5;stroke-linecap:butt;stroke-linejoin:miter;stroke-miterlimit:4;stroke-opacity:1;stroke-dasharray:none" />
      <g
         id="g4032">
        <path
           sodipodi:nodetypes="csscccc"
           inkscape:connector-curvature="0"
           id="path4024"
           d="m 776.48831,827.11985 c 1.31073,6.21706 3.86031,14.93903 8.91794,19.0989 12.66094,10.41355 77.25994,9.02434 84.53125,0.9375 7.34344,-8.16706 -15.52723,-23.0811 -26.52472,-55.8214 -6.64358,4.07062 -9.15733,12.97748 -7.1797,21.08618 -5.42486,-6.03564 -12.07155,-9.41615 -21.46292,-9.85142 6.87425,9.57501 18.3916,41.79255 -38.28185,24.55024 z"
           style="font-size:medium;font-style:normal;font-variant:normal;font-weight:normal;font-stretch:normal;text-indent:0;text-align:start;text-decoration:none;line-height:normal;letter-spacing:normal;word-spacing:normal;text-transform:none;direction:ltr;block-progression:tb;writing-mode:lr-tb;text-anchor:start;baseline-shift:baseline;color:#000000;fill:#a5a8d9;fill-opacity:1;stroke:#8182d3;stroke-width:4;stroke-miterlimit:20;stroke-opacity:1;stroke-dasharray:none;marker:none;visibility:visible;display:inline;overflow:visible;enable-background:accumulate;font-family:Sans;-inkscape-font-specification:Sans" />
        <path
           sodipodi:type="star"
           style="fill:#ffffff;stroke:none"
           id="path4026"
           sodipodi:sides="4"
           sodipodi:cx="826.30872"
           sodipodi:cy="839.73157"
           sodipodi:r1="7.5167785"
           sodipodi:r2="0.37583891"
           sodipodi:arg1="1.5707963"
           sodipodi:arg2="2.3561945"
           inkscape:flatsided="false"
           inkscape:rounded="0"
           inkscape:randomized="0"
           d="m 826.30872,847.24835 -0.26576,-7.25102 -7.25102,-0.26576 7.25102,-0.26576 0.26576,-7.25102 0.26575,7.25102 7.25102,0.26576 -7.25102,0.26576 z"
           transform="matrix(0.67857143,0,0,0.67857143,266.13615,269.64526)" />
        <path
           transform="matrix(0.42140656,-0.07803825,0.07803825,0.42140656,414.17635,516.52135)"
           d="m 826.30872,847.24835 -0.26576,-7.25102 -7.25102,-0.26576 7.25102,-0.26576 0.26576,-7.25102 0.26575,7.25102 7.25102,0.26576 -7.25102,0.26576 z"
           inkscape:randomized="0"
           inkscape:rounded="0"
           inkscape:flatsided="false"
           sodipodi:arg2="2.3561945"
           sodipodi:arg1="1.5707963"
           sodipodi:r2="0.37583891"
           sodipodi:r1="7.5167785"
           sodipodi:cy="839.73157"
           sodipodi:cx="826.30872"
           sodipodi:sides="4"
           id="path4028"
           style="fill:#ffffff;stroke:none"
           sodipodi:type="star" />
        <path
           sodipodi:type="star"
           style="fill:#ffffff;stroke:none"
           id="path4030"
           sodipodi:sides="4"
           sodipodi:cx="826.30872"
           sodipodi:cy="839.73157"
           sodipodi:r1="7.5167785"
           sodipodi:r2="0.37583891"
           sodipodi:arg1="1.5707963"
           sodipodi:arg2="2.3561945"
           inkscape:flatsided="false"
           inkscape:rounded="0"
           inkscape:randomized="0"
           d="m 826.30872,847.24835 -0.26576,-7.25102 -7.25102,-0.26576 7.25102,-0.26576 0.26576,-7.25102 0.26575,7.25102 7.25102,0.26576 -7.25102,0.26576 z"
           transform="matrix(0.35004961,0.24726247,-0.24726247,0.35004961,778.78773,337.17342)" />
      </g>
      <path
         sodipodi:nodetypes="csssccssssssssccsscc"
         inkscape:connector-curvature="0"
         d="m 829.88816,456.58182 c 38.32866,-4.40282 44.01457,3.24264 54.50788,3.24264 11.4628,0 30.50754,-26.1425 25.8146,-34.31245 -6.04252,-10.51944 -26.41303,-14.41015 -0.39998,-59.46607 16.69622,-28.91871 -90.62041,-68.87167 -128.57406,-46.8217 l -8.17863,0.90098 c -29.39558,24.77556 -16.59047,97.70414 -13.96364,168.41796 1.34849,36.30118 -14.59243,63.03628 -31.55449,74.56342 -7.42017,5.04262 -67.68389,-20.76677 -101.63603,18.5858 -21.12439,24.48443 -8.57625,69.204 -13.37868,80.07536 -3.69504,8.36454 -11.80655,12.37282 -19.61092,16.87868 -8.5443,4.93306 -9.97096,134.61846 22.46606,186.46932 7.41168,11.84762 72.08559,10.6182 75.59196,-2.46776 5.12601,-19.13054 -77.83892,-123.15965 -64.26846,-181.2136 1.57513,-6.73836 29.04637,-21.04668 43.10684,-39.74706 l 1.59515,-3.2257 c 31.16371,-2.80137 66.19136,14.65169 101.84417,14.56176 21.6007,-0.0545 43.43088,-6.54845 64.77025,-27.88782 54.14025,-54.14025 -17.44839,-102.60935 -11.51201,-168.84303 z"
         style="fill:#314b8f;fill-opacity:1;stroke:none"
         id="path4669" />
      <g
         id="g4127">
        <path
           sodipodi:type="arc"
           style="fill:#020016;fill-opacity:1;stroke:none"
           id="path4112"
           sodipodi:cx="610.29486"
           sodipodi:cy="679.08472"
           sodipodi:rx="3.4955208"
           sodipodi:ry="4.4676876"
           d="m 613.79038,679.08472 a 3.4955208,4.4676876 0 1 1 -6.99104,0 3.4955208,4.4676876 0 1 1 6.99104,0 z"
           transform="translate(-0.13422819,-0.13422819)" />
        <path
           transform="matrix(0.9914687,0.13034497,-0.13034497,0.9914687,106.2051,-88.788946)"
           d="m 615.9547,679.08472 a 5.6598415,7.0206461 0 1 1 -11.31968,0 5.6598415,7.0206461 0 1 1 11.31968,0 z"
           sodipodi:ry="7.0206461"
           sodipodi:rx="5.6598415"
           sodipodi:cy="679.08472"
           sodipodi:cx="610.29486"
           id="path4114"
           style="fill:#020016;fill-opacity:1;stroke:none"
           sodipodi:type="arc" />
        <path
           sodipodi:type="arc"
           style="fill:#020016;fill-opacity:1;stroke:none"
           id="path4116"
           sodipodi:cx="646.36206"
           sodipodi:cy="643.96661"
           sodipodi:rx="7.5546355"
           sodipodi:ry="6.8338737"
           d="m 653.9167,643.96661 a 7.5546355,6.8338737 0 1 1 -15.10927,0 7.5546355,6.8338737 0 1 1 15.10927,0 z"
           transform="matrix(0.99984131,0.01781426,-0.01781426,0.99984131,12.903149,-11.523472)" />
        <path
           transform="matrix(0.99580601,-0.09148981,0.09148981,0.99580601,-47.47349,60.317709)"
           d="m 650.5353,643.96661 a 4.1732411,3.8072634 0 1 1 -8.34648,0 4.1732411,3.8072634 0 1 1 8.34648,0 z"
           sodipodi:ry="3.8072634"
           sodipodi:rx="4.1732411"
           sodipodi:cy="643.96661"
           sodipodi:cx="646.36206"
           id="path4118"
           style="fill:#020016;fill-opacity:1;stroke:none"
           sodipodi:type="arc" />
        <path
           style="fill:#020016;fill-opacity:1;stroke:none"
           d="m 613.33208,652.6987 c 14.80653,4.1762 22.77929,-1.3288 21.26067,-21.45049 6.07447,0.56948 9.30153,-3.4169 12.14895,-7.78293 18.7929,17.08447 42.52131,-9.49136 26.95548,-26.38599 15.75566,-7.59309 6.83378,-33.02996 -4.36603,-37.39598 -48.31765,9.5631 -60.12322,34.84607 -55.99907,93.01539 z"
           id="path4120"
           inkscape:connector-curvature="0"
           sodipodi:nodetypes="cccccc" />
        <path
           inkscape:connector-curvature="0"
           style="fill:#ffffff;stroke:none"
           d="m 648.0778,579.31715 c -4.3214,-0.0112 -8.7406,1.39191 -12.5,4.3125 -8.59292,6.67564 -10.44288,18.68009 -4.125,26.8125 6.31788,8.13241 18.40708,9.33189 27,2.65625 6.30317,-4.89679 8.95468,-12.65646 7.4375,-19.65625 -0.32175,1.34583 -0.9084,2.63996 -1.75,3.84375 -3.57599,5.11495 -10.59737,6.37114 -15.6875,2.8125 -5.09013,-3.55864 -6.29474,-10.57255 -2.71875,-15.6875 1.68665,-2.41252 4.12489,-3.96589 6.78125,-4.5625 -1.44639,-0.34715 -2.9324,-0.52734 -4.4375,-0.53125 z"
           id="path4122" />
      </g>
      <path
         sodipodi:nodetypes="csssccssssssssc"
         inkscape:connector-curvature="0"
         id="path3924"
         d="m 829.88816,456.58182 c 38.32866,-4.40282 44.01457,3.24264 54.50788,3.24264 11.4628,0 30.50754,-26.1425 25.8146,-34.31245 -6.04252,-10.51944 -26.41303,-14.41015 -0.39998,-59.46607 16.69622,-28.91871 -90.62041,-68.87167 -128.57406,-46.8217 l -8.17863,0.90098 c -29.39558,24.77556 -16.59047,97.70414 -13.96364,168.41796 1.34849,36.30118 -14.59243,63.03628 -31.55449,74.56342 -7.42017,5.04262 -67.68389,-20.76677 -101.63603,18.5858 -21.12439,24.48443 -8.57625,69.204 -13.37868,80.07536 -3.69504,8.36454 -11.80655,12.37282 -19.61092,16.87868 -8.5443,4.93306 -9.97096,134.61846 22.46606,186.46932 7.41168,11.84762 72.08559,10.6182 75.59196,-2.46776 5.12601,-19.13054 -77.83891,-123.15965 -64.26846,-181.2136 1.72055,-7.36045 34.33945,-23.75312 46.62724,-45.03619"
         style="fill:none;stroke:#071b42;stroke-width:4.5;stroke-linecap:butt;stroke-linejoin:miter;stroke-miterlimit:4;stroke-opacity:1;stroke-dasharray:none" />
      <g
         id="g3939">
        <path
           sodipodi:nodetypes="csscc"
           inkscape:connector-curvature="0"
           id="path3932"
           d="m 764.83222,576.6443 c 44.41767,22.78622 4.42346,67.75456 -50.26648,48.98934 -23.56685,-8.08626 -45.28972,-42.74272 -40.44705,-52.81704 8.57796,-17.84494 58.15125,-11.29608 71.38466,-1.80988 z"
           style="fill:#314b8f;fill-opacity:1;stroke:none" />
        <path
           style="fill:#071b42;fill-opacity:1;stroke:none"
           d="m 764.83222,576.6443 c 37.58389,23.3557 5.56242,65.47663 -49.12752,46.71141 -23.56685,-8.08626 -43.60638,-39.71759 -39.68774,-49.02049 6.63115,-15.74244 53.40557,-10.91643 69.48639,-3.3285 -10.58881,-13.55198 -67.05686,-16.48821 -73.32533,1.56632 -5.07392,14.61396 18.00242,46.39705 41.83213,54.69167 63.03599,21.9415 95.69095,-33.16342 50.82207,-50.62041 z"
           id="path3926"
           inkscape:connector-curvature="0"
           sodipodi:nodetypes="csscssc" />
        <path
           style="fill:none;stroke:#071b42;stroke-width:3;stroke-linecap:butt;stroke-linejoin:miter;stroke-miterlimit:20;stroke-opacity:1;stroke-dasharray:none"
           d="m 730.20135,564.56376 c -21.47652,2.68456 -29.79867,9.12751 1.87919,28.18792 -31.67785,-2.14765 -42.652,10.62706 0.47177,21.47651 -19.5627,0.49538 -18.23117,8.49351 -9.19305,13.81258"
           id="path3928"
           inkscape:connector-curvature="0"
           sodipodi:nodetypes="cccc" />
        <path
           style="fill:none;stroke:#071b42;stroke-width:2.5;stroke-linecap:butt;stroke-linejoin:miter;stroke-miterlimit:4;stroke-opacity:1;stroke-dasharray:none"
           d="m 711.40939,572.88591 -35.97315,-2.28188 c -2.1454,2.65933 -3.18451,10.28481 0.13027,17.08677 l 54.85723,4.60259 c 0,0 -24.59757,-0.81412 -26.24137,6.87802 -0.79818,3.73506 7.02163,9.26926 25.61234,14.59849 l -7.11014,1.66634 -31.14095,-4.69799"
           id="path3930"
           inkscape:connector-curvature="0"
           sodipodi:nodetypes="ccccsccc" />
      </g>
      <path
         sodipodi:nodetypes="cccccccc"
         inkscape:connector-curvature="0"
         id="path3945"
         d="m 829.75551,454.33189 0.54311,4.46875 c -11.26848,1.2552 -29.86872,-6.42396 -34.03818,-16.26706 6.54508,6.67189 22.83654,12.94434 33.49507,11.79831 z m -154.61663,183.43664 -3.95371,-2.17881 c 6.13684,-10.62933 10.31002,-17.70956 11.89366,-27.93835 2.7921,13.32861 -1.75748,19.40882 -7.93995,30.11716 z"
         style="font-size:medium;font-style:normal;font-variant:normal;font-weight:normal;font-stretch:normal;text-indent:0;text-align:start;text-decoration:none;line-height:normal;letter-spacing:normal;word-spacing:normal;text-transform:none;direction:ltr;block-progression:tb;writing-mode:lr-tb;text-anchor:start;baseline-shift:baseline;color:#000000;fill:#071b42;fill-opacity:1;stroke:none;stroke-width:0.1;marker:none;visibility:visible;display:inline;overflow:visible;enable-background:accumulate;font-family:Sans;-inkscape-font-specification:Sans" />
      <path
         sodipodi:nodetypes="csc"
         inkscape:connector-curvature="0"
         id="path3994"
         d="m 671.40576,638.46164 c 50.04464,-4.49861 110.05359,43.23477 166.61442,-13.32606 54.14025,-54.14025 -17.44839,-102.60935 -11.51201,-168.84303"
         style="fill:none;stroke:#071b42;stroke-width:4.5;stroke-linecap:butt;stroke-linejoin:miter;stroke-miterlimit:4;stroke-opacity:1;stroke-dasharray:none" />
      <g
         id="g4013">
        <path
           sodipodi:nodetypes="csscccc"
           inkscape:connector-curvature="0"
           id="path3975"
           d="m 609.28696,859.38561 c 0.62701,2.5001 2.86352,6.2157 4.45025,8.00061 9.39773,10.57147 75.09713,10.61973 79.41904,-4.16758 3.12105,-10.67861 -19.09143,-46.47584 -26.65354,-60.90724 -6.29097,8.32569 -7.64726,20.67197 -4.83372,33.99225 -3.62599,-3.43827 -9.75325,-4.75489 -16.2958,-2.85713 16.83213,10.19572 4.81757,28.72192 -36.08623,25.93909 z"
           style="font-size:medium;font-style:normal;font-variant:normal;font-weight:normal;font-stretch:normal;text-indent:0;text-align:start;text-decoration:none;line-height:normal;letter-spacing:normal;word-spacing:normal;text-transform:none;direction:ltr;block-progression:tb;writing-mode:lr-tb;text-anchor:start;baseline-shift:baseline;color:#000000;fill:#c2bff3;fill-opacity:1;stroke:#9b93f0;stroke-width:4;stroke-miterlimit:4;stroke-opacity:1;stroke-dasharray:none;marker:none;visibility:visible;display:inline;overflow:visible;enable-background:accumulate;font-family:Sans;-inkscape-font-specification:Sans" />
        <path
           sodipodi:type="star"
           style="fill:#ffffff;fill-opacity:1;fill-rule:evenodd;stroke:none"
           id="path3977"
           sodipodi:sides="4"
           sodipodi:cx="677.68353"
           sodipodi:cy="850.6886"
           sodipodi:r1="6.6303835"
           sodipodi:r2="0.33151916"
           sodipodi:arg1="1.1583859"
           sodipodi:arg2="1.9437841"
           inkscape:flatsided="false"
           inkscape:rounded="0"
           inkscape:randomized="0"
           d="m 680.34112,856.76307 -2.77839,-5.76575 -5.95367,2.34886 5.76575,-2.77839 -2.34886,-5.95367 2.77839,5.76575 5.95367,-2.34885 -5.76575,2.77838 z"
           inkscape:transform-center-x="0.22408825"
           inkscape:transform-center-y="-0.12169318"
           transform="matrix(0.57762048,-0.70021346,0.70021346,0.57762048,-308.85655,834.5456)" />
        <path
           sodipodi:type="star"
           style="fill:#ffffff;fill-opacity:1;fill-rule:evenodd;stroke:none"
           id="path3981"
           sodipodi:sides="4"
           sodipodi:cx="653.00598"
           sodipodi:cy="874.03735"
           sodipodi:r1="4.4680047"
           sodipodi:r2="0.22340022"
           sodipodi:arg1="1.3567356"
           sodipodi:arg2="2.1421338"
           inkscape:flatsided="false"
           inkscape:rounded="0"
           inkscape:randomized="0"
           d="m 653.95512,878.40338 -1.06994,-4.17811 -4.24523,0.76122 4.17811,-1.06994 -0.76122,-4.24523 1.06995,4.17811 4.24522,-0.76121 -4.17811,1.06994 z"
           inkscape:transform-center-x="-0.26446099"
           inkscape:transform-center-y="0.18741265"
           transform="matrix(0.98440959,0.17589135,-0.17589135,0.98440959,164.26706,-100.61258)" />
      </g>
      <g
         id="g4651">
        <g
           id="g4642"
           clip-path="url(#clipPath4647)">
          <path
             sodipodi:nodetypes="csssccccc"
             inkscape:connector-curvature="0"
             id="path4145"
             d="m 841.45788,523.09615 c 6.82636,6.43002 12.00021,13.79739 15.67748,21.4955 15.257,31.93943 4.75199,69.5721 -20.37652,69.5721 -21.79284,0 -20.95246,-24.55026 -37.96143,-44.95446 -9.7832,-11.73607 -30.18409,-32.38289 -48.97948,-25.28166 l 4.55586,-15.18618 c 42.52132,-9.87102 55.80923,21.64031 77.06989,21.64031 l 19.21123,-2.18561 z"
             style="fill:#020016;fill-opacity:1;stroke:none" />
          <path
             sodipodi:nodetypes="cssccsscc"
             inkscape:connector-curvature="0"
             id="path4172"
             d="m 851.90625,567.34375 c -1.30289,0.0506 -2.62545,0.23215 -3.9375,0.5625 -10.49637,2.64283 -16.81697,13.55936 -14.09375,24.375 2.30751,9.16461 10.3552,15.30845 19.14435,15.36276 6.93475,-6.36067 9.40548,-13.46531 9.92039,-20.89595 -1.62117,0.22069 -3.2987,-0.0162 -4.84599,-0.77931 -4.33537,-2.13824 -6.02549,-7.60509 -3.75,-12.21875 1.21385,-2.46114 3.3109,-4.16227 5.65625,-4.90625 -2.53657,-1.05103 -5.27738,-1.60947 -8.09375,-1.5 z"
             style="fill:#ffffff;stroke:none" />
          <path
             style="fill:none;stroke:#7070ca;stroke-width:4.5;stroke-linecap:butt;stroke-linejoin:miter;stroke-miterlimit:4;stroke-opacity:1;stroke-dasharray:none"
             d="m 832.9623,516.21285 c 44.79925,31.13168 37.28035,97.9509 3.79654,97.9509 -21.79284,0 -20.95246,-24.55026 -37.96143,-44.95446 -9.7832,-11.73607 -30.18409,-32.38289 -48.97948,-25.28166 l 4.55586,-15.18618 c 42.52132,-9.87102 55.80923,21.64031 77.06989,21.64031"
             id="path4139"
             inkscape:connector-curvature="0"
             sodipodi:nodetypes="cssccc" />
        </g>
        <path
           style="font-size:medium;font-style:normal;font-variant:normal;font-weight:normal;font-stretch:normal;text-indent:0;text-align:start;text-decoration:none;line-height:normal;letter-spacing:normal;word-spacing:normal;text-transform:none;direction:ltr;block-progression:tb;writing-mode:lr-tb;text-anchor:start;baseline-shift:baseline;color:#000000;fill:#7070ca;fill-opacity:1;stroke:none;stroke-width:0.1;marker:none;visibility:visible;display:inline;overflow:visible;enable-background:accumulate;font-family:Sans;-inkscape-font-specification:Sans"
           d="m 831.169,548.125 c 11.13394,0 17.92048,-0.15337 22.45972,-1.11686 -5.0859,4.21512 -9.70498,5.29573 -22.45972,5.61686 z"
           id="path4135"
           inkscape:connector-curvature="0"
           sodipodi:nodetypes="cccc" />
      </g>
      <g
         id="g4106">
        <path
           sodipodi:nodetypes="csssssc"
           inkscape:connector-curvature="0"
           id="path4104"
           d="m 786.70957,640.87496 c -16.06743,27.82959 57.64089,28.48081 59.16099,38.06038 9.09694,57.32829 -13.48333,49.99531 -16.90022,61.7646 -3.41689,11.76929 9.14987,61.47707 27.75295,69.44982 12.54429,5.37613 47.63365,-38.03809 48.97545,-47.31865 3.51988,-24.3454 -13.53391,-102.57642 -27.28118,-116.32368 -7.97758,-7.97758 -28.37036,-6.52717 -43.55699,-6.52717 l -16.33708,-0.78563 4.02685,-13.95973 z"
           style="fill:#314b8f;fill-opacity:1;stroke:none" />
        <path
           style="fill:none;stroke:#071b42;stroke-width:4.5;stroke-linecap:butt;stroke-linejoin:miter;stroke-miterlimit:4;stroke-opacity:1;stroke-dasharray:none"
           d="m 786.70957,640.87496 c -16.06743,27.82959 57.64089,28.48081 59.16099,38.06038 9.09694,57.32829 -13.48333,49.99531 -16.90022,61.7646 -3.41689,11.76929 9.14987,61.47707 27.75295,69.44982 12.54429,5.37613 47.63365,-38.03809 48.97545,-47.31865 3.51988,-24.3454 -13.53391,-102.57642 -27.28118,-116.32368 -7.97758,-7.97758 -28.37036,-6.52717 -43.55699,-6.52717"
           id="path4052"
           inkscape:connector-curvature="0"
           sodipodi:nodetypes="csssssc" />
        <path
           style="font-size:medium;font-style:normal;font-variant:normal;font-weight:normal;font-stretch:normal;text-indent:0;text-align:start;text-decoration:none;line-height:normal;letter-spacing:normal;word-spacing:normal;text-transform:none;direction:ltr;block-progression:tb;writing-mode:lr-tb;text-anchor:start;baseline-shift:baseline;color:#000000;fill:#071b42;fill-opacity:1;stroke:none;stroke-width:0.1;marker:none;visibility:visible;display:inline;overflow:visible;enable-background:accumulate;font-family:Sans;-inkscape-font-specification:Sans"
           d="m 788.52202,642.23485 -3.90625,-2.26673 c 3.93427,-6.81435 13.08489,-17.84021 19.99588,-24.59519 -5.22923,8.34099 -9.89977,16.14045 -16.08963,26.86192 z m 21.7074,-3.5102 c 6.20196,-0.99521 19.21179,-1.00595 24.84692,-1.00595 l -0.0168,4.51678 c -4.7217,0 -18.59102,-1.3477 -24.83014,-3.51083 z"
           id="path4060"
           inkscape:connector-curvature="0"
           sodipodi:nodetypes="ccccccccc" />
        <path
           style="fill:#071b42;fill-opacity:1;stroke:none"
           d="m 816.73206,639.22095 4.74569,0.37966 c -0.0283,-5.79872 1.05462,-13.31242 4.55585,-23.44367 -5.97956,9.7761 -8.63714,17.36919 -9.30154,23.06401 z"
           id="path4066"
           inkscape:connector-curvature="0"
           sodipodi:nodetypes="cccc" />
      </g>
      <g
         id="g4098">
        <path
           sodipodi:nodetypes="csscccc"
           inkscape:connector-curvature="0"
           id="path4096"
           d="m 835.9891,730.13812 c -3.82014,2.73234 -8.0908,6.27539 -9.1766,9.92438 -4.29827,14.44497 11.20039,65.70813 29.03125,72.15625 13.58602,4.91308 39.33785,-26.46639 48.18305,-40.48939 -10.92466,-3.24771 -23.8152,-2.10782 -32.84843,9.2953 -0.14396,-6.79171 -5.33225,-14.49221 -10.71079,-17.53671 3.03983,35.14991 -31.63856,-1.82575 -24.47848,-33.34983 z"
           style="font-size:medium;font-style:normal;font-variant:normal;font-weight:normal;font-stretch:normal;text-indent:0;text-align:start;text-decoration:none;line-height:normal;letter-spacing:normal;word-spacing:normal;text-transform:none;direction:ltr;block-progression:tb;writing-mode:lr-tb;text-anchor:start;baseline-shift:baseline;color:#000000;fill:#c2bff3;fill-opacity:1;stroke:#9b93f0;stroke-width:4;stroke-miterlimit:4;stroke-opacity:1;stroke-dasharray:none;marker:none;visibility:visible;display:inline;overflow:visible;enable-background:accumulate;font-family:Sans;-inkscape-font-specification:Sans" />
        <path
           sodipodi:type="star"
           style="fill:#ffffff;stroke:none;display:inline"
           id="path4028-8"
           sodipodi:sides="4"
           sodipodi:cx="826.30872"
           sodipodi:cy="839.73157"
           sodipodi:r1="7.5167785"
           sodipodi:r2="0.37583891"
           sodipodi:arg1="1.5707963"
           sodipodi:arg2="2.3561945"
           inkscape:flatsided="false"
           inkscape:rounded="0"
           inkscape:randomized="0"
           d="m 826.30872,847.24835 -0.26576,-7.25102 -7.25102,-0.26576 7.25102,-0.26576 0.26576,-7.25102 0.26575,7.25102 7.25102,0.26576 -7.25102,0.26576 z"
           transform="matrix(0.42769879,-0.02733499,0.02733499,0.42769879,496.65058,446.92468)" />
        <path
           transform="matrix(0.38336298,-0.3837706,0.3837706,0.38336298,233.88048,796.0499)"
           d="m 826.30872,847.24835 -0.26576,-7.25102 -7.25102,-0.26576 7.25102,-0.26576 0.26576,-7.25102 0.26575,7.25102 7.25102,0.26576 -7.25102,0.26576 z"
           inkscape:randomized="0"
           inkscape:rounded="0"
           inkscape:flatsided="false"
           sodipodi:arg2="2.3561945"
           sodipodi:arg1="1.5707963"
           sodipodi:r2="0.37583891"
           sodipodi:r1="7.5167785"
           sodipodi:cy="839.73157"
           sodipodi:cx="826.30872"
           sodipodi:sides="4"
           id="path4092"
           style="fill:#ffffff;stroke:none;display:inline"
           sodipodi:type="star" />
        <path
           sodipodi:type="star"
           style="fill:#ffffff;stroke:none;display:inline"
           id="path4094"
           sodipodi:sides="4"
           sodipodi:cx="826.30872"
           sodipodi:cy="839.73157"
           sodipodi:r1="7.5167785"
           sodipodi:r2="0.37583891"
           sodipodi:arg1="1.5707963"
           sodipodi:arg2="2.3561945"
           inkscape:flatsided="false"
           inkscape:rounded="0"
           inkscape:randomized="0"
           d="m 826.30872,847.24835 -0.26576,-7.25102 -7.25102,-0.26576 7.25102,-0.26576 0.26576,-7.25102 0.26575,7.25102 7.25102,0.26576 -7.25102,0.26576 z"
           transform="matrix(0.5191717,-0.15718713,0.15718713,0.5191717,270.92715,459.28142)" />
      </g>
      <path
         sodipodi:nodetypes="cssscc"
         inkscape:connector-curvature="0"
         id="path4665"
         d="m 822.01342,319.73154 c -1.99552,-23.51865 -3.20528,-33.38024 5.85478,-28.71275 15.18699,7.8239 -1.27759,-41.81298 6.76267,-46.45503 6.58644,-3.80268 16.6372,41.86491 23.32662,30.27849 7.60415,-13.17077 11.9412,47.99958 11.9412,47.99958 z"
         style="fill:#020016;fill-opacity:1;stroke:#7070ca;stroke-width:4.5;stroke-linecap:butt;stroke-linejoin:miter;stroke-miterlimit:4;stroke-opacity:1;stroke-dasharray:none" />
      <g
         id="g3955">
        <path
           style="fill:#314b8f;fill-opacity:1;stroke:#071b42;stroke-width:4.5;stroke-linecap:butt;stroke-linejoin:miter;stroke-miterlimit:4;stroke-opacity:1;stroke-dasharray:none"
           d="m 845.07369,316.62916 c 0,0 87.67725,-116.58974 91.99633,-114.03672 4.10696,2.42764 -57.79117,129.22755 -57.79117,129.22755 z"
           id="path3951"
           inkscape:connector-curvature="0"
           sodipodi:nodetypes="cscc" />
        <path
           style="fill:none;stroke:#071b42;stroke-width:2.5;stroke-linecap:butt;stroke-linejoin:miter;stroke-miterlimit:4;stroke-opacity:1;stroke-dasharray:none"
           d="m 882.82733,324.82875 c -22.11999,-5.00066 -23.89915,-26.52978 -23.89915,-26.52978 l 13.94392,-18.54583 c 0,0 2.1858,22.9826 18.17736,27.76085 l 7.97275,-16.05669 c 0,0 -13.90904,-7.07199 -12.48255,-29.54793 l 9.98222,-12.59374 c 0,0 1.7601,15.53886 11.99169,21.26066 l 8.73206,-18.98273 c 0,0 -6.99104,-7.2595 -8.3524,-17.46412 l 7.97275,-9.87102 c 0,0 1.47255,9.82496 7.21343,12.90826 l 6.45413,-15.94549 c 0,0 -4.3986,-2.34307 -5.42636,-7.52796"
           id="path3953"
           inkscape:connector-curvature="0"
           sodipodi:nodetypes="cccccccccccccc" />
      </g>
      <path
         sodipodi:nodetypes="cscscccccc"
         inkscape:connector-curvature="0"
         d="m 791.54222,314.3383 c 53.49802,47.94016 102.61747,9.56651 109.71457,42.23939 3.39583,15.63337 -9.23682,35.08748 -24.25455,23.71879 0.58054,27.40561 54.84994,21.89547 41.08866,-22.52168 -13.86659,-44.75706 -78.43829,-68.01299 -137.1491,-40.92031 z m -21.08149,-2.75931 c -67.75636,45.05409 -14.50319,168.6318 -14.50319,168.6318 30.37533,-105.6689 -20.88676,-97.43192 21.19553,-148.88976 z"
         style="fill:#1558ce;fill-opacity:1;stroke:#885de4;stroke-width:4.5;stroke-linecap:butt;stroke-linejoin:miter;stroke-miterlimit:4;stroke-opacity:1;stroke-dasharray:none"
         id="path4658" />
      <g
         id="g3915">
        <path
           sodipodi:nodetypes="cccc"
           inkscape:connector-curvature="0"
           id="path3913"
           d="m 764.35355,372.90165 34.57323,-42.28033 c -0.32295,-20.0857 -13.5441,-39.8314 -23.57323,-45.26041 -20.42862,14.49342 -27.77713,54.10952 -11,87.54074 z"
           style="fill:#314b8f;fill-opacity:1;stroke:none" />
        <path
           style="fill:#071b42;fill-opacity:1;stroke:none"
           d="m 764.35355,372.90165 c -18.89124,-26.53769 -14,-75.23008 10.98744,-90.35875 14.76008,9.07956 25.70705,28.79189 23.58579,48.07842 -3.32815,-18.31793 -14.07443,-37.17975 -23.57323,-42.60876 -19.89829,15.20053 -22.47383,55.70051 -11,84.88909 z"
           id="path3909"
           inkscape:connector-curvature="0"
           sodipodi:nodetypes="ccccc" />
        <path
           style="fill:#071b42;fill-opacity:1;stroke:none"
           d="m 773.13518,308.14848 c -7.41044,9.97437 -8.62301,27.87897 -1.47631,40.73015 -4.56088,-12.56883 -3.08775,-30.43946 1.47631,-40.73015 z"
           id="path3911"
           inkscape:connector-curvature="0"
           sodipodi:nodetypes="ccc" />
      </g>
      <g
         id="g3891">
        <path
           sodipodi:nodetypes="cccc"
           inkscape:connector-curvature="0"
           id="path3840"
           d="m 804.95298,396.1462 2.35991,1.43526 c -4.9811,6.7878 -11.40571,14.18073 -27.69252,11.91189 13.69883,0.28978 20.11837,-6.85621 25.33261,-13.34715 z"
           style="fill:#000000;stroke:none"
           inkscape:export-filename="C:\Users\tan jierui\Pictures\And All This for One Eye.png"
           inkscape:export-xdpi="3069.8125"
           inkscape:export-ydpi="3069.8125" />
        <path
           style="fill:#000000;stroke:none"
           d="m 803.5589,392.66042 2.76086,3.58104 c -8.88751,6.17323 -19.45999,11.82791 -30.48453,7.71266 12.03706,0.56674 21.24206,-5.39493 27.72367,-11.2937 z"
           id="path3838"
           inkscape:connector-curvature="0"
           sodipodi:nodetypes="cccc"
           inkscape:export-filename="C:\Users\tan jierui\Pictures\And All This for One Eye.png"
           inkscape:export-xdpi="3069.8125"
           inkscape:export-ydpi="3069.8125" />
        <path
           sodipodi:nodetypes="cccc"
           inkscape:connector-curvature="0"
           id="path3836"
           d="m 799.60926,389.87649 2.28429,3.81778 c -9.18796,4.55677 -23.55367,8.65713 -30.35627,3.42933 12.53821,1.93485 20.04323,-2.25663 28.07198,-7.24711 z"
           style="fill:#000000;stroke:none"
           inkscape:export-filename="C:\Users\tan jierui\Pictures\And All This for One Eye.png"
           inkscape:export-xdpi="3069.8125"
           inkscape:export-ydpi="3069.8125" />
        <path
           style="fill:#000000;stroke:none"
           d="m 796.07983,386.21131 0.64624,3.04658 c 0,0 -20.40283,2.67729 -29.72721,-6.46245 10.98615,5.63156 29.08097,3.41587 29.08097,3.41587 z"
           id="path3834"
           inkscape:connector-curvature="0"
           sodipodi:nodetypes="cccc"
           inkscape:export-filename="C:\Users\tan jierui\Pictures\And All This for One Eye.png"
           inkscape:export-xdpi="3069.8125"
           inkscape:export-ydpi="3069.8125" />
        <path
           style="fill:#ffffff;stroke:none"
           d="m 794.46326,386.32978 c 8.32843,31.0681 23.08247,45.35503 74.94174,42.43222 1.792,-22.82343 -6.87808,-33.13507 -15.75568,-40.51459 z"
           id="path3830"
           inkscape:connector-curvature="0"
           sodipodi:nodetypes="cccc"
           inkscape:export-filename="C:\Users\tan jierui\Pictures\And All This for One Eye.png"
           inkscape:export-xdpi="3069.8125"
           inkscape:export-ydpi="3069.8125" />
        <g
           id="g3876"
           clip-path="url(#clipPath3887)">
          <path
             inkscape:export-ydpi="3069.8125"
             inkscape:export-xdpi="3069.8125"
             inkscape:export-filename="C:\Users\tan jierui\Pictures\And All This for One Eye.png"
             sodipodi:type="arc"
             style="fill:url(#linearGradient3864);fill-opacity:1;stroke:none"
             id="path3828"
             sodipodi:cx="863.70459"
             sodipodi:cy="415.10764"
             sodipodi:rx="12.770109"
             sodipodi:ry="25.110636"
             d="m 876.4747,415.10764 a 12.770109,25.110636 0 1 1 -25.54022,0 12.770109,25.110636 0 1 1 25.54022,0 z"
             transform="matrix(0.97973676,-0.20028943,0.20028943,0.97973676,-71.65916,177.86138)" />
          <g
             clip-path="url(#clipPath3872)"
             id="g3866">
            <path
               inkscape:connector-curvature="0"
               id="path3848"
               d="m 844.73274,422.12399 16.34073,-6.7394 1.29249,5.07763 -11.54007,13.57112 z"
               style="fill:#9cfff3;fill-opacity:1;stroke:none"
               sodipodi:nodetypes="ccccc"
               inkscape:export-filename="C:\Users\tan jierui\Pictures\And All This for One Eye.png"
               inkscape:export-xdpi="3069.8125"
               inkscape:export-ydpi="3069.8125" />
            <path
               style="fill:#66f4d4;fill-opacity:1;stroke:none"
               d="m 840.67064,418.70813 17.26393,-6.92404 1.84641,5.81619 -14.67896,10.3399 z"
               id="path3846"
               inkscape:connector-curvature="0"
               sodipodi:nodetypes="ccccc"
               inkscape:export-filename="C:\Users\tan jierui\Pictures\And All This for One Eye.png"
               inkscape:export-xdpi="3069.8125"
               inkscape:export-ydpi="3069.8125" />
          </g>
          <path
             inkscape:export-ydpi="3069.8125"
             inkscape:export-xdpi="3069.8125"
             inkscape:export-filename="C:\Users\tan jierui\Pictures\And All This for One Eye.png"
             transform="matrix(0.99864392,-0.05206072,0.05206072,0.99864392,-19.277629,45.512182)"
             d="m 875.10376,415.10764 a 11.399167,16.153975 0 1 1 -22.79834,0 11.399167,16.153975 0 1 1 22.79834,0 z"
             sodipodi:ry="16.153975"
             sodipodi:rx="11.399167"
             sodipodi:cy="415.10764"
             sodipodi:cx="863.70459"
             id="path3826"
             style="fill:#000000;stroke:none"
             sodipodi:type="arc" />
          <path
             inkscape:export-ydpi="3069.8125"
             inkscape:export-xdpi="3069.8125"
             inkscape:export-filename="C:\Users\tan jierui\Pictures\And All This for One Eye.png"
             transform="matrix(0.99942615,-0.033873,0.033873,0.99942615,-13.597064,29.837664)"
             d="m 868.18217,413.35355 a 2.4926541,4.2467437 0 1 1 -4.98531,0 2.4926541,4.2467437 0 1 1 4.98531,0 z"
             sodipodi:ry="4.2467437"
             sodipodi:rx="2.4926541"
             sodipodi:cy="413.35355"
             sodipodi:cx="865.68951"
             id="path3054"
             style="fill:#ffffff;stroke:none"
             sodipodi:type="arc" />
          <path
             inkscape:export-ydpi="3069.8125"
             inkscape:export-xdpi="3069.8125"
             inkscape:export-filename="C:\Users\tan jierui\Pictures\And All This for One Eye.png"
             transform="matrix(0.99844377,0.05576784,-0.05576784,0.99844377,22.89708,-46.281608)"
             d="m 863.47612,403.19827 a 5.7723227,10.524539 0 1 1 -11.54465,0 5.7723227,10.524539 0 1 1 11.54465,0 z"
             sodipodi:ry="10.524539"
             sodipodi:rx="5.7723227"
             sodipodi:cy="403.19827"
             sodipodi:cx="857.7038"
             id="path3824"
             style="fill:#ffffff;stroke:none"
             sodipodi:type="arc" />
        </g>
        <path
           style="fill:#779ae1;fill-opacity:1;stroke:none"
           d="m 857.38065,387.04219 c 0,0 6.09315,3.96978 8.30885,15.78681 l -25.01886,-14.8636 z"
           id="path3844"
           inkscape:connector-curvature="0"
           sodipodi:nodetypes="cccc"
           inkscape:export-filename="C:\Users\tan jierui\Pictures\And All This for One Eye.png"
           inkscape:export-xdpi="3069.8125"
           inkscape:export-ydpi="3069.8125" />
        <path
           style="fill:#000000;stroke:none"
           d="m 767.01377,377.95805 c 6.92041,4.21176 16.12202,4.94155 27.77877,6.07277 15.06046,1.46153 43.918,2.07331 61.81771,0.60164 10.10387,-0.83071 12.53539,-3.7663 12.01161,-10.57543 6.82329,10.34645 5.7693,14.215 -12.4532,15.61588 -24.58548,1.89005 -44.38138,0.0535 -55.16648,-1.18429 -12.2379,-1.40453 -28.47378,-3.6206 -33.98841,-10.53057 z"
           id="path3832"
           inkscape:connector-curvature="0"
           sodipodi:nodetypes="csscssc"
           inkscape:export-filename="C:\Users\tan jierui\Pictures\And All This for One Eye.png"
           inkscape:export-xdpi="3069.8125"
           inkscape:export-ydpi="3069.8125" />
        <path
           style="fill:#000000;stroke:none"
           d="m 830.70003,389.62716 c 0,0 21.99495,3.8684 40.55138,17.8088 -7.12756,-7.90406 -15.14793,-14.66877 -25.04154,-19.1936 z"
           id="path3842"
           inkscape:connector-curvature="0"
           sodipodi:nodetypes="cccc"
           inkscape:export-filename="C:\Users\tan jierui\Pictures\And All This for One Eye.png"
           inkscape:export-xdpi="3069.8125"
           inkscape:export-ydpi="3069.8125" />
      </g>
      <path
         sodipodi:nodetypes="ccc"
         inkscape:connector-curvature="0"
         id="path3920"
         d="m 894.59683,429.18424 c -0.0651,2.95549 1.26227,5.03507 3.94066,6.33462 -4.85786,1.72367 -6.89786,-2.48047 -3.94066,-6.33462 z"
         style="fill:#071b42;fill-opacity:1;stroke:none" />
      <path
         sodipodi:nodetypes="cccc"
         inkscape:connector-curvature="0"
         id="path3922"
         d="m 879.07322,448.68306 c 2.7495,-3.37774 13.25061,-4.69569 21.75628,-1.32062 L 899.5,449.625 c -5.50436,-2.34667 -14.4744,-2.89246 -20.42678,-0.94194 z"
         style="fill:#071b42;fill-opacity:1;stroke:none" />
    </g>
  </g>
</svg>
