<svg xmlns="http://www.w3.org/2000/svg" xmlns:inkscape="http://www.inkscape.org/namespaces/inkscape" xmlns:xlink="http://www.w3.org/1999/xlink" height="1080" viewBox="0 0 1920 1080" width="1920">
  <defs>
    <inkscape:path-effect effect="powerstroke" end_linecap_type="zerowidth" id="path-effect5521" interpolator_type="CubicBezierSmooth" offset_points="0.7,6 | 1.6,6" start_linecap_type="zerowidth" />
    <linearGradient id="linearGradient5490">
      <stop offset="0" stop-color="#fff2fb" />
      <stop offset="1" stop-color="#fac9e6" />
    </linearGradient>
    <linearGradient id="linearGradient5474">
      <stop offset="0" stop-color="#ffb8da" />
      <stop offset="1" stop-color="#e38ec8" />
    </linearGradient>
    <inkscape:path-effect effect="powerstroke" id="path-effect5451" interpolator_type="CubicBezierSmooth" offset_points="0.51,6 | 1,6" start_linecap_type="zerowidth" />
    <inkscape:path-effect effect="powerstroke" end_linecap_type="zerowidth" id="path-effect5447" interpolator_type="CubicBezierSmooth" offset_points="0.63,6.000027 | 3.25,6" start_linecap_type="zerowidth" />
    <inkscape:path-effect effect="powerstroke" id="path-effect5090" interpolator_type="CubicBezierSmooth" offset_points="0.31,6 | 6,6" start_linecap_type="zerowidth" />
    <linearGradient id="linearGradient5057">
      <stop offset="0" stop-color="#f592c9" />
      <stop offset="1" stop-color="#8a76c5" />
    </linearGradient>
    <inkscape:path-effect effect="powerstroke" id="path-effect5039" interpolator_type="CubicBezierSmooth" offset_points="0.72,6" start_linecap_type="zerowidth" />
    <inkscape:path-effect effect="powerstroke" end_linecap_type="zerowidth" id="path-effect4908" interpolator_type="CubicBezierSmooth" offset_points="1.225,4 | 2.9,4" start_linecap_type="zerowidth" />
    <inkscape:path-effect effect="powerstroke" id="path-effect4785" interpolator_type="CubicBezierSmooth" offset_points="0.2,6" start_linecap_type="zerowidth" />
    <inkscape:path-effect effect="powerstroke" end_linecap_type="zerowidth" id="path-effect4727" interpolator_type="CubicBezierSmooth" offset_points="1.25,5 | 2.5,5" start_linecap_type="zerowidth" />
    <linearGradient id="linearGradient5168">
      <stop offset="0" stop-color="#2ba8b7" />
      <stop offset="1" stop-color="#8ae9e9" />
    </linearGradient>
    <clipPath id="clipPath5185">
      <use xlink:href="#ellipse5158" />
    </clipPath>
    <clipPath id="clipPath4628">
      <use xlink:href="#path4551" />
    </clipPath>
    <linearGradient gradientUnits="userSpaceOnUse" id="linearGradient5067" x1="449.78912" x2="543.61548" y1="-741.59198" y2="-782.54163" xlink:href="#linearGradient5168" />
    <linearGradient gradientUnits="userSpaceOnUse" id="linearGradient5069" x1="291.11194" x2="365.45746" y1="-1017.6559" y2="-1064.319" xlink:href="#linearGradient5168" />
    <linearGradient gradientUnits="userSpaceOnUse" id="linearGradient5120" x1="737.41046" x2="626.61359" y1="281.56796" y2="493.79282" xlink:href="#linearGradient5057" />
    <linearGradient gradientUnits="userSpaceOnUse" id="linearGradient5128" x1="788.04224" x2="1086.2338" y1="172.14206" y2="195.43765" xlink:href="#linearGradient5057" />
    <linearGradient gradientTransform="translate(0,-30)" gradientUnits="userSpaceOnUse" id="linearGradient5320" x1="1072.7612" x2="1144.3011" y1="312.37134" y2="330.98184" xlink:href="#linearGradient5057" />
    <linearGradient gradientUnits="userSpaceOnUse" id="linearGradient5476" x1="788.67407" x2="639.10968" y1="685.72455" y2="642.69476" xlink:href="#linearGradient5474" />
    <linearGradient gradientUnits="userSpaceOnUse" id="linearGradient5513" x1="788.67407" x2="639.10968" y1="685.72455" y2="642.69476" xlink:href="#linearGradient5490" />
    <linearGradient gradientUnits="userSpaceOnUse" id="linearGradient5515" x1="788.67407" x2="639.10968" y1="685.72455" y2="642.69476" xlink:href="#linearGradient5474" />
    <linearGradient gradientUnits="userSpaceOnUse" id="linearGradient5594" x1="789.50958" x2="639.10968" y1="686.14233" y2="642.69476" xlink:href="#linearGradient5490" />
    <linearGradient gradientUnits="userSpaceOnUse" id="linearGradient5596" x1="789.50958" x2="639.10968" y1="686.14233" y2="642.69476" xlink:href="#linearGradient5474" />
    <linearGradient gradientUnits="userSpaceOnUse" id="linearGradient5598" x1="789.50958" x2="639.10968" y1="686.14233" y2="642.69476" xlink:href="#linearGradient5474" />
    <linearGradient gradientUnits="userSpaceOnUse" id="linearGradient5644" x1="710.75037" x2="555.37018" y1="651.50244" y2="691.97284" xlink:href="#linearGradient5057" />
  </defs>
  <g inkscape:groupmode="layer" inkscape:label="Drawing">
    <g>
      <g transform="translate(31.83553-29.582235)">
        <path d="m 549.36162,605.00063 c 7.48621,-46.86197 203.31273,-33.78133 281.18255,3.45733 86.98798,41.59912 57.76816,176.5355 -90.60584,167.49759 C 597.12253,767.25621 544.0328,638.35782 549.36162,605.00063 Z" fill="url(#linearGradient5594)" stroke="url(#linearGradient5596)" stroke-width="12" />
        <path d="m 549.15755,613.2604 c 37.27823,34.29435 81.26191,66.76275 135.79917,87.72057 m -103.94957,-120.02935 158.1416,38.3575 m 41.52798,-28.22568 c -50.15433,7.25406 -60.26132,34.29366 0.64995,67.43329 -89.50319,-19.52641 -153.62005,34.78299 -55.25025,61.36942 -50.62236,-0.99628 -77.13072,12.23526 -75.45967,32.49688" style="stroke-miterlimit:20;fill:none;stroke-width:7;stroke:url(#linearGradient5598)" />
      </g>
      <path d="m 768.64332,747.07878 c -12.52682,9.60245 -21.29109,21.29214 -25.95978,47.53534 -4.42648,24.88169 58.58659,52.17546 78.85439,27.6471 14.12156,-17.0901 14.00409,-41.23646 15.0485,-70.48004 z" fill="#fbe2f1" stroke="#ffb8da" stroke-width="12" />
      <path d="m 884.73741,736.73961 c -10.04376,44.31072 -11.51514,100.1833 -3.24945,147.81618 4.72242,27.21404 96.11223,19.36992 87.91685,-0.97811 -21.79173,-54.10595 -27.3348,-102.64113 -20.83589,-163.49452 z" fill="#fbe2f1" stroke="#ffb8da" stroke-width="12" />
      <path d="m 823.44091,786.51532 c -4.13566,55.83151 -15.4997,46.78661 -22.59846,36.18709 -10.78227,-16.09957 -26.58644,-16.20131 -68.23851,-16.05361 -3.82107,-63.57824 82.41793,-79.65755 90.83697,-20.13348 z" fill="#93f3ef" stroke="#4ecbe5" stroke-width="12" />
      <path d="m 942.89671,645.38834 c -5.00745,-13.81364 0.44746,-42.882 13.78627,-67.54246 L 826.75791,550.69112 c -2.77253,26.46477 -5.94693,52.7286 -13.3685,76.86885 -49.7141,28.82582 -78.76437,123.29019 -9.39141,174.39716 158.83133,10.5311 162.80063,-90.63247 138.89871,-156.56879 z" fill="#fff2fb" stroke="#ffb8da" stroke-width="12" />
      <path d="m 712.44476,767.80463 c -51.26683,5.24306 -70.21363,47.30117 -67.26126,99.61825 1.52313,26.9905 90.90578,32.4645 87.89984,4.30463 -4.83665,-45.31001 1.82861,-72.63039 36.08538,-101.66509 z" fill="#fff2fb" stroke="#ffb8da" stroke-width="12" />
      <path d="m 762.70989,791.41676 c 1.08025,-33.70434 8.98784,-52.45265 22.93124,-76.69685 5.61885,35.14194 12.70342,65.23681 24.77664,100.8421 -14.55525,-11.93761 -30.24962,-21.21444 -47.70788,-24.14525 z" fill="#93f3ef" />
      <path fill="#4ecbe5" inkscape:original-d="m 762.70989,791.41676 c 1.08025,-33.70434 8.98784,-52.45265 22.93124,-76.69685 5.61885,35.14194 12.70342,65.23681 24.77664,100.8421" inkscape:path-effect="#path-effect5521" />
      <g>
        <path d="m 841.67741,749.00968 c -17.96391,31.54129 -8.87867,66.678 28.3105,58.10656 -2.53227,13.05526 -2.25018,26.06111 0.91143,34.49207 9.81049,26.1613 53.73663,37.7314 62.69365,-12.5908 8.10785,-45.55139 5.98337,-73.3414 -5.97195,-85.53839 -12.00185,-12.24445 -41.28712,-10.83519 -60.54008,11.80316 z" fill="#fff2fb" />
        <path fill="#ffb8da" inkscape:original-d="m 881.19256,778.39169 c -12.40077,18.50297 -15.94036,48.15758 -10.29322,63.21662 9.81048,26.1613 53.73663,37.7314 62.69365,-12.5908 8.10785,-45.55139 5.98337,-73.3414 -5.97195,-85.53839 -12.00185,-12.24445 -41.28712,-10.83519 -60.54008,11.80316" inkscape:path-effect="#path-effect5447" />
        <path fill="#ffb8da" inkscape:original-d="m 841.67741,749.00968 c -17.96391,31.54129 -8.87867,66.678 28.30246,58.11381" inkscape:path-effect="#path-effect5451" />
      </g>
      <g>
        <path d="m 575.83588,639.41575 c -81.53173,63.21663 30.01751,189.26259 86.14442,106.25384 z" fill="url(#linearGradient5644)" />
        <path d="m 595.64469,730.31332 c -12.29522,-9.58555 -16.5876,-29.43929 -0.40399,-46.45117 l -7.55327,-18.70783 c -17.57703,13.91052 -31.15902,29.74458 -38.11663,48.76815 12.12903,45.38819 64.69236,80.35216 102.14549,44.12142 -27.92325,6.9298 -49.04082,-7.023 -56.0716,-27.73057 z" fill="#57c4dd" />
        <path d="M 626.84043,732.1168 C 597.92046,748.15519 568.3824,712.09505 595.2407,683.86215 l -19.40482,-44.4464 c -81.53173,63.21663 30.01751,189.26259 86.14442,106.25384 z" fill="none" stroke="#8c61ad" stroke-width="12" />
      </g>
      <g>
        <path d="m 549.36162,605.00063 c 7.48621,-46.86197 203.31273,-33.78133 281.18255,3.45733 86.98798,41.59912 57.76816,176.5355 -90.60584,167.49759 C 597.12253,767.25621 544.0328,638.35782 549.36162,605.00063 Z" fill="url(#linearGradient5513)" stroke="url(#linearGradient5515)" stroke-width="12" />
        <path d="m 549.15755,613.2604 c 37.27823,34.29435 81.26191,66.76275 135.79917,87.72057 M 581.06127,581.06128 c 56.26793,23.77731 112.44496,46.32463 175.70586,61.55499 m 23.9096,-51.53283 c -50.15433,7.25406 -60.26132,34.29366 0.64995,67.43329 -89.50319,-19.52641 -153.62005,34.78299 -55.25025,61.36942 -50.62236,-0.99628 -77.13072,12.23526 -75.45967,32.49688" style="stroke-miterlimit:20;fill:none;stroke-width:7;stroke:url(#linearGradient5476)" />
      </g>
    </g>
    <g>
      <path d="m 1042.565,232.72486 c 48.8786,-60.99376 159.7904,17.14874 98.3789,160.4423 z" fill="url(#linearGradient5320)" />
      <path d="m 1155.4468,281.2671 c 6.9908,29.64076 4.4545,67.66622 -14.5029,111.90006 l -89.0804,-145.27773 c 40.289,-21.19162 75.5206,-4.93803 103.5833,33.37767 z" fill="#57c4dd" />
      <path d="m 1042.565,232.72486 c 48.8786,-60.99376 159.7904,17.14874 98.3789,160.4423 z" fill="none" stroke="#8c61ad" stroke-width="12" />
      <path d="m 693.6105,414.15755 c 9.37396,159.59765 208.95794,226.41433 328.582,171.8337 157.1409,-71.69839 160.6263,-306.94821 12.6955,-379.29978 -188.45684,-92.1725 -351.70624,29.91007 -341.2775,207.46608 z" fill="#fff2fb" stroke="#ffb8da" stroke-width="12" />
      <g>
        <ellipse cx="714.48596" cy="-592.47455" fill="#fff" rx="94.12323" ry="89.453194" transform="rotate(63.376645)" />
        <path d="m 831.12144,479.58972 c 15.06564,-30.1313 66.17068,-36.33479 86.1105,-14.77025 -27.47264,-3.24944 -59.37637,1.18162 -86.1105,14.77025 z" fill="#ffb8da" />
        <g clip-path="url(#clipPath4628)">
          <ellipse cx="490.87619" cy="-785.42114" fill="url(#linearGradient5067)" id="path4551" rx="70.532593" ry="67.818611" stroke="#ffb8da" stroke-width="0.2" transform="rotate(80.116352)" />
          <path d="m 864.19474,367.88074 56.72976,29.73414 9.60066,-20.97373 z" fill="#fbffff" />
          <path d="m 864.19474,367.88074 69.72757,-2.61269 -5.02188,15.95187 z" fill="#9ae2d6" />
          <ellipse cx="646.64154" cy="-672.03931" rx="57.611874" ry="56.083256" transform="rotate(67.328549)" />
          <ellipse cx="901.83014" cy="-89.484474" fill="#fff" rx="30.8955" ry="46.114983" transform="rotate(26.369487)" />
          <ellipse cx="423.60901" cy="867.47607" fill="#fff" rx="9.4774408" ry="11.744381" transform="rotate(316.46862)" />
          <ellipse cx="389.26672" cy="864.7464" fill="#fff" rx="5.2832885" ry="6.347971" transform="rotate(316.46862)" />
        </g>
        <path d="m 796.99212,446.56307 c -13.25343,7.01368 -24.8133,15.9956 -33.71895,32.85462 13.22161,-11.90789 26.66512,-20.7031 40.50764,-27.11034 z m 3.44656,36.45004 c 2.3112,-9.68354 6.21631,-18.49767 14.6218,-24.85705 l 10.8619,4.07322 c -11.21431,3.66997 -18.68038,11.87581 -25.4837,20.78383 z" />
        <path inkscape:original-d="m 832.5321,463.91043 c -25.91354,-6.30984 -49.38978,-24.10831 -62.66731,-50.59594 -23.29473,-46.47118 -6.37566,-102.09065 37.78979,-124.22958 44.16545,-22.13893 98.85273,-2.41375 122.14745,44.05742 10.80436,21.55386 12.95789,45.0757 7.75442,66.31224" inkscape:path-effect="#path-effect4727" />
        <ellipse cx="-227.74213" cy="1089.1942" fill="#fff" rx="81.832199" ry="62.16053" transform="rotate(276.03745)" />
        <g clip-path="url(#clipPath5185)">
          <ellipse cx="323.7164" cy="-1055.3044" fill="url(#linearGradient5069)" id="ellipse5158" rx="58.753159" ry="50.815159" transform="rotate(89.891549)" />
          <path d="m 1064.7867,335.13676 45.0492,16.54267 5.7604,-21.38293 z" fill="#fbffff" />
          <path d="m 1064.7867,335.13676 50.3665,-14.62254 -0.8862,15.69038 z" fill="#9ae2d6" />
          <ellipse cx="313.73856" cy="-1058.184" rx="49.220726" ry="42.570675" transform="rotate(89.891549)" />
          <ellipse cx="1082.7596" cy="42.767727" fill="#fff" rx="23.132595" ry="37.168911" transform="rotate(14.0293)" />
          <ellipse cx="717.43701" cy="869.21405" fill="#fff" rx="7.5660958" ry="9.1361389" transform="rotate(325.30698)" />
          <ellipse cx="690.96301" cy="878.41602" fill="#fff" rx="4.3010254" ry="4.915791" transform="rotate(325.30698)" />
        </g>
        <path inkscape:original-d="m 1006.864,389.42683 c -7.90872,-15.27822 -11.63793,-34.52716 -9.48043,-54.92612 4.75353,-44.94399 36.28283,-78.45117 70.42273,-74.84037 34.1398,3.61081 57.9622,42.97227 53.2087,87.91625 -2.7218,25.73486 -14.2227,47.71995 -29.9657,61.13395" inkscape:path-effect="#path-effect4908" />
        <path d="m 1095.878,404.33534 c 7.6112,1.30421 13.8168,4.9766 20.0137,9.74836 -3.3849,-6.79428 -7.9897,-12.23372 -15.4349,-15.65646 z m 18.3725,-29.25943 c 9.8332,-2.60343 20.7402,-3.11425 31.6664,-1.36048 -8.9752,-6.25823 -18.8598,-8.18225 -29.7685,-5.96659 z m -8.0075,15.58044 c 12.2486,0.88659 24.3714,3.83276 35.5101,11.10137 -8.1178,-11.62717 -18.8995,-16.92821 -32.5857,-16.60618 z" />
        <path d="m 1043.3698,439.85777 c 7.3419,-28.28904 35.3443,-37.38854 59.8195,-15.50875 -22.884,-2.3748 -43.232,1.74887 -59.8195,15.50875 z" fill="#ffb8da" />
        <path d="m 954.2207,462.37637 c -2.273,25.9496 2.3039,57.20596 12.8165,75.20919 13.2919,22.76276 46.8344,12.63545 34.5448,-10.49457 -8.4805,-15.96097 -13.5356,-31.96163 -15.07982,-53.9264 -9.33125,-0.78163 -20.07492,-4.09099 -32.28148,-10.78822 z" fill="#bb1c76" />
        <path fill="#ffb8da" inkscape:original-d="m 953.1575,431.17725 c 102.6576,-75.35643 97.7789,84.26297 1.0632,31.19912 -2.273,25.9496 2.3039,57.20596 12.8165,75.20919 13.2919,22.76276 46.8344,12.63545 34.5448,-10.49457 -8.4805,-15.96097 -13.5356,-31.96163 -14.9978,-53.96626" inkscape:path-effect="#path-effect4785" />
        <path d="m 979.53771,523.53636 c 9.36135,-6.62921 24.40599,4.93665 30.54949,27.86447 3.7909,14.14775 -22.9742,42.15301 -26.72726,11.4499 -3.37719,-27.62818 -12.26938,-21.9753 -15.97117,-38.73608 3.63571,-2.17965 7.82286,-1.71239 12.14894,-0.57829 z" fill="#ef6f2f" />
        <path d="m 927.128,484.3162 c 19.16091,-13.68166 14.86844,-44.39737 28.94968,-38.25493 2.3444,19.13369 -2.55635,37.05906 -28.94968,38.25493 z" fill="#fff2fb" />
        <path d="m 927.128,484.3162 c 28.30645,5.23822 36.64603,-15.06428 28.94968,-38.25493 -2.07568,17.85264 -7.75275,33.27986 -28.94968,38.25493 z m 82.7284,-50.91274 c 10.4562,1.51254 12.515,-6.43748 5.627,-10.60976 0.701,4.4939 -0.5609,8.26917 -5.627,10.60976 z m -32.55521,-3.81583 c -4.70801,8.00252 -0.005,13.97139 8.94394,9.12967 -5.13733,-1.07728 -8.26896,-3.76942 -8.94394,-9.12967 z" fill="#ffb8da" />
      </g>
      <g>
        <path d="m 716.49235,271.77244 c 34.22248,-11.11953 71.48221,-16.40554 102.44266,-14.97249 5.08574,42.24312 51.71385,75.70888 132.85969,47.84048 137.6612,-47.27781 161.7001,-170.97666 72.5295,-233.448013 C 945.4492,15.933995 782.66687,34.480713 705.20991,220.96906 Z" fill="url(#linearGradient5128)" />
        <path d="m 951.7947,304.64043 c 72.2274,-38.55813 62.5587,-129.97854 6.68311,-160.7116 -50.56388,-27.81148 -162.19985,4.5869 -241.98546,127.84361 l 4.22877,-21.05013 C 777.00572,117.26485 905.01187,60.626989 974.3061,85.925063 c 57.9194,21.145327 93.4135,105.563337 45.3707,183.761167 -19.2773,15.0015 -43.0898,25.46773 -67.8821,34.9542 z" fill="#57c4dd" />
        <path fill="#8c61ad" inkscape:original-d="m 924.91247,232.779 c -77.69147,-21.56455 -68.97716,63.17561 -6.82838,46.20008 42.34786,-11.56704 60.61,-54.03644 37.34559,-87.56628 -28.275,-40.75134 -106.29547,-19.60581 -128.41847,22.47051 -29.80841,56.69338 17.08677,127.74405 124.78349,90.75712 137.6612,-47.2778 161.7001,-170.97666 72.5295,-233.448013 C 945.4492,15.933995 782.66687,34.480713 705.20991,220.96906" inkscape:path-effect="#path-effect5090" />
        <path d="M 807.46505,174.97109 C 792.104,-144.65517 804.42316,-146.54063 892.25826,138.0947" fill="#fff2fb" stroke="#ffb8da" stroke-width="12" />
        <path d="m 802.61488,71.827138 c 26.58643,47.855572 61.44419,51.901532 79.16849,30.632382 M 800.95325,-1.5189085 c 12.47869,25.2162855 38.04113,37.6179795 55.4547,26.8322075" fill="none" stroke="#ffb8da" stroke-width="7" />
        <path d="m 951.7947,304.64043 c 72.2274,-38.55813 62.5587,-129.97854 6.68311,-160.7116 -50.56388,-27.81148 -162.19985,4.5869 -241.98546,127.84361 34.22248,-11.11953 71.48221,-16.40554 102.6652,-14.77025" fill="none" stroke="#8c61ad" stroke-width="12" />
        <path d="M 687.4568,380.66302 C 556.28476,263.62334 635.29284,142.99251 641.1663,142.12237 c 15.95185,-2.36324 94.12673,55.35165 96.07221,176.5516 z" fill="#fff2fb" stroke="#ffb8da" stroke-width="12" />
        <path d="m 652.65171,206.12803 c -14.85422,40.87083 -0.27328,93.55068 31.67454,120.5027 -26.42059,-38.74213 -35.43443,-78.54801 -31.67454,-120.5027 z" fill="#ffb8da" />
        <path d="m 562.54794,424.45157 c 8.71942,67.35663 68.74574,95.2817 124.23368,89.9755 123.48894,-11.80898 141.3385,-203.94752 51.90482,-264.85604 -9.37983,39.75405 -29.06766,78.25824 -62.27887,102.5662 -61.40381,-36.04077 -122.21035,7.80593 -113.85963,72.31434 z" fill="url(#linearGradient5120)" />
        <path d="m 650.20787,460.35448 c 43.09731,-6.28863 58.40333,-45.50145 48.42451,-75.442 34.49008,-30.74982 43.76891,-77.13123 30.13129,-103.39168 l 5.31729,-14.77025 c 67.22138,74.12257 11.7131,216.89044 -83.87309,193.60393 z" fill="#57c4dd" />
        <path fill="#8c61ad" inkscape:original-d="m 624.97718,421.60158 c 15.03955,16.50174 33.66426,-6.20169 16.65994,-19.98106 -16.6074,-13.45772 -40.45214,7.44077 -34.66365,29.04373 7.26755,27.12288 40.96612,32.74919 64.08906,22.89373 41.52821,-17.70015 38.93622,-81.70452 5.34504,-101.42075 -61.40381,-36.04077 -122.21035,7.80593 -113.85963,72.31434 8.71942,67.35663 68.74574,95.2817 124.23368,89.9755 123.48894,-11.80898 141.3385,-203.94752 51.90482,-264.85604 -9.37983,39.75405 -29.06766,78.25824 -62.27887,102.5662" inkscape:path-effect="#path-effect5039" />
        <path d="m 684.58389,447.04797 c 20.81353,-59.95763 -31.65311,-86.17841 -65.90614,-75.66486 -40.91762,12.55916 -59.85579,72.10978 -0.34095,132.66941" fill="none" stroke="#8c61ad" stroke-width="7" />
      </g>
    </g>
  </g>
</svg>