<?xml version="1.0" encoding="UTF-8" standalone="no"?>
<!-- Created with Inkscape (http://www.inkscape.org/) -->

<svg
   xmlns:dc="http://purl.org/dc/elements/1.1/"
   xmlns:cc="http://creativecommons.org/ns#"
   xmlns:rdf="http://www.w3.org/1999/02/22-rdf-syntax-ns#"
   xmlns:svg="http://www.w3.org/2000/svg"
   xmlns="http://www.w3.org/2000/svg"
   xmlns:xlink="http://www.w3.org/1999/xlink"
   xmlns:sodipodi="http://sodipodi.sourceforge.net/DTD/sodipodi-0.dtd"
   xmlns:inkscape="http://www.inkscape.org/namespaces/inkscape"
   width="912.56482"
   height="946.37177"
   id="svg2"
   version="1.1"
   inkscape:version="0.48.3.1 r9886"
   sodipodi:docname="Albumin Flask.svg"
   inkscape:export-filename="/home/parclytaxel/Pictures/Albumin Flask.png"
   inkscape:export-xdpi="631.18274"
   inkscape:export-ydpi="631.18274">
  <sodipodi:namedview
     id="base"
     pagecolor="#ffffff"
     bordercolor="#666666"
     borderopacity="1.0"
     inkscape:pageopacity="0.0"
     inkscape:pageshadow="2"
     inkscape:zoom="0.56426028"
     inkscape:cx="459.82687"
     inkscape:cy="473.18584"
     inkscape:document-units="px"
     inkscape:current-layer="layer1"
     showgrid="true"
     inkscape:window-width="1364"
     inkscape:window-height="698"
     inkscape:window-x="0"
     inkscape:window-y="0"
     inkscape:window-maximized="1"
     showguides="true"
     inkscape:guide-bbox="true"
     fit-margin-top="0"
     fit-margin-left="0"
     fit-margin-right="0"
     fit-margin-bottom="0">
    <inkscape:grid
       type="xygrid"
       id="grid3865"
       empspacing="5"
       visible="true"
       enabled="false"
       snapvisiblegridlinesonly="true"
       spacingx="8px"
       spacingy="8px"
       originx="80.570579px"
       originy="60.33498px" />
  </sodipodi:namedview>
  <defs
     id="defs4">
    <inkscape:path-effect
       effect="skeletal"
       id="path-effect4137"
       is_visible="true"
       pattern="m 275.81149,813.12709 0,8 250.17419,0 c 20.30927,0 66.14368,-1.37098 83.82581,-4 -17.68212,-2.57454 -63.24825,-4 -83.82581,-4 z"
       copytype="single_stretched"
       prop_scale="1"
       scale_y_rel="false"
       spacing="0"
       normal_offset="0"
       tang_offset="0"
       prop_units="false"
       vertical_pattern="false"
       fuse_tolerance="0"
       pattern-nodetypes="ccscsc" />
    <inkscape:path-effect
       effect="skeletal"
       id="path-effect4117"
       is_visible="true"
       pattern="m 152.97573,817.22145 c -12.56344,0 -20.35524,1.17701 -34,4 13.77785,2.82299 21.81599,4 34,4 l 250.17419,0 c 13.33364,0 19.92419,-0.83439 29.82581,-4 -9.90162,-2.84283 -16.49217,-4 -29.82581,-4 z"
       copytype="single_stretched"
       prop_scale="1"
       scale_y_rel="false"
       spacing="0"
       normal_offset="0"
       tang_offset="0"
       prop_units="false"
       vertical_pattern="false"
       fuse_tolerance="0"
       pattern-nodetypes="scsscss" />
    <inkscape:path-effect
       effect="skeletal"
       id="path-effect5970"
       is_visible="true"
       pattern="m 239.92542,707.38681 c -4.26773,0 -27.0247,0.52929 -35.99733,4 9.10573,3.28098 31.65102,4 35.99733,4 l 136.37995,0 c 5.35784,0 9.14079,-0.97807 15.15379,-4 -5.71216,-3.1897 -9.71737,-4 -15.15379,-4 z"
       copytype="single_stretched"
       prop_scale="1"
       scale_y_rel="false"
       spacing="0"
       normal_offset="0"
       tang_offset="0"
       prop_units="false"
       vertical_pattern="false"
       fuse_tolerance="0"
       pattern-nodetypes="scsscss" />
    <inkscape:path-effect
       effect="skeletal"
       id="path-effect4527"
       is_visible="true"
       pattern="m 482.4836,703.62846 c -4.26773,0 -13.17104,0.52929 -19.99733,4 6.69109,3.28098 15.65102,4 19.99733,4 l 276.37995,0 c 8.77266,0 16.8482,-0.97807 23.62005,-4 -6.66072,-3.1897 -14.5791,-4 -23.62005,-4 z"
       copytype="single_stretched"
       prop_scale="1"
       scale_y_rel="false"
       spacing="0"
       normal_offset="0"
       tang_offset="0"
       prop_units="false"
       vertical_pattern="false"
       fuse_tolerance="0"
       pattern-nodetypes="scsscss" />
    <inkscape:path-effect
       effect="skeletal"
       id="path-effect3958"
       is_visible="true"
       pattern="m 408.687,273.12726 c -25.46386,0 -73.17828,0.79759 -102,4 28.57538,3.20241 76.53614,4 102,4 l 252.17419,0 c 13.33364,0 64.33571,-1.78295 81.82581,-4 -17.4901,-2.4634 -68.49217,-4 -81.82581,-4 z"
       copytype="single_stretched"
       prop_scale="1"
       scale_y_rel="false"
       spacing="0"
       normal_offset="0"
       tang_offset="0"
       prop_units="false"
       vertical_pattern="false"
       fuse_tolerance="0"
       pattern-nodetypes="scsscss" />
    <inkscape:path-effect
       effect="skeletal"
       id="path-effect3161"
       is_visible="true"
       pattern="m 673.92368,867.60686 c -18.99944,0 -43.19186,1.29026 -67.8258,4 24.63394,2.95607 48.82636,4 67.8258,4 l 632.17422,0 c 25.4638,0 51.6296,-1.29027 94,-4 -42.2683,-2.70973 -68.5362,-4 -94,-4 z"
       copytype="single_stretched"
       prop_scale="1"
       scale_y_rel="false"
       spacing="0"
       normal_offset="0"
       tang_offset="0"
       prop_units="false"
       vertical_pattern="false"
       fuse_tolerance="0"
       pattern-nodetypes="scsscss" />
    <inkscape:path-effect
       effect="skeletal"
       id="path-effect3135"
       is_visible="true"
       pattern="m 435.35045,795.60262 c -25.46386,0 -87.17828,0.79759 -116,4 28.57538,3.69509 90.53614,4 116,4 l 228,0 0,-8 z"
       copytype="single_stretched"
       prop_scale="1"
       scale_y_rel="false"
       spacing="0"
       normal_offset="0"
       tang_offset="0"
       prop_units="false"
       vertical_pattern="false"
       fuse_tolerance="0"
       pattern-nodetypes="scsccs" />
    <inkscape:path-effect
       effect="skeletal"
       id="path-effect3900"
       is_visible="true"
       pattern="m 626.16667,705.04405 c -25.46386,0 -75.17828,0.79759 -104,4 28.57538,3.69509 78.53614,4 104,4 l 252.17419,0 c 13.33364,0 32.33571,-1.78295 49.82581,-4 -17.4901,-2.4634 -36.49217,-4 -49.82581,-4 z"
       copytype="single_stretched"
       prop_scale="1"
       scale_y_rel="false"
       spacing="0"
       normal_offset="0"
       tang_offset="0"
       prop_units="false"
       vertical_pattern="false"
       fuse_tolerance="0"
       pattern-nodetypes="scsscss" />
    <inkscape:path-effect
       effect="skeletal"
       id="path-effect3880"
       is_visible="true"
       pattern="m 572.16212,748.43785 c -25.46386,0 -87.17828,0.79759 -116,4 28.57538,3.69509 90.53614,4 116,4 l 252,0 0,-8 z"
       copytype="single_stretched"
       prop_scale="1"
       scale_y_rel="false"
       spacing="0"
       normal_offset="0"
       tang_offset="0"
       prop_units="false"
       vertical_pattern="false"
       fuse_tolerance="0"
       pattern-nodetypes="scsccs" />
    <clipPath
       clipPathUnits="userSpaceOnUse"
       id="clipPath4794">
      <path
         sodipodi:nodetypes="ccc"
         inkscape:connector-curvature="0"
         id="path4796"
         d="M 707.5823,273.29252 C 1064.089,-143.74405 886.25968,-340.27175 391.34581,136.24821 626.62157,-7.8692236 784.38651,113.41908 707.5823,273.29252 z"
         style="fill:none;stroke:#000000;stroke-width:1.72223556" />
    </clipPath>
    <clipPath
       clipPathUnits="userSpaceOnUse"
       id="clipPath4562">
      <path
         id="path4564"
         style="font-size:medium;font-style:normal;font-variant:normal;font-weight:normal;font-stretch:normal;text-indent:0;text-align:start;text-decoration:none;line-height:normal;letter-spacing:normal;word-spacing:normal;text-transform:none;direction:ltr;block-progression:tb;writing-mode:lr-tb;text-anchor:start;baseline-shift:baseline;color:#000000;fill:none;stroke:#ffff00;stroke-width:1;stroke-miterlimit:4;stroke-dasharray:none;marker:none;visibility:visible;display:inline;overflow:visible;enable-background:accumulate;font-family:Sans;-inkscape-font-specification:Sans"
         d="m 39.46875,903.15625 c 2.535919,-13.50243 12.414673,-33.82054 31.34375,-60.125 L 75.526716,798.44594 284.20994,660.33558 403.34909,694.48375 402.25,724.3125 c -22.67827,50.47585 -42.05156,82.51399 -54.71875,93.28125 L 454.95076,856.87724 510.34667,635.2936 183.28315,560.16763 -99.767193,751.39735 -81.554839,904.68467 z"
         inkscape:connector-curvature="0"
         sodipodi:nodetypes="ccccccc" />
    </clipPath>
    <clipPath
       clipPathUnits="userSpaceOnUse"
       id="clipPath4566">
      <path
         id="path4568"
         style="font-size:medium;font-style:normal;font-variant:normal;font-weight:normal;font-stretch:normal;text-indent:0;text-align:start;text-decoration:none;line-height:normal;letter-spacing:normal;word-spacing:normal;text-transform:none;direction:ltr;block-progression:tb;writing-mode:lr-tb;text-anchor:start;baseline-shift:baseline;color:#000000;fill:none;stroke:#000000;stroke-width:1;stroke-miterlimit:4;stroke-dasharray:none;marker:none;visibility:visible;display:inline;overflow:visible;enable-background:accumulate;font-family:Sans;-inkscape-font-specification:Sans"
         d="m 396.71324,758.98852 c 0.0463,-10.78649 0.88897,-21.6141 2.05629,-32.45184 L 70.631043,846.78933 c -8.543487,7.49251 -18.329565,13.5848 -28.804787,18.04582 l -80.885602,71.72114 229.172126,62.22554 220.06595,-120.65684 z"
         inkscape:connector-curvature="0"
         sodipodi:nodetypes="cccc" />
    </clipPath>
    <clipPath
       clipPathUnits="userSpaceOnUse"
       id="clipPath6014">
      <path
         id="path6016"
         style="fill:none;stroke:#999999"
         d="m 351.89254,710.00468 c -5.46248,-4.24108 -10.2196,-9.56419 -14.76843,-15.19488 l -110.96869,6.69999 c -9.85379,7.56886 -20.08027,14.69643 -30.48233,21.60677 l -21.4277,96.32742 169.70563,-51.26524 z"
         inkscape:connector-curvature="0"
         sodipodi:nodetypes="cccc" />
    </clipPath>
    <clipPath
       clipPathUnits="userSpaceOnUse"
       id="clipPath6018">
      <path
         id="path6020"
         style="font-size:medium;font-style:normal;font-variant:normal;font-weight:normal;font-stretch:normal;text-indent:0;text-align:start;text-decoration:none;line-height:normal;letter-spacing:normal;word-spacing:normal;text-transform:none;direction:ltr;block-progression:tb;writing-mode:lr-tb;text-anchor:start;baseline-shift:baseline;color:#000000;fill:none;stroke:#000000;stroke-width:1;stroke-miterlimit:4;stroke-dasharray:none;marker:none;visibility:visible;display:inline;overflow:visible;enable-background:accumulate;font-family:Sans;-inkscape-font-specification:Sans"
         d="m 204.40625,765.40625 c -1.37811,-20.75254 4.89894,-41.73401 12.15625,-62.125 l 37.58596,-35.51168 74.95332,8.48529 17.80447,14.08889 c -4.39723,14.73508 -9.14297,29.28002 -16.1875,42.5 l 72.93877,10.93149 4.5,-86 -176,-31.5 -185.000005,59 27,125.5 z"
         inkscape:connector-curvature="0"
         sodipodi:nodetypes="cccccc" />
    </clipPath>
    <clipPath
       clipPathUnits="userSpaceOnUse"
       id="clipPath4306">
      <path
         style="fill:none;stroke:#000000"
         d="m 651.80873,869.17115 c -4.0881,3.99034 -7.67992,8.24906 -10.62548,12.58316 -2.00416,2.89672 -3.8064,6.10879 -4.86785,9.57694 -0.0122,0.04 -0.0244,0.08 -0.0364,0.12001 -0.38194,1.17249 -0.6496,2.64224 -0.60152,4.37564 -0.0387,1.32768 0.52303,2.91076 1.81221,4.51263 9.61856,10.24743 21.05366,18.5883 33.2707,25.22029 l 144.67636,4.17647 0,243.11251 -330.83348,-5.0127 16.29105,-719.31213 293.23876,15.03788 128.13332,416.22339 z"
         id="path4308"
         inkscape:connector-curvature="0"
         sodipodi:nodetypes="cccccccccccccc" />
    </clipPath>
  </defs>
  <metadata
     id="metadata7">
    <rdf:RDF>
      <cc:Work
         rdf:about="">
        <dc:format>image/svg+xml</dc:format>
        <dc:type
           rdf:resource="http://purl.org/dc/dcmitype/StillImage" />
        <dc:title></dc:title>
      </cc:Work>
    </rdf:RDF>
  </metadata>
  <g
     id="layer1"
     inkscape:groupmode="layer"
     inkscape:label="Layer 1"
     transform="translate(80.570579,-166.32547)">
    <g
       id="g3941">
      <path
         style="fill:#6dc6fb;fill-opacity:1;stroke:none"
         d="m 503.02518,673.49209 c 33.85383,128.32962 83.634,164.3362 154.23493,193.70284 -13.62259,15.29277 -19.86337,27.19524 -16.85158,30.40962 17.13344,18.28591 45.01448,34.11844 71.662,38.32053 4.13574,0.65222 24.42595,-44.71829 23.9576,-74.98 -0.47058,-30.40593 -27.70253,-60.03036 -131.81469,-105.21658 -5.52862,-2.3995 -37.07195,-51.36621 -62.26662,-96.5241 z"
         id="path3939"
         inkscape:connector-curvature="0"
         sodipodi:nodetypes="ccsssscc" />
      <path
         inkscape:original-d="m 665.31317,858.04539 c -18.97223,19.60928 -28.48828,35.73447 -24.90464,39.55916 17.13378,18.28559 45.01448,34.11844 71.662,38.32053 4.13574,0.65222 24.42595,-44.71829 23.9576,-74.98 -0.47058,-30.40593 -27.70253,-60.03036 -131.81469,-105.21658 -5.52862,-2.3995 -37.07195,-51.36621 -62.26662,-96.5241"
         inkscape:path-effect="#path-effect3161"
         style="fill:#1c92cd;fill-opacity:1;stroke:none"
         d="m 643.984,893.60154 c 0.66866,-2.37583 2.02922,-4.95076 3.60739,-7.88611 2.32766,-4.25151 5.05758,-8.72564 8.07745,-13.35829 3.01987,-4.63266 6.32583,-9.42735 9.64433,-14.31175 -4.83826,3.41402 -9.41634,7.13542 -13.50444,11.12576 -4.0881,3.99034 -7.67992,8.24906 -10.62548,12.58316 -2.00416,2.89672 -3.8064,6.10879 -4.86785,9.57694 -0.0122,0.04 -0.0244,0.08 -0.0364,0.12001 -0.38194,1.17249 -0.6496,2.64224 -0.60152,4.37564 -0.0387,1.32768 0.52303,2.91076 1.81221,4.51263 9.61856,10.24743 21.05366,18.5883 33.2707,25.22029 0,0 10e-6,0 10e-6,0 12.60809,6.87637 26.3272,12.03619 40.68709,14.31643 2.5248,-0.10757 3.90001,-0.6221 4.09435,-1.24326 0.89578,-0.7618 1.51966,-1.47967 1.93783,-2.06572 1.50991,-1.99113 2.66447,-4.02747 3.67284,-5.94198 3.33095,-6.24611 5.99955,-12.73142 8.3777,-19.21719 2.99781,-8.14912 5.53067,-16.49811 7.43731,-25.01589 0,0 0,-10e-6 0,-10e-6 1.85867,-8.23669 3.17784,-16.78454 3.06018,-25.50902 -0.14793,-8.67992 -2.50628,-17.21517 -6.64434,-24.77155 -5.52351,-9.99921 -13.417,-18.21785 -21.81022,-25.28329 -12.65917,-10.71366 -26.71513,-19.42547 -40.95704,-27.3649 -10e-6,-10e-6 -10e-6,-10e-6 -2e-5,-10e-6 -21.02645,-11.73915 -42.8389,-21.87183 -64.81006,-31.40424 0.28332,0.2144 0.24079,0.0743 -0.20654,-0.24725 -0.50774,-0.46393 -1.02674,-1.04346 -1.59716,-1.69256 0,-10e-6 -10e-6,-10e-6 -10e-6,-2e-5 -1.75442,-2.01188 -3.40467,-4.21693 -5.08091,-6.49902 0,-1e-5 0,-1e-5 -10e-6,-2e-5 -5.27427,-7.19456 -10.20971,-14.69832 -15.10467,-22.28708 -2.78499,-4.31919 -5.53851,-8.65905 -8.26166,-13.0184 -4.25281,-6.80809 -8.77126,-13.58133 -14.18077,-21.39563 -5.40951,-7.8143 -11.71273,-16.66811 -19.42742,-27.71481 5.3326,12.33873 9.92721,22.23596 14.22818,30.77407 4.30097,8.53811 8.31128,15.71711 12.59508,22.57474 2.743,4.39106 5.51698,8.76321 8.32305,13.11524 4.91916,7.63205 9.94481,15.26696 15.37532,22.68053 1.70679,2.33451 3.49583,4.71327 5.49725,7.02014 0,0 10e-6,1e-5 10e-6,1e-5 0.63602,0.73816 1.35416,1.52327 2.19459,2.3093 0.36599,0.43256 1.15987,1.06341 2.46061,1.71938 21.84492,9.48442 43.4188,19.49907 64.09431,31.05015 10e-6,0 10e-6,0 10e-6,0 14.02028,7.84479 27.65204,16.26246 39.68444,26.48249 7.93467,6.77749 15.21332,14.2422 19.96568,23.02152 3.5326,6.46128 5.56392,13.75768 5.66326,21.05501 0.13826,7.81175 -1.11693,15.73626 -2.86823,23.63898 0,1e-5 0,2e-5 0,2e-5 -1.81686,8.12924 -4.25022,16.1401 -7.13882,24.00153 -2.32074,6.29487 -4.83842,12.44363 -7.92496,18.20752 -0.98266,1.81162 -1.90063,3.48103 -2.96307,4.84119 -0.35093,0.41596 -0.53644,0.68416 -0.62276,0.71673 -0.35774,-0.17462 0.35945,-0.22086 2.18285,-0.43904 -13.27925,-2.07822 -26.1394,-6.9464 -38.11022,-13.44148 0,0 -10e-6,-10e-6 -10e-6,-10e-6 -11.58437,-6.31649 -22.3479,-14.13821 -31.25597,-23.66285 0.29997,0.54612 0.45513,0.64236 0.33834,0.52538 -0.0632,-0.3238 0.10246,-0.90544 0.29541,-1.71132 0.008,-0.0274 0.0151,-0.0547 0.0228,-0.0821 z"
         id="path3863-2"
         inkscape:connector-curvature="0"
         sodipodi:nodetypes="cssssc" />
      <path
         inkscape:original-d="m 503.02518,673.49209 c 33.85383,128.32962 83.634,164.3362 154.527,193.76711"
         inkscape:path-effect="#path-effect3135"
         sodipodi:nodetypes="cc"
         inkscape:connector-curvature="0"
         id="path4116"
         d="m 536.05158,754.0157 c -0.30824,-0.62743 -0.6314,-1.28842 -0.96777,-1.98092 -2.19757,-4.52632 -4.95294,-10.40046 -7.85028,-17.03167 -2.89734,-6.63121 -5.93426,-14.02074 -8.85632,-21.49921 -2.92206,-7.47847 -5.734,-15.04312 -8.31966,-21.96052 -2.58566,-6.91739 -4.95103,-13.18449 -7.03237,-18.05129 0.46407,5.24722 1.54874,11.86668 3.1339,19.12498 1.58516,7.25829 3.67751,15.15237 6.09539,22.94091 2.41788,7.78853 5.16586,15.46773 7.91061,22.34328 2.74475,6.87555 5.48306,12.94728 7.71493,17.60188 0.34179,0.71314 0.67175,1.39313 0.98781,2.03787 9.22589,18.82038 20.51805,36.78823 34.54195,52.57957 12.42542,13.9663 26.93992,25.97663 42.72365,35.88054 0,0 10e-6,0 10e-6,0 15.86159,9.94506 32.78807,17.86333 49.88508,24.95238 l 3.06734,-7.3886 c -16.87535,-7.01442 -33.40653,-14.72839 -48.69919,-24.33947 0,0 0,0 0,0 -15.18671,-9.53686 -29.12614,-21.06058 -40.99844,-34.42068 0,0 0,-10e-6 0,-10e-6 -13.45136,-15.10866 -24.34174,-32.47967 -33.33664,-50.78904 z"
         style="fill:#1c92cd;fill-opacity:1;stroke:none" />
    </g>
    <g
       id="g4253"
       clip-path="url(#clipPath4306)">
      <use
         x="0"
         y="0"
         xlink:href="#path4163"
         id="use4263"
         width="912.56482"
         height="946.37177" />
      <path
         style="fill:#6dc6fb;fill-opacity:1;stroke:none"
         d="M 734.86047,594.06517 C 674.8103,717.40448 871.68599,735.88906 715.96425,785.33991 l 40.01879,51.35925 C 933.3278,728.7734 742.21153,721.70139 760.91803,613.27186 781.92407,491.51337 629.78147,462.80519 629.78142,570.68723 c -6e-5,118.17717 -1.7e-4,354.53152 -1.7e-4,354.53152 -0.003,1.54015 -0.88121,3.04891 -2.21875,3.8125 C 579.4928,956.36901 553.77227,997.585 547.71875,1033 c -3.02676,17.7075 -1.11734,33.9051 5.03125,46.1875 6.14859,12.2824 16.32783,20.7849 31,23.8437 33.59198,7.0033 73.4445,7.0035 107.03125,0 14.67209,-3.0594 24.85141,-11.5611 31,-23.8437 6.14859,-12.2826 8.05798,-28.4802 5.03125,-46.1875 -6.05346,-35.41469 -31.77403,-76.63098 -79.84375,-103.96875 -1.33754,-0.76359 -2.21559,-2.27235 -2.21875,-3.8125 l 4.2e-4,-354.53139 c 1.1e-4,-93.33109 119.57964,-37.15088 90.11005,23.37781 z"
         id="path4251"
         inkscape:connector-curvature="0"
         sodipodi:nodetypes="sccssccssssssccss" />
      <path
         sodipodi:nodetypes="sccccss"
         inkscape:connector-curvature="0"
         id="path4163"
         d="M 582.83573,1107.3391 C 519.1909,1094.0704 527.10316,981.1006 625.36935,925.21555 l 0,-358.93515 23.7789,0 0,358.93515 c 98.26619,55.88505 106.17795,168.85245 42.53362,182.12355 -34.26196,7.1443 -74.57918,7.144 -108.84614,0 z"
         style="opacity:0.2;fill:#ffffff;stroke:none" />
      <g
         transform="matrix(0.18821447,0.05043189,-0.05043189,0.18821447,568.14437,899.4217)"
         id="g3018">
        <path
           inkscape:connector-curvature="0"
           d="m 428.86157,620.36218 c 55.42564,96.00002 166.27687,192.00001 332.55375,160.00001 l 83.13843,-112 c -221.7025,96 -332.55373,0 -387.97938,-64.00001 z m 193.98968,-48 c 55.42563,-96.00002 83.13844,-240 -27.71281,-368 l -138.56406,-16 c 193.98969,144 166.27687,287.99999 138.56406,368.00001 z m -138.56406,-144 c -110.85127,0 -249.41532,48 -304.84095,208 l 55.42563,128 c 27.71281,-240 166.27687,-288 249.41533,-304.00001 z"
           style="fill:#5a318e;fill-opacity:1;stroke:none"
           id="path3014" />
        <path
           inkscape:connector-curvature="0"
           d="m 401.14875,508.3622 c -55.42563,96.00001 -83.13844,239.99998 27.71281,367.99999 l 138.56406,15.99999 c -193.98969,-144 -166.27687,-287.99997 -138.56406,-368 z m 138.56406,143.99998 c 110.85127,0 249.41532,-47.99999 304.84095,-207.99999 l -55.42563,-128 c -27.71281,240 -166.27687,287.99999 -249.41533,304 z m 55.42563,-192 c -55.42564,-96.00002 -166.27688,-192 -332.55376,-160 l -83.13843,112 c 221.7025,-96 332.55374,-1e-5 387.97939,64 z"
           style="fill:#54a2e1;fill-opacity:1;stroke:none"
           id="path3016" />
        <path
           d="m 623.99998,650.56408 -176,27.71279 L 336,539.71279 l 64.00002,-166.27687 176,-27.71279 L 688,484.28721 z"
           inkscape:randomized="0"
           inkscape:rounded="0"
           inkscape:flatsided="true"
           sodipodi:arg2="1.4146197"
           sodipodi:arg1="0.8910208"
           sodipodi:r2="55.425625"
           sodipodi:r1="178.16846"
           sodipodi:cy="512"
           sodipodi:cx="512"
           sodipodi:sides="6"
           id="path4120"
           style="fill:none;stroke:#576ab7;stroke-width:16;stroke-linejoin:round;stroke-miterlimit:4;stroke-opacity:1;stroke-dasharray:none"
           sodipodi:type="star"
           transform="matrix(0.86602541,0.5,-0.5,0.86602541,324.59501,-159.04283)" />
      </g>
    </g>
    <path
       inkscape:connector-curvature="0"
       id="path3054"
       d="m 229.51328,561.23458 c -8.48915,-1.30565 -17.17912,-1.43944 -26.16504,-0.0624 -80.69825,12.36449 -117.105437,135.58443 -218.013672,159.77973 -124.281788,29.79974 -36.077066,99.99266 43.945809,73.65979 -62.886934,74.0929 0.212114,87.461 118.169143,27.49548 -46.57866,87.41743 25.18902,84.03416 88.60482,-24.85664 -9.87502,81.26343 41.1429,31.05587 73.5811,-26.91004 -4.09037,54.57052 23.61205,42.27562 74.24063,-28.19338 -13.58507,69.24643 19.91351,56.52811 65.39273,-17.79912 l 34.98445,-50.07539 C 373.94585,698.34062 311.57519,573.85533 229.51328,561.23458 z"
       clip-path="none"
       style="font-size:medium;font-style:normal;font-variant:normal;font-weight:normal;font-stretch:normal;text-indent:0;text-align:start;text-decoration:none;line-height:normal;letter-spacing:normal;word-spacing:normal;text-transform:none;direction:ltr;block-progression:tb;writing-mode:lr-tb;text-anchor:start;baseline-shift:baseline;color:#000000;fill:#11a2f9;fill-opacity:1;stroke:#1c92cd;stroke-width:8;stroke-miterlimit:20;stroke-opacity:1;stroke-dasharray:none;marker:none;visibility:visible;display:inline;overflow:visible;enable-background:accumulate;font-family:Sans;-inkscape-font-specification:Sans"
       inkscape:transform-center-x="254.74929"
       inkscape:transform-center-y="27.391858" />
    <path
       style="fill:#6dc6fb;fill-opacity:1;stroke:none"
       d="M 734.86047,594.06517 C 674.8103,717.40448 871.68599,735.88906 715.96425,785.33991 607.70218,819.71952 691.61833,1016.0098 577.04242,903.83185 511.1289,839.29781 425.88046,925.49898 516.31921,819.19026 603.04987,717.24031 626.97156,620.5404 537.90534,522.35304 c 48.28125,11.53017 99.98357,-6.71993 125.3887,-47.81187 4.2735,-6.91225 -36.7269,-23.88437 -32.23715,-29.43602 C 740.08876,310.28523 545.37928,168.19251 440.96748,286.58073 339.02977,402.16369 512.14286,601.61284 402.85714,810.89855 301.5377,1004.9286 457.94144,920.30274 536.85423,970.99362 765.52359,1117.883 685.44987,879.62315 755.98304,836.69916 933.3278,728.7734 742.21153,721.70139 760.91803,613.27186 z"
       id="path4151"
       inkscape:connector-curvature="0"
       sodipodi:nodetypes="cssssscsssscc" />
    <path
       sodipodi:nodetypes="csssc"
       inkscape:connector-curvature="0"
       id="path3909"
       d="m 581.60397,520.8686 c -3.63739,0.46095 -7.18656,0.7486 -10.65026,0.89057 0,0 0,0 0,10e-6 -10.13867,0.41343 -19.55362,-0.39264 -28.51854,-2.03536 -8.96492,-1.64272 -17.49599,-4.12944 -25.87847,-7.5566 -8.45235,-3.45047 -16.7546,-7.88231 -25.05679,-13.66356 -4.15109,-2.89063 -8.29758,-6.12432 -12.41729,-9.77654 -4.11971,-3.65222 -8.21369,-7.72334 -12.21627,-12.30274 3.48074,4.96583 7.14749,9.47681 10.92688,13.5859 3.77939,4.10908 7.67219,7.81686 11.64333,11.17428 7.94226,6.71483 16.17915,12.04441 24.73995,16.2628 8.66153,4.26288 17.62376,7.39326 27.06356,9.47658 9.43981,2.08332 19.37418,3.12674 30.00336,2.78485 10e-6,0 10e-6,0 10e-6,0 3.70533,-0.11843 7.49398,-0.40958 11.36641,-0.9 15.04707,-1.9056 29.76235,-6.51235 43.12703,-13.76965 16.61343,-9.02519 30.96917,-22.26044 40.95943,-38.39451 0.7508,-1.28782 1.03676,-2.66452 0.85848,-4.01818 -0.24365,-1.4091 -0.68771,-2.48251 -1.2018,-3.21197 -10e-6,-2e-5 -3e-5,-4e-5 -4e-5,-6e-5 -1.36518,-2.08811 -2.95134,-3.56836 -4.36028,-4.67805 -4.14573,-3.44086 -8.56781,-6.1615 -12.75729,-8.8022 -10e-6,-10e-6 -10e-6,-10e-6 -2e-5,-2e-5 -4.22227,-2.68531 -8.36018,-5.14791 -11.95818,-8.00081 -1e-5,-10e-6 -3e-5,-2e-5 -4e-5,-3e-5 -1.21312,-1.02314 -2.22076,-1.76718 -2.63659,-2.49547 -10e-6,-10e-6 -10e-6,-2e-5 -10e-6,-3e-5 -0.0648,-0.23492 -0.0969,-0.11811 0.056,0.35203 0.0614,0.67187 -0.10616,1.2405 -0.52941,1.8306 12.37719,-15.27237 22.47108,-32.6983 28.14361,-51.75414 0,0 0,-1e-5 10e-6,-2e-5 4.75115,-16.01374 6.15332,-33.0597 3.68141,-49.64794 -2.33471,-15.55235 -7.99835,-30.50893 -16.23234,-43.83544 -8.23458,-13.32606 -18.94033,-25.03892 -31.24366,-34.64512 -10e-6,-10e-6 -10e-6,-10e-6 -2e-5,-2e-5 -12.44224,-9.72025 -26.52656,-17.32129 -41.49347,-22.36391 -15.11194,-5.09444 -31.14527,-7.54416 -47.12854,-6.92471 -16.59164,0.64942 -33.0257,4.68029 -48.02672,11.81065 -16.83112,8.02017 -31.66571,19.7853 -43.89985,33.67514 -6.31153,7.15464 -11.88494,14.97772 -16.52451,23.34279 -4.44745,8.02503 -8.01694,16.51173 -10.71924,25.25105 0,10e-6 -10e-6,3e-5 -10e-6,4e-5 -5.53779,17.97117 -7.45594,36.77232 -7.34764,55.32688 0.10835,20.48771 2.49561,40.79868 5.59861,60.84358 3.40465,22.03436 7.69682,43.85121 11.7609,65.6353 4.32384,23.18807 8.42639,46.37495 11.35906,69.67112 0,1e-5 0,3e-5 0,5e-5 3.04689,24.21402 4.84733,48.56645 4.48754,72.87098 -0.22089,14.94119 -1.26391,29.87071 -3.2475,44.65646 -1.53624,11.45116 -3.40136,21.50075 -5.39811,30.62381 -1.69031,7.72988 -3.47955,14.79533 -5.32365,21.48331 -1.84411,6.68798 -3.74463,12.99885 -5.73956,19.20701 -1.99493,6.20816 -4.08471,12.31396 -6.3746,18.57416 -2.2899,6.26019 -4.77942,12.67554 -7.64167,19.47708 3.89041,-6.26465 7.3101,-12.27969 10.42477,-18.24108 3.11468,-5.96139 5.92429,-11.87022 8.53628,-17.96047 2.612,-6.09024 5.02708,-12.36257 7.28968,-19.07625 2.26259,-6.71368 4.3744,-13.86932 6.29891,-21.74228 2.26931,-9.29071 4.28305,-19.5694 5.85578,-31.28121 2.0307,-15.12229 3.0975,-30.36744 3.31881,-45.60332 0.35941,-24.77617 -1.46165,-49.50094 -4.5494,-73.98802 0,-2e-5 -10e-6,-3e-5 -10e-6,-5e-5 -2.96945,-23.55899 -7.0963,-46.90158 -11.43197,-70.13823 -4.07233,-21.83625 -8.35053,-43.57116 -11.71901,-65.38951 -3.05998,-19.85736 -5.41602,-39.77432 -5.50496,-59.66153 -0.0702,-17.98595 1.72881,-35.98596 6.99038,-52.92346 0,-1e-5 0,-3e-5 10e-6,-4e-5 2.5497,-8.23763 5.90385,-16.21941 10.07321,-23.73628 4.34375,-7.8379 9.58493,-15.19015 15.52782,-21.93029 11.61888,-13.1561 25.59858,-24.2768 41.3352,-31.74185 14.00688,-6.66224 29.39998,-10.43678 44.90384,-11.04164 14.95474,-0.58961 30.03264,1.72261 44.26226,6.51221 14.10015,4.74896 27.39407,11.92429 39.12228,21.08676 1e-5,10e-6 3e-5,2e-5 4e-5,3e-5 11.5892,9.05942 21.66763,20.07183 29.36169,32.54377 7.68363,12.45365 12.97896,26.40384 15.12743,40.81627 2.3064,15.34923 0.98479,31.24291 -3.43974,46.19109 0,1e-5 -10e-6,3e-5 -10e-6,4e-5 -5.26181,17.84035 -14.87242,34.34712 -26.69374,48.99665 -0.94766,1.23854 -1.35366,2.66998 -1.19121,4.16964 0.27758,1.49139 0.74854,2.5464 1.26055,3.16341 10e-6,2e-5 3e-5,3e-5 5e-5,5e-5 1.40542,1.96168 2.9703,3.30485 4.30829,4.29287 10e-6,1e-5 2e-5,2e-5 4e-5,3e-5 4.15284,3.25741 8.51434,5.87835 12.62895,8.47584 4.24918,2.70659 8.38916,5.2214 11.91096,8.18471 10e-6,10e-6 3e-5,2e-5 4e-5,3e-5 1.22029,1.08632 2.24837,1.92325 2.68602,2.74809 0,1e-5 0,1e-5 10e-6,2e-5 0.0987,0.26064 0.16502,0.26803 0.0687,0.014 -0.0544,-0.38262 0.0367,-0.74558 0.27271,-1.20079 -9.18748,14.88528 -22.54868,27.17998 -37.9758,35.57288 -12.43553,6.76838 -26.21247,11.07125 -40.312,12.85801 z"
       style="fill:#1c92cd;fill-opacity:1;stroke:none"
       inkscape:path-effect="#path-effect4117"
       inkscape:original-d="m 466.86635,476.42438 c 55.27642,70.55604 157.20035,61.56568 196.42769,-1.88321 4.2735,-6.91225 -36.7269,-23.88437 -32.23715,-29.43602 C 740.08876,310.28523 545.37928,168.19251 440.96748,286.58073 339.02977,402.16369 512.14285,601.61283 402.85714,810.89855" />
    <path
       sodipodi:nodetypes="cc"
       inkscape:connector-curvature="0"
       id="path3911"
       d="m 540.88568,519.5442 -5.9292,5.3707 c 19.31293,21.36283 35.87084,45.44755 45.59588,72.22287 8.32548,22.83279 11.30781,47.61924 8.5122,71.74796 0,0 0,1e-5 0,1e-5 -2.90976,25.39285 -11.85108,49.97463 -23.80204,72.8649 -10e-6,10e-6 -10e-6,10e-6 -10e-6,10e-6 -1.31437,2.51474 -2.66468,5.01034 -4.0489,7.48742 -2.43715,4.3613 -5.68124,10.07183 -9.46866,16.34518 -3.78742,6.27335 -8.12107,13.10788 -12.55437,19.80853 -4.4333,6.70066 -8.96014,13.26954 -12.98254,19.09725 -4.02239,5.8277 -7.53334,10.91807 -9.88883,14.70123 3.34634,-2.94023 7.74276,-7.2927 12.5581,-12.51793 4.81534,-5.22522 10.04274,-11.3281 15.07798,-17.70967 5.03523,-6.38157 9.87189,-13.04405 14.03842,-19.27277 4.16653,-6.22872 7.66459,-12.02033 10.19831,-16.55047 1.42031,-2.53943 2.80729,-5.09926 4.15892,-7.68011 0,0 10e-6,0 10e-6,-10e-6 12.32683,-23.51241 21.55434,-49.02407 24.66065,-75.65455 2.93137,-25.39485 -0.19458,-51.40094 -8.94304,-75.40684 -10.25117,-28.02513 -27.33808,-52.9868 -47.18288,-74.85371 z"
       style="fill:#1c92cd;fill-opacity:1;stroke:none"
       inkscape:path-effect="#path-effect4137"
       inkscape:original-d="m 537.92108,522.22955 c 89.05048,98.31085 65.1288,195.01077 -21.60187,296.96071" />
    <path
       sodipodi:nodetypes="ccc"
       inkscape:connector-curvature="0"
       id="path3001"
       d="m 638.92604,469.16976 c -0.30813,4.52805 3.28455,7.50455 8.46125,5.66265 -5.54072,7.38806 -13.68015,1.70911 -8.46125,-5.66265 z"
       style="fill:#1c92cd;fill-opacity:1;stroke:none" />
    <path
       sodipodi:nodetypes="cccc"
       inkscape:connector-curvature="0"
       id="path3003"
       d="m 607.99217,468.92929 c 2.55235,17.84484 12.43075,31.06993 37.59712,30.3386 l -8.00621,6.05208 c -24.32202,-3.22298 -33.5982,-17.86584 -29.59091,-36.39068 z"
       style="fill:#1c92cd;fill-opacity:1;fill-rule:evenodd;stroke:none" />
    <path
       id="path4253"
       style="fill:#000000;stroke:none"
       d="m 499.80506,383.94469 0.28212,4.52013 c -35.00922,3.38026 -35.42179,-0.79053 -0.28212,-4.52013 z m -0.0606,-8.42157 -0.0285,4.52884 c -36.37702,1.39229 -36.68035,-3.24032 0.0285,-4.52884 z m 104.99785,24.14782 c -4.39903,94.51191 -110.42298,80.27544 -107.31343,-27.84091 -33.07239,-1.62127 -33.24175,-5.79947 5.37514,-4.76884 -8.92976,89.64082 80.1935,133.11144 101.93829,32.60975 z"
       inkscape:connector-curvature="0"
       sodipodi:nodetypes="cccccccccc" />
    <g
       id="g4798"
       transform="matrix(0.94246897,-0.00878557,0.00878557,0.94246897,28.670101,23.126153)">
      <path
         sodipodi:nodetypes="cccccccccc"
         inkscape:connector-curvature="0"
         id="path4618"
         d="m 513.76249,260.48343 c 25.654,10.14997 24.54926,36.15166 7.73529,59.35313 26.64922,0.64066 45.54497,-10.27026 55.19307,-31.33993 13.11732,16.91263 12.64942,38.13269 -1.8162,60.21096 27.61347,-0.99173 44.69596,-13.17807 55.69717,-34.17976 13.07915,19.41292 13.88508,43.57036 1.62041,66.88914 25.8559,-2.72265 43.30356,-15.927 53.30382,-39.15853 13.01821,21.06335 13.40331,45.3607 0.20098,70.78362 110.26526,-31.89398 85.52151,-225.14627 -178.15872,-217.0478 z"
         style="fill:#961370;fill-opacity:1;stroke:none" />
      <path
         sodipodi:nodetypes="cccccc"
         inkscape:connector-curvature="0"
         id="path4450"
         d="m 632.19223,381.41697 c 25.8559,-2.72265 43.30356,-15.927 53.30382,-39.15853 13.01821,21.06335 13.40331,45.3607 0.20098,70.78362 110.26526,-31.89398 85.52151,-225.14627 -178.15872,-217.0478 l 2.59041,26.83942 c 160.04953,-7.00284 206.0556,98.99027 122.06351,158.58329 z"
         style="fill:#f3a4d9;fill-opacity:1;stroke:none" />
      <path
         style="fill:none;stroke:#d91e9b;stroke-width:8;stroke-miterlimit:20;stroke-opacity:1;stroke-dasharray:none"
         d="m 513.76249,260.48343 c 25.654,10.14997 24.54926,36.15166 7.73529,59.35313 26.64922,0.64066 45.54497,-10.27026 55.19307,-31.33993 13.11732,16.91263 12.64942,38.13269 -1.8162,60.21096 27.61347,-0.99173 44.69596,-13.17807 55.69717,-34.17976 13.07915,19.41292 13.88508,43.57036 1.62041,66.88914 25.8559,-2.72265 43.30356,-15.927 53.30382,-39.15853 13.01821,21.06335 13.40331,45.3607 0.20098,70.78362 110.26526,-31.89398 85.52151,-225.14627 -178.15872,-217.0478 z"
         id="path3973-2"
         inkscape:connector-curvature="0"
         sodipodi:nodetypes="cccccccccc" />
      <g
         id="g3963"
         transform="matrix(0.50791792,0.28135914,-0.28135914,0.50791792,349.69185,43.522055)"
         clip-path="url(#clipPath4794)">
        <path
           sodipodi:nodetypes="ccc"
           inkscape:connector-curvature="0"
           id="path3954"
           d="m 631.32503,139.53074 75.4386,50.81118 C 848.54889,-87.56416 814.5656,-108.49 631.32503,139.53074 z"
           style="fill:#6dc6fb;fill-opacity:1;fill-rule:nonzero;stroke:#1c92cd;stroke-width:13.77788448;stroke-linecap:butt;stroke-linejoin:miter;stroke-miterlimit:4;stroke-opacity:1;stroke-dasharray:none;stroke-dashoffset:0" />
        <path
           d="M 720.5,22.5 C 743.5,28 767,25 787,12.5 M 682.5,70 c 28.5,10 56,8 85.5,-8.5 m -117.5,52 c 27,14 62,14.5 95,-1"
           style="fill:none;stroke:#1c92cd;stroke-width:6.88894224;stroke-linecap:butt;stroke-linejoin:miter;stroke-miterlimit:4;stroke-opacity:1;stroke-dasharray:none;stroke-dashoffset:0"
           id="path3960"
           inkscape:connector-curvature="0" />
      </g>
    </g>
    <g
       id="g5412">
      <path
         style="fill:#961370;fill-opacity:1;stroke:none"
         d="m 431.44574,306.39889 c -33.5958,71.44492 -17.74678,182.75387 53.75064,240.0055 -22.40292,-0.76102 -42.13692,-5.73882 -61.74895,-16.42047 22.55865,43.26183 17.52331,87.25082 -20.02169,118.36707 7.50885,-35.21576 1.88758,-62.30343 -17.49976,-87.50959 -4.32287,66.76425 -29.14286,106.27626 -86.94774,129.44739 C 385.54639,559.98998 312.51249,362.3184 442.52955,239.0575 z"
         id="path5410"
         inkscape:connector-curvature="0"
         sodipodi:nodetypes="cccccccc" />
      <path
         style="fill:#f3a4d9;fill-opacity:1;stroke:none"
         d="m 403.42574,648.35099 c 7.30784,-35.25802 1.88758,-62.30343 -17.49976,-87.50959 -4.32287,66.76425 -29.14286,106.27626 -86.94774,129.44739 C 385.54639,559.98998 312.51249,362.3184 442.52955,239.0575 l -4.19054,25.46028 c -127.60591,201.9156 23.47165,292.4284 -34.91327,383.83321 z"
         id="path5408"
         inkscape:connector-curvature="0"
         sodipodi:nodetypes="cccccc" />
      <path
         sodipodi:nodetypes="cccccccc"
         inkscape:connector-curvature="0"
         id="path5406"
         d="m 431.44574,306.39889 c -33.5958,71.44492 -17.74678,182.75387 53.75064,240.0055 -22.40292,-0.76102 -42.13692,-5.73882 -61.74895,-16.42047 22.55865,43.26183 17.52331,87.25082 -20.02169,118.36707 7.50885,-35.21576 1.88758,-62.30343 -17.49976,-87.50959 -4.32287,66.76425 -29.14286,106.27626 -86.94774,129.44739 C 385.54639,559.98998 312.51249,362.3184 442.52955,239.0575 z"
         style="fill:none;stroke:#d91e9b;stroke-width:8;stroke-linecap:butt;stroke-linejoin:miter;stroke-miterlimit:20;stroke-opacity:1;stroke-dasharray:none" />
    </g>
    <g
       id="g3968"
       transform="translate(-1.3935064,3.739865e-8)">
      <path
         inkscape:transform-center-y="-139.25369"
         inkscape:transform-center-x="69.511141"
         sodipodi:nodetypes="cscc"
         inkscape:connector-curvature="0"
         id="path3966"
         d="m 519.94846,285.45614 c 21.89185,-56.66399 2.0575,-108.99684 -9.78066,-114.76967 -11.68626,-5.69875 -126.68893,55.81039 -82.30327,189.32325 z"
         style="fill:#6dc6fb;fill-opacity:1;stroke:none" />
      <path
         inkscape:original-d="m 519.94846,285.45614 c 21.89185,-56.66399 2.0575,-108.99684 -9.78066,-114.76967 -11.68626,-5.69875 -126.68893,55.81039 -82.30327,189.32325"
         inkscape:path-effect="#path-effect3958"
         style="fill:#1c92cd;fill-opacity:1;stroke:none"
         d="m 522.87012,205.11045 c 0.30685,1.42957 0.61289,2.95791 0.91136,4.57236 0.86293,4.70966 1.61149,10.14998 2.04602,16.01012 0.43453,5.86014 0.5529,12.13802 0.306,18.48292 0,0 0,0 0,0 -0.2885,7.39551 -1.09472,14.87715 -2.23198,21.91902 -1.13726,7.04187 -2.59964,13.64114 -3.95306,19.36127 2.8307,-5.10624 5.57615,-11.40829 7.7825,-18.39913 2.20635,-6.99085 3.86366,-14.66441 4.77969,-22.3725 0,0 0,0 0,-10e-6 0.78328,-6.58367 1.03791,-13.18872 0.83671,-19.38923 -0.2012,-6.2005 -0.85525,-11.99332 -1.71506,-17.00384 -0.29088,-1.71093 -0.60428,-3.33611 -0.93007,-4.85914 -1.61141,-7.53322 -3.93185,-15.00021 -7.33002,-22.0825 -1.43686,-3.00993 -3.14675,-6.03244 -5.33274,-8.85779 0,0 0,0 -1e-5,-1e-5 -1.36622,-1.89609 -3.31609,-3.91785 -6.11843,-5.40082 -1.11523,-0.49045 -2.07009,-0.70787 -2.81062,-0.72804 -10e-6,0 -2e-5,0 -2e-5,0 -1.02183,-0.074 -1.93874,-0.0328 -2.739,0.07 -2.2577,0.27705 -4.31692,0.84204 -6.18493,1.48275 0,0 -1e-5,0 -1e-5,0 -5.78475,1.95113 -11.11573,4.72524 -16.11106,7.7446 -15.14328,9.11145 -28.36948,21.1883 -39.23011,35.01027 -6.69466,8.50955 -12.47114,17.75125 -17.13716,27.53986 0,1e-5 0,1e-5 0,1e-5 -5.19748,10.90761 -8.98962,22.47327 -11.27972,34.33177 -1.4109,7.31791 -2.25094,14.72915 -2.56249,22.15687 -0.0762,1.81683 -0.1088,4.48014 0.003,7.71789 0.11161,3.23775 0.37133,7.04959 0.84754,11.14996 0.48793,4.19541 1.19975,8.6891 2.12416,13.18484 0.92442,4.49574 2.06038,8.99285 3.31483,13.21461 2.5089,8.44354 5.50161,15.76312 7.70929,20.04319 -0.71578,-4.77604 -2.32059,-12.4355 -3.62897,-20.96096 -0.65419,-4.26273 -1.23847,-8.73931 -1.67513,-13.16289 -0.43666,-4.42358 -0.72485,-8.7936 -0.86707,-12.84053 -0.27896,-7.90545 0.0222,-14.56351 0.1659,-18.01193 0.29368,-7.04906 1.08755,-14.06604 2.42401,-20.9741 2.16205,-11.19496 5.74319,-22.11906 10.6467,-32.40707 0,0 0,0 0,-1e-5 4.40155,-9.2385 9.86668,-17.97873 16.20314,-26.03547 10.32834,-13.11528 22.83237,-24.55522 37.06358,-33.09957 4.73896,-2.83152 9.54227,-5.36233 14.52803,-7.01469 1.63414,-0.531 3.15304,-0.97579 4.56394,-1.12216 0.49214,-0.0464 0.8814,-0.0792 1.15604,-0.045 0,0 0,1e-5 10e-6,1e-5 0.21516,0.0596 0.22309,0.0165 -0.0301,-0.0536 1.03878,0.39014 2.05437,1.65458 3.31559,3.12883 0,0 0,0 0,1e-5 1.71028,2.17255 3.12099,4.71319 4.43521,7.41214 3.07586,6.35216 5.18787,13.22088 6.70475,20.2877 z"
         id="path2992"
         inkscape:connector-curvature="0"
         sodipodi:nodetypes="csc"
         inkscape:transform-center-x="69.511141"
         inkscape:transform-center-y="-139.25369" />
      <path
         style="fill:#1c92cd;fill-opacity:1;fill-rule:evenodd;stroke:none"
         d="m 492.20621,211.44652 c -35.09987,23.87897 -50.55441,60.17789 -47.06401,103.34453 2.18925,-37.03196 19.64284,-77.48953 47.06401,-103.34453 z"
         id="path3005"
         inkscape:connector-curvature="0"
         sodipodi:nodetypes="ccc" />
    </g>
    <g
       id="g6031"
       inkscape:transform-center-x="262.56144"
       inkscape:transform-center-y="77.402506">
      <path
         id="path6022"
         transform="translate(-63.342485,166.32547)"
         d="m 273.90625,434.78125 c -8.58811,0.12157 -17.17972,1.43201 -25.8125,4.28125 -77.52657,25.58757 -92.97627,153.14123 -188.46875,193.75 -117.611592,50.01506 -18.979533,104.59381 55.5625,65.34375 -49.716429,83.50329 14.72623,86.21261 121.09375,7.5 -31.42273,93.93608 38.78789,78.68754 83.25,-39.21875 3.75028,81.77525 45.7269,23.79604 68.09375,-38.75 5.02415,54.4925 30.30159,37.77004 68.53125,-40.125 -1.90292,70.54084 29.01997,52.4387 61.53125,-28.40625 l 26.1875,-55.1875 C 439.09264,546.01209 356.92468,433.60608 273.90625,434.78125 z"
         clip-path="none"
         style="font-size:medium;font-style:normal;font-variant:normal;font-weight:normal;font-stretch:normal;text-indent:0;text-align:start;text-decoration:none;line-height:normal;letter-spacing:normal;word-spacing:normal;text-transform:none;direction:ltr;block-progression:tb;writing-mode:lr-tb;text-anchor:start;baseline-shift:baseline;color:#000000;fill:#6dc6fb;fill-opacity:1;stroke:none;stroke-width:1;marker:none;visibility:visible;display:inline;overflow:visible;enable-background:accumulate;font-family:Sans;-inkscape-font-specification:Sans"
         inkscape:connector-curvature="0" />
      <path
         clip-path="url(#clipPath4562)"
         inkscape:original-d="m 454.34928,725.48597 c -36.23982,90.11661 -70.53514,102.30194 -59.55664,0.62132 8.18052,-75.76635 -210.07349,25.98875 -321.524788,123.6899 C -0.78359429,914.71265 -133.0813,854.17076 -3.7020979,799.15145 91.790382,758.54268 107.22928,630.9911 184.75585,605.40353 c 92.083,-30.39192 180.14447,111.27062 295.76638,64.87797"
         inkscape:path-effect="#path-effect4527"
         sodipodi:nodetypes="cssssc"
         inkscape:connector-curvature="0"
         d="m 411.68287,800.42706 c 0.6287,-0.27943 1.2436,-0.59894 1.83558,-0.95306 2.03787,-1.1871 4.02393,-2.71994 5.86421,-4.47102 2.1009,-1.99167 4.17441,-4.28774 6.16323,-6.82942 1.98882,-2.54169 3.89273,-5.32834 5.71919,-8.24043 4.40664,-6.98411 8.49034,-14.95318 12.07337,-23.17359 4.53864,-10.40561 8.31083,-21.26558 11.01083,-31.27357 -4.89055,9.01614 -10.19339,19.12742 -15.75836,28.89706 -4.35658,7.64485 -8.84778,15.05998 -13.40021,21.50597 -1.90752,2.68655 -3.77794,5.20303 -5.64178,7.44363 -1.86385,2.24061 -3.72169,4.2052 -5.55702,5.85963 -1.58682,1.42368 -3.05881,2.56598 -4.45117,3.34459 -0.40652,0.21811 -0.79024,0.41373 -1.15138,0.58028 -0.73849,0.34058 -1.43078,0.58011 -2.06608,0.64019 -0.72391,0.0838 -1.45056,0.0249 -1.96403,-0.2319 -0.63454,-0.22322 -1.29291,-0.86577 -1.96585,-1.6519 -0.89155,-1.08355 -1.57387,-2.52969 -2.21822,-4.13911 -0.83242,-2.14079 -1.40416,-4.47149 -1.87523,-6.90342 -1.35478,-7.0324 -1.60724,-14.3843 -1.58671,-21.84247 0.0463,-10.78649 0.88897,-21.6141 2.05629,-32.45184 0.52534,-4.45437 0.32516,-9.24556 -1.23594,-13.90995 -1e-5,-2e-5 -1e-5,-4e-5 -2e-5,-7e-5 -1.37712,-3.95788 -3.85728,-7.47697 -7.15341,-10.10104 -3.58786,-2.78238 -7.6849,-4.46844 -11.73902,-5.40073 -5.04278,-1.19019 -10.12289,-1.50547 -15.04092,-1.39344 -13.29017,0.28604 -26.20303,3.13009 -38.62772,6.60084 -16.29642,4.52461 -32.12851,10.40364 -47.62191,16.87864 -18.06428,7.54571 -35.72797,15.97823 -53.06048,24.98828 -18.60387,9.67003 -36.84396,20.02806 -54.70718,30.98983 -17.90722,10.98819 -35.45022,22.59127 -52.50506,34.89051 -15.99028,11.53028 -31.580111,23.67898 -46.446806,36.70976 -7e-6,10e-6 -1.4e-5,10e-6 -2.1e-5,2e-5 -8.543487,7.49251 -18.329565,13.5848 -28.804787,18.04582 -1.8e-5,10e-6 -3.5e-5,10e-6 -5.3e-5,2e-5 -9.714788,4.1369 -20.02639,6.89419 -30.514303,8.20267 -9.479731,1.17721 -19.0913869,1.2039 -28.468425,-0.18789 -7.917913,-1.19389 -15.650875,-3.28167 -22.470283,-6.93245 -5.286159,-2.90942 -10.13151,-6.55096 -12.57925,-11.33976 -1.08281,-2.02834 -1.76627,-4.2635 -1.897348,-6.48066 -0.173357,-2.38112 0.298548,-4.88996 1.17938,-7.29183 2.461984,-6.96587 8.412066,-12.68704 14.822096,-17.87703 1.5e-5,-2e-5 3e-5,-3e-5 4.5e-5,-4e-5 10.644085,-8.42471 23.124372,-14.60855 35.9651485,-20.09575 C 9.7131088,797.7902 20.861758,791.1939 31.061848,783.3946 c 9.875057,-7.55425 18.850588,-16.17034 27.053777,-25.38992 16.29165,-18.32512 29.602235,-38.82825 42.525805,-59.21688 6.25796,-9.86025 12.43475,-19.71309 18.91013,-29.30648 6.12514,-9.06962 12.49469,-17.90992 19.52022,-26.12128 6.56894,-7.67018 13.69194,-14.80404 21.643,-20.74956 1e-5,-1e-5 3e-5,-2e-5 4e-5,-3e-5 7.7111,-5.76967 16.23915,-10.42929 25.29471,-13.40846 10.49537,-3.47377 21.75216,-4.68795 32.84595,-3.84534 11.29329,0.84631 22.47573,3.75218 33.34747,7.65009 11.7105,4.20814 23.05837,9.59989 34.2882,15.35961 11.86213,6.08912 23.56719,12.61823 35.42537,18.99884 12.04393,6.48341 24.24901,12.82723 36.87322,18.41993 7.22443,3.20271 14.59837,6.15362 22.12955,8.70107 5.52671,1.86943 11.07855,3.47608 16.63675,4.77309 0,0 0,0 1e-5,0 13.92254,3.24914 27.87286,4.40871 40.97497,3.2926 7.90143,-0.67896 15.44512,-2.18057 22.48456,-4.29513 7.03943,-2.11456 13.57453,-4.84155 19.50665,-7.97525 -6.44634,1.78119 -13.20346,3.30276 -20.2588,4.39994 -7.05534,1.09718 -14.40951,1.77031 -22.01013,1.81046 -12.38286,0.0757 -25.45285,-1.53602 -38.84643,-4.87921 0,0 0,0 -1e-5,0 -5.25876,-1.31269 -10.56674,-2.88824 -15.9229,-4.7028 -7.25464,-2.45772 -14.40384,-5.32154 -21.45533,-8.4398 -12.32067,-5.45219 -24.34175,-11.70593 -36.32125,-18.14971 -11.78694,-6.343 -23.53766,-12.89611 -35.56234,-19.07085 -11.37354,-5.84521 -23.03631,-11.37379 -35.23293,-15.7701 -11.33039,-4.09289 -23.21277,-7.14858 -35.44729,-8.09954 -12.08617,-0.92807 -24.38186,0.41273 -35.96265,4.22518 -9.97072,3.30043 -19.2621,8.35836 -27.58469,14.60339 -8.54755,6.41757 -16.09837,13.9526 -22.92645,21.95308 -7.30566,8.55199 -13.85869,17.6334 -20.07066,26.8446 -6.57417,9.7431 -12.79213,19.65883 -19.033618,29.49514 -12.917173,20.33107 -25.967832,40.48976 -41.746032,58.18357 -1.3e-5,2e-5 -2.5e-5,3e-5 -3.8e-5,5e-5 -7.931733,8.90218 -16.535055,17.17292 -25.93715,24.35385 -9.69898,7.41126 -20.2717637,13.67219 -31.4709913,18.43172 -13.1564187,5.56827 -26.2438817,12.11178 -37.7866737,21.17478 -8e-6,10e-6 -1.6e-5,10e-6 -2.4e-5,2e-5 -7.034904,5.40732 -13.832144,12.28922 -17.363575,21.35919 -1.249816,3.29885 -1.885031,6.91177 -1.669309,10.60407 0.232128,3.45242 1.227702,6.77918 2.833693,9.75546 3.715644,6.68302 9.658886,11.41739 15.872924,14.61823 7.894657,4.16707 16.488696,6.53792 25.053514,7.78165 10.1694938,1.49893 20.5012734,1.48043 30.628796,0.21248 11.219362,-1.39857 22.245541,-4.34846 32.658035,-8.78049 1.8e-5,0 3.7e-5,-1e-5 5.6e-5,-2e-5 11.240705,-4.78426 21.740059,-11.32485 30.944617,-19.39073 1.6e-5,-10e-6 3.1e-5,-3e-5 4.6e-5,-4e-5 14.632822,-12.82928 30.02463,-24.82036 45.85271,-36.23688 16.87937,-12.17347 34.25726,-23.66657 52.00973,-34.56058 17.70913,-10.86683 35.78436,-21.13159 54.21261,-30.71002 17.17279,-8.92503 34.63435,-17.263 52.45408,-24.70466 2e-5,-10e-6 3e-5,-2e-5 5e-5,-2e-5 15.29969,-6.3861 30.81684,-12.15616 46.67711,-16.55172 12.16759,-3.35106 24.41975,-6.09859 36.64562,-6.31127 4.49801,-0.072 8.90461,0.17036 13.02041,1.17474 3.26294,0.82102 6.32598,2.00446 8.63702,3.89289 2.07695,1.6304 3.69299,3.93244 4.56104,6.44987 1e-5,2e-5 1e-5,3e-5 2e-5,5e-5 1.12815,3.09175 1.19659,6.7231 0.84071,10.43043 -1.19022,10.99722 -2.04833,22.09891 -2.10242,33.27407 0,2e-5 0,4e-5 0,6e-5 -0.0486,7.67703 0.25091,15.54001 1.72789,23.37572 0,2e-5 1e-5,4e-5 1e-5,6e-5 0.51165,2.72782 1.21405,5.51688 2.2672,8.27847 0.773,2.07562 1.85315,4.2193 3.41173,6.23176 1.20705,1.58947 2.88501,3.01912 5.02464,4.01318 2.05079,0.86833 4.20947,1.12745 6.2601,0.83264 1.56122,-0.23964 2.99081,-0.68471 4.27797,-1.2568 z"
         style="font-size:medium;font-style:normal;font-variant:normal;font-weight:normal;font-stretch:normal;text-indent:0;text-align:start;text-decoration:none;line-height:normal;letter-spacing:normal;word-spacing:normal;text-transform:none;direction:ltr;block-progression:tb;writing-mode:lr-tb;text-anchor:start;baseline-shift:baseline;color:#000000;fill:#1c92cd;fill-opacity:1;stroke:none;stroke-width:8;marker:none;visibility:visible;display:inline;overflow:visible;enable-background:accumulate;font-family:Sans;-inkscape-font-specification:Sans"
         id="path7624" />
      <path
         clip-path="url(#clipPath4566)"
         sodipodi:nodetypes="ccccc"
         inkscape:connector-curvature="0"
         id="path4510"
         d="m 405.88473,725.94878 c -45.52048,101.31658 -76.02176,128.54998 -81.59947,68.05354 -22.36685,62.54604 -64.33595,120.53486 -68.08623,38.75961 C 211.73692,950.66822 141.52305,965.92129 172.94578,871.98521 57.260889,957.59273 -8.8529574,946.89985 67.576491,840.69102"
         style="font-size:medium;font-style:normal;font-variant:normal;font-weight:normal;font-stretch:normal;text-indent:0;text-align:start;text-decoration:none;line-height:normal;letter-spacing:normal;word-spacing:normal;text-transform:none;direction:ltr;block-progression:tb;writing-mode:lr-tb;text-anchor:start;baseline-shift:baseline;color:#000000;fill:none;stroke:#1c92cd;stroke-width:8;stroke-miterlimit:20;stroke-opacity:1;stroke-dasharray:none;marker:none;visibility:visible;display:inline;overflow:visible;enable-background:accumulate;font-family:Sans;-inkscape-font-specification:Sans" />
      <path
         clip-path="url(#clipPath6014)"
         style="fill:none;stroke:#1c92cd;stroke-width:8;stroke-linecap:butt;stroke-linejoin:miter;stroke-miterlimit:20;stroke-opacity:1;stroke-dasharray:none;stroke-dashoffset:0"
         d="m 212.8035,701.95062 c -7.30013,20.51131 -13.83858,41.99216 -12.39597,63.71599 0.40179,6.05068 1.51389,12.22995 4.67043,17.40764 0,0 0,0 0,0 2.27616,3.73364 5.92337,6.71614 10.19496,7.65128 0,0 0,0 0,0 4.83217,1.05787 9.90736,-0.19054 14.4287,-2.19714 0,0 0,0 0,0 6.48534,-2.87825 12.17796,-7.30345 17.37161,-12.1377 16.33814,-15.20755 28.23955,-34.59603 38.4088,-54.46538 4.26181,9.55038 8.88504,19.26223 16.35537,26.58116 10e-6,2e-5 10e-6,2e-5 10e-6,2e-5 2.3119,2.26503 4.99227,4.26755 8.09503,5.18843 2.63842,0.78306 5.53389,0.59807 8.07853,-0.45039 2e-5,-1e-5 2e-5,-1e-5 3e-5,10e-6 3.18164,-1.31093 5.82088,-3.68118 8.09106,-6.26722 -10e-6,-2e-5 -10e-6,-2e-5 1e-5,-3e-5 3.24261,-3.6938 5.82111,-7.92436 8.13256,-12.2621 7.26348,-13.63087 12.08887,-28.42062 16.50558,-43.22099"
         id="path4233"
         inkscape:connector-curvature="0"
         sodipodi:nodetypes="ccc" />
      <path
         clip-path="url(#clipPath6018)"
         inkscape:original-d="M 315.21158,669.66403 C 170.00331,599.26738 63.839412,748.74049 98.671592,768.85086 c 19.814618,11.43998 98.650258,-40.15385 129.920188,-64.1687 32.22246,-24.74638 83.22313,-34.97161 105.41478,-7.36622 20.49146,25.49042 41.17079,35.95363 63.31779,2.00825"
         inkscape:path-effect="#path-effect5970"
         style="fill:#1c92cd;fill-opacity:1;stroke:none"
         d="m 198.115,660.30976 c 3.1219,-0.85147 9.38302,-2.51388 17.67482,-3.83025 6.23104,-0.99103 13.61388,-1.75649 21.57546,-1.93244 7.96157,-0.17595 16.49563,0.24367 24.95855,1.31608 10.34908,1.30853 20.57533,3.59934 29.68685,6.19589 9.11151,2.59656 17.10874,5.46801 23.2009,7.60499 -5.5449,-3.45869 -13.17542,-7.46173 -22.13602,-11.03104 -8.9606,-3.5693 -19.25143,-6.67055 -29.8366,-8.63474 -8.70444,-1.61278 -17.57735,-2.44465 -25.90437,-2.56117 -8.32703,-0.11652 -16.1009,0.47567 -22.68271,1.37652 -8.70565,1.1939 -15.30458,2.86865 -18.64142,3.77838 -8.18778,2.23226 -16.19847,5.10392 -23.94187,8.56484 -12.47834,5.57693 -24.26805,12.65715 -35.08364,20.99202 -9.68353,7.45853 -18.62221,15.93211 -26.46845,25.36161 0,0 0,0 -10e-6,10e-6 -6.5189,7.81817 -12.365395,16.37303 -16.751973,25.77157 -1.766234,3.78293 -3.287174,7.75651 -4.361881,11.92094 -10e-7,10e-6 -2e-6,10e-6 -3e-6,10e-6 -0.892794,3.41446 -1.458444,7.05224 -1.38179,10.82477 0,10e-6 0,10e-6 0,2e-5 0.04009,3.07808 0.666353,6.33127 2.175476,9.42262 1.446676,2.8569 3.692034,5.24523 6.475273,6.86457 1.92535,1.07577 3.912958,1.67271 5.802208,1.92226 2.27196,0.31874 4.46953,0.30501 6.5382,0.11043 5.37202,-0.49675 10.43753,-1.89937 15.20187,-3.53025 6.11359,-2.06921 12.00085,-4.59208 17.7305,-7.291 1e-5,-10e-6 1e-5,-10e-6 2e-5,-10e-6 6.583,-3.09759 13.01168,-6.46076 19.3314,-9.96618 13.29769,-7.37522 26.20121,-15.39477 38.82348,-23.77968 10.50329,-6.97484 20.87861,-14.20881 30.92885,-21.92595 1e-5,-1e-5 1e-5,-1e-5 2e-5,-2e-5 15.81084,-12.11919 34.80415,-20.31566 54.47963,-22.51248 1e-5,0 1e-5,-10e-6 2e-5,-10e-6 8.85113,-0.96653 17.81394,-0.68902 26.0412,1.82827 7.55504,2.3016 14.54258,6.62181 19.34002,12.65177 4.70613,5.88205 9.90018,11.63599 16.0792,16.48738 2.01034,1.60776 4.19378,3.11038 6.54064,4.39722 3.5016,1.92003 7.1767,3.20993 10.96658,3.73541 3.40355,0.39215 6.67319,0.0493 9.71548,-0.83676 3.04229,-0.88609 5.86177,-2.32025 8.35466,-4.19441 3.17003,-2.40653 5.90379,-5.30108 8.32304,-8.65965 2.41924,-3.35858 4.51195,-7.19263 6.45574,-11.42711 -3.06663,3.34536 -6.046,6.33982 -9.00543,8.86277 -2.95943,2.52295 -5.89978,4.5885 -8.98436,6.14095 -2.19584,1.10621 -4.49053,1.90754 -6.80262,2.347 -2.31209,0.43945 -4.64559,0.51934 -6.91512,0.0798 0,0 0,0 0,0 -2.70281,-0.42542 -5.42073,-1.48929 -8.21293,-3.06348 -1.8814,-1.0607 -3.72175,-2.32642 -5.51135,-3.68655 -5.46248,-4.24108 -10.2196,-9.56419 -14.76843,-15.19488 -6.00984,-7.41381 -14.30529,-12.61618 -23.26373,-15.29825 -9.58124,-2.85722 -19.61255,-3.23175 -29.2467,-2.11932 -21.27053,2.40821 -41.59005,11.13971 -58.45826,24.11756 -9.85379,7.56886 -20.08027,14.69643 -30.48233,21.60677 -12.48946,8.29413 -25.21082,16.20292 -38.27699,23.4474 -6.20751,3.44138 -12.47806,6.72362 -18.857,9.7234 -5.56668,2.61493 -11.17237,5.02444 -16.88581,6.95093 -4.51416,1.50382 -8.96047,2.77647 -13.34428,3.14033 -1.66431,0.13472 -3.24179,0.16618 -4.67789,-0.0572 -1.16855,-0.1975 -2.20859,-0.46523 -2.95953,-0.93462 0,0 -10e-6,-10e-6 -10e-6,-10e-6 -1.40412,-0.79823 -2.601708,-2.07777 -3.331968,-3.53822 -0.886692,-1.6601 -1.228223,-3.77938 -1.321273,-6.02092 0,-1e-5 0,-1e-5 -10e-7,-2e-5 -0.08751,-2.78688 0.395302,-5.69517 1.133273,-8.6363 10e-7,-10e-6 3e-6,-2e-5 5e-6,-2e-5 0.909366,-3.56809 2.265118,-7.07956 3.866324,-10.53464 3.9902,-8.60665 9.46906,-16.58112 15.64907,-24.0304 0,0 10e-6,-10e-6 10e-6,-10e-6 7.43691,-8.94488 15.95305,-17.01139 25.20085,-24.14042 1e-5,-1e-5 1e-5,-1e-5 2e-5,-1e-5 10.32556,-7.95549 21.57556,-14.71338 33.46448,-20.02502 7.37313,-3.29393 14.9974,-6.02764 22.78263,-8.15101 z"
         id="path5953"
         inkscape:connector-curvature="0"
         sodipodi:nodetypes="csssc" />
    </g>
    <g
       id="g4110">
      <path
         style="fill:#6dc6fb;fill-opacity:1;stroke:none"
         d="m 673.00535,728.0698 c 15.51809,-19.67533 27.0039,-49.61009 27.17421,-76.58635 0.0264,-4.18679 -30.66369,-13.79804 -52.50691,-13.79804 -27.80494,0 -49.29753,14.96051 -83.32526,75.26923 -2.85793,-14.02468 -3.62471,-29.27121 -1.70864,-45.47072 l -40.70817,1.3335 c -15.9099,47.72971 -20.10849,102.36597 -9.98527,126.51145 14.88762,35.50932 75.48396,-6.48667 127.1372,-79.33979 17.00514,10.8472 31.32987,15.36834 33.92284,12.08072 z"
         id="path3916"
         inkscape:connector-curvature="0"
         sodipodi:nodetypes="ssscccscs" />
      <path
         inkscape:original-d="m 551.54329,736.63901 c 41.7719,-80.19311 64.99279,-98.9536 96.12936,-98.9536 21.84322,0 52.53334,9.61125 52.50691,13.79804 -0.17031,26.97626 -11.65616,56.91099 -27.17421,76.58635 -3.24577,4.1153 -24.87396,-4.00491 -46.91991,-21.37928"
         inkscape:path-effect="#path-effect3900"
         sodipodi:nodetypes="csssc"
         inkscape:connector-curvature="0"
         id="path3863"
         d="m 594.22153,661.23055 c -2.60144,2.96912 -5.49869,6.57412 -8.46267,10.66385 -2.96398,4.08973 -5.99409,8.66292 -8.9664,13.47704 -5.19273,8.39319 -10.24679,17.60307 -14.60553,26.52672 -4.35875,8.92365 -8.04406,17.54788 -10.64364,24.74085 4.51713,-6.12854 9.60274,-13.96076 14.94375,-22.24437 5.34101,-8.28361 10.95835,-17.00377 16.4407,-25.00502 3.14558,-4.58178 6.22324,-8.92994 9.14982,-12.8076 2.92659,-3.87765 5.70288,-7.28472 8.15558,-10.0866 1.98323,-2.26558 4.03585,-4.45703 6.17192,-6.55775 6.12684,-5.99999 12.92468,-11.24084 20.52793,-14.37713 6.43072,-2.71159 13.56963,-3.85955 20.73966,-3.87513 0,0 10e-6,0 10e-6,0 5.54894,-0.006 11.15922,0.6078 16.78154,1.5154 5.59483,0.90926 11.13773,2.13003 16.58961,3.66406 4.31714,1.22504 8.49665,2.53638 12.33251,4.32556 1.23404,0.59479 2.29571,1.09871 3.04128,1.69107 0,0 0,0 0,0 0.23108,0.20892 0.33065,0.25506 0.23386,0.17986 -0.177,0.006 -0.28968,-0.52095 -0.47182,-1.60316 -0.0692,13.4407 -2.95972,26.8842 -7.5918,39.69162 -10e-6,10e-6 -10e-6,10e-6 -10e-6,10e-6 -4.51329,12.39865 -10.63762,24.21075 -18.72318,34.44288 0,0 0,-10e-6 10e-6,-10e-6 0.72888,-0.50107 0.7833,-0.73783 0.5195,-0.50548 -0.52501,0.11725 -1.32386,3.4e-4 -2.34519,-0.12796 -1.70022,-0.25743 -3.41719,-0.73783 -5.16115,-1.34594 -1.45545,-0.50751 -3.03853,-1.10186 -4.74823,-1.73939 -4.70908,-1.78408 -10.01762,-3.97106 -15.50111,-6.55794 -5.48349,-2.58688 -11.14037,-5.56431 -16.54304,-8.62547 4.1745,4.61956 8.90637,9.0924 13.87953,12.94057 4.97316,3.84817 10.18797,7.06024 15.09063,9.38588 1.73956,0.83732 3.49116,1.5797 5.21408,2.16714 2.06445,0.70388 4.22816,1.29365 6.50138,1.67403 1.33003,0.24914 2.93648,0.37182 4.76797,0.14528 1.26619,0.009 2.92061,-0.74142 4.607,-2.4565 10e-6,-10e-6 2e-5,-2e-5 2e-5,-3e-5 8.69399,-11.04269 15.2312,-23.59643 19.96183,-36.66778 0,-10e-6 0,-10e-6 0,-10e-6 4.91379,-13.49456 7.9642,-27.83099 8.0716,-42.3704 -0.17823,-1.70162 -0.61032,-2.80643 -1.16251,-3.293 -0.65758,-0.81188 -1.27279,-1.37147 -1.78076,-1.7202 -1.5614,-1.14839 -3.10801,-1.94313 -4.49612,-2.56352 -4.46314,-2.05682 -9.04163,-3.51566 -13.52945,-4.76808 -5.7473,-1.61711 -11.58483,-2.90304 -17.47348,-3.85954 -5.90104,-0.96464 -11.93898,-1.61295 -18.0645,-1.61895 0,0 -10e-6,0 -10e-6,0 -8.04697,-0.0156 -16.21396,1.33853 -23.8239,4.49356 -8.85013,3.73843 -16.49245,9.54122 -23.06137,16.06294 -2.28165,2.25645 -4.46558,4.59153 -6.56585,6.98864 z"
         style="fill:#1c92cd;fill-opacity:1;stroke:none" />
      <path
         inkscape:original-d="m 521.93058,668.81742 c -15.9099,47.72971 -20.10849,102.36597 -9.98527,126.51145 14.88762,35.50932 75.48396,-6.48667 127.02929,-79.37712"
         inkscape:path-effect="#path-effect3880"
         sodipodi:nodetypes="csc"
         inkscape:connector-curvature="0"
         id="path3091"
         d="m 510.46654,761.257 c -0.0817,-5.10622 0.0276,-12.08153 0.51839,-20.04149 0,0 0,0 0,0 0.36548,-5.88205 0.92099,-12.2823 1.67811,-18.83426 0.75712,-6.55197 1.71613,-13.25486 2.79436,-19.75138 1.07824,-6.49653 2.27438,-12.78627 3.42003,-18.53105 1.14566,-5.74478 2.23829,-10.94521 3.05315,-15.2814 -2.02613,3.89487 -4.16236,8.78388 -6.20437,14.33173 -2.04201,5.54786 -3.98655,11.75443 -5.68127,18.24869 -1.69473,6.49426 -3.13792,13.27513 -4.26679,19.9454 -1.12887,6.67026 -1.94365,13.2286 -2.48272,19.27018 0,0 0,0 0,0 -0.73252,8.16671 -0.91369,15.43454 -0.82593,20.77334 0.0604,3.67527 0.23364,7.35601 0.5421,11.03652 0.64751,8.10333 1.95157,16.49223 5.24481,24.4522 1.79472,4.42686 4.7905,8.61594 9.09872,11.56229 4.14919,2.67248 8.91916,3.8057 13.50913,3.71895 0,0 0,0 1e-5,0 5.57822,-0.0928 10.85576,-1.48782 15.67023,-3.38953 6.19251,-2.41035 11.94376,-5.60863 17.35142,-9.11843 0,0 0,0 0,0 14.28067,-9.25753 26.84739,-20.71607 38.46588,-32.77184 14.59743,-15.12314 27.79758,-31.51262 39.8887,-48.61565 l -6.5318,-4.61904 c -11.90323,16.82748 -24.84453,32.90441 -39.11218,47.67801 -11.4065,11.79216 -23.5032,22.8639 -37.0558,31.61144 -10e-6,0 -10e-6,0 -10e-6,0 -5.12513,3.30376 -10.39128,6.25448 -15.89615,8.37573 -4.31039,1.63327 -8.65026,2.84834 -12.85725,2.84968 0,0 -1e-5,0 -1e-5,0 -3.30748,-0.0108 -6.57935,-0.70073 -9.01481,-2.38918 -2.68216,-1.68329 -4.69113,-4.68015 -6.13828,-7.98565 -2.85565,-6.70612 -3.96176,-14.28808 -4.65092,-22.03139 -0.29578,-3.483 -0.46056,-6.98285 -0.51675,-10.49387 z"
         style="fill:#1c92cd;fill-opacity:1;stroke:none" />
      <path
         sodipodi:nodetypes="cccc"
         inkscape:connector-curvature="0"
         id="path3908"
         d="m 560.84375,719.26478 6.63408,-11.5352 c -3.16502,-13.11082 -4.52287,-25.43236 -4.83908,-40.24566 -3.9548,15.87671 -3.72819,33.39997 -1.795,51.78086 z"
         style="font-size:medium;font-style:normal;font-variant:normal;font-weight:normal;font-stretch:normal;text-indent:0;text-align:start;text-decoration:none;line-height:normal;letter-spacing:normal;word-spacing:normal;text-transform:none;direction:ltr;block-progression:tb;writing-mode:lr-tb;text-anchor:start;baseline-shift:baseline;color:#000000;fill:#1c92cd;fill-opacity:1;stroke:none;stroke-width:8;marker:none;visibility:visible;display:inline;overflow:visible;enable-background:accumulate;font-family:Sans;-inkscape-font-specification:Sans" />
    </g>
  </g>
</svg>
