<svg xmlns="http://www.w3.org/2000/svg" xmlns:inkscape="http://www.inkscape.org/namespaces/inkscape" xmlns:xlink="http://www.w3.org/1999/xlink" height="449.2298" viewBox="0 0 592.57544 449.2298" width="592.57544">
  <defs>
    <linearGradient id="linearGradient3311">
      <stop offset="0" stop-color="#fbabb9" />
      <stop offset="0.38572264" stop-color="#fad8e5" />
      <stop offset="0.68634576" stop-color="#fad8e5" />
      <stop offset="1" stop-color="#e9c7d9" />
    </linearGradient>
    <inkscape:path-effect effect="powerstroke" id="path-effect3026" interpolator_type="CubicBezierSmooth" offset_points="0.71,1.8 | 1,1.8" start_linecap_type="zerowidth" />
    <inkscape:path-effect effect="powerstroke" end_linecap_type="zerowidth" id="path-effect3024" interpolator_type="CubicBezierSmooth" offset_points="0.75,1.8 | 3.9,1.8" start_linecap_type="zerowidth" />
    <inkscape:path-effect effect="powerstroke" id="path-effect1140" interpolator_type="CubicBezierSmooth" offset_points="0.33,1.8 | 2,1.8" start_linecap_type="zerowidth" />
    <inkscape:path-effect effect="powerstroke" end_linecap_type="zerowidth" id="path-effect1138" interpolator_type="CubicBezierSmooth" offset_points="0.47,1.8 | 6.72,1.8" start_linecap_type="zerowidth" />
    <inkscape:path-effect effect="powerstroke" end_linecap_type="zerowidth" id="path-effect1116" interpolator_type="CubicBezierSmooth" offset_points="0.33,1.8 | 2.66,1.8" start_linecap_type="zerowidth" />
    <inkscape:path-effect effect="powerstroke" end_linecap_type="zerowidth" id="path-effect1173" interpolator_type="CubicBezierSmooth" offset_points="0.17,1.8 | 3.82,1.8" start_linecap_type="zerowidth" />
    <inkscape:path-effect effect="powerstroke" end_linecap_type="zerowidth" id="path-effect1162" interpolator_type="CubicBezierSmooth" offset_points="0.37,1.8 | 2.74,1.8" start_linecap_type="zerowidth" />
    <inkscape:path-effect effect="powerstroke" id="path-effect1076" interpolator_type="CubicBezierSmooth" offset_points="0.73,1.8 | 5,1.8" start_linecap_type="zerowidth" />
    <inkscape:path-effect effect="powerstroke" id="path-effect1051" interpolator_type="CubicBezierSmooth" offset_points="0.72,1.8 | 4,1.8" start_linecap_type="zerowidth" />
    <inkscape:path-effect effect="powerstroke" end_linecap_type="zerowidth" id="path-effect1049" interpolator_type="CubicBezierSmooth" offset_points="0.64,1.8 | 4.68,1.8" start_linecap_type="zerowidth" />
    <inkscape:path-effect effect="powerstroke" end_linecap_type="zerowidth" id="path-effect1195" interpolator_type="CubicBezierSmooth" offset_points="0.51,1.8 | 1.31,1.8 | 2,1.6 | 3.37,1.8 | 3,1.8" start_linecap_type="zerowidth" />
    <inkscape:path-effect effect="powerstroke" end_linecap_type="zerowidth" id="path-effect1070" interpolator_type="CubicBezierSmooth" offset_points="0.21,1.8 | 1.59,1.8" start_linecap_type="zerowidth" />
    <inkscape:path-effect effect="powerstroke" end_linecap_type="zerowidth" id="path-effect1047" interpolator_type="CubicBezierSmooth" offset_points="0.12,1.8 | 0.89,1.8" start_linecap_type="zerowidth" />
    <linearGradient id="linearGradient1010">
      <stop offset="0" stop-color="#629558" />
      <stop offset="1" stop-color="#aed79e" />
    </linearGradient>
    <linearGradient id="linearGradient4660">
      <stop offset="0" stop-color="#fbcb91" />
      <stop offset="1" stop-color="#fde8cd" />
    </linearGradient>
    <linearGradient id="linearGradient1037">
      <stop offset="0" stop-color="#482562" />
      <stop offset="1" stop-color="#b28ec0" />
    </linearGradient>
    <clipPath id="clipPath1025">
      <use xlink:href="#ellipse998" />
    </clipPath>
    <clipPath id="clipPath1126">
      <use xlink:href="#ellipse1101" />
    </clipPath>
    <clipPath id="clipPath1172">
      <use xlink:href="#path1085" />
    </clipPath>
    <clipPath id="clipPath1281">
      <use xlink:href="#path1247" />
    </clipPath>
    <inkscape:path-effect effect="powerstroke" end_linecap_type="zerowidth" id="path-effect862" interpolator_type="CubicBezierSmooth" offset_points="0.41,1.8 | 1.8,1.8" start_linecap_type="zerowidth" />
    <inkscape:path-effect effect="powerstroke" end_linecap_type="zerowidth" id="path-effect1166-3" interpolator_type="CubicBezierSmooth" offset_points="1,1.8 | 2.75,1.8" start_linecap_type="zerowidth" />
    <inkscape:path-effect effect="powerstroke" end_linecap_type="zerowidth" id="path-effect1164-6" interpolator_type="CubicBezierSmooth" offset_points="0.72,1.8 | 3.44,1.8" start_linecap_type="zerowidth" />
    <inkscape:path-effect effect="powerstroke" end_linecap_type="zerowidth" id="path-effect4381" interpolator_type="CubicBezierSmooth" offset_points="0.52,1.8 | 1.8,1.8" start_linecap_type="zerowidth" />
    <inkscape:path-effect effect="powerstroke" id="path-effect5115" interpolator_type="CubicBezierSmooth" offset_points="0.3,1.8" start_linecap_type="zerowidth" />
    <inkscape:path-effect effect="powerstroke" end_linecap_type="zerowidth" id="path-effect6539" interpolator_type="CubicBezierSmooth" offset_points="0.54,1.8 | 1.78,1.8" start_linecap_type="zerowidth" />
    <clipPath id="clipPath2101">
      <use xlink:href="#path4260" />
    </clipPath>
    <clipPath id="clipPath2118">
      <use xlink:href="#path4318" />
    </clipPath>
    <clipPath id="clipPath2986">
      <use xlink:href="#ellipse7468" />
    </clipPath>
    <clipPath id="clipPath3003">
      <use xlink:href="#ellipse2155" />
    </clipPath>
    <linearGradient gradientUnits="userSpaceOnUse" id="linearGradient1042" x1="888.08649" x2="889.47089" y1="1735.9315" y2="1761.4645" xlink:href="#linearGradient1010" />
    <linearGradient gradientUnits="userSpaceOnUse" id="linearGradient1044" x1="732.00043" x2="737.99121" y1="1796.4189" y2="1821.3756" xlink:href="#linearGradient1010" />
    <linearGradient gradientTransform="matrix(0.72313469,0,0,0.72313469,1776.7689,-635.18218)" gradientUnits="userSpaceOnUse" id="linearGradient1046" x1="164.95821" x2="214.5585" y1="-54.757973" y2="-53.420826" xlink:href="#linearGradient1037" />
    <linearGradient gradientTransform="matrix(0.7231347,0,0,0.7231347,1607.3402,-988.56489)" gradientUnits="userSpaceOnUse" id="linearGradient1048" x1="148.67416" x2="205.64218" y1="-171.24736" y2="-171.19888" xlink:href="#linearGradient1037" />
  </defs>
  <g transform="translate(-195.94175-1768.592)">
    <g>
      <g>
        <path d="M 395.74318,1834.7437 C 364.72256,1871.4475 375.27454,1926.9128 431.159,1962.1957 Z" fill="#b28dc1" />
        <path d="M 395.74318,1834.7437 C 383.73115,1848.9564 377.95272,1865.9823 378.6262,1883.5602 388.80935,1901.7851 402.29063,1916.0753 420.35793,1922.947 Z" fill="#f6b8d2" />
        <path d="M 395.74318,1834.7437 C 364.72256,1871.4475 375.27454,1926.9128 431.159,1962.1957 Z" fill="none" stroke="#785b88" stroke-width="3.6" />
      </g>
      <path d="M 694.34048,2167.4408 C 675.19508,2185.6418 654.43545,2192.5607 641.67149,2184.0998 622.34704,2171.29 611.92453,2177.0019 584.79128,2187.8049 L 581.24401,2174.5664 C 610.14361,2170.3554 622.02572,2170.0908 632.35631,2149.335 639.17975,2135.6257 660.61757,2131.2378 686.29845,2137.4276 691.51467,2146.2081 694.46761,2157.2286 694.34048,2167.4408 Z" fill="#af6aca" opacity=".3" />
      <path d="M 460.33783,1993.6372 C 461.3783,2018.8122 466.91606,2034.3931 468.71997,2059.1529 469.78836,2073.8171 511.06636,2075.1105 509.99972,2063.5516 507.62166,2037.781 490.31126,2024.771 484.72359,1989.1934 Z" fill="#e0dde3" stroke="#bfbac2" stroke-width="3.6" />
      <path d="M 587.96498,2184.3604 C 566.44983,2192.8957 549.44532,2177.6434 562.60361,2161.6847 577.17399,2144.0134 564.04919,2132.1515 493.63891,2129.0031 397.24497,2124.6928 398.53511,2084.802 416.57134,2044.9594 444.78326,1982.6385 417.74659,1970.452 402.91085,1879.8303 383.92403,1763.8524 573.71816,1779.7593 519.22084,1906.7576 L 467.59876,1936.4161 C 497.37792,1976.8681 493.78464,2023.3978 458.91559,2056.5577 432.02835,2082.1271 440.14781,2106.4005 501.30252,2111.2459 580.65876,2117.5335 592.85542,2142.991 574.70677,2162.2872 563.75042,2173.9363 569.3084,2179.6704 584.20465,2176.9116 610.83439,2171.9798 628.22654,2168.0776 631.77851,2154.3433 635.33049,2140.609 649.65535,2140.726 662.5574,2137.7912 674.43253,2135.0901 689.47146,2137.7886 688.05066,2148.2078 686.62987,2158.6269 700.4886,2163.9508 685.99786,2172.4337 674.4963,2179.1667 655.24717,2192.7047 642.93362,2183.2327 630.62013,2173.7608 619.40104,2171.8894 587.96498,2184.3604 Z" fill="#efeded" />
      <path d="M 694.34048,2167.4408 C 675.19508,2185.6418 654.43545,2192.5607 641.67149,2184.0998 622.34704,2171.29 611.92453,2177.0019 584.79128,2187.8049 L 581.24401,2174.5664 C 610.14361,2170.3554 622.02572,2170.0908 632.35631,2149.335 639.17975,2135.6257 660.61757,2131.2378 686.29845,2137.4276 691.51467,2146.2081 694.46761,2157.2286 694.34048,2167.4408 Z" fill="#af6aca" opacity=".3" />
      <g transform="rotate(75-1078.1453 1510.1148)scale(-.85397515)">
        <path d="M 0,18.6 -5,13.8 -5.7,-13.7 H 5.7 L 5,13.8 Z" fill="#f6b8d2" />
        <path d="M -12.4,-12 C -10.2,-8.3 -12.4,-7.3 -16.7,-8.9 -16.9,3.4 -16.7,5.3 -5,13.8 V -13.6 Z" fill="#bf5d93" />
        <path d="M 12.4,-12 C 10.2,-8.3 12.4,-7.3 16.7,-8.9 16.9,3.4 16.7,5.3 5,13.8 V -13.6 Z" fill="#f5415f" />
        <path d="M 0,18.6 C -3.7,12.7 -16.7,9.7 -16.7,-3 V -8.9 C -12.4,-7.3 -10.2,-8.3 -12.4,-12 -5,-14.5 5,-14.5 12.4,-12 10.2,-8.3 12.4,-7.3 16.7,-8.9 V -3 C 16.7,9.7 3.7,12.7 0,18.6 Z" fill="none" stroke="#ab3266" />
        <path d="M -0.1,7.4 5.8,11 5,4.3 9.8,-0.2 3.1,-1 0.1,-11.1 -3.4,-1 -10,-0.2 -5,4.3 -6.1,11 Z" fill="#a02699" />
        <path d="M -0.5,5.5 C -0.525,6.925 -3.2,8.4 -4.1,7.5 -5,6.6 -4.1,4.5 -1,4.5 L -0.9,-3.4 C 2.2,-1.7 3.3,0 2.6,2.5 2.1,1.1 1.1,0.3 -0.4,-0.2 Z" fill="#fd41f8" />
      </g>
      <path fill="#cec8d1" inkscape:original-d="M 416.57134,2044.9594 C 444.78326,1982.6385 417.74659,1970.452 402.91085,1879.8303 383.92403,1763.8524 573.71816,1779.7593 519.22084,1906.7576 L 467.59876,1936.4161 C 497.37792,1976.8681 493.78464,2023.3978 458.91559,2056.5577" inkscape:path-effect="#path-effect1173" />
      <g>
        <g>
          <path d="M 476.44179,1939.4489 C 481.51879,1939.9669 486.92809,1943.6085 489.09766,1951.0325 494.45586,1969.3675 470.59534,1981.7628 454.26976,1969.3721 437.94418,1956.9814 442.71627,1937.4698 454.4372,1929.1814 Z" fill="#b28dc1" />
          <path d="M 449.28746,1964.6451 C 439.18696,1952.4686 444.12008,1936.4771 454.4372,1929.1814 L 467.12395,1935.1011 C 456.8952,1943.6977 448.23577,1951.639 449.28746,1964.6451 Z" fill="#f6b8d2" />
          <path fill="#785b88" inkscape:original-d="M 477.20929,1950.0279 C 481.06045,1953.1256 478.72132,1959.7394 471.59999,1957.479 466.06836,1955.7232 463.41775,1948.9446 466.99533,1943.414 471.39438,1936.6134 485.27494,1937.9517 489.09766,1951.0325 494.45581,1969.3675 470.59534,1981.7628 454.26976,1969.3721 437.94418,1956.9814 442.71627,1937.4698 454.4372,1929.1814" inkscape:path-effect="#path-effect1076" />
        </g>
        <g>
          <g clip-path="url(#clipPath1281)">
            <path d="M 507.7768,1898.2078 C 501.73953,1851.6558 531.01708,1846.7496 528.73235,1870.9953 527.60295,1882.9806 524.7509,1894.6596 519.90698,1904.9023 517.06047,1903.0604 510.38151,1901.6435 507.7768,1898.2078 Z" fill="#fff" id="path1247" />
            <g clip-path="url(#clipPath1126)">
              <ellipse cx="892.15479" cy="1748.3596" fill="url(#linearGradient1042)" id="ellipse1101" rx="9.2921104" ry="17.908718" transform="rotate(11.732699)" />
              <path d="M 508.77996,1908.6746 519.02791,1896.8233 504.75349,1898.2047 Z" fill="#f4f8ed" />
              <path d="M 502.95349,1893.4326 519.02791,1896.8233 505.17209,1902.014 Z" fill="#cbe4be" />
              <ellipse cx="892.51666" cy="1748.4558" rx="6.3718066" ry="12.963339" transform="rotate(11.732698)" />
              <ellipse cx="1147.5408" cy="1584.5868" fill="#fff" rx="3.9391673" ry="7.2815557" transform="rotate(20.571279)" />
              <ellipse cx="317.46579" cy="1937.9529" fill="#fff" rx="1.0293884" ry="1.7743278" transform="rotate(-6.1174778)" />
              <ellipse cx="452.3681" cy="1912.3687" fill="#fff" rx="0.52441388" ry="0.90391731" transform="rotate(-1.9972696)" />
            </g>
          </g>
          <path d="M 525.43039,1858.1226 C 528.40015,1857.4942 530.77951,1856.0539 532.34487,1853.2999 531.93126,1856.8777 529.96697,1858.794 526.56668,1860.0928 M 528.24029,1863.6384 C 531.24583,1864.0637 533.92064,1863.549 536.33356,1861.4962 534.72121,1864.717 532.27364,1865.8209 528.63417,1865.8786 M 528.87222,1870.3779 C 531.6546,1871.5914 534.45433,1871.8723 537.53271,1870.6883 535.31272,1873.3227 532.17514,1873.5594 528.65277,1872.6418 M 522.33486,1855.4281 C 527.77527,1856.1653 531.3193,1864.1583 528.35377,1874.4819 529.31,1865.8327 526.28625,1858.2144 522.04902,1857.8323 514.06746,1857.1126 505.61144,1871.0496 507.7768,1898.2078 501.67656,1868.3705 513.93469,1854.2899 522.33486,1855.4281 Z" />
        </g>
        <g>
          <path d="M 499.48198,1938.1722 C 499.58574,1929.0887 501.89453,1921.748 511.66247,1916.8344 493.32759,1893.0577 479.35871,1935.2701 499.48198,1938.1722 Z" fill="#bb1c76" />
          <path d="M 494.07907,1920.8093 C 498.22326,1923.8651 500.65116,1932.8233 495.08372,1932.5302 Z" fill="#ef6f2f" />
          <path d="M 507.7768,1898.2078 C 513.60637,1905.0368 524.17476,1901.9905 522.08279,1910.4809 519.00946,1922.9542 502.97164,1925.7511 498.5328,1911.6157 493.86604,1919.6145 491.39325,1930.24 499.06758,1937.8762 481.11436,1940.747 461.96913,1938.826 444.44934,1930.5553 Z" fill="#efeded" />
          <path d="M 509.01676,1908.0234 C 509.68209,1910.8309 511.25129,1911.6322 513.94699,1909.9727 511.26636,1913.7912 507.96387,1912.5889 509.01676,1908.0234 Z" fill="#cec8d1" />
          <path fill="#cec8d1" inkscape:original-d="M 507.7768,1898.2078 C 513.60637,1905.0368 524.17476,1901.9905 522.08279,1910.4809 519.00946,1922.9542 502.97164,1925.7511 498.5328,1911.6157 493.86604,1919.6145 491.39325,1930.24 499.06758,1937.8762 481.11436,1940.747 461.96913,1938.826 444.44934,1930.5553" inkscape:path-effect="#path-effect1195" />
        </g>
        <g>
          <g clip-path="url(#clipPath1172)">
            <ellipse cx="116.31852" cy="1942.082" fill="#fff" id="path1085" rx="28.213549" ry="29.727859" transform="rotate(-10.157147)" />
            <g clip-path="url(#clipPath1025)">
              <ellipse cx="740.20062" cy="1806.434" fill="url(#linearGradient1044)" id="ellipse998" rx="14.870028" ry="18.564146" transform="rotate(8.2892626)" />
              <path d="M 461.93477,1914.1112 474.89949,1899.7849 454.29802,1905.468 Z" fill="#f4f8ed" />
              <path d="M 453.52842,1900.8505 474.89949,1899.7849 455.60041,1908.428 Z" fill="#cbe4be" />
              <ellipse cx="742.27997" cy="1807.7247" rx="11.032877" ry="13.544105" transform="rotate(8.2892626)" />
              <ellipse cx="1112.1243" cy="1597.5309" fill="#fff" rx="6.8739004" ry="10.465214" transform="rotate(20.924221)" />
              <ellipse cx="-554.62415" cy="1873.9635" fill="#fff" rx="2.1057775" ry="2.781796" transform="rotate(-30.698195)" />
              <ellipse cx="-706.50317" cy="1825.3744" fill="#fff" rx="1.0883849" ry="1.3478622" transform="rotate(-35.17375)" />
            </g>
          </g>
          <path d="M 442.57695,1865.0113 439.93496,1866.8207 C 436.41409,1863.3879 435.77331,1859.566 437.42078,1855.0782 437.48578,1859.7792 438.75548,1862.9258 442.57695,1865.0113 Z M 435.1814,1870.7024 433.08837,1873.2559 C 428.0453,1871.1483 426.58231,1867.1913 426.76744,1862.414 428.09368,1866.7637 430.0846,1869.8589 435.1814,1870.7024 Z M 428.59505,1878.6902 C 436.12993,1860.9414 455.38534,1857.0184 468.41396,1863.0558 481.44257,1869.0933 494.08316,1889.6976 479.76687,1909.1209 490.40364,1889.7855 480.35885,1871.6747 467.33024,1865.6372 454.30162,1859.5998 437.76589,1863.2911 430.23101,1881.0399 425.93005,1882.1579 421.28968,1881.4215 419.35902,1877.6592 422.50696,1879.682 425.56463,1879.9063 428.59505,1878.6902 Z" />
          <path d="M 432.75349,1914.1953 C 454.80836,1930.5445 472.66488,1926.3577 485.66047,1907.8326 467.44648,1905.3073 449.85211,1907.5747 432.75349,1914.1953 Z" fill="#efeded" />
          <path d="M 465.66435,1915.0584 C 469.55495,1912.8629 473.89243,1911.3377 479.04347,1911.0328 475.03501,1913.0838 470.77042,1914.7322 465.66435,1915.0584 Z M 432.75349,1914.1953 C 450.05582,1904.9399 468.35814,1903.9358 485.66047,1907.8326 467.55085,1906.8728 449.97081,1909.3552 432.75349,1914.1953 Z" fill="#cec8d1" />
        </g>
      </g>
      <g>
        <path d="M 449.83792,1780.7037 C 504.16219,1756.5723 560.92067,1778.0145 539.88815,1811.4509 546.0242,1812.0965 550.3266,1817.596 550.88371,1825.4512 552.10906,1842.7286 523.7728,1857.1754 502.84185,1822.7813 Z" fill="#b28dc1" />
        <path fill="#785b88" inkscape:original-d="M 532.71626,1821.3488 C 539.99999,1823.5256 534.65804,1831.9516 527.44184,1828.0466 522.17178,1825.1947 522.13924,1817.1548 531.72092,1812.8093 542.0487,1808.1255 550.10692,1814.4985 550.88371,1825.4512 552.10906,1842.7286 523.7728,1857.1754 502.84185,1822.7813" inkscape:path-effect="#path-effect1051" />
        <path d="M 503.67052,1845.2028 C 534.74338,1789.262 525.396,1772.9943 481.30584,1828.8637 Z" fill="#efeded" />
        <path fill="#cec8d1" inkscape:original-d="M 503.67052,1845.2028 C 534.74338,1789.262 525.396,1772.9943 481.30584,1828.8637" inkscape:path-effect="#path-effect1047" />
        <path d="M 496.26977,1811 C 495.09768,1821.8001 499.43721,1832.4 509.65116,1834.1581 M 507.6,1799.8326 C 506.93024,1809.628 511.03256,1814.4 517.98139,1815.8232" fill="none" stroke="#cec8d1" stroke-width="1.8" />
        <path d="M 463.6372,1775.2233 C 520.42877,1795.2295 498.38748,1857.2374 460.6837,1857.2374 444.59419,1857.2374 434.22892,1847.5717 430.62169,1837.696 421.45463,1831.1489 413.47228,1823.3899 405.53953,1813.5628 422.82958,1793.7472 443.5032,1781.8927 463.6372,1775.2233" fill="#f6b8d2" />
        <path fill="#785b88" inkscape:original-d="M 449.08844,1830.8765 C 446.05068,1824.2259 438.29889,1829.4059 443.87887,1836.5597 448.33399,1842.2714 456.52416,1839.7489 457.04308,1832.9121 457.68932,1824.3977 446.19697,1813.4255 436.13492,1817.8748 420.88694,1824.6173 431.1262,1857.2374 460.6837,1857.2374 486.54736,1857.2374 505.04096,1828.0593 495.77396,1803.2759" inkscape:path-effect="#path-effect1049" />
        <path d="M 430.66045,1837.7163 C 421.45463,1831.1489 413.47228,1823.3899 405.53953,1813.5628 465.14883,1745.2465 566.96052,1768.4126 539.95094,1811.5599" fill="none" stroke="#785b88" stroke-width="3.6" />
      </g>
      <g>
        <path d="M 408.81339,1870.271 C 366.15088,1840.197 390.809,1795.266 398.85189,1794.742 406.89483,1794.2161 418.83052,1814.9006 421.05264,1834.9522 Z" fill="#efeded" />
        <path fill="#cec8d1" inkscape:original-d="M 408.81339,1870.271 C 366.15088,1840.197 390.809,1795.266 398.85189,1794.742 406.89483,1794.2161 418.83052,1814.9006 421.05264,1834.9522" inkscape:path-effect="#path-effect1070" />
        <path d="M 398.40875,1815.458 C 394.47637,1827.7085 396.38328,1839.6301 404.51361,1850.2497 398.9738,1838.2775 397.22842,1828.5813 398.40875,1815.458 Z" fill="#cec8d1" />
      </g>
      <g>
        <path d="M 456.97492,1993.1802 C 454.96661,2018.2965 457.43556,2034.5835 455.6816,2059.3469 454.64281,2074.0132 495.31201,2081.1939 495.90865,2069.6012 497.23885,2043.7553 482.96786,2027.7068 481.71892,1991.7147 Z" fill="#efeded" />
        <path fill="#cec8d1" inkscape:original-d="M 456.97492,1993.1802 C 454.96661,2018.2965 457.43556,2034.5835 455.6816,2059.3469 454.64281,2074.0132 495.31201,2081.1939 495.90865,2069.6012 497.23885,2043.7553 482.96786,2027.7068 481.71892,1991.7147" inkscape:path-effect="#path-effect1162" />
      </g>
    </g>
    <g>
      <path d="M 452.81134,2213.5494 C 440.18574,2190.3456 438.87558,2168.5026 450.35179,2158.3634 467.7266,2143.0129 464.90687,2131.4672 461.49455,2102.4624 H 475.20012 C 471.7878,2131.4672 468.96807,2143.0129 486.34288,2158.3634 497.81909,2168.5026 496.50893,2190.3456 483.88333,2213.5494 474.05197,2216.3153 462.6427,2216.3153 452.81134,2213.5494 Z" fill="#b85d0d" opacity=".3" />
      <path d="M 341.79919,2194.5308 C 363.14608,2201.0064 388.89787,2204.3191 412.98309,2205.587 427.05916,2206.3284 425.54681,2160.1378 413.03366,2164.384 390.05649,2172.1822 367.13266,2174.7515 342.66501,2169.5694" fill="#eae28b" stroke="#d1b568" stroke-width="3.6" />
      <path d="M 413.55965,2143.0619 C 406.78523,2134.1085 412.22531,2121.498 417.62619,2113.0073 421.82341,2130.6944 438.85977,2121.3572 441.07909,2110.3518 442.74287,2102.1013 427.8049,2106.4899 429.76632,2097.8264 452.40598,1997.8281 314.18096,1991.4343 315.98823,2078.5679 316.43521,2100.1182 325.07403,2120.1307 327.87973,2138.2486 285.9951,2119.4275 274.14905,2163.0624 241.55209,2162.4548 217.42492,2162.0051 219.76512,2125.9892 243.35565,2128.3845 286.02404,2132.7169 303.83094,2165.0123 339.15821,2161.9928 372.89746,2159.109 391.04066,2135.4328 401.36027,2102.6908 414.48708,2061.0421 459.42113,2060.8676 464.3066,2101.6869 468.30964,2135.1333 466.08693,2145.2545 450.88413,2160.4573 435.68134,2175.6601 448.8967,2196.8733 451.01802,2206.7728 453.13934,2216.6723 474.41317,2213.96 480.07005,2211.1315 485.72688,2208.3031 489.8179,2195.9895 492.29277,2176.8976 494.76765,2157.8057 462.93159,2163.0119 472.1099,2102.852 480.13887,2050.2255 409.00303,2032.3457 387.5595,2097.2601 377.82391,2126.7319 364.44992,2143.1252 338.41861,2145.8863 307.79724,2149.1343 284.92165,2105.5983 244.34523,2100.6878 188.83732,2093.9704 173.18413,2184.0973 239.64714,2192.4392 274.11638,2196.7655 283.80858,2193.7637 319.22239,2199.6025 354.08205,2205.3499 386.85468,2180.9022 373.73035,2139.4337 387.05033,2143.2743 400.46772,2144.7082 413.55965,2143.0619 Z" fill="#f3f49b" />
      <path d="M 411.43211,2125.9085 C 416.2686,2130.3223 416.08174,2137.3258 412.02111,2140.9638 408.12376,2135.7405 408.49382,2130.7212 411.43211,2125.9085 Z" fill="#ef6f2f" />
      <path d="M 431.23681,2108.7909 C 431.69959,2110.8174 433.04634,2111.4921 434.90754,2110.0524 432.89909,2113.3515 430.4281,2112.5954 431.23681,2108.7909 Z" fill="#d9c574" />
      <path fill="#d9c574" inkscape:original-d="M 367.12439,2137.3935 C 382.61835,2142.718 398.3098,2144.9795 413.55965,2143.0619 406.78523,2134.1085 412.22531,2121.498 417.62619,2113.0073 421.82341,2130.6944 438.85977,2121.3572 441.07909,2110.3518 442.74287,2102.1013 427.8049,2106.4899 429.76632,2097.8264 452.40598,1997.8281 314.18096,1991.4343 315.98823,2078.5679 316.43521,2100.1182 325.07403,2120.1307 327.87973,2138.2486 285.40108,2119.32 274.14905,2163.0624 241.55209,2162.4548" inkscape:path-effect="#path-effect1138" />
      <path fill="#d9c574" inkscape:original-d="M 239.64714,2192.4392 C 274.11638,2196.7655 283.80858,2193.7637 319.22239,2199.6025 354.08205,2205.3499 386.85468,2180.8138 373.74887,2139.3122" inkscape:path-effect="#path-effect1140" />
      <g>
        <path d="M 339.88942,2194.1818 C 360.00917,2203.8157 384.96195,2210.9912 408.57715,2215.893 422.37854,2218.7579 427.88058,2172.8711 414.86848,2175.1733 390.97534,2179.4002 367.92677,2178.4677 344.52647,2169.6389 Z" fill="#f3f49b" />
        <path fill="#d9c574" inkscape:original-d="M 339.88942,2194.1818 C 360.00917,2203.8157 384.96195,2210.9912 408.57715,2215.893 422.37854,2218.7579 427.88058,2172.8711 414.86848,2175.1733 390.97534,2179.4002 367.92677,2178.4677 344.52647,2169.6389" inkscape:path-effect="#path-effect1116" />
      </g>
      <g>
        <g>
          <path d="M 276.1729,1935.2762 C 302.19684,1967.908 304.33046,2007.3168 297.12935,2059.8601 361.17122,2042.4539 320.0258,1954.5104 276.1729,1935.2762 Z" fill="#f35f91" />
          <path d="M 276.1729,1935.2762 C 302.19684,1967.908 304.33046,2007.3168 297.12935,2059.8601 254.9821,2033.4346 257.89905,1956.2034 276.1729,1935.2762 Z" fill="#ec438c" />
          <path d="M 297.12935,2059.8601 C 361.17122,2042.4539 320.0258,1954.5104 276.1729,1935.2762 257.89905,1956.2034 254.9821,2033.4346 297.12935,2059.8601 Z" fill="none" stroke="#c72965" stroke-width="3.6" />
          <path d="M 276.1729,1935.2762 C 302.19684,1967.908 304.33046,2007.3168 297.12935,2059.8601" fill="none" stroke="#c72965" stroke-width="1.8" />
          <path d="M 204.93149,1979.1031 C 201.29607,2010.3604 211.52141,2045.0431 233.29532,2077.786 273.25155,2094.0575 311.34077,2090.5829 311.54691,2042.7046 285.94981,2044.5603 225.82208,2025.9259 204.93149,1979.1031 Z" fill="#f35f91" />
          <path d="M 311.54691,2042.7046 C 290.80016,2003.3236 245.68062,1978.6636 204.93149,1979.1031 225.82208,2025.9259 285.94981,2044.5603 311.54691,2042.7046 Z" fill="#ec438c" />
          <path d="M 311.54691,2042.7046 C 290.80016,2003.3236 245.68062,1978.6636 204.93149,1979.1031 201.29607,2010.3604 211.52141,2045.0431 233.29532,2077.786 273.25155,2094.0575 311.34077,2090.5829 311.54691,2042.7046 Z" fill="none" stroke="#c72965" stroke-width="3.6" />
          <path d="M 311.54691,2042.7046 C 285.94981,2044.5603 225.82208,2025.9259 204.93149,1979.1031" fill="none" stroke="#c72965" stroke-width="1.8" />
        </g>
        <path d="M 329.7592,2039.4924 C 343.95862,2039.1137 358.25995,2043.4632 372.59234,2051.9695 387.81704,2061.0053 391.15682,2048.4398 382.79361,2038.6144 411.42748,2046.2836 443.12744,2078.8122 451.25159,2058.192 462.23632,2030.3114 413.40369,1937.7118 324.11179,2030.5448 Z M 320.10284,2075.9417 C 322.10986,2094.8215 328.03887,2106.4059 336.03782,2115.7579 344.23598,2125.3429 341.4365,2133.0169 329.62068,2131.2531 374.29994,2172.5399 330.35524,2203.8156 303.31427,2161.3417 285.65429,2133.6028 318.90194,2106.083 315.19773,2074.7469 Z" fill="#f5415f" stroke="#c52452" stroke-width="3.6" />
        <path d="M 436.50351,2064.2434 C 425.69213,2019.8138 386.1605,1998.7825 337.68918,2017.4694 M 452.9252,2052.2771 C 434.60747,2012.3193 390.00196,1989.0203 343.62761,2012.3548 M 344.06048,2177.6088 C 323.3719,2170.0313 306.81616,2143.8224 304.38906,2118.5136 M 348.5365,2161.7214 C 330.89535,2156.7064 313.53636,2137.5536 307.21417,2111.5246" fill="none" stroke="#c52452" stroke-width="1.8" />
        <path d="M 334.30226,2043.6596 C 326.65483,2025.3848 316.15972,2011.4764 309.097,2012.8665 303.00091,2014.0663 283.09605,2062.2593 326.20778,2086.4713 Z" fill="#f3f49b" />
        <path fill="#d9c574" inkscape:original-d="M 334.30226,2043.6596 C 326.65483,2025.3848 316.15972,2011.4764 309.097,2012.8665 303.00091,2014.0663 283.09605,2062.2593 326.20778,2086.4713" inkscape:path-effect="#path-effect862" />
        <path d="M 312.44098,2033.3812 C 311.55134,2045.8731 314.34012,2055.8545 320.7813,2066.3705 311.91844,2058.1099 309.465,2046.1154 312.44098,2033.3812 Z" fill="#d9c574" />
      </g>
      <path d="M 359.09637,2093.8823 C 360.01448,2098.6955 363.55381,2100.914 367.80471,2101.7683 L 369.80142,2099.4652 C 365.48084,2099.4682 361.75687,2097.8919 359.09637,2093.8823 Z M 355.96898,2098.3353 C 357.56598,2102.9678 361.38621,2104.6574 365.71559,2104.895 L 367.3624,2102.3299 C 363.08665,2102.9508 359.17553,2101.9233 355.96898,2098.3353 Z M 353.57418,2103.3479 C 355.82668,2107.6995 359.89231,2108.7338 364.21033,2108.3404 L 365.42677,2105.6464 C 361.28642,2106.8813 357.26758,2106.4324 353.57418,2103.3479 Z M 418.13339,2107.8731 C 420.4955,2102.8338 419.1253,2097.4615 416.93949,2093.3483 L 417.34573,2102.5117 C 403.05466,2081.1254 367.92521,2086.8822 363.83151,2109.5375 374.73738,2086.7275 406.44652,2085.7797 418.13339,2107.8731 Z" />
      <path d="M 452.81134,2213.5494 C 440.18574,2190.3456 438.87558,2168.5026 450.35179,2158.3634 467.7266,2143.0129 464.90687,2131.4672 461.49455,2102.4624 H 475.20012 C 471.7878,2131.4672 468.96807,2143.0129 486.34288,2158.3634 497.81909,2168.5026 496.50893,2190.3456 483.88333,2213.5494 474.05197,2216.3153 462.6427,2216.3153 452.81134,2213.5494 Z" fill="#b85d0d" opacity=".3" />
      <g transform="translate(468.34733 2181.703)scale(.85397515)">
        <path d="M 0,18.6 -5,13.8 -5.7,-13.7 H 5.7 L 5,13.8 Z" fill="#f6b8d2" />
        <path d="M -12.4,-12 C -10.2,-8.3 -12.4,-7.3 -16.7,-8.9 -16.9,3.4 -16.7,5.3 -5,13.8 V -13.6 Z" fill="#bf5d93" />
        <path d="M 12.4,-12 C 10.2,-8.3 12.4,-7.3 16.7,-8.9 16.9,3.4 16.7,5.3 5,13.8 V -13.6 Z" fill="#f5415f" />
        <path d="M 0,18.6 C -3.7,12.7 -16.7,9.7 -16.7,-3 V -8.9 C -12.4,-7.3 -10.2,-8.3 -12.4,-12 -5,-14.5 5,-14.5 12.4,-12 10.2,-8.3 12.4,-7.3 16.7,-8.9 V -3 C 16.7,9.7 3.7,12.7 0,18.6 Z" fill="none" stroke="#ab3266" />
        <path d="M 0.2,-5.5 C 3.4,-7.6 8.4,-5.2 8.4,-0.7 8.4,2.2 5.4,5.1 4.7,6.5 4,7.9 3.6,10.1 1.6,8.1 0.9,9.1 -0.6,9.1 -1.3,8.1 -3.2,10.1 -3.8,7.6 -4.6,6.5 -5.4,5.4 -8.4,1.3 -8.4,-2 -8.4,-6.7 -2.6,-8.6 0.2,-5.5 Z M 0,-10.9 C 0.8,-9.7 1,-8 0.6,-6.6 0.2,-7.9 -0.8,-9 -1.8,-9.7 Z" fill="#a02699" />
        <path d="M 0,6.2 C -1.1,3.2 -5.8,2.2 -5.8,-1.6 -5.8,-5.4 -1.5,-6.2 0,-4.3 1.5,-6.2 5.8,-5.4 5.8,-1.6 5.8,2.2 1.1,3.2 0,6.2 Z" fill="#fd41f8" />
      </g>
    </g>
    <g>
      <path d="M 703.68532,2059.0829 C 707.31175,2067.2473 707.96124,2074.9794 705.06032,2083.1024 701.06577,2094.2876 739.33463,2107.3029 741.48824,2093.5791 746.77297,2059.9028 711.55513,2039.0816 704.47706,2038.3946 698.61662,2037.8256 695.32529,2046.7252 692.25655,2058.2205 Z" fill="#f29e4d" stroke="#e9531b" stroke-width="3.6" />
      <g>
        <path d="M 738.17713,1876.9589 C 743.16376,1871.5005 747.83143,1864.8165 751.82965,1857.2825 762.03972,1881.784 759.02461,1910.1991 738.72662,1939.4126 742.61106,1938.2458 746.33194,1936.7713 750.07334,1934.9675 743.17026,1951.7987 731.19982,1966.2649 713.31692,1977.9283 Z" style="fill:#bf5d93;stroke:#bd1f77;stroke-width:3.6;stroke-miterlimit:20" />
        <path d="M 750.07334,1934.9675 C 739.99366,1946.5144 730.81576,1955.4658 716.44532,1964.3338" style="fill:none;stroke:#bd1f77;stroke-width:1.8;stroke-miterlimit:20" />
      </g>
      <path d="M 680.8797,2088.3505 C 654.44626,2090.4518 641.10387,2086.59 600.87833,2094.2588 535.82717,2106.6604 553.05544,2009.0559 623.76602,2050.409 724.42319,2109.2755 722.83729,1980.3421 728.16966,1940.3973 743.59051,1824.8797 577.53488,1843.4795 611.01033,1955.8599 L 669.48176,1989.8626 C 669.58463,1996.6833 668.45654,2002.4862 666.44623,2007.3208 654.63966,2000.8536 640.85371,1997.0316 624.41755,1996.1007 496.56449,1988.8596 504.62878,2145.3502 607.04087,2113.396 641.15495,2102.7519 658.95116,2103.1998 684.08727,2095.6188 709.08032,2088.081 718.12261,2087.4376 729.57633,2095.3213 743.25143,2104.734 752.7954,2105.4252 761.85292,2100.9853 770.91049,2096.5453 793.38077,2092.1437 785.74401,2072.7854 779.16015,2056.0961 786.86135,2058.0829 753.92657,2055.2495 736.20021,2053.7245 730.64193,2064.5967 724.78117,2074.3646 718.9204,2084.1325 687.06509,2087.8588 680.8797,2088.3505 Z" fill="#f9b764" />
      <path d="M 788.29515,2088.2853 C 767.76341,2104.9066 746.51945,2110.1533 734.46854,2100.7044 716.2236,2086.399 705.37999,2091.2642 677.4738,2099.876 L 674.9902,2086.3974 C 704.13309,2084.4972 715.99863,2085.178 727.94656,2065.3092 735.83823,2052.1857 757.55702,2049.5159 782.66456,2057.7277 787.16632,2066.8951 789.23381,2078.1155 788.29515,2088.2853 Z" fill="#d93a91" opacity=".5" />
      <path fill="#f37033" inkscape:original-d="M 661.70995,2014.784 C 666.6681,2009.0599 669.64612,2000.7603 669.48176,1989.8626 L 611.01033,1955.8599 C 577.53488,1843.4795 743.59051,1824.8797 728.16966,1940.3973 722.83729,1980.3421 724.42319,2109.2755 623.76602,2050.409" inkscape:path-effect="#path-effect3024" />
      <path fill="#f37033" inkscape:original-d="M 624.41755,1996.1007 C 640.85371,1997.0316 654.63966,2000.8536 666.51001,2007.3647" inkscape:path-effect="#path-effect3026" />
      <g>
        <g clip-path="url(#clipPath3003)">
          <path d="M 504.26845,1984.3226 C 501.5167,1987.0462 497.42453,1989.0425 491.46474,1989.2672 488.54512,1977.1451 487.7774,1964.7707 489.00767,1956.6074 490.55018,1946.3722 494.16402,1942.2335 498.24647,1942.3184 508.0018,1942.5213 512.34159,1970.1505 504.26845,1984.3226 Z" fill="#fff" id="ellipse2155" transform="rotate(-3.4713014)" />
          <g clip-path="url(#clipPath2986)">
            <ellipse cx="1913.4873" cy="-671.49481" fill="url(#linearGradient1046)" id="ellipse7468" rx="23.557514" ry="9.9105453" transform="rotate(-88.300637)scale(-1)" />
            <path d="M 620.24012,1956.1686 611.26777,1936.9955 624.99122,1944.7363 Z" fill="#e7cee4" />
            <path d="M 626.23492,1938.8796 611.26777,1936.9955 623.78391,1947.7632 Z" fill="#c5a6d0" />
            <ellipse cx="1919.1677" cy="-654.09796" rx="19.202227" ry="7.4355993" transform="rotate(-88.786741)scale(-1)" />
            <ellipse cx="-1651.4418" cy="1164.5385" fill="#fff" rx="10.676085" ry="4.8383842" transform="rotate(-72.499041)" />
            <ellipse cx="2027.2745" cy="-123.68774" fill="#fff" rx="2.8587475" ry="1.4024251" transform="rotate(75.76278)" />
            <ellipse cx="2034.0476" cy="9.258852" fill="#fff" rx="1.4375445" ry="0.82549495" transform="rotate(72.14114)" />
          </g>
        </g>
        <path d="M 620.95994,1914.0595 C 626.3604,1923.5431 627.49478,1938.161 623.49117,1950.1491 629.90593,1938.3681 627.6047,1922.0387 622.47227,1912.8981 616.43024,1902.1375 605.84058,1908.5129 606.58027,1923.4088 609.10049,1908.4125 616.42121,1906.0892 620.95994,1914.0595 Z M 606.9422,1919.8 C 604.51213,1920.7648 601.81968,1920.4025 599.24906,1918.6041 601.02576,1921.4382 603.96619,1922.354 606.67782,1921.9647 M 611.03443,1910.4668 C 608.32235,1908.9827 606.75054,1906.902 606.61891,1903.1836 605.58134,1907.2658 606.81694,1909.9915 609.83876,1912.0979 M 608.4053,1914.9698 C 605.07626,1914.065 602.70801,1912.2298 601.61846,1908.6721 601.59689,1912.9213 604.03291,1915.6705 607.7637,1916.8692" />
      </g>
      <g>
        <path d="M 623.49117,1950.1491 C 616.99597,1957.5935 607.35086,1953.1306 607.04026,1960.2586 606.34802,1976.1451 637.43545,1999.1295 682.68962,1987.4795 Z" fill="#f9b764" />
        <path d="M 614.04548,1961.6179 C 615.91271,1962.958 616.99261,1962.6666 617.90222,1960.5719 618.00493,1964.0049 615.77313,1964.7373 614.04548,1961.6179 Z M 616.13561,1977.1276 C 622.40434,1976.7204 627.03878,1973.7495 629.02525,1967.3923 625.48918,1972.4365 619.79182,1974.72 613.01839,1973.9347" fill="#f37033" />
        <path fill="#f37033" inkscape:original-d="M 623.49117,1950.1491 C 616.99597,1957.5935 607.35086,1953.1306 607.04026,1960.2586 606.34802,1976.1451 637.43545,1999.1295 682.68962,1987.4795" inkscape:path-effect="#path-effect6539" />
      </g>
      <g>
        <g clip-path="url(#clipPath2118)">
          <ellipse cx="1672.3171" cy="-1205.5669" fill="#fff" id="path4318" rx="29.699633" ry="27.82888" transform="rotate(-73.29155)scale(-1)" />
          <g clip-path="url(#clipPath2101)">
            <ellipse cx="1734.8502" cy="-1103.424" fill="url(#linearGradient1048)" id="path4260" rx="27.264385" ry="23.382421" transform="rotate(-76.3903)scale(-1)" />
            <path d="M 674.16335,1975.7353 658.6394,1949.227 684.96602,1966.4169 Z" fill="#e7cee4" />
            <path d="M 688.2375,1956.7139 658.6394,1949.227 682.4674,1967.7846 Z" fill="#c5a6d0" />
            <ellipse cx="974.00781" cy="1810.4261" rx="18.807543" ry="22.311317" transform="rotate(9.471892)" />
            <ellipse cx="-1073.344" cy="1746.4004" fill="#fff" rx="12.926485" ry="9.0003729" transform="rotate(-50.594031)" />
            <ellipse cx="1977.7684" cy="594.88129" fill="#fff" rx="3.3469644" ry="2.6410234" transform="rotate(54.14899)" />
            <ellipse cx="1702.6744" cy="1171.6372" fill="#fff" rx="2.0110447" ry="1.5869331" transform="rotate(36.595456)" />
          </g>
        </g>
        <path d="M 690.52626,1923.6481 C 693.71881,1921.888 695.42502,1918.8611 696.17751,1915.0249 696.91936,1919.3198 695.84442,1922.7506 692.46559,1925.4386 M 711.31431,1938.4602 C 708.90104,1941.6027 705.37818,1941.7374 701.11582,1940.5103 695.84851,1922.4859 677.69343,1916.2596 664.55986,1921.9887 651.17129,1927.8291 645.11488,1940.8856 646.65689,1956.2293 641.83243,1940.6908 650.35159,1925.7379 663.72754,1919.8687 678.12044,1913.5533 696.70117,1920.7242 702.87225,1938.1056 705.93221,1939.4804 708.40621,1939.7015 711.31431,1938.4602 Z M 697.43577,1930.1256 C 701.2707,1929.0116 703.61383,1926.6279 705.68535,1922.7529 705.47657,1927.1777 702.72724,1930.787 698.76785,1932.5088" />
      </g>
      <g>
        <path d="M 718.00903,1886.1924 C 691.51735,1885.3842 663.37999,1894.867 640.16937,1919.9883 643.47361,1905.2686 647.55728,1895.5584 655.26287,1886.4392 591.30059,1927.3108 553.66817,1855.4616 592.84872,1844.2044 577.87043,1862.3567 587.07076,1879.4432 622.23743,1852.5106 644.28449,1835.6258 669.33334,1838.6346 691.23249,1854.3321 686.99775,1845.6263 681.96703,1837.6347 672.68588,1829.4683 697.86312,1833.4811 717.46429,1847.1421 731.6395,1870.0027 Z" style="fill:#bf5d93;stroke:#bd1f77;stroke-width:3.6;stroke-miterlimit:20" />
        <path d="M 585.48654,1884.9921 C 634.90629,1897.2592 655.8161,1839.5855 729.29162,1872.6713" style="fill:none;stroke:#bd1f77;stroke-width:1.8;stroke-miterlimit:20" />
        <path d="M 711.68073,1891.7268 C 714.69646,1872.2832 724.93866,1860.8793 730.00808,1861.3378 736.98982,1861.9692 765.00517,1907.6719 718.89173,1936.89 Z" fill="#f9b764" />
        <path fill="#f37033" inkscape:original-d="M 711.68073,1891.7268 C 714.69646,1872.2832 724.93866,1860.8793 730.00808,1861.3378 736.98982,1861.9692 765.00517,1907.6719 718.89173,1936.89" inkscape:path-effect="#path-effect4381" />
        <path d="M 730.57456,1881.5485 C 735.68315,1891.904 735.14384,1906.7408 725.7994,1916.2514 732.45766,1904.3054 733.04482,1894.4633 730.57456,1881.5485 Z" fill="#f37033" />
      </g>
      <g>
        <path d="M 651.2497,2009.1194 C 660.00535,2029.9171 644.46488,2049.4741 623.72928,2035.3216 595.31982,2015.9315 598.33446,1988.5229 635.45819,2009.12 Z" fill="#f9b764" />
        <path fill="#f37033" inkscape:original-d="M 651.2497,2009.1194 C 660.00535,2029.9171 644.46488,2049.4741 623.72928,2035.3216 595.31982,2015.9315 598.33446,1988.5229 635.45819,2009.12 621.86921,2010.3659 614.61582,2017.3065 629.72361,2027.7108 623.49601,2027.9235 620.76971,2031.3361 625.1074,2036.2166" inkscape:path-effect="#path-effect5115" />
        <path d="M 625.97182,2028.4714 606.20194,2016.0541 M 622.74402,2013.8564 606.88069,2004.078" fill="none" stroke="#f37033" stroke-width="1.8" />
      </g>
      <g>
        <path d="M 678.8282,2040.727 C 682.55581,2046.7511 685.47564,2050.9571 690.95777,2055.1786 698.0703,2055.4137 702.20258,2058.8687 701.53055,2067.5143 686.23651,2087.2189 675.10347,2081.4664 661.52259,2057.4817 Z" fill="#f9b764" />
        <path fill="#f37033" inkscape:original-d="M 678.8282,2040.727 C 682.55581,2046.7511 685.47564,2050.9571 690.95777,2055.1786 698.0703,2055.4137 702.20258,2058.8687 701.53055,2067.5143 686.23651,2087.2189 675.10347,2081.4664 661.52259,2057.4817" inkscape:path-effect="#path-effect1166-3" />
        <path d="M 694.2164,2061.7423 C 696.40017,2070.4047 695.72401,2078.1346 691.48271,2085.6452 685.64251,2095.9872 721.13737,2115.3267 725.59563,2102.1699 736.53565,2069.8846 705.37602,2043.3725 698.51819,2041.4906 692.84013,2039.9324 688.08192,2048.1419 683.10123,2058.947 Z" fill="#f9b764" />
        <path fill="#f37033" inkscape:original-d="M 694.2164,2061.7423 C 696.40017,2070.4047 695.724,2078.1346 691.48271,2085.6452 685.6425,2095.9872 721.13738,2115.3267 725.59563,2102.1699 736.53566,2069.8846 705.37601,2043.3725 698.51819,2041.4906 692.84012,2039.9324 688.08192,2048.1419 683.10123,2058.947" inkscape:path-effect="#path-effect1164-6" />
      </g>
      <g transform="rotate(79.55969-871.3254 1492.2985)scale(-.85397515)">
        <path d="M 0,18.6 -5,13.8 -5.7,-13.7 H 5.7 L 5,13.8 Z" fill="#f6b8d2" />
        <path d="M -12.4,-12 C -10.2,-8.3 -12.4,-7.3 -16.7,-8.9 -16.9,3.4 -16.7,5.3 -5,13.8 V -13.6 Z" fill="#bf5d93" />
        <path d="M 12.4,-12 C 10.2,-8.3 12.4,-7.3 16.7,-8.9 16.9,3.4 16.7,5.3 5,13.8 V -13.6 Z" fill="#f5415f" />
        <path d="M 0,18.6 C -3.7,12.7 -16.7,9.7 -16.7,-3 V -8.9 C -12.4,-7.3 -10.2,-8.3 -12.4,-12 -5,-14.5 5,-14.5 12.4,-12 10.2,-8.3 12.4,-7.3 16.7,-8.9 V -3 C 16.7,9.7 3.7,12.7 0,18.6 Z" fill="none" stroke="#ab3266" />
        <path d="M -2.3,-3.4 C -9.7,-6.7 -11.3,-3.8 -2.3,0.6 -7.7,-1 -7,2.6 -1.9,3.5 -3.4,5.1 -0.3,6.9 6.7,8.8 0.3,2 7,1.2 7,-1.8 7,-6.3 -7.9,-13 -9.3,-11.6 -10.1,-10.8 -8,-7.6 -2.3,-3.4 Z" fill="#a02699" />
        <path d="M -4.3,-2.3 0.6,-2.8 -4.6,-8.8 5.7,-1.7 0.6,0.2 3.5,5.3 Z" fill="#fd41f8" />
      </g>
    </g>
  </g>
</svg>