<svg xmlns="http://www.w3.org/2000/svg" xmlns:inkscape="http://www.inkscape.org/namespaces/inkscape" xmlns:xlink="http://www.w3.org/1999/xlink" height="504.59692" viewBox="0 0 492.68298 504.59692" width="492.68298">
  <defs>
    <inkscape:path-effect effect="powerstroke" id="path-effect1401" interpolator_type="CubicBezierSmooth" offset_points="0.22,2" start_linecap_type="zerowidth" />
    <inkscape:path-effect effect="powerstroke" end_linecap_type="zerowidth" id="path-effect1399" interpolator_type="CubicBezierSmooth" offset_points="0.34,2 | 10.75,2" start_linecap_type="zerowidth" />
    <inkscape:path-effect effect="powerstroke" end_linecap_type="zerowidth" id="path-effect23369" interpolator_type="CubicBezierSmooth" offset_points="0.48,2 | 3.43,2" start_linecap_type="zerowidth" />
    <linearGradient id="linearGradient13792">
      <stop offset="0" stop-color="#20476b" />
      <stop offset="1" stop-color="#3977b8" />
    </linearGradient>
    <linearGradient id="linearGradient4708">
      <stop offset="0" stop-color="#4a1767" />
      <stop offset="1" stop-color="#794897" />
    </linearGradient>
    <clipPath id="M2">
      <path d="m -3.3,-2.1 -10.6,-20.1 9.7,-24.1 10.4,20.7 z" />
    </clipPath>
    <inkscape:path-effect effect="powerstroke" end_linecap_type="zerowidth" id="path-effect16317-3" interpolator_type="CubicBezierSmooth" offset_points="0.4,2 | 2.67,2" start_linecap_type="zerowidth" />
    <inkscape:path-effect effect="powerstroke" end_linecap_type="zerowidth" id="path-effect5966-2" interpolator_type="CubicBezierSmooth" offset_points="0.42,2 | 1.8,2" start_linecap_type="zerowidth" />
    <linearGradient gradientTransform="matrix(0.62326376,-0.05860688,0.06801999,0.60942787,-25.762923,1223.0729)" gradientUnits="userSpaceOnUse" id="linearGradient7130" x1="218.94344" x2="309.44778" y1="522.36749" y2="444.83069" xlink:href="#linearGradient4708" />
    <linearGradient gradientUnits="userSpaceOnUse" id="linearGradient1394" x1="474.7092" x2="509.7627" y1="1361.0601" y2="1352.868" xlink:href="#linearGradient4708" />
    <linearGradient gradientUnits="userSpaceOnUse" id="linearGradient1407" x1="492.32867" x2="457.66464" y1="1289.0065" y2="1337.3728" xlink:href="#linearGradient4708" />
    <linearGradient gradientUnits="userSpaceOnUse" id="linearGradient1461" x1="321.58969" x2="337.13187" y1="1460.9084" y2="1467.0769" xlink:href="#linearGradient4708" />
    <linearGradient gradientUnits="userSpaceOnUse" id="linearGradient1332" x1="371.02133" x2="299.61197" y1="1462.6714" y2="1440.2592" xlink:href="#linearGradient4708" />
    <clipPath id="clipPath3667">
      <use xlink:href="#path2609" />
    </clipPath>
    <clipPath id="clipPath3683">
      <use xlink:href="#path6956" />
    </clipPath>
    <linearGradient gradientUnits="userSpaceOnUse" id="linearGradient128" x1="1388.2369" x2="1438.2662" y1="72.576622" y2="74.617996" xlink:href="#linearGradient13792" />
    <clipPath id="M2-3">
      <path d="m -3.3,-2.1 -10.6,-20.1 9.7,-24.1 10.4,20.7 z M 14.1,29.5 3.5,9.4 13.2,-14.7 23.6,6 Z M -13.1,46.3 -23.7,26.2 -14,2.1 -3.6,22.8 Z" />
    </clipPath>
  </defs>
  <g transform="translate(-35.627639-1215.2033)">
    <g>
      <path d="m 361.72976,1537.5245 c -4.82768,44.4177 -6.72726,96.7235 10.71252,146.5667 5.42846,15.5147 71.51445,11.3544 63.97212,-0.7934 -31.64917,-50.9745 -40.382,-93.5643 -45.45796,-147.8556 z m -27.41685,-43.54 c -1.28852,53.2482 -67.70044,89.7152 -20.66952,189.2022 7.54314,15.9564 -66.91255,18.1968 -68.88641,1.107 -5.59173,-48.4135 0.61132,-92.0002 22.6405,-128.7826 z" fill="#dfe4e3" stroke="#bdc1c2" stroke-width="4" />
      <path d="m 258.15829,1565.6531 c 16.02661,7.5913 32.35467,10.1478 48.77117,11.2275 -9.54782,26.0337 -9.06838,46.7107 2.32279,86.3369 -22.64606,6.6419 -46.08441,5.7571 -69.7272,2.93 -0.88891,-36.3954 4.5395,-70.4648 18.63324,-100.4944 z" fill="#4a1767" opacity=".5" />
      <path d="m 425.2527,1660.7176 c -18.56736,7.3248 -39.4205,9.0621 -59.41648,5.7305 -2.07121,-7.3676 -3.2727,-13.3834 -4.34418,-20.0013 20.09088,3.1867 38.02128,1.7244 54.7235,-4.7017 2.14547,6.4442 5.48979,12.7329 9.03716,18.9725 z" fill="#e7bb40" />
      <path d="m 390.33672,1668.143 -0.32586,-20.6193 -9.23135,0.4252 1.88029,20.2091 z" fill="#f2f271" />
      <path d="m 425.2527,1660.7176 c -18.56736,7.3248 -39.4205,9.0621 -59.41648,5.7305 -2.07121,-7.3676 -3.2727,-13.3834 -4.34418,-20.0013 20.09088,3.1867 38.02128,1.7244 54.7235,-4.7017 2.14547,6.4442 5.48979,12.7329 9.03716,18.9725 z" fill="none" stroke="#887138" stroke-width="2" />
      <path d="m 259.83951,1562.6264 c 15.44289,6.6487 30.63647,9.9956 47.3446,10.5691 3.79093,0.1301 3.05283,7.1405 -1.37455,6.9322 -15.88001,-0.7472 -33.35203,-4.4021 -48.45919,-10.6617 -3.24409,-1.3442 -1.07098,-8.3724 2.48914,-6.8396 z m 47.52303,96.9159 c 4.17488,-1.2476 6.2659,5.7547 1.38256,7.1451 -22.13131,6.3015 -43.44614,7.2647 -67.53388,3.2159 -4.764,-0.8008 -4.42718,-8.1534 0.46649,-7.2248 23.42687,4.4451 44.19374,3.2859 65.68483,-3.1362 z" fill="#4a1767" />
    </g>
    <path d="m 457.45845,1395.3275 -18.99432,20.0862 -11.5541,-23.0096 11.46346,7.1538 -8.88746,-11.2097 z" style="stroke:#b0d8e7;fill:#fff;stroke-miterlimit:20;stroke-width:2" />
    <g>
      <path d="m 386.32344,1291.7444 c 22.54738,-28.1004 32.35117,-67.1801 17.38251,-68.088 -52.50708,-3.1847 -128.44645,71.0986 -130.6833,157.5105 -0.66342,25.6286 43.2429,75.5419 88.4491,90.3116 z" fill="#5e50a0" />
      <path d="m 403.70595,1223.6564 c 14.96866,0.9079 5.16487,39.9876 -17.38251,68.088 -18.51795,-1.9233 -9.19864,-45.6546 17.38251,-68.088 z" fill="#4a1767" />
      <path d="m 386.32344,1291.7444 c -18.51795,-1.9233 -9.19864,-45.6546 17.38251,-68.088 m -17.38251,68.088 c 22.54738,-28.1004 32.35117,-67.1801 17.38251,-68.088 -52.50708,-3.1847 -128.44645,71.0986 -130.6833,157.5105 -0.66342,25.6286 43.2429,75.5419 88.4491,90.3116 z" fill="none" stroke="#4a1767" stroke-width="4" />
      <path d="m 360.90943,1286.7528 c -4.69833,-20.2216 -7.95496,-38.9274 1.37928,-52.313 m -17.6079,10.7397 c 2.72673,15.1185 6.51957,28.3525 12.40195,42.5288 m -49.14529,150.9935 c -3.27943,-26.3037 -2.13767,-50.0888 3.54011,-73.4466 m -17.94456,58.2312 c -2.16964,-26.9002 3.62886,-49.674 12.95919,-70.0742 m -26.42614,50.2837 c 1.46904,-22.5951 10.1921,-40.9905 21.1456,-58.0946" fill="none" stroke="#4a1767" stroke-width="2" />
      <path d="m 410.28525,1296.3909 -33.52231,-15.83 c 19.86495,-37.319 41.75192,-57.2577 52.08448,-57.4353 62.0363,-1.066 97.46321,71.2081 97.46321,91.1915 -16.97248,-34.5637 -51.27953,-48.4671 -116.02538,-17.9262 z" fill="#5e50a0" />
      <path d="m 506.79859,1346.4707 c -7.0205,-0.6893 -12.76294,-6.3524 -11.81301,-18.505 -5.0126,2.0206 -10.42299,4.7176 -16.1886,8.7392 -13.03585,9.0928 -18.3527,23.8888 0.26432,34.8046 47.5602,9.9938 51.52919,-22.7029 27.73729,-25.0388 z" fill="url(#linearGradient1394)" />
      <path d="m 410.28525,1296.3909 c 64.74585,-30.5409 99.0529,-16.6375 116.02538,17.9262 0,14.5023 -19.59119,2.9113 -47.51365,22.3878 -13.03583,9.0928 -18.3527,23.8888 0.26432,34.8046 -18.30583,-3.8465 -30.23949,-21.2248 -36.29623,-40.5411 z" fill="url(#linearGradient1407)" />
      <path d="m 495.04214,1327.8208 c -7.76682,3.4172 -15.25393,7.5086 -21.90962,13.6041 6.61213,2.8627 11.34842,7.9078 11.89435,14.2014 3.3963,-5.7726 11.47761,-9.9373 21.77172,-9.1556 -7.0205,-0.6893 -12.76294,-6.3524 -11.75645,-18.6499 z" fill="#5e50a0" />
      <path d="m 503.21211,1354.3148 c -3.00848,-1.559 -5.5525,-3.4435 -7.87861,-6.5999 -4.6508,1.6459 -8.29803,4.4974 -10.30663,7.9114 0.71682,8.2637 12.2639,6.7419 18.18524,-1.3115 z" fill="#4a1767" />
      <path d="m 526.31063,1314.3171 c -16.97248,-34.5637 -51.27953,-48.4671 -116.02538,-17.9262 m 84.92455,51.2768 c 2.44981,3.2036 4.99383,5.0881 8.00231,6.6471 -5.92134,8.0534 -17.46842,9.5752 -18.18524,1.3115 -0.54593,-6.2936 -5.28222,-11.3387 -11.89435,-14.2014 m 33.66607,5.0458 c -10.29411,-0.7817 -18.37542,3.383 -21.77172,9.1556 m -42.2618,-24.6579 c 6.05674,19.3163 17.9904,36.6946 36.29623,40.5411 47.5602,9.9938 51.52919,-22.7029 27.73729,-25.0388 -7.0205,-0.6893 -12.76294,-6.3524 -11.75645,-18.6499 m -118.2792,-47.2599 c 19.86495,-37.319 41.75192,-57.2577 52.08448,-57.4353 62.0363,-1.066 97.46321,71.2081 97.46321,91.1915 0,14.5023 -19.59119,2.9113 -47.51365,22.3878 -13.03583,9.0928 -18.3527,23.8888 0.26432,34.8046" fill="none" stroke="#4a1767" stroke-width="4" />
      <path d="m 381.08595,1272.4898 c 17.70541,-20.562 40.35694,-39.7881 70.8218,-46.1843 m -52.96721,59.8039 c 27.89578,-22.9459 65.78331,-30.9627 98.20313,-29.8058 m -93.05586,33.0973 c 32.65283,-18.965 73.62483,-25.1584 105.11154,-17.1227 m -46.88623,90.5849 c -10.90415,-44.8058 22.0877,-59.0746 50.69025,-67.8586 m -20.12454,-12.0132 c -23.30912,13.3787 -40.85343,36.4829 -37.32208,72.8134" fill="none" stroke="#4a1767" stroke-width="2" />
    </g>
    <g>
      <path d="m 46.874597,1631.0818 c -3.838828,-36.1684 40.142145,-22.0835 27.493734,-7.2479 -4.852834,5.692 -17.996427,11.1713 -16.924468,26.8319 -7.252409,-4.3214 -9.678553,-11.1919 -10.569266,-19.584 z" fill="#4a1767" stroke="#4a1767" stroke-width="4" />
      <path d="m 74.368331,1623.8339 c -4.852834,5.692 -11.155012,13.259 -10.311539,25.5816 l -15.864521,-4.0861 c 5.539715,-5.3162 7.928755,-12.1899 8.139168,-24.2975 6.123147,6.3427 13.502244,4.9325 18.036892,2.802" fill="#5e50a0" stroke="#4a1767" stroke-width="4" />
      <path d="m 46.874597,1631.0818 c 4.141446,13.6904 19.372666,23.2561 39.17088,-1.9782 l 1.885644,17.928 c -14.971156,34.2934 -39.911653,38.0513 -49.978746,6.2813 6.272633,-4.9366 9.812935,-13.839 8.922222,-22.2311" fill="#5e50a0" stroke="#4a1767" stroke-width="4" />
      <path d="m 41.904575,1648.6135 c 5.358192,19.1175 25.737756,23.3387 43.64265,3.8085 m -42.361645,-4.8782 c 5.555561,15.0671 27.481689,16.6771 43.595828,-11.5686" fill="none" stroke="#4a1767" stroke-width="2" />
      <path d="m 110.94206,1574.2648 20.23001,8.6352 c 24.70831,26.8871 45.11318,85.2601 20.29728,86.0402 -24.27691,-11.419 -42.76131,-59.3972 -40.52729,-94.6754 z" fill="#4a1767" />
      <path d="m 91.514484,1588.8219 c -12.797012,23.7903 -16.316606,72.9614 5.124984,97.8398 15.898842,-10.6265 39.263592,-17.2321 54.829882,-17.7215 -24.27691,-11.419 -42.76131,-59.3972 -40.52729,-94.6754 -4.78158,6.4788 -10.59518,12.8449 -19.427576,14.5571 z" fill="#5e50a0" />
      <path d="m 151.46935,1668.9402 c -24.27691,-11.419 -42.76131,-59.3972 -40.52729,-94.6754 m 20.23001,8.6352 -20.23001,-8.6352 c -4.78158,6.4788 -10.59518,12.8449 -19.427576,14.5571 -12.797012,23.7903 -16.316606,72.9614 5.124984,97.8398 15.898842,-10.6265 39.263592,-17.2321 54.829882,-17.7215 24.8159,-0.7801 4.41103,-59.1531 -20.29728,-86.0402 z" fill="none" stroke="#4a1767" stroke-width="4" />
      <path d="m 129.83385,1672.1845 c -24.56095,-12.4773 -32.066531,-54.1548 -27.95342,-88.2289 -11.861126,23.8041 -16.178201,76.0836 6.76218,96.5596" fill="none" stroke="#4a1767" stroke-width="2" />
      <path d="m 129.94899,1399.468 c 45.35724,-16.6352 106.49036,13.1292 124.76811,63.4528 l -11.58859,7.901 c -55.2101,-43.0394 -124.85736,-27.6883 -89.4829,65.8654 -55.607526,-19.1206 -65.763724,-109.3176 -23.69662,-137.2192" fill="url(#linearGradient7130)" />
      <path d="m 185.78045,1626.6705 c -8.4311,-28.4464 -12.59994,-60.2715 -2.82693,-86.7296 -80.47738,7.2745 -101.632283,-108.2198 -53.00453,-140.4729 -68.384116,25.0804 -90.600297,185.095 55.83146,227.2025 z" fill="#5e50a0" />
      <path d="m 153.57602,1536.7673 c -35.37447,-93.5537 34.34239,-108.9849 89.55249,-65.9455 l 11.58859,-7.901 c -18.27775,-50.3236 -79.41087,-80.088 -124.76811,-63.4528 -68.384116,25.0804 -90.600297,185.095 55.83146,227.2025 -8.4311,-28.4464 -12.59994,-60.2715 -2.82693,-86.7296 -80.47738,7.2745 -101.632283,-108.2198 -53.00453,-140.4729" fill="none" stroke="#4a1767" stroke-width="4" />
      <path d="m 140.37285,1530.1314 c -20.97682,-47.1882 -0.66647,-90.5545 12.15316,-95.9156 27.97666,-11.6998 70.30538,-2.8996 97.36819,32.5764 m -125.09974,50.242 c -14.38624,-49.9852 7.35655,-96.0177 20.17618,-101.3789 26.17534,-10.9465 83.75658,12.9666 105.67511,50.2327 m -173.999618,27.3722 c 17.848071,59.8241 58.740038,99.7534 103.856948,110.8892 m -102.840326,-124.79 c 17.197314,60.3361 55.691916,83.0929 99.946686,89.2457" fill="none" stroke="#4a1767" stroke-width="2" />
    </g>
    <path d="m 237.12375,1487.0605 c 9.20909,-48.0239 58.30114,-42.6973 103.67606,-22.2822 -2.57717,-42.0909 -29.79224,-57.2801 -34.65759,-100.7168 -7.54947,-67.3995 48.56628,-99.2449 94.52395,-85.6099 57.56722,-86.3719 65.31756,-81.8653 29.46028,16.5205 15.09551,15.2184 24.21154,39.605 21.21778,70.5337 -0.55733,5.7581 15.45725,3.3972 15.29914,9.5512 -0.21844,8.5046 -3.27385,16.5121 -9.37301,23.557 -9.25152,1.6326 -16.40939,-1.1934 -22.16584,-7.4722 -0.81389,11.497 2.54605,19.3625 9.85828,22.0221 -10.94375,8.1984 -25.24049,13.2754 -42.27355,14.3883 57.33396,99.1343 -22.86655,152.3553 -109.39003,121.7585 -14.53429,36.1554 -37.81117,73.6403 -3.27894,151.2529 7.17471,16.1254 -66.66193,18.166 -68.88641,1.107 -5.96862,-45.7752 -2.16994,-82.7664 15.90186,-128.7826 1.18564,-3.018 7.0916,-5.6747 14.07721,-4.0907 -3.37719,-25.6182 -20.26797,-48.994 -13.98919,-81.7368 z" fill="#eaeef0" />
    <path d="m 453.78208,1376.1624 c 0.6292,2.8659 3.09987,3.4613 5.33428,1.5852 -2.04771,4.5629 -6.31822,3.1504 -5.33428,-1.5852 z" fill="#bdc1c2" />
    <g>
      <path d="m 424.9965,1377.5629 c 2.37041,-53.6352 -36.36825,-73.4989 -79.75345,-43.7146" fill="#b8e1f0" />
      <path d="m 369.23529,1381.5446 c -5.2839,2.0485 -9.1339,5.3372 -11.29348,11.0162 0.56408,-6.3985 3.50038,-10.5104 8.68044,-13.2429 z m -6.54825,-6.6226 c -6.71742,1.087 -10.71662,3.2141 -14.44446,8.6773 1.92758,-6.7834 5.75374,-9.8369 11.58888,-11.5525 z m -6.10654,-8.4369 c -6.7891,-0.2894 -11.64764,1.5418 -16.50473,5.6424 3.75713,-5.9451 8.02679,-8.3676 14.31058,-9.1281 z m -3.98329,-9.2619 c -6.15149,-2.0299 -11.62068,-1.4358 -17.37089,1.3629 4.80076,-4.78 10.24625,-6.4262 16.3917,-5.3509 z" />
      <g clip-path="url(#clipPath3683)">
        <path d="m 345.24305,1333.8483 c 44.12851,-18.9158 73.71442,-8.0543 79.75345,43.7146 -40.49606,22.6431 -72.78647,9.639 -79.75345,-43.7146 z" fill="#fff" id="path6956" />
        <g clip-path="url(#clipPath3667)">
          <ellipse cx="1413.506" cy="65.435112" fill="url(#linearGradient128)" id="path2609" rx="32.018959" ry="24.509739" transform="rotate(70.824052)" />
          <path d="m 409.20767,1358.5964 -15.48276,38.6375 -17.83494,-15.9105 z" fill="#76ade5" />
          <path d="m 409.20767,1358.5964 -35.83938,14.3043 7.32346,14.9168 z" fill="#5693cf" />
          <ellipse cx="1414.3527" cy="53.292671" rx="26.982904" ry="20.552504" transform="rotate(71.20625)" />
          <ellipse cx="-1225.3256" cy="681.05231" fill="#fff" rx="13.160271" ry="8.1328659" transform="rotate(282.90437)" />
          <ellipse cx="-1230.3545" cy="706.02563" fill="#fff" rx="4.4325199" ry="2.9250433" transform="rotate(283.40885)" />
        </g>
      </g>
      <path d="m 424.9965,1377.5629 c -2.29218,-54.2431 -38.30735,-63.5058 -77.95314,-47.0921 -10.31617,4.271 -16.80044,5.5753 -24.87342,4.4998 6.86665,4.8395 16.26315,3.3509 26.21554,-0.5918 39.52642,-15.659 67.27857,-9.0165 76.61102,43.1841 z m -80.87306,-43.4698 5.58788,-2.4858 c -8.16456,-1.804 -14.24738,-4.5785 -20.63227,-9.7019 3.90191,6.702 8.59287,10.3939 15.04439,12.1877 z m 9.62965,-3.8238 6.21816,-2.233 c -7.98425,-2.5897 -13.47253,-6.9506 -18.86596,-13.7474 2.59188,7.3961 6.37408,12.5756 12.6478,15.9804 z m 16.43301,-4.4527 c -7.12574,-3.8338 -11.91349,-8.994 -15.95573,-15.9557 1.90223,7.8914 4.79734,13.0109 9.69097,17.176 z m 9.20541,-0.4789 c -5.60921,-4.8821 -8.46522,-10.1511 -11.10399,-17.5757 -0.0839,6.831 1.64439,12.7815 5.13466,17.7052 z" />
    </g>
    <g transform="rotate(180 134.49366 752.3742)scale(.75238158-.75238158)">
      <g clip-path="url(#M2)">
        <path d="m -3.3,-2.1 -10.6,-20.1 9.7,-24.1 10.4,20.7 z" fill="#7dd1f5" />
        <path d="m -3.5,-28.3 a 3.0458354,5.7870873 6 1 1 -1.3,11.5 3.0458354,5.7870873 6 1 1 1.3,-11.5 l -0.8,-21.3 9.9,14.2 -6.9,9.9 m 0.2,2.4 10.8,-3.7 -5.2,11.2 -6.4,-3.7 m -1.7,2.2 0.3,19.2 -8.1,-12.1 5,-8.3 m -0.8,-4.2 -9.3,0.4 4.3,-10.2 6,6.3" fill="none" stroke="#2696cb" />
      </g>
      <g clip-path="url(#M2)" transform="translate(17.4 31.6)">
        <path d="m -3.3,-2.1 -10.6,-20.1 9.7,-24.1 10.4,20.7 z" fill="#7dd1f5" />
        <path d="m -3.5,-28.3 a 3.0458354,5.7870873 6 1 1 -1.3,11.5 3.0458354,5.7870873 6 1 1 1.3,-11.5 l -0.8,-21.3 9.9,14.2 -6.9,9.9 m 0.2,2.4 10.8,-3.7 -5.2,11.2 -6.4,-3.7 m -1.7,2.2 0.3,19.2 -8.1,-12.1 5,-8.3 m -0.8,-4.2 -9.3,0.4 4.3,-10.2 6,6.3" fill="none" stroke="#2696cb" />
      </g>
      <g clip-path="url(#M2)" transform="translate(-9.8 48.4)">
        <path d="m -3.3,-2.1 -10.6,-20.1 9.7,-24.1 10.4,20.7 z" fill="#7dd1f5" />
        <path d="m -3.5,-28.3 a 3.0458354,5.7870873 6 1 1 -1.3,11.5 3.0458354,5.7870873 6 1 1 1.3,-11.5 l -0.8,-21.3 9.9,14.2 -6.9,9.9 m 0.2,2.4 10.8,-3.7 -5.2,11.2 -6.4,-3.7 m -1.7,2.2 0.3,19.2 -8.1,-12.1 5,-8.3 m -0.8,-4.2 -9.3,0.4 4.3,-10.2 6,6.3" fill="none" stroke="#2696cb" />
      </g>
    </g>
    <path d="m 402.58237,1427.4776 c 57.44084,99.2089 -22.75967,152.4299 -109.32364,121.8304" fill="none" stroke="#bdc1c2" stroke-width="4" />
    <g transform="rotate(346.01831 2549.8589 1089.641)">
      <path d="m 319.17634,988.36414 c -5.09331,18.49206 -1.56107,32.13076 8.32037,38.58086 14.68872,9.588 32.22685,-7.7746 53.23485,-9.7913 1.76911,-20.83428 -28.30667,-15.2341 -34.57333,-37.03259" fill="#eaeef0" />
      <path fill="#bdc1c2" inkscape:original-d="m 319.17634,988.36414 c -5.09331,18.49206 -1.56107,32.13076 8.32037,38.58086 14.68872,9.588 32.22685,-7.7746 53.23485,-9.7913 1.76911,-20.83428 -28.30667,-15.2341 -34.57333,-37.03259" inkscape:path-effect="#path-effect16317-3" />
      <path d="m 369.47567,1011.4457 c -1.6252,19.2688 -11.79047,24.0671 -16.15607,40.7321 -7.98066,30.4651 23.40089,63.6212 37.9323,48.1816 31.89375,-33.887 16.13552,-115.88282 -3.22497,-123.24172 -17.13245,-6.51198 -35.83293,11.17657 -40.84882,22.60028 z" fill="#eaeef0" />
      <path fill="#bdc1c2" inkscape:original-d="m 369.47567,1011.4457 c -1.6252,19.2688 -11.79047,24.0671 -16.15607,40.7321 -7.98066,30.4651 23.40089,63.6212 37.9323,48.1816 31.89375,-33.887 16.13552,-115.88282 -3.22497,-123.24172 -17.13245,-6.51198 -35.83293,11.17657 -40.84882,22.60028" inkscape:path-effect="#path-effect23369" />
      <path d="m 367.26348,1020.2173 c -2.52024,6.2235 -5.95918,12.0416 -9.69021,18.2926 7.495,21.953 19.84736,38.8477 42.79405,51.4359 3.83637,-6.9181 6.12812,-13.9295 7.6309,-20.9464 -18.99514,-10.5776 -31.91891,-25.8159 -40.73474,-48.7821 z" fill="#fac42d" />
      <path d="m 397.11709,1062.0805 -7.52868,-6.7761 -8.16423,21.3807 4.86902,4.1567 z" fill="#ffff64" />
      <path d="m 367.26348,1020.2173 c -2.52024,6.2235 -5.95918,12.0416 -9.69021,18.2926 7.495,21.953 19.84736,38.8477 42.79405,51.4359 3.83637,-6.9181 6.12812,-13.9295 7.6309,-20.9464 -18.99514,-10.5776 -31.91891,-25.8159 -40.73474,-48.7821 z" fill="none" stroke="#a0833d" stroke-width="2" />
    </g>
    <path d="m 428.8863,1237.5122 c 8.38618,-0.4493 14.55612,-2.0351 21.88399,-5.2784 m -34.85037,23.0901 c 10.4093,2.4495 18.84209,1.4659 29.29075,-3.1567 m -41.50502,20.9525 c 11.83789,4.1414 22.19915,4.1412 34.36641,0.4219" style="stroke:#bdc1c2;fill:none;stroke-miterlimit:20;stroke-width:2" />
    <path fill="#bdc1c2" inkscape:original-d="m 368.60761,1425.1972 c 32.18226,6.3214 58.65454,1.227 76.35519,-12.0333 -7.31223,-2.6596 -10.67217,-10.5251 -9.85828,-22.0221 5.75645,6.2788 12.91432,9.1048 22.16584,7.4722 6.09916,-7.0449 9.15457,-15.0524 9.37301,-23.557 0.15811,-6.154 -15.85647,-3.7931 -15.29914,-9.5512 2.99376,-30.9287 -6.12227,-55.3153 -21.21778,-70.5337 35.85728,-98.3858 28.10694,-102.8924 -29.46028,-16.5205 -45.95767,-13.635 -102.07342,18.2104 -94.52395,85.6099 4.86535,43.4367 32.08042,58.6259 34.65759,100.7168 -45.37492,-20.4151 -94.46695,-25.7417 -103.67606,22.2822 -6.80405,35.482 13.60024,59.9642 14.30974,88.0768" inkscape:path-effect="#path-effect1399" />
    <path fill="#bdc1c2" inkscape:original-d="m 302.57427,1511.3614 c -1.28852,53.2482 -58.83112,85.1925 -12.55399,189.2022 7.17479,16.1254 -66.66193,18.166 -68.88641,1.107 -5.96862,-45.7752 -2.16994,-82.7664 15.90186,-128.7826 1.18564,-3.018 7.0916,-5.6747 14.25154,-3.9779" inkscape:path-effect="#path-effect1401" />
    <g>
      <path d="m 335.78576,1306.3212 c -4.41808,-25.3376 -17.50256,-47.7597 -26.09377,-45.3498 -9.26173,2.598 -42.06385,55.3501 1.17784,103.5566 z" fill="#eaeef0" />
      <path fill="#bdc1c2" inkscape:original-d="m 335.78576,1306.3212 c -4.41808,-25.3376 -17.50256,-47.7597 -26.09377,-45.3498 -9.26173,2.598 -42.06385,55.3501 1.17784,103.5566" inkscape:path-effect="#path-effect5966-2" />
      <path d="m 308.51439,1289.736 c -4.46485,15.8815 -3.32475,30.696 2.86086,45.2211 -9.10551,-13.3243 -11.20879,-29.0368 -2.86086,-45.2211 z" fill="#bdc1c2" />
    </g>
    <g>
      <path d="m 320.57611,1491.6507 c 26.63835,2.4644 57.10934,-12.8058 57.98685,-25.6728 2.65934,-38.9942 -91.95195,-35.8523 -105.54031,-84.811 -0.66342,25.6286 11.46573,61.6154 28.4491,80.3116 z" fill="url(#linearGradient1332)" />
      <path d="m 336.82534,1474.0485 c 4.50325,-2.8916 7.15685,-6.7492 8.21362,-10.4486 5.50734,-19.2792 -35.005,-30.7441 -39.07174,-18.8541 4.149,15.2959 17.01566,24.8603 30.85812,29.3027 z" fill="#5e50a0" />
      <path d="m 336.7802,1474.2707 c -6.46182,-2.4456 -12.46163,-4.9672 -17.96498,-9.9893 l 1.13204,-13.5299 c 6.87607,9.7382 15.20059,14.1654 25.0917,12.8484 -1.05677,3.6994 -3.71037,7.6512 -8.25876,10.6708 z" fill="url(#linearGradient1461)" />
      <path d="m 319.94726,1450.7515 c 0.50692,-5.9743 7.52971,-5.3115 13.57898,0.5617 l -6.11331,7.5723 c -2.53595,-2.1272 -5.08745,-4.7659 -7.46567,-8.134 z" fill="#4a1767" />
      <path d="m 371.51051,1520.8704 c -17.40638,17.5774 -51.85036,15.3383 -67.13163,-1.0779 -6.84172,-24.4392 -7.36064,-48.8824 1.58834,-75.0467 9.29255,34.2583 62.3155,40.2387 72.59574,21.2321 -0.87751,12.867 -15.57587,36.8415 -7.05245,54.8925 z" fill="#5e50a0" />
      <path d="m 319.94726,1450.7515 c 6.87607,9.7382 15.20059,14.1654 25.0917,12.8484 m -39.07174,-18.8541 c 9.29255,34.2583 62.3155,40.2387 72.59574,21.2321 m -41.78276,8.2928 c 4.54839,-3.0196 7.20199,-6.9714 8.25876,-10.6708 5.50734,-19.2792 -35.005,-30.7441 -39.07174,-18.8541 -8.94898,26.1643 -8.43006,50.6075 -1.58834,75.0467 15.28127,16.4162 49.72525,18.6553 67.13163,1.0779 -8.52342,-18.051 6.17494,-42.0255 7.05245,-54.8925 2.65934,-38.9942 -91.95195,-35.8523 -105.54031,-84.811 -0.66342,25.6286 11.46573,61.6154 28.4491,80.3116 m 17.34347,2.6145 1.13204,-13.3415 c 0.50692,-5.9743 7.52971,-5.3115 13.57898,0.5617 l -6.30701,7.7142" fill="none" stroke="#4a1767" stroke-width="4" />
      <path d="m 279.54843,1420.3288 c 26.81332,-3.7957 78.26638,26.5952 89.5703,53.2867 m -69.81051,2.3995 c 14.97651,24.9592 39.03273,35.2069 69.84497,35.2395 m 0,0 c -22.42313,13.5903 -45.47708,12.298 -67.11193,0.1069 m -1.45787,-44.6489 c 17.45863,22.8759 44.79748,26.4813 73.95523,15.6963" fill="none" stroke="#4a1767" stroke-width="2" />
    </g>
    <g>
      <path d="m 229.23284,1583.6481 c -10.73468,33.3904 -16.04005,62.8282 -12.83962,100.1074 24.36675,4.9071 47.02757,3.1392 69.38535,-3.5052 -10.91428,-21.2524 -12.98438,-61.0196 -5.50343,-86.7924 z" fill="#4a1767" opacity=".5" />
      <path d="m 283.62904,1677.0753 c 4.17487,-1.2476 6.26591,5.7547 1.38256,7.1451 -22.1313,6.3015 -43.44613,7.2647 -67.53388,3.2159 -4.76399,-0.8008 -4.42717,-8.1534 0.46649,-7.2248 23.42688,4.4451 44.19373,3.2859 65.68483,-3.1362 z m -52.15818,-96.2486 c 15.68147,6.0645 31.21104,9.0978 47.92894,9.0438 3.79313,-0.012 3.31854,7.021 -1.11353,6.9789 -15.89687,-0.151 -33.71473,-3.4064 -49.0462,-9.0948 -3.2921,-1.2215 -1.38429,-8.326 2.23079,-6.9279 z" fill="#4a1767" />
    </g>
    <path d="m 452.87533,1366.6839 c -14.12198,0.013 -68.42021,41.917 -135.48349,18.6581 16.98424,28.8808 40.91535,34.3713 61.98743,57.9517 35.75969,-6.3638 61.73654,-27.6826 95.63226,-26.7745 4.04977,-45.0097 -6.88238,-49.8492 -22.1362,-49.8353 z" fill="#4a1767" opacity=".5" />
  </g>
  <g>
    <path d="m 166.04749,374.79391 c -2.99276,39.41966 -2.11402,64.11307 10.67723,77.47547 21.73659,22.7072 16.86547,52.32753 -15.77091,52.32753 -32.63637,0 -37.50749,-29.62033 -15.7709,-52.32753 12.79125,-13.3624 13.66998,-38.05581 10.67722,-77.47547" fill="#2d1f83" opacity=".75" />
    <g clip-path="url(#M2-3)" transform="translate(160.65205 473.9023)scale(.50320546)">
      <path d="m -3.3,-2.1 -10.6,-20.1 9.7,-24.1 10.4,20.7 z M 14.1,29.5 3.5,9.4 13.2,-14.7 23.6,6 Z M -13.1,46.3 -23.7,26.2 -14,2.1 -3.6,22.8 Z" fill="#7dd1f5" />
      <path d="m -3.5,-28.3 a 3.0458354,5.7870873 6 1 1 -1.3,11.5 3.0458354,5.7870873 6 1 1 1.3,-11.5 l -0.8,-21.3 9.9,14.2 -6.9,9.9 m 0.2,2.4 10.8,-3.7 -5.2,11.2 -6.4,-3.7 m -1.7,2.2 0.3,19.2 -8.1,-12.1 5,-8.3 m -0.8,-4.2 -9.3,0.4 4.3,-10.2 6,6.3 M 13.9,3.3 A 3.0458354,5.7870873 6 1 1 12.6,14.8 3.0458354,5.7870873 6 1 1 13.9,3.3 L 13.1,-18 23,-3.8 16.1,6.1 M 16.3,8.5 27.1,4.8 21.9,16 15.5,12.3 M 13.8,14.5 14.1,33.7 6,21.6 11,13.3 M 10.2,9.1 0.9,9.5 5.2,-0.7 l 6,6.3 m -24.5,14.5 a 3.0458354,5.7870873 6 1 1 -1.3,11.5 3.0458354,5.7870873 6 1 1 1.3,-11.5 l -0.8,-21.3 9.9,14.2 -6.9,9.9 m 0.2,2.4 10.8,-3.7 -5.2,11.2 -6.4,-3.7 m -1.7,2.2 0.3,19.2 -8.1,-12.1 5,-8.3 m -0.8,-4.2 -9.3,0.4 4.3,-10.2 6,6.3" fill="none" stroke="#2696cb" />
    </g>
  </g>
</svg>