<svg xmlns="http://www.w3.org/2000/svg" xmlns:inkscape="http://www.inkscape.org/namespaces/inkscape" xmlns:xlink="http://www.w3.org/1999/xlink" height="537.05774" viewBox="0 0 417.76761 537.05774" width="417.76761">
  <defs>
    <inkscape:path-effect bendpath1="M -37.71012,-38.665603 H 37.89025" bendpath2="M 29.111331,-40.701093 C 44.784715,-17.882679 42.794512,11.344053 34.122025,41.837478" bendpath3="M -37.71012,39.106565 H 37.89025" bendpath4="M -36.071682,-41.755206 C -21.647058,-15.148451 -21.584925,16.742962 -36.096082,44.563263" effect="envelope" id="path-effect4841" yy="false" />
    <inkscape:path-effect effect="powerstroke" id="path-effect10345" interpolator_type="CubicBezierSmooth" offset_points="0.17,2 | 5,2" start_linecap_type="zerowidth" />
    <inkscape:path-effect effect="powerstroke" end_linecap_type="zerowidth" id="path-effect10330" interpolator_type="CubicBezierSmooth" offset_points="0.2,2 | 0.78,2" start_linecap_type="zerowidth" />
    <inkscape:path-effect effect="powerstroke" end_linecap_type="zerowidth" id="path-effect10241" interpolator_type="CubicBezierSmooth" offset_points="0.18,2 | 2.76,2" start_linecap_type="zerowidth" />
    <inkscape:path-effect effect="powerstroke" id="path-effect3267" offset_points="0,2 | 1,2 | 1.8,1" />
    <inkscape:path-effect effect="powerstroke" end_linecap_type="zerowidth" id="path-effect2116" interpolator_type="CubicBezierSmooth" offset_points="0.38,2 | 1.81,2" start_linecap_type="zerowidth" />
    <inkscape:path-effect effect="powerstroke" id="path-effect618" interpolator_type="CubicBezierSmooth" offset_points="0.3,2 | 6,2" start_linecap_type="zerowidth" />
    <inkscape:path-effect effect="powerstroke" end_linecap_type="zerowidth" id="path-effect493" interpolator_type="CubicBezierSmooth" offset_points="0.2,2 | 1.75,2" start_linecap_type="zerowidth" />
    <linearGradient id="linearGradient6759">
      <stop offset="0" stop-color="#02534d" />
      <stop offset="1" stop-color="#02aca4" />
    </linearGradient>
    <clipPath id="clipPath2095">
      <ellipse cx="835.76996" cy="-784.17798" rx="25.846792" ry="9.9166117" transform="rotate(89.501954)" />
    </clipPath>
    <clipPath id="clipPath2111">
      <path d="m 798.48001,849.20784 c 6.32758,-21.21064 8.09384,-52.5107 3.25162,-53.43033 -5.24402,-0.99593 -10.17781,7.42488 -17.01454,19.45829 -0.65074,13.78152 1.10809,26.87326 4.84425,40.11176 3.29584,-0.95121 6.29273,-2.65626 8.91867,-6.13972 z" />
    </clipPath>
    <clipPath id="clipPath3200">
      <ellipse cx="933.54816" cy="732.50238" rx="20.311037" ry="28.999655" transform="rotate(6.1866862)" />
    </clipPath>
    <clipPath id="clipPath3216">
      <path d="m 891.31286,832.79347 c -19.84296,52.90697 -58.70437,38.10994 -56.77475,-3.65222 0.93625,-20.26291 10.51457,-37.1958 18.69293,-36.98592 12.43848,0.31922 25.89885,14.33265 38.08182,40.63814 z" />
    </clipPath>
    <clipPath id="clipPath4966">
      <path d="m 896.11786,1655.4204 c 48.01335,61.0937 -128.37793,85.2824 -153.17501,43.5925 43.25025,-50.8344 102.90093,-14.9386 153.17501,-43.5925 z" />
    </clipPath>
    <linearGradient gradientTransform="matrix(0.8333336,0,0,0.8333336,221.08747,639.99049)" gradientUnits="userSpaceOnUse" id="linearGradient803" x1="865.35522" x2="862.09015" y1="86.090431" y2="138.21707" xlink:href="#linearGradient6759" />
    <linearGradient gradientUnits="userSpaceOnUse" id="linearGradient841" x1="817.35071" x2="856.21698" y1="-787.15887" y2="-787.12286" xlink:href="#linearGradient6759" />
  </defs>
  <g transform="translate(-58.352981 9.8322855)">
    <path d="M 92.457608,302.0531 C 89.464853,341.47277 90.343559,366.16606 103.13485,379.52856 124.8714,402.23568 120.00031,431.8561 87.363932,431.8561 54.727561,431.8561 49.856489,402.23568 71.593039,379.52856 84.384318,366.16606 85.263012,341.47277 82.270257,302.0531 Z" fill="#dd2673" opacity=".75" />
    <g transform="translate(86.186266 401.72682)scale(.46344801)">
      <g>
        <path d="M 15,-33.8 C 11.2,-37.8 25.2,-42.9 12,-17.5 26.4,-43 30.3,-29.2 24.6,-29.7" fill="none" stroke="#69c8c3" stroke-width="0.9" />
        <path d="M 17.1,-14.3 C 29.6,-0.6 9,12.7 7.4,-10.3 -14.2,2.2 -14.5,-22.9 4.4,-21.9 -7.5,-34.6 14.4,-53.5 12.8,-19.2 41.3,-39.1 32.1,-16.8 17.1,-14.3 Z" fill="#f3b5cf" />
        <path d="M 5.9,-7.6 C 10.3,-19.5 14.6,-25.3 15.9,-24.7 17.2,-24.1 14.9,-16.9 5.9,-7.6 Z" fill="#69c8c3" />
      </g>
      <g transform="matrix(.83 0 0 .83 11.9 37.3)">
        <path d="M 15,-33.8 C 11.2,-37.8 25.2,-42.9 12,-17.5 26.4,-43 30.3,-29.2 24.6,-29.7" fill="none" stroke="#69c8c3" stroke-width="0.9" />
        <path d="M 17.1,-14.3 C 29.6,-0.6 9,12.7 7.4,-10.3 -14.2,2.2 -14.5,-22.9 4.4,-21.9 -7.5,-34.6 14.4,-53.5 12.8,-19.2 41.3,-39.1 32.1,-16.8 17.1,-14.3 Z" fill="#f3b5cf" />
        <path d="M 5.9,-7.6 C 10.3,-19.5 14.6,-25.3 15.9,-24.7 17.2,-24.1 14.9,-16.9 5.9,-7.6 Z" fill="#69c8c3" />
      </g>
      <g transform="rotate(-65 22.3 22)scale(.94)">
        <path d="M 15,-33.8 C 11.2,-37.8 25.2,-42.9 12,-17.5 26.4,-43 30.3,-29.2 24.6,-29.7" fill="none" stroke="#69c8c3" stroke-width="0.9" />
        <path d="M 17.1,-14.3 C 29.6,-0.6 9,12.7 7.4,-10.3 -14.2,2.2 -14.5,-22.9 4.4,-21.9 -7.5,-34.6 14.4,-53.5 12.8,-19.2 41.3,-39.1 32.1,-16.8 17.1,-14.3 Z" fill="#f3b5cf" />
        <path d="M 5.9,-7.6 C 10.3,-19.5 14.6,-25.3 15.9,-24.7 17.2,-24.1 14.9,-16.9 5.9,-7.6 Z" fill="#69c8c3" />
      </g>
    </g>
  </g>
  <g transform="translate(-572.72712-1278.1118)">
    <g>
      <path d="m 774.79683,1622.1241 c -45.47573,-4.404 -73.84027,13.3555 -80.51143,43.3286 -3.94884,17.7419 61.11785,27.7975 64.10391,12.7517 2.07682,-10.4644 37.94014,-16.9584 77.28302,-15.6259 11.28358,0.3822 14.07826,-22.3506 1.06342,-34.8653 -14.76194,-23.9261 -42.00873,-28.2272 -61.93892,-5.5891 z" fill="#f3e488" stroke="#e9d461" stroke-width="4" />
      <path d="m 794.6713,1666.6126 c -3.37979,-0.9941 -2.89893,4.3218 -7.35601,2.9821 -4.15546,-1.249 0.99496,6.4537 -7.3067,2.5019 -8.30162,-3.9517 -1.66908,9.5348 -6.04293,7.9443 -4.37384,-1.5905 -8.78522,-6.037 -11.3347,-3.0592 -23.17173,-6.4161 -43.15182,-18.4176 -61.02709,-34.1025 4.06534,-7.4003 9.00109,-14.8102 21.97788,-17.8982 15.67259,-3.7295 23.62933,-12.6947 41.0776,-6.6062 7.35842,16.6462 17.40526,32.7163 30.01195,48.2378 z" fill="#02aca4" opacity=".5" />
      <path d="m 768.07513,1618.3416 c 6.65944,15.5173 17.39461,34.085 29.21592,45.9063 3.46981,3.4698 -2.09575,6.2115 -6.14397,1.8812 -11.13404,-11.91 -22.58881,-30.4623 -29.82927,-46.3097 -1.79779,-3.9349 5.05411,-5.4465 6.75732,-1.4778 z m -5.62333,55.8406 c 4.19025,1.1955 2.90266,7.4675 -3.66424,5.5014 -22.04409,-6.5999 -39.47409,-16.4819 -57.59747,-32.859 -3.58345,-3.2382 0.37576,-8.9723 4.00041,-5.5561 17.3523,16.3543 35.69189,26.7599 57.2613,32.9137 z" fill="#02aca4" />
    </g>
    <g transform="translate(-77.155476 579.39568)">
      <path d="m 854.34044,953.29101 c -57.66943,69.09459 -109.62214,21.44193 -112.20051,-5.10341 -2.30687,-23.7502 28.67919,-34.03816 38.98295,-5.99361 -11.99767,-9.77013 -23.22886,-7.28697 -22.28172,3.96948 1.62382,19.29821 43.72472,36.14079 49.04886,2.33225 8.18246,-51.95894 -107.62943,-111.447 -76.80708,-195.09287 1.77027,-4.80418 4.12899,-9.2994 6.99806,-13.47752 126.23166,7.57283 169.82142,115.66161 116.25944,213.36568 z" fill="#f3b5cf" />
      <path d="m 854.34044,953.29101 c -57.66943,69.09459 -109.62214,21.44193 -112.20051,-5.10341 -2.30687,-23.7502 28.67919,-34.03816 38.98295,-5.99361 -11.99767,-9.77013 -23.22886,-7.28697 -22.28172,3.96948 1.62382,19.29821 43.72472,36.14079 49.04886,2.33225 8.18246,-51.95894 -107.62943,-111.447 -76.80708,-195.09287 1.77027,-4.80418 4.12899,-9.2994 6.99806,-13.47752" style="stroke:#e581b1;fill:none;stroke-width:4;stroke-miterlimit:14.66666698" />
      <path fill="#e581b1" inkscape:original-d="m 749.81142,780.58819 c -0.94861,5.02481 -1.04659,10.75305 -0.13826,17.05004 10.74067,74.45939 117.6373,107.00477 70.74649,184.79356" inkscape:path-effect="#path-effect3267" />
      <path d="m 806.01864,929.77879 c 7.79383,22.37089 3.7653,43.16133 -10.4307,59.3406" fill="none" stroke="#e581b1" stroke-width="2" />
    </g>
    <g>
      <path d="m 774.59541,1535.107 c -10.38553,58.3802 -29.24982,102.9534 -58.55018,143.4344 -9.64489,13.3252 60.20857,17.152 65.88402,2.2159 18.99205,-49.9814 25.82879,-99.0937 21.43064,-145.5931 z" fill="#f3e488" stroke="#e9d461" stroke-width="4" />
      <path d="m 727.08202,1659.9389 c 20.53467,5.9978 40.75203,7.5004 62.41272,3.0176 2.0653,-6.0763 3.62884,-12.1139 5.42953,-18.3077 -21.38566,4.1638 -39.11605,3.1261 -57.30457,-2.4716 -3.17291,5.843 -6.44363,11.6884 -10.53768,17.7617 z" fill="#e7bb40" />
      <path d="m 739.86446,1663.1908 4.17938,-19.3709 6.29907,1.408 -4.5418,19.0372 z" fill="#f2f271" />
      <path d="m 727.08202,1659.9389 c 20.53467,5.9978 40.75203,7.5004 62.41272,3.0176 2.0653,-6.0763 3.62884,-12.1139 5.42953,-18.3077 -21.38566,4.1638 -39.11605,3.1261 -57.30457,-2.4716 -3.17291,5.843 -6.44363,11.6884 -10.53768,17.7617 z" fill="none" stroke="#887138" stroke-width="2" />
    </g>
    <g id="g4960">
      <path d="m 774.23071,1800.5844 c -72.24036,-38.2872 -50.98466,-116.1052 43.81031,-118.5091 109.53206,-2.7776 105.45713,-35.3471 78.63553,-54.3895 l 8.0211,-22.673 c 131.23285,57.6516 101.28365,172.961 -40.7724,144.0597 -73.45781,-14.945 -88.68734,31.3629 -58.18382,48.9741 19.14616,11.054 34.32565,-8.356 10.24199,-10.9217 41.80796,-25.1425 38.5671,56.0287 -41.75271,13.4595 z" fill="#f3b5cf" stroke="#e581b1" stroke-width="4" />
      <path d="m 793.98358,1809.2005 c -59.95847,-41.1917 -24.71909,-105.5056 72.95098,-83.46 94.07569,21.2343 135.28704,-38.775 73.31221,-101.4876 m -17.14064,-10.2328 c 44.03902,43.297 26.7095,103.5159 -71.92418,86.0343 -60.02914,-10.6394 -115.63332,11.943 -103.77831,80.1823" fill="none" stroke="#e581b1" stroke-width="2" />
    </g>
    <path d="m 888.31878,1686.3177 c 11.28358,0.3822 14.07826,-22.3506 1.18326,-34.8856 36.59482,-29.8967 28.92915,-62.858 -11.03889,-90.5297 -58.27341,-40.3453 -11.89178,-144.8385 -15.98486,-176.6311 -13.92913,-108.1933 -178.76375,-81.8342 -147.11781,45.9312 l 66.37831,40.2311 c -5.36873,24.7834 -48.4718,101.7567 45.53322,166.2887 z" fill="#faf5ab" />
    <path fill="#e9d461" inkscape:original-d="m 882.89923,1656.5267 c 43.97151,-31.1882 37.82713,-66.3636 -4.43608,-95.6243 -58.27346,-40.3452 -11.89178,-144.8385 -15.98486,-176.6311 -13.92913,-108.1933 -178.76375,-81.8342 -147.11781,45.9312 l 66.37831,40.2311 c -5.36873,24.7834 -48.4718,101.7567 45.53322,166.2887" inkscape:path-effect="#path-effect10345" />
    <g transform="translate(-77.155476 579.39568)">
      <path d="m 869.3189,860.08934 c 4.6915,3.59944 6.9095,7.48003 7.24361,14.12477 2.33092,-7.35259 -0.20018,-12.60796 -4.5247,-16.2389 z m 8.37538,-7.83292 c 5.85501,0.38188 9.57183,2.61065 13.29556,8.10304 -0.9954,-6.53638 -5.93153,-10.91234 -12.1339,-11.16811 z m -4.06106,4.26253 c 5.41929,2.24815 8.86297,6.09767 10.64881,12.80274 1.19199,-6.50101 -1.84502,-12.59755 -8.36493,-15.28912 z" />
      <g clip-path="url(#clipPath3216)">
        <path d="m 891.31286,832.79347 c -19.84296,52.90697 -58.70437,38.10994 -56.77475,-3.65222 0.93625,-20.26291 10.51457,-37.1958 18.69293,-36.98592 12.43848,0.31922 25.89885,14.33265 38.08182,40.63814 z" fill="#fff" />
        <g clip-path="url(#clipPath3200)">
          <ellipse cx="933.54816" cy="732.50238" fill="url(#linearGradient803)" rx="20.311037" ry="28.999655" transform="rotate(6.1866862)" />
          <path d="m 841.33253,831.61177 23.0066,32.02253 12.75832,-18.15743 z" fill="#84d2d4" />
          <path d="m 841.33253,831.61177 39.59452,6.57898 -6.03925,13.77476 z" fill="#3cbeb7" />
          <ellipse cx="931.13599" cy="733.19232" rx="16.78105" ry="23.911583" transform="rotate(6.1866862)" />
          <ellipse cx="-443.94507" cy="1095.3615" fill="#fff" rx="11.974999" ry="7.5809073" transform="rotate(-68.20469)" />
          <ellipse cx="-280.25269" cy="1164.4312" fill="#fff" rx="3.5077584" ry="2.7402849" transform="rotate(-59.33996)" />
        </g>
      </g>
      <path d="m 888.34838,827.457 c 6.65395,0.27673 12.87406,-1.38918 16.88466,-7.07204 -5.83704,3.46507 -12.5799,3.57177 -19.03964,2.23124 m 7.3701,12.66933 c 6.68709,1.34056 14.40549,-0.42275 18.89402,-6.29696 -7.61276,3.83375 -17.01001,4.13264 -22.84994,0.37703 m -55.06947,-0.22435 c 3.92802,-22.0059 13.06716,-35.35577 18.64156,-35.21272 19.45125,0.49919 32.98216,34.13424 35.93485,39.56566 4.54518,8.36075 18.39663,13.04093 27.53021,6.21793 -9.72477,1.86809 -20.46288,-1.51146 -23.93403,-8.63394 -15.06803,-30.91811 -26.88267,-40.93269 -39.48256,-41.25605 -6.79637,-0.17442 -18.12127,11.26661 -18.69003,39.31912 z" />
    </g>
    <g transform="translate(-77.155476 579.39568)">
      <path d="m 793.05985,841.88374 c -3.98293,0.1306 -6.76033,1.42547 -9.68671,5.67276 1.0658,-4.87052 4.78469,-8.20172 8.87667,-7.95404 z m -1.02393,-4.9817 c -3.74002,-0.58465 -6.68775,0.45965 -10.67078,3.50117 2.22062,-4.46384 6.30326,-6.36145 10.53877,-5.9797 z m 2.96382,9.51488 c -3.79657,1.21357 -6.02625,2.59148 -8.15208,7.12933 0.22963,-4.91877 2.67722,-7.76945 6.56606,-9.06505 z" />
      <g clip-path="url(#clipPath2111)" transform="rotate(1.4700867 968.07721 962.48431)">
        <path d="m 798.48001,849.20784 c 6.32758,-21.21064 8.09384,-52.5107 3.25162,-53.43033 -5.24402,-0.99593 -10.17781,7.42488 -17.01454,19.45829 -0.65074,13.78152 1.10809,26.87326 4.84425,40.11176 3.29584,-0.95121 6.29273,-2.65626 8.91867,-6.13972 z" fill="#fff" />
        <g clip-path="url(#clipPath2095)">
          <ellipse cx="835.76996" cy="-784.17798" fill="url(#linearGradient841)" rx="25.846792" ry="9.9166117" transform="rotate(89.501954)" />
          <path d="m 787.84113,832.89598 13.12128,22.87444 4.37402,-15.65248 z" fill="#84d2d4" />
          <path d="m 787.84113,832.89598 20.12355,1.15796 -3.02611,11.03781 z" fill="#3cbeb7" />
          <ellipse cx="836.3465" cy="-782.95898" rx="20.81089" ry="7.9844933" transform="rotate(89.501954)" />
          <ellipse cx="-684.02405" cy="908.95312" fill="#fff" rx="10.417165" ry="3.7714608" transform="rotate(-80.94875)" />
          <ellipse cx="-653.82452" cy="945.99255" fill="#fff" rx="2.9503982" ry="1.373647" transform="rotate(-78.25067)" />
        </g>
      </g>
      <path d="m 792.32061,804.61634 c -3.49152,0.3938 -6.86052,-0.30296 -10.24011,-2.85156 2.16766,3.80848 5.0752,5.53853 8.41061,5.72157 m -0.10839,0.17552 c -4.29572,2.18182 -8.20509,2.24466 -12.95025,-0.093 3.22805,3.78741 6.82842,4.96605 10.64102,3.9252 m 0.7346,-3.35428 c -3.38028,5.72092 -7.16293,7.50283 -13.0969,6.89111 6.04479,3.01819 10.57454,1.69832 14.11325,-3.89043 8.52589,-13.46508 12.0414,-18.54185 15.45077,-17.83206 4.74481,0.9878 1.27977,30.80323 -3.83327,51.58565 7.4807,-19.10053 13.32688,-53.30352 4.65852,-55.17372 -4.39264,-0.94771 -8.18561,3.00673 -17.29237,18.41945 z" />
      <path d="m 801.44194,844.8941 c -8.67438,10.06253 -21.82482,4.55783 -19.22281,15.2348 6.82117,27.98978 53.47665,45.48028 104.91151,24.46354 z" fill="#faf5ab" />
      <path d="m 796.86703,857.7572 c -0.75499,3.31947 -3.06506,4.07221 -5.53912,1.97865 1.94013,4.95156 6.89631,3.3336 5.53912,-1.97865 z m -4.52507,18.79744 c 10.76663,0.11798 16.58578,-3.06646 20.49646,-11.19241 -1.23685,9.99774 -8.57667,13.78509 -17.97473,14.20167" fill="#e9d461" />
      <path fill="#e9d461" inkscape:original-d="m 801.44194,844.8941 c -8.67438,10.06253 -21.82482,4.55783 -19.22281,15.2348 6.82117,27.98978 53.47665,45.48028 104.91151,24.46354" inkscape:path-effect="#path-effect2116" />
    </g>
    <path d="m 853.7117,1429.5037 c -10.84843,30.5388 -31.92613,39.37 -48.04677,59.7477 -36.16241,-0.1156 -67.14619,-21.0865 -95.7951,-14.5898 -9.58712,-25.0518 -11.58637,-44.0012 -0.67757,-46.1069 37.64296,-7.2662 76.61129,26.3385 144.51944,0.949 z" fill="#02aca4" opacity=".5" />
    <g>
      <path d="m 791.19087,1541.6165 c -12.17191,57.3381 -31.56245,102.5627 -61.14564,143.4344 -9.64493,13.3252 60.20857,17.152 65.88402,2.2159 18.99205,-49.9814 28.42425,-99.0937 24.0261,-145.5931 z" fill="#faf5ab" />
      <path fill="#e9d461" inkscape:original-d="m 791.19087,1541.6165 c -12.17191,57.3381 -31.56245,102.5627 -61.14564,143.4344 -9.64493,13.3252 60.20857,17.152 65.88402,2.2159 18.99205,-49.9814 28.42425,-99.0937 24.0261,-145.5931" inkscape:path-effect="#path-effect10241" />
      <path d="m 741.00759,1666.4484 c 20.53467,5.9978 40.90089,7.5004 62.56158,3.0176 2.0653,-6.0763 3.92657,-12.1139 5.72726,-18.3077 -21.38566,4.1638 -39.56264,3.1261 -57.75116,-2.4716 -3.17291,5.843 -6.44363,11.6884 -10.53768,17.7617 z" fill="#fac42d" />
      <path d="m 754.86446,1669.998 6.95608,-18.8175 6.22464,1.1524 -4.5418,19.144 z" fill="#ffff64" />
      <path d="m 741.00759,1666.4484 c 20.53467,5.9978 40.90089,7.5004 62.56158,3.0176 2.0653,-6.0763 3.92657,-12.1139 5.72726,-18.3077 -21.38566,4.1638 -39.56264,3.1261 -57.75116,-2.4716 -3.17291,5.843 -6.44363,11.6884 -10.53768,17.7617 z" fill="none" stroke="#a0833d" stroke-width="2" />
    </g>
    <g>
      <path d="m 862.22871,1590.7957 c -30.68169,-17.516 -54.40819,26.4333 -34.58441,54.8953 -45.42824,-4.4305 -74.04129,13.5278 -80.71245,43.5009 -3.94884,17.7419 61.11785,27.7975 64.10391,12.7517 2.07682,-10.4644 37.94014,-16.9584 77.28302,-15.6259 z" fill="#faf5ab" />
      <path fill="#e9d461" inkscape:original-d="m 862.22871,1590.7957 c -35.39736,-20.2082 -61.53725,41.395 -22.29763,66.6825" inkscape:path-effect="#path-effect10330" />
      <path d="m 827.69179,1645.6645 c -45.47573,-4.404 -74.08878,13.5543 -80.75994,43.5274 -3.94884,17.7419 61.11785,27.7975 64.10391,12.7517 2.07682,-10.4644 37.94014,-16.9584 77.28302,-15.6259 11.28358,0.3822 14.07826,-22.3506 1.06342,-34.8653" fill="none" stroke="#e9d461" stroke-width="4" />
      <path d="m 847.27368,1690.4138 c -3.37979,-0.9941 -2.89893,4.3218 -7.35601,2.9821 -4.15546,-1.249 0.99496,6.4537 -7.3067,2.5019 -8.30162,-3.9517 -1.66908,9.5348 -6.04293,7.9443 -4.37384,-1.5905 -8.78522,-6.037 -11.3347,-3.0592 -23.17173,-6.4161 -43.15182,-18.4176 -61.02709,-34.1025 4.06534,-7.4003 9.00109,-14.8102 21.97788,-17.8982 15.67259,-3.7295 23.62933,-12.6947 41.0776,-6.6062 7.35842,16.6462 17.40526,32.7163 30.01195,48.2378 z" fill="#02aca4" opacity=".5" />
      <path d="m 820.67751,1642.1428 c 6.65944,15.5173 17.39461,34.085 29.21592,45.9063 3.46981,3.4698 -2.09575,6.2115 -6.14397,1.8812 -11.13404,-11.91 -22.58881,-30.4623 -29.82927,-46.3097 -1.79779,-3.9349 5.05411,-5.4465 6.75732,-1.4778 z m -5.62333,55.8406 c 4.19025,1.1955 2.90266,7.4675 -3.66424,5.5014 -22.04409,-6.5999 -39.47409,-16.4819 -57.59747,-32.859 -3.58345,-3.2382 0.37576,-8.9723 4.00041,-5.5561 17.3523,16.3543 35.69189,26.7599 57.2613,32.9137 z" fill="#02aca4" />
    </g>
    <g transform="matrix(.40606122.29831988-.2490522.53173871 886.30027 1612.1609)" inkscape:path-effect="#path-effect4841">
      <g transform="rotate(-65 22.3 22)scale(.94)">
        <path fill="#f3b5cf" inkscape:original-d="m 17.1,-14.3 c 12.5,13.7 -8.1,27 -9.7,4 -21.6,12.5 -21.9,-12.6 -3,-11.6 -11.9,-12.7 10,-31.6 8.4,2.7 28.5,-19.9 19.3,2.4 4.3,4.9 z m 5.020691,42.90386 c -6.298895,15.115464 -24.6293833,3.59337 -6.820683,-6.269778 -18.0634503,-12.6208737 1.910888,-22.22733855 8.163417,-6.729441 5.722542,-14.2621505 29.019545,-3.789444 0.973892,7.729644 26.560129,15.381196 5.281444,16.340425 -2.316626,5.269575 z m 34.263732,-26.5334808 c -7.58903,18.2114018 -29.673955,4.3293617 -8.21769,-7.5539495 -21.763193,-15.2058717 2.302275,-26.7799257 9.835442,-8.1077607 6.89463,-17.183314 34.963307,-4.565595 1.173365,9.312824 32.000154,18.531562 6.363185,19.68726 -2.791117,6.3488862 z" />
        <path fill="none" stroke="#69c8c3" stroke-width="0.9" inkscape:original-d="m 15,-33.8 c -3.8,-4 10.2,-9.1 -3,16.3 14.4,-25.5 18.3,-11.7 12.6,-12.2" />
      </g>
      <g>
        <path fill="none" stroke="#69c8c3" stroke-width="0.9" inkscape:original-d="m 15,-33.8 c -3.8,-4 10.2,-9.1 -3,16.3 14.4,-25.5 18.3,-11.7 12.6,-12.2" />
      </g>
      <g transform="matrix(.83 0 0 .83 11.9 37.3)">
        <path fill="none" stroke="#69c8c3" stroke-width="0.9" inkscape:original-d="m 15,-33.8 c -3.8,-4 10.2,-9.1 -3,16.3 14.4,-25.5 18.3,-11.7 12.6,-12.2" />
        <path fill="#69c8c3" inkscape:original-d="m 5.9,-7.6 c 4.4,-11.9 8.7,-17.7 10,-17.1 1.3,0.6 -1,7.8 -10,17.1 z m -13.1289157,-46.496386 c 5.3012049,-14.337349 10.4819277,-21.325301 12.0481928,-20.602409 1.5662651,0.722891 -1.2048193,9.39759 -12.0481928,20.602409 z m -20.5951573,39.117463 c -10.108445,-10.211924 -14.003586,-17.401575 -12.765518,-18.448746 1.238069,-1.04717 7.527455,4.759719 12.765518,18.448746 z" />
      </g>
    </g>
    <g transform="translate(-64.063739 572)">
      <path d="m 917.609,965.64382 c -23.32513,-23.52256 -69.85048,3.01291 -44.96453,38.26528 22.05962,31.2482 68.45295,39.2621 75.61417,32.3645 8.45696,-8.146 -3.80985,-33.3378 -22.77543,-55.59033 z" fill="#faf5ab" />
      <path fill="#e9d461" inkscape:original-d="m 917.609,965.64382 c -23.32513,-23.52256 -69.85048,3.01291 -44.96453,38.26528 22.05962,31.2482 68.45295,39.2621 75.61417,32.3645 8.45696,-8.146 -3.80985,-33.3378 -22.77543,-55.59033 -0.7048,5.87021 -2.99444,10.02662 -8.26536,13.94045 4.71564,10.59278 -4.79956,23.17188 -19.42365,15.86788 -7.37221,3.4663 -18.24077,0.3079 -25.14973,-6.5825" inkscape:path-effect="#path-effect618" />
      <path d="m 929.92366,1038.1029 -37.68863,-26.4131 m 59.29134,15.4949 -30.84791,-35.3107 m 25.48176,45.5917 -30.6729,-29.012" fill="none" stroke="#e9d461" stroke-width="2" />
    </g>
    <use clip-path="url(#clipPath4966)" xlink:href="#g4960" />
    <g transform="translate(-77.155476 579.39568)">
      <path d="m 731.08294,753.40285 c 23.81397,-64.62649 154.11274,-73.34537 200.80784,-6.29395 l -11.61326,10.21534 c -37.51591,-13.39938 -76.78226,1.35103 -100.25184,30.73197 -37.40885,-49.24131 -76.43381,-32.57633 -70.35252,9.58202 -11.72812,-12.22137 -0.83161,-53.06083 -18.59022,-44.23538 z" fill="#f3b5cf" />
      <path d="m 740.90414,735.46081 c 47.64879,-4.05935 80.24099,8.22893 102.83934,31.31044 m -69.88411,-55.23429 c 37.86228,7.99889 65.32566,25.28815 82.23847,47.83486 m -10.30017,-57.7799 c 12.92555,17.0432 19.45762,33.56337 20.83752,54.0261 m 2.2854,-50.21234 c 5.63443,13.98173 7.74805,29.56534 5.46522,48.73807" fill="none" stroke="#e581b1" stroke-width="2" />
      <path d="m 731.08294,753.40285 c 23.81397,-64.62649 154.11274,-73.34537 200.80784,-6.29395 l -11.61326,10.21534 c -37.51591,-13.39938 -76.78226,1.35103 -100.25184,30.73197 -37.40885,-49.24131 -76.43381,-32.57633 -70.35252,9.58202" style="stroke:#e581b1;fill:none;stroke-width:4;stroke-miterlimit:14.66666698" />
      <path d="m 932.29008,806.89613 c 15.55863,83.73405 -121.2236,144.6884 -56.86745,224.91207 41.43057,51.6458 89.81285,36.0963 91.4392,-0.9495 1.15695,-26.3531 -28.97247,-20.3706 -21.44922,-6.4859 8.35182,-10.7439 21.54352,0.3921 4.67786,15.8375 -6.87069,6.293 -25.45584,-3.3637 -24.11299,-33.9513 1.35285,-30.81635 86.93032,-172.36274 19.17419,-244.79862 z" fill="#f3b5cf" stroke="#e581b1" stroke-width="4" />
      <path d="m 971.18798,837.16579 c -17.5659,80.29779 -109.90442,167.18361 -46.43127,227.23241 m 40.76283,-269.21414 c 10.16533,106.25307 -100.32617,138.71857 -83.79108,243.45224" fill="none" stroke="#e581b1" stroke-width="2" />
      <path d="m 928.20275,825.44568 c 42.28762,-46.12357 8.62133,-101.16873 1.48286,-101.56199 -6.76946,-0.37294 -25.09349,19.68741 -29.05042,47.02471 z" fill="#faf5ab" />
      <path fill="#e9d461" inkscape:original-d="m 928.20275,825.44568 c 42.28762,-46.12357 8.62133,-101.16873 1.48286,-101.56199 -6.76946,-0.37294 -25.09349,19.68741 -29.05042,47.02471" inkscape:path-effect="#path-effect493" />
      <path d="m 929.56818,752.65455 c 7.15397,14.89368 4.66916,33.13293 -4.26399,45.96787 6.2205,-15.26011 8.27179,-30.24163 4.26399,-45.96787 z" fill="#e9d461" />
    </g>
  </g>
</svg>