<svg xmlns="http://www.w3.org/2000/svg" xmlns:inkscape="http://www.inkscape.org/namespaces/inkscape" xmlns:sodipodi="http://sodipodi.sourceforge.net/DTD/sodipodi-0.dtd" xmlns:xlink="http://www.w3.org/1999/xlink" height="1024" viewBox="0 0 1792 1024" width="1792">
  <defs>
    <inkscape:path-effect effect="powerstroke" end_linecap_type="zerowidth" id="path-effect17521" interpolator_type="CubicBezierSmooth" offset_points="0.44,3.5 | 5.3,3.5" start_linecap_type="zerowidth" />
    <inkscape:path-effect effect="powerstroke" end_linecap_type="zerowidth" id="path-effect17479" interpolator_type="CubicBezierSmooth" offset_points="0.21,3.5 | 2.72,3.5" start_linecap_type="zerowidth" />
    <inkscape:path-effect effect="join_type" id="path-effect17095" line_width="7" />
    <inkscape:path-effect effect="powerstroke" end_linecap_type="zerowidth" id="path-effect12359" interpolator_type="CubicBezierSmooth" offset_points="0.5,3.5 | 1.79,3.5" start_linecap_type="zerowidth" />
    <inkscape:path-effect effect="powerstroke" id="path-effect4378" interpolator_type="CubicBezierSmooth" offset_points="0.23,3.5" start_linecap_type="zerowidth" />
    <inkscape:path-effect effect="powerstroke" end_linecap_type="zerowidth" id="path-effect4362" interpolator_type="CubicBezierSmooth" offset_points="0.27,3.5 | 0.73,3.5" start_linecap_type="zerowidth" />
    <inkscape:path-effect effect="powerstroke" id="path-effect4358" interpolator_type="CubicBezierSmooth" offset_points="0.36,3.5" start_linecap_type="zerowidth" />
    <inkscape:path-effect effect="powerstroke" end_linecap_type="zerowidth" id="path-effect5640" interpolator_type="CubicBezierSmooth" offset_points="0.3,3.5 | 2.73,3.5" start_linecap_type="zerowidth" />
    <inkscape:path-effect effect="powerstroke" end_linecap_type="zerowidth" id="path-effect5614" interpolator_type="CubicBezierSmooth" offset_points="0.26,3.5 | 3.53,3.5" start_linecap_type="zerowidth" />
    <inkscape:path-effect effect="powerstroke" end_linecap_type="zerowidth" id="path-effect5546" interpolator_type="CubicBezierSmooth" offset_points="0.26,3.5 | 3.53,3.5" start_linecap_type="zerowidth" />
    <inkscape:path-effect effect="powerstroke" end_linecap_type="zerowidth" id="path-effect5544" interpolator_type="CubicBezierSmooth" offset_points="0.16,3.5 | 2.15,3.5" start_linecap_type="zerowidth" />
    <inkscape:path-effect effect="powerstroke" end_linecap_type="zerowidth" id="path-effect5536" interpolator_type="CubicBezierSmooth" offset_points="0.33,3.5 | 2.72,3.5" start_linecap_type="zerowidth" />
    <linearGradient id="linearGradient13705">
      <stop offset="0" stop-color="#0e6183" />
      <stop offset="1" stop-color="#06a79f" />
    </linearGradient>
    <inkscape:path-effect effect="powerstroke" end_linecap_type="zerowidth" id="path-effect11779" interpolator_type="CubicBezierSmooth" offset_points="0.32,3.5 | 1.54,3.5" start_linecap_type="zerowidth" />
    <clipPath id="clipPath13915">
      <use xlink:href="#path13579" />
    </clipPath>
    <clipPath id="clipPath13931">
      <use xlink:href="#path13739" />
    </clipPath>
    <clipPath id="clipPath5502">
      <use xlink:href="#ellipse5478" />
    </clipPath>
    <clipPath id="clipPath5518">
      <use xlink:href="#path4398" />
    </clipPath>
    <inkscape:path-effect effect="powerstroke" end_linecap_type="zerowidth" id="path-effect890" interpolator_type="CubicBezierSmooth" offset_points="0.2,3.5 | 1.7,3.5" start_linecap_type="zerowidth" />
    <linearGradient id="linearGradient932">
      <stop offset="0" stop-color="#230f38" />
      <stop offset="1" stop-color="#5c2594" />
    </linearGradient>
    <inkscape:path-effect effect="powerstroke" end_linecap_type="zerowidth" id="path-effect13316" interpolator_type="CubicBezierSmooth" offset_points="0.3,3.5 | 2.68,3.5" start_linecap_type="zerowidth" />
    <clipPath id="clipPath15935">
      <use xlink:href="#path10758" />
    </clipPath>
    <clipPath id="clipPath15973">
      <use xlink:href="#path11190" />
    </clipPath>
    <clipPath id="clipPath17008">
      <use xlink:href="#ellipse16982" />
    </clipPath>
    <clipPath id="clipPath17024">
      <use xlink:href="#path4883-0" />
    </clipPath>
    <clipPath id="clipPath17106">
      <path d="m 1044.9892,74.170276 c -10.6453,-4.738057 -16.6166,-12.326742 -19.7944,-23.063017 -52.53567,-91.529568 -103.15249,-69.460631 -33.98435,19.20514 8.7413,8.013903 12.61885,16.92476 12.28905,27.222575 -9.04302,76.755006 88.6512,-23.069471 41.4897,-23.364698 z" />
    </clipPath>
    <linearGradient gradientUnits="userSpaceOnUse" id="linearGradient10547" x1="-448.3118" x2="-510.95862" y1="762.164" y2="761.20801" xlink:href="#linearGradient13705" />
    <linearGradient gradientTransform="translate(-6.5978328,-3.6969313)" gradientUnits="userSpaceOnUse" id="linearGradient10549" x1="555.26788" x2="632.78766" y1="-562.66943" y2="-570.62054" xlink:href="#linearGradient13705" />
    <linearGradient gradientUnits="userSpaceOnUse" id="linearGradient10551" x1="14.537024" x2="-54.89053" y1="1132.9456" y2="1129.6428" xlink:href="#linearGradient932" />
    <linearGradient gradientUnits="userSpaceOnUse" id="linearGradient10553" x1="241.82547" x2="300.87741" y1="-982.98816" y2="-981.24744" xlink:href="#linearGradient932" />
    <filter color-interpolation-filters="sRGB" height="1.0858" id="filter4860" width="1.0490286" x="-0.024514286" y="-0.042899999">
      <feGaussianBlur stdDeviation="24.740232" />
    </filter>
    <filter color-interpolation-filters="sRGB" height="1.576" id="filter5062" width="1.576" x="-0.288" y="-0.288">
      <feGaussianBlur stdDeviation="13.728384" />
    </filter>
  </defs>
  <g>
    <path d="m 896,-140.68011 -1533.7996,79.83193 v 1015.66642 h 3067.5992 v -1015.66642 z" fill="#4c2672" />
    <path d="m 896,-140.68011 v 915.66642" fill="none" stroke="#2e1745" stroke-width="16" />
    <path d="m 896.00008,1863.7518 c 0,0 -1798.80293,-355.3252 -1798.80293,-355.3252 0,0 265.00314,-553.60836 265.00314,-553.60836 0,0 1533.79969,-219.83192 1533.79969,-219.83192 0,0 1533.79962,219.83192 1533.79962,219.83192 0,0 265.0034,553.60836 265.0034,553.60836 0,0 -1798.80292,355.3252 -1798.80292,355.3252 z" fill="#2e1745" />
    <path d="m 2295.037,1503.04 c -1156.1685,55.2371 -1546.03814,-123.7241 -1720.29254,-230.3369 0,0 -140.16108,11.1193 -140.16108,11.1193 113.77561,148.7476 503.64683,335.3722 1362.15142,356.0755 0,0 498.3022,-136.8579 498.3022,-136.8579 z m -1249.4724,-696.7774 c 644.4934,202.3978 400.0982,357.984 199.4909,451.6489 0,0 105.5009,29.6518 105.5009,29.6518 333.8608,-101.1452 571.7234,-260.3199 220.4423,-429.20517 0,0 -525.4341,-52.09553 -525.4341,-52.09553 z m -1691.46888,600.0393 c 509.11224,-297.0828 1138.56623,-308.7396 1514.03953,-302.9215 0,0 34.7551,-36.5112 34.7551,-36.5112 -450.18855,-33.8635 -1074.43979,-22.6528 -1562.98497,151.0333 0,0 14.19034,188.3994 14.19034,188.3994 z m 345.79972,-447.5568 c 993.98355,-39.30175 1329.97036,96.3258 1506.05326,189.9949 0,0 132.4836,-10.2863 132.4836,-10.2863 -134.4897,-126.3404 -476.57638,-260.0001 -1163.71676,-273.40434 0,0 -474.8201,93.69574 -474.8201,93.69574 z m 1001.04988,776.8938 c -703.3943861,-298.6586 -369.41404,-479.441 -144.51744,-573.0157 0,0 -95.37999,-27.6019 -95.37999,-27.6019 -364.181664,98.0982 -712.30035,278.4547 -412.073698,515.3622 0,0 651.971128,85.2554 651.971128,85.2554 z m 1579.50918,-702.6332 c -288.0174,283.1846 -953.175,296.4171 -1354.76615,289.7886 0,0 -37.1985,42.4001 -37.1985,42.4001 501.22345,41.1075 1187.94685,27.3015 1556.18045,-163.8349 0,0 -164.2158,-168.3538 -164.2158,-168.3538 z" fill="#fff" opacity=".07" />
    <path d="m 978.6773,984.48972 c 0,0 -736.12975,88.27028 -736.12975,88.27028 0,0 -138.56166,238.0312 -138.56166,238.0312 0,0 696.96465,157.6301 696.96465,157.6301 0,0 804.65126,-110.1994 804.65126,-110.1994 0,0 38.6385,-244.1982 38.6385,-244.1982 0,0 -665.563,-129.53398 -665.563,-129.53398 z m -7.65494,20.89168 c 0,0 601.35624,117.8321 601.35624,117.8321 0,0 -39.4553,219.7843 -39.4553,219.7843 0,0 -721.99093,98.1896 -721.99093,98.1896 0,0 -626.87638,-140.6351 -626.87638,-140.6351 0,0 120.62587,-214.7766 120.62587,-214.7766 0,0 666.3405,-80.3943 666.3405,-80.3943 z" fill="#fff" opacity=".07" />
    <path d="m 1098.1407,-377.25722 c 18.8553,315.084899 -3.0134,615.715 8.0159,879.87206 5.1101,122.39018 -80.8884,102.33711 -79.007,-5.80565 4.8188,-276.98058 38.2518,-560.493854 43.2799,-869.8522 m -351.0788,-1.34135 c -10.16,313.556097 -12.607,591.70091 -45.3611,865.82958 -17.7145,148.25727 72.8827,145.27637 76.8416,17.59342 8.5851,-276.88943 -10.7145,-519.266048 -4.0055,-877.87326" fill="none" stroke="#fff" stroke-width="6" />
    <path d="m 1089.5865,515.31997 1011.1717,144.92632 v -802.43297 l -1011.1717,-54.92632 z m -387.173,0 -1011.1717,144.92632 v -802.43297 l 1011.1717,-54.92632 z" fill="#e8f1ef" />
    <path d="m 1080.9012,542.54297 1021.3584,146.38625 c 18.6589,2.67429 25.5408,-50.32666 2.5097,-53.6276 l -1022.471,-146.54571 c -16.4552,-2.35843 -24.7246,50.44365 -1.3971,53.78706 z m -369.8024,0 -1021.3584,146.38625 c -18.6589,2.67429 -25.5408,-50.32666 -2.5097,-53.6276 l 1022.471,-146.54571 c 16.4552,-2.35843 24.7246,50.44365 1.3971,53.78706 z" fill="#e28de2" />
    <g opacity=".75" transform="matrix(-52.121634 4.046767 6.124251 62.913189 1427.1934 165.03567)">
      <g id="F">
        <path d="m 0,-4.9442719 v 8.9442719 m -2.9061701,0 h 5.8123402 m -4.6547809,-3.43184191 a 2.1614018,2.1614018 0 1 0 3.4972216,0" fill="none" stroke="#000" stroke-width=".05" />
        <circle cy="-4.944272" r="0.2" />
        <circle cy="1.8385983" r="0.2" />
        <circle cy="4" r="0.2" />
      </g>
      <use transform="rotate(72)" xlink:href="#F" />
      <use transform="rotate(144)" xlink:href="#F" />
      <use transform="rotate(216)" xlink:href="#F" />
      <use transform="rotate(288)" xlink:href="#F" />
    </g>
  </g>
  <g transform="translate(156.25707 6.3890909)">
    <ellipse cx="684.80609" cy="900.16296" opacity=".25" rx="298.1976" ry="59.264141" transform="rotate(4.3770439)" />
    <g>
      <path d="m -41.907842,639.85868 c 32.9727215,-3.44497 70.263208,8.39782 81.887549,47.95386 18.790264,63.94068 105.148263,18.64252 72.287743,-62.57325 -77.740406,-192.13779 212.29907,-56.14663 171.75423,-207.46202 -54.56851,-203.65245 134.08889,-109.61707 208.55753,-117.76038 91.66394,-10.02365 184.48333,-55.80024 177.03199,122.90339 -11.2499,269.80351 -162.23765,192.34753 -177.81411,300.9506 -30.18737,210.47416 -194.41747,53.44976 -316.53883,87.92912 -86.650578,24.46465 -156.108963,13.16333 -162.05609,-71.21968 -3.161112,-44.85261 -22.3583469,-80.3625 -55.110012,-100.72164 z" style="stroke:#8952e1;stroke-width:7;fill:#473cc7;fill-opacity:.5" />
      <path d="m 169.68237,633.67214 c -23.76568,-189.69014 164.37183,-23.18748 171.4416,-188.27393 7.06977,-165.08646 104.13513,-39.68655 164.29994,-99.85136 69.91455,-69.91455 162.14706,25.64149 138.39746,136.38233 -40.83204,190.39369 -142.31948,139.01175 -163.84001,231.73393 -35.73812,153.97931 -142.03428,39.67819 -248.26474,71.98701 -106.26155,32.31827 -156.374475,33.27546 -157.370393,7.29101 -1.963915,-51.24044 110.006163,-42.17751 95.336143,-159.26899 z" fill="#1c4fc2" />
      <use transform="rotate(313.91766 99.484521 785.52537)scale(.79335585)" xlink:href="#path4389" />
      <use transform="rotate(313.91766 292.11226 487.19314)scale(.63930997)" xlink:href="#path4389" />
      <use transform="rotate(313.91766 412.78645 533.7991)scale(.57033014)" xlink:href="#path4389" />
      <use transform="rotate(313.91766 341.24477 687.74295)scale(.77972347)" xlink:href="#path4389" />
      <use transform="rotate(313.91766 476.93905 420.88887)scale(.5975949)" xlink:href="#path4389" />
      <use transform="rotate(313.91766 79.262785 568.68883)scale(.79335585)" xlink:href="#path4389" />
      <use transform="rotate(313.91766 364.55196 310.94199)scale(.53027205)" xlink:href="#path4389" />
      <use transform="rotate(313.91766 531.53561 183.0106)scale(.345658)" xlink:href="#path4389" />
      <use transform="rotate(313.91766 315.31406 584.78545)scale(.48442507)" xlink:href="#path4389" />
      <use transform="rotate(313.91767 609.69913 579.37364)scale(.50031538)" xlink:href="#path4389" />
      <use transform="rotate(313.91767 569.23169 500.47428)scale(.50031538)" xlink:href="#path4389" />
      <use transform="rotate(313.91766 138.95784 674.28526)scale(.876786)" xlink:href="#path4389" />
      <use transform="rotate(313.91766 321.77391 175.06098)scale(.45799934)" xlink:href="#path4389" />
      <use transform="rotate(313.91766 455.73652 517.64058)scale(.38820155)" xlink:href="#path4389" />
      <use transform="rotate(313.91766 692.28089 278.66853)scale(.42991662)" xlink:href="#path4389" />
      <use transform="rotate(313.91766 249.75084 213.83982)scale(.45799934)" xlink:href="#path4389" />
      <use transform="rotate(313.91766 391.08737 371.1302)scale(.45799934)" xlink:href="#path4389" />
      <use transform="rotate(313.91766 428.28696 20.410268)scale(.35929037)" xlink:href="#path4389" />
    </g>
    <g>
      <path d="m 410.00706,809.16123 c -100.98095,-267.00017 -516.61887,-205.06488 -453.971148,-66.92963 56.092444,123.68111 -143.435002,17.81602 -118.404562,128.47142 16.79921,74.26636 -108.81228,20.63377 -60.00642,151.93878 10.54001,-58.13481 47.675,-75.78701 109.10688,-45.26748 67.672761,33.62018 149.131726,19.15472 202.504051,-42.86309 87.978469,-102.22955 129.675729,-17.22064 169.656959,-117.40537 14.8399,-37.18571 92.54905,-32.38067 138.543,0.47109 z" style="stroke:#8952e1;stroke-width:7;fill:#473cc7;fill-opacity:.5" />
      <path d="m 411.31226,815.76753 c -120.30887,-200.30941 -425.430602,-208.49415 -414.7309927,-63.73831 10.9640059,148.33283 -156.7304473,56.64058 -142.4640573,135.48019 3.58769,19.82647 -15.65605,25.10012 -19.78409,42.16338 -10.14635,41.93991 157.0155652,63.61595 239.936134,-19.83648 69.755596,-70.20299 80.774476,-30.50922 130.428966,-75.80599 47.18977,-43.04836 71.71718,-109.13376 196.59138,-20.08046" fill="#1c4fc2" />
      <use transform="rotate(313.91766 233.37014 924.29349)scale(.81734049)" xlink:href="#path4389" />
      <use transform="rotate(313.91767 555.26886 610.70171)scale(.4305176)" xlink:href="#path4389" />
      <use transform="rotate(313.91766 507.70713 718.24602)scale(.5504235)" xlink:href="#path4389" />
      <use transform="rotate(313.91766 376.82703 907.41111)scale(.64218016)" xlink:href="#path4389" />
      <use transform="rotate(313.91766 536.11613 735.98734)scale(.4690632)" xlink:href="#path4389" />
      <use transform="rotate(313.91766 638.27589 642.77206)scale(.3514895)" xlink:href="#path4389" />
      <use transform="rotate(313.91766 491.70658 656.32157)scale(.37171555)" xlink:href="#path4389" />
      <use transform="rotate(313.91766 480.86201 789.28649)scale(.42725874)" xlink:href="#path4389" />
      <use transform="rotate(313.91766 652.39922 725.91434)scale(.31617236)" xlink:href="#path4389" />
      <use transform="rotate(313.91766 261.55028 1313.8935)scale(.87373662)" xlink:href="#path4389" />
      <use transform="rotate(313.91766 488.29178 986.32515)scale(.53877159)" xlink:href="#path4389" />
      <use transform="rotate(313.91766 627.91521 713.77948)scale(.4832284)" xlink:href="#path4389" />
      <use transform="rotate(313.91766 684.82904 864.17419)scale(.42768521)" xlink:href="#path4389" />
      <use transform="rotate(313.91766 406.06799 1198.7434)scale(.64985798)" xlink:href="#path4389" />
      <use transform="rotate(313.91766 615.39167 1068.6285)scale(.42725875)" xlink:href="#path4389" />
      <use transform="rotate(313.91766 503.52708 1169.3253)scale(.59388832)" xlink:href="#path4389" />
      <use transform="rotate(313.91766 771.6775 941.30212)scale(.37171556)" xlink:href="#path4389" />
      <use transform="rotate(313.91766 741.28936 1003.2005)scale(.31617237)" xlink:href="#path4389" />
      <use transform="rotate(313.91766 593.87243 547.49407)scale(.53834513)" xlink:href="#path4389" />
      <use transform="rotate(313.91767 561.45615 940.65628)scale(.57366227)" xlink:href="#path4389" />
      <use transform="rotate(313.91767 316.06289 852.65203)scale(.57366227)" xlink:href="#path4389" />
    </g>
    <g>
      <path d="m 528.1662,795.77991 -89.70302,59.89029 c -25.83078,0.39271 -38.34021,33.35918 -30.66228,38.25605 83.97763,53.55957 161.74754,23.71556 166.82111,47.25468 3.99251,18.52327 106.93251,15.34801 104.7161,-4.51723 -5.49924,-49.2876 -46.73112,-83.74372 -143.11302,-62.35674 15.03463,-19.25287 6.62578,-47.57431 -8.05889,-78.52705 z" fill="#30376c" />
      <path fill="#151730" inkscape:original-d="m 481.46218,897.6623 c 77.58707,-9.80979 70.1336,-52.4969 46.70402,-101.88239 l -89.70302,59.89029 c -25.83078,0.39271 -38.34021,33.35918 -30.66228,38.25605 83.97763,53.55957 161.74754,23.71556 166.82111,47.25468 3.99251,18.52327 106.93251,15.34801 104.7161,-4.51723 -5.49924,-49.2876 -46.73112,-83.74372 -143.27658,-62.34861" inkscape:path-effect="#path-effect4378" />
      <path d="m 571.33771,938.72462 c 0.6582,5.7776 2.41974,9.61362 5.53534,11.94294 17.77306,13.28761 101.73337,8.31763 105.92723,-8.21364 2.96623,-11.69233 -6.54248,-40.678 -28.37296,-60.99229 -10.45738,10.18474 -13.82617,21.27325 -6.09915,36.15555 -8.70147,-1.70022 -16.67681,0.31269 -23.39416,5.4298 27.89151,1.45125 8.21566,28.74892 -53.5963,15.67764 z" fill="#9f9dce" stroke="#7e79cb" stroke-width="7" />
      <use transform="translate(397.24308 473.52405)scale(.47452604)" xlink:href="#path4389" />
    </g>
    <g>
      <path d="m 653.90245,818.35287 c -12.14487,76.87186 11.67492,76.16486 82.23741,59.74025 1.29297,-28.98555 -20.4704,-38.41714 -45.77162,-28.07467 -4.23667,-15.79331 -6.80779,-30.21574 -9.02858,-46.71362 z" fill="#30376c" stroke="#151730" stroke-width="7" />
      <path d="m 709.27823,863.98535 c 43.04611,34.32642 42.87763,84.50225 62.09125,100.30718 22.50639,18.51352 107.9764,13.27237 110.14881,2.75906 3.3463,-16.19436 -130.19539,-153.64213 -155.63907,-145.57426 -9.16784,2.90702 -33.21082,15.60656 -53.98894,29.23118 z" fill="#30376c" />
      <path fill="#151730" inkscape:original-d="m 709.27823,863.98535 c 43.04611,34.32642 42.87763,84.50225 62.09125,100.30718 22.50639,18.51352 107.9764,13.27237 110.14881,2.75906 3.3463,-16.19436 -130.19539,-153.64213 -155.63907,-145.57426 -9.16784,2.90702 -33.21082,15.60656 -53.98894,29.23118" inkscape:path-effect="#path-effect5614" />
      <path d="m 757.04256,948.26586 c 3.31069,7.99851 7.2141,15.34998 16.04512,20.98495 23.9898,15.30762 112.13045,13.65555 111.07385,-3.98055 -0.79557,-13.27919 -33.79722,-50.56935 -61.74585,-79.1636 0.82552,13.20328 4.2471,28.2635 10.24712,41.73593 -8.59293,-2.86436 -16.54428,-3.9935 -23.85059,-2.87677 21.06342,12.20034 20.34381,40.7318 -51.76965,23.30004 z" fill="#9f9dce" stroke="#7e79cb" stroke-width="7" />
      <use transform="translate(473.79503 257.45751)scale(.7328312)" xlink:href="#path4389" />
      <use transform="translate(611.67069 469.90787)scale(.46458703)" xlink:href="#path4389" />
      <use transform="translate(596.01905 543.33127)scale(.41552208)" xlink:href="#path4389" />
    </g>
    <path d="m 368.01679,802.96993 c 39.66857,-50.55754 106.39726,-20.84831 148.27925,-61.82884 33.57385,-32.85121 26.88545,-108.89917 6.56788,-210.23441 -52.58803,-262.28625 314.13282,-235.1947 246.09953,11.86716 l -119.05042,59.4197 c -0.54527,84.43794 56.826,86.1976 56.826,159.07051 0,64.04614 -71.26514,129.8946 -137.15519,129.8946 -23.87655,0 -49.51488,-8.2888 -83.74472,-7.51988 -0.68713,9.22647 -4.02518,17.94884 -10.69908,25.39464 97.22276,-17.18176 138.70353,18.88031 142.10414,68.35703 1.37061,19.94146 -101.61138,18.74114 -104.81342,0.065 -4.06912,-23.73341 -83.03656,2.78011 -164.66327,-54.29832 -7.46299,-5.21858 6.96585,-36.56323 32.17214,-37.59006 -24.88211,-23.91473 -31.46622,-57.68912 -11.92284,-82.59713 z" fill="#38407c" />
    <path d="m 368.56163,871.40744 c 12.10186,-0.6071 18.87015,-8.72376 23.22017,-18.14437 24.66481,14.52111 42.65034,-14.89251 27.35681,-34.84037 15.49589,-11.1286 9.89676,-39.58716 -4.29259,-45.17325 -48.6838,12.7274 -76.5159,56.99979 -46.28439,98.15799 z m 33.49849,7.50405 c 5.21202,-0.64952 4.95789,-9.90524 -0.50847,-9.41817 -5.46636,0.48706 -4.70353,10.06769 0.50847,9.41817 z m -7.50029,-11.36673 c -9.53422,0.32461 -9.53422,17.05024 0.12718,16.72563 9.66141,-0.32491 9.40706,-17.05053 -0.12718,-16.72563 z" />
    <path fill="#151730" inkscape:original-d="m 398.19189,899.53809 c -39.08047,-22.90912 -53.9323,-66.28964 -30.1751,-96.56816 39.66856,-50.55754 106.39726,-20.84831 148.27925,-61.82884 33.57385,-32.85121 26.88545,-108.89917 6.56788,-210.23441 -52.58803,-262.28625 314.13282,-235.1947 246.09953,11.86716 l -119.05042,59.4197 c -0.54527,84.43794 56.826,86.1976 56.826,159.07051 0,64.04614 -71.26514,129.8946 -137.15519,129.8946 -23.87655,0 -49.51488,-8.2888 -83.60404,-7.51207" inkscape:path-effect="#path-effect4358" />
    <g>
      <path d="m 773.09425,460.08794 c 4.86464,3.61347 9.51405,3.70163 15.32076,2.3143 -5.1602,3.96897 -9.69205,4.74764 -14.82492,3.29436 m -1.28289,-12.7019 c 5.40324,1.99145 10.54428,1.13441 15.11836,-2.08681 -3.14559,5.49297 -8.07335,7.52836 -14.1868,7.37225 m -2.72529,-12.79047 c 6.36013,0.73772 10.9554,-0.56393 14.83845,-5.92494 -2.394,7.54247 -7.91063,10.38576 -13.67614,11.31968" />
      <path d="m 746.40681,464.9985 c 5.15029,-14.17495 12.1519,-25.30845 23.87222,-28.68978 -8.14195,-26.85941 -24.09937,-15.55042 -23.87222,28.68978 z" fill="#7696ed" />
      <g clip-path="url(#clipPath5518)">
        <path d="m 746.40681,464.9985 c 0.0942,18.33728 2.1162,35.17481 5.69113,49.87019 1.86315,4.79019 4.1465,9.44031 6.89478,13.93545 18.18349,-2.15938 25.13319,-46.81607 11.28631,-92.49542 -11.72032,3.38133 -18.72193,14.51483 -23.87222,28.68978 z" fill="#fff" id="path4398" />
        <g clip-path="url(#clipPath5502)">
          <ellipse cx="-479.26071" cy="756.8667" fill="url(#linearGradient10547)" id="ellipse5478" rx="41.785709" ry="13.581114" transform="rotate(270.05755)" />
          <path d="m 752.02045,488.17567 17.39642,38.73584 9.66713,-26.37771 z" fill="#9afcfd" />
          <path d="m 752.02045,488.17567 27.55348,3.3358 -4.06229,18.69542 z" fill="#61e9d1" />
          <ellipse cx="-479.31677" cy="756.15961" rx="32.780502" ry="10.654254" transform="rotate(270.05755)" />
          <ellipse cx="-348.67401" cy="817.61011" fill="#fff" rx="16.569639" ry="4.6806951" transform="rotate(278.34731)" />
          <ellipse cx="-381.97916" cy="819.50153" fill="#fff" rx="6.0364161" ry="1.8324453" transform="rotate(277.47317)" />
        </g>
      </g>
      <path d="m 761.03018,441.34293 c 2.36115,-10.33877 3.08749,-20.80339 2.50648,-33.69544 3.14838,11.52092 4.07197,20.82295 3.18962,30.6103 m 0.64776,-1.14672 c 4.18404,-10.17861 5.65564,-20.25429 5.24736,-32.81455 2.96487,11.8733 2.97297,21.99768 0.24671,30.47398 m 10.38764,-18.91353 c 0.74679,13.07041 -5.03439,19.94724 -11.05439,22.4836 -14.35117,6.04647 -24.42557,19.22598 -28.57871,43.76378 -0.0951,-28.317 11.32953,-43.05526 27.44697,-49.85749 6.67717,-2.81804 9.57456,-6.14394 12.18613,-16.38989 z" />
    </g>
    <g>
      <path d="m 752.09794,514.86869 c 14.21014,38.51623 35.99223,32.65197 34.11208,43.12994 -6.79427,37.86412 -44.1645,57.49523 -51.66799,54.01222 -55.68479,-25.84806 -101.26015,11.17317 -150.50808,-38.67792 z" fill="#38407c" />
      <path d="m 727.83885,581.27604 c 9.93421,14.21002 22.84133,17.82144 39.73987,12.48301 l -6.8589,7.07285 c -17.22415,2.68015 -25.96274,-3.0713 -32.88097,-19.55586 z m 45.7508,-17.83433 c 3.60312,4.19652 6.85197,3.77116 9.23064,-1.5522 0.80289,9.64174 -6.50066,11.73349 -9.23064,1.5522 z m -29.90032,-0.67746 c 2.7218,5.79225 6.71606,6.53793 11.01255,1.33647 -2.08249,10.99935 -11.05903,10.12413 -11.01255,-1.33647 z" fill="#151730" />
      <path fill="#151730" inkscape:original-d="m 752.09794,514.86869 c 14.21014,38.51623 35.99223,32.65197 34.11208,43.12994 -6.79427,37.86412 -44.1645,57.49523 -51.66799,54.01222 -55.68479,-25.84806 -101.26015,11.17317 -150.50808,-38.67792" inkscape:path-effect="#path-effect5536" />
    </g>
    <g>
      <path d="m 615.02962,379.32692 c -10.89911,-116.30265 27.60694,-32.11271 24.62249,-80.47328 -4.19866,-68.03593 11.99799,-71.23903 32.77943,-16.4375 24.03819,63.38974 11.01586,-57.5306 47.09645,74.65636 z" stroke="#9f9dce" stroke-width="7" />
      <path d="m 681.38899,368.10658 c 135.62861,-285.560442 132.65519,-288.723293 57.61919,28.31521" fill="#30376c" stroke="#151730" stroke-width="7" />
      <path d="m 764.42064,194.916 c 9.05258,-3.52023 17.08745,-8.53629 23.33297,-15.27431 m -37.83197,43.9955 c 13.27498,-3.01878 23.91437,-8.9308 32.52914,-18.25112 m -46.71213,48.32188 c 17.26145,-1.72312 30.81737,-8.4888 42.00997,-21.19536 m -56.29651,50.31706 c 19.06379,0.77731 34.40211,-4.72779 47.82077,-17.45298 m -60.98798,46.4645 c 20.42999,3.54398 38.7787,-1.15756 54.1388,-13.13644 m -66.29378,38.68006 c 22.15101,7.33136 40.84894,5.35857 59.19119,-6.76903" fill="none" stroke="#151730" stroke-width="3.5" />
      <path d="m 564.75635,370.15369 c 43.71747,29.93849 103.74914,33.44696 139.85869,44.7576 30.12106,9.43485 41.48184,40.01981 14.07273,60.37021 142.49207,-25.56042 28.16135,-199.28589 -160.94017,-124.00695 z m -43.07889,29.57846 c -42.78773,74.01377 -40.4886,128.77943 19.3879,229.55835 17.79792,-132.87578 -30.86605,-125.26761 -14.61886,-189.02117 z" style="stroke:#8952e1;stroke-width:7;fill:#1c4fc2;stroke-miterlimit:20" />
      <path d="m 531.19465,462.01317 c -28.06969,-43.58202 -31.22606,-100.5298 4.18787,-136.59022 22.69139,12.80491 38.31352,39.02286 41.53294,68.61186 z" fill="#38407c" />
      <path fill="#151730" inkscape:original-d="m 531.19465,462.01317 c -28.06969,-43.58202 -31.22606,-100.5298 4.18787,-136.59022 22.69139,12.80491 38.31352,39.02286 41.53294,68.61186" inkscape:path-effect="#path-effect11779" />
      <path d="m 535.17124,362.99794 c -9.32132,19.80167 -7.80389,38.46613 3.00451,58.86596 -5.09383,-19.68279 -7.77536,-39.32974 -3.00451,-58.86596 z" fill="#151730" />
    </g>
    <g>
      <path d="m 592.06926,486.64868 c -8.30376,11.03619 -20.69743,17.86676 -35.93884,22.2822 16.653,-1.31435 29.0046,-6.49697 39.19931,-15.92189 m -7.41907,-14.76675 c -9.74367,9.78829 -22.95949,14.84814 -38.66357,17.12381 16.67542,0.99021 29.62278,-2.44318 41.01765,-10.37531 m -3.48799,-16.55889 c -10.95438,8.4114 -24.724,11.67606 -40.59111,11.85149 16.39731,3.19033 29.68536,1.50219 42.03051,-4.85063" />
      <g clip-path="url(#clipPath13931)">
        <path d="m 699.1634,542.14964 c -59.07796,23.01021 -129.6489,-23.81683 -113.62076,-89.16142 35.85722,-5.98992 67.12785,2.60986 96.7303,23.07822 8.98959,16.92357 15.34708,38.7945 16.89046,66.0832 z" fill="#fff" id="path13739" />
        <g clip-path="url(#clipPath13915)">
          <ellipse cx="585.15808" cy="-584.21216" fill="url(#linearGradient10549)" id="path13579" rx="52.06068" ry="35.397732" transform="rotate(81.293041)" />
          <path d="m 673.75092,495.4443 -28.44515,64.06932 -25.20243,-30.61187 z" fill="#9afcfd" />
          <path d="m 673.75092,495.4443 -55.61102,14.03493 8.34015,29.60233 z" fill="#61e9d1" />
          <ellipse cx="585.41345" cy="-585.8797" rx="40.711136" ry="27.680811" transform="rotate(81.293036)" />
          <ellipse cx="-322.76245" cy="734.53461" fill="#fff" rx="20.970606" ry="12.199422" transform="rotate(282.05256)" />
          <ellipse cx="-369.8172" cy="743.90973" fill="#fff" rx="7.6083403" ry="4.7956553" transform="rotate(280.30302)" />
        </g>
      </g>
      <path d="m 585.54264,452.98822 c 9.17558,-37.40757 68.43881,-30.18258 96.7303,23.07822 -29.60245,-20.46836 -60.87308,-29.06814 -96.7303,-23.07822 z" fill="#7696ed" />
      <path d="m 532.55107,444.5991 c 11.91374,16.97363 27.96994,19.51323 47.06013,13.71318 39.02674,-11.85725 90.07929,6.04953 118.08244,32.85602 -21.4488,-33.74915 -78.1391,-52.5826 -119.04057,-40.34978 -19.14722,5.72656 -29.62455,4.72265 -46.102,-6.21942 z m 59.17974,6.48881 c -17.80143,-3.6673 -27.47306,-10.6801 -37.30109,-28.57602 2.04854,17.16119 10.64485,27.43926 22.8947,32.56327 m 31.12475,-4.89657 c -12.82477,-8.64967 -19.83363,-18.14432 -26.65104,-33.90923 0.92657,14.44211 5.43215,25.40149 14.35849,35.11797" />
    </g>
    <path fill="#151730" inkscape:original-d="m 421.2036,930.01876 c 76.68369,-5.00511 78.3453,-62.9638 39.98961,-98.8065" inkscape:path-effect="#path-effect4362" />
    <path d="m 380.11555,885.53098 c -25.38221,1.06291 -39.81105,32.40756 -32.34806,37.62614 81.62671,57.07843 160.59415,30.56491 164.66327,54.29832 3.20204,18.67614 106.18403,19.87646 104.81342,-0.065 -3.40061,-49.47672 -44.88138,-85.53879 -142.2485,-68.2641" fill="none" stroke="#151730" stroke-width="7" />
    <g>
      <path d="m 534.86301,706.15833 c 18.44929,-13.40613 44.75319,-16.17336 68.55301,11.30717 20.93012,24.16704 73.34497,31.96873 88.95839,-10.81606 42.35138,61.81805 3.54737,133.75962 -52.68689,122.30729 -56.23425,-11.45233 -27.57216,-137.2619 -110.63776,-107.93935 z" stroke="#9f9dce" stroke-width="7" />
      <path d="m 633.47999,767.53159 c 2.18324,19.42876 20.17989,19.53914 27.76502,10.56772 6.36546,-7.52884 5.86568,-21.82604 -8.33166,-27.25303 34.72052,-1.58249 49.02413,32.09628 27.03302,53.01893 -20.69083,19.68554 -56.71709,-1.65628 -46.46638,-36.33362 z" fill="#fff" />
      <use transform="rotate(60 606.5472 925.4478)scale(.84402555)" xlink:href="#path4389" />
      <use transform="rotate(60 158.79941 923.77076)scale(.4418779)" xlink:href="#path4389" />
      <use transform="rotate(60 279.97457 1006.8302)scale(.53087118)" xlink:href="#path4389" />
      <use transform="rotate(60 266.09824 967.15501)scale(.57536782)" xlink:href="#path4389" />
    </g>
    <g>
      <path d="m 557.59893,796.32955 c 50.08516,27.94596 11.05324,89.11373 -61.43584,76.82851 -46.971,-7.9605 -84.49157,-55.94163 -82.09467,-77.56686 2.13263,-19.24103 58.88633,-35.10897 106.21111,-11.50506 z" fill="#38407c" />
      <path fill="#151730" inkscape:original-d="m 557.59893,796.32955 c 50.08516,27.94596 11.05324,89.11373 -61.43584,76.82851 -46.971,-7.9605 -84.49157,-55.94163 -82.09467,-77.56686 2.13263,-19.24103 58.88633,-35.10897 106.21111,-11.50506" inkscape:path-effect="#path-effect5640" />
      <path d="m 504.10098,777.51397 c -23.46377,-0.74035 -27.84735,14.65611 3.96851,31.57951 -36.8608,-6.64517 -44.45243,14.79461 -8.35101,29.12456 -29.53669,-2.61597 -39.86225,16.62514 -8.86213,34.63207" style="stroke:#151730;stroke-width:5;fill:none;stroke-miterlimit:20" />
      <path d="m 423.26455,823.49915 53.27808,19.34599 m -62.57097,-44.69954 62.67452,18.12632 m -48.38163,-35.87632 60.67453,14.47098" fill="none" stroke="#151730" stroke-width="3.5" />
    </g>
    <g>
      <path d="m 508.57731,974.12533 c 0.41221,5.80038 2.00919,9.70774 5.02304,12.16729 17.19257,14.03058 101.28825,12.63162 106.18049,-3.70664 3.4602,-11.55577 -4.80861,-40.91917 -25.75649,-62.14246 -10.88056,9.73134 -14.71734,20.66675 -7.62944,35.86382 -8.6214,-2.06828 -16.67505,-0.3963 -23.60369,4.43117 27.80471,2.63473 6.98699,29.072 -54.21391,13.38682 z" fill="#c4bff9" stroke="#9791f1" stroke-width="7" />
      <path fill="#fff" id="path4389" transform="rotate(15.429318 1890.06 438.13223)scale(1.3549707)" sodipodi:arg1="1.6142472" sodipodi:arg2="2.3996454" sodipodi:cx="524.15717" sodipodi:cy="978.3241" sodipodi:r1="7.5070853" sodipodi:r2="0.90085018" sodipodi:sides="4" sodipodi:type="star" />
      <use transform="translate(355.40292 552.57067)scale(.41659746)" xlink:href="#path4389" />
      <use transform="translate(271.59475 321.54156)scale(.666039)" xlink:href="#path4389" />
    </g>
    <path d="m 399.20766,796.53272 a 11.617546,13.956027 7.3034216 1 0 13.56432,16.65506 19.71508,23.519111 12.340752 1 1 -13.56432,-16.65506 z" fill="#fff" />
    <g>
      <path d="m 911.92303,738.76068 -175.28192,138.24475 c 0.14573,97.58395 -57.01577,116.21516 -96.64219,65.97241 -39.62644,-50.24275 -8.18886,-101.48958 86.67508,-78.60981 l 175.28191,-138.24476 z" fill="#a176db" id="path4672" opacity=".1" />
      <path d="m 1112.9617,476.85986 c -14.9994,91.57034 -56.8911,148.78187 -72.1769,240.7805 -6.6775,40.18905 102.3926,23.24766 101.8484,-20.08876 -0.9734,-77.38276 19.9978,-143.45987 11.6985,-217.08823 z" fill="#11a2f9" stroke="#1c92cd" stroke-width="7" />
      <path d="m 902.30047,729.53165 c 110.84913,-89.03269 253.54943,-84.86057 472.18773,45.71637 159.7194,95.38892 235.1299,-245.2241 132.6407,-272.64581 -62.5594,-16.7382 -151.8925,230.97111 -309.6865,136.91499 -145.7752,-86.89211 -68.3589,-223.9454 -104.2585,-292.43834 l -110.96002,-70.3871 c -57.7366,-223.971276 265.49792,-243.071596 242.28162,-17.52995 -14.4098,139.98875 -0.2715,238.93701 42.9077,268.805 124.5847,86.17797 163.5429,-179.48774 275.8095,-149.406 145.2044,38.90738 58.0674,596.42287 -195.8819,435.34109 -194.7997,-123.56276 -360.82529,-139.56344 -438.68883,-76.77633 -60.78073,49.01198 -123.36322,95.09633 -171.83501,135.78322 -10.70544,8.98607 3.77071,94.76079 -56.79678,91.34832 -39.80084,-2.24244 -66.05429,-70.35792 -42.27613,-88.63556 27.17733,-20.89049 78.4231,-6.60627 90.6412,-9.8801 7.4976,-2.00898 124.77998,-96.74496 173.91522,-136.2098 z" fill="#6dc6fb" />
      <path fill="#1c92cd" inkscape:original-d="m 1322.0864,648.2643 c -36.138,16.92823 -77.3109,19.46668 -124.644,-8.7471 -145.7752,-86.89209 -68.3589,-223.9454 -104.2585,-292.43834 l -110.96002,-70.3871 c -57.7366,-223.971276 265.49792,-243.071596 242.28162,-17.52995 -14.4098,139.98875 -0.2715,238.937 42.9077,268.805 27.4685,19.00053 50.7745,20.89742 71.6215,12.63145" inkscape:path-effect="#path-effect17521" />
      <g>
        <g>
          <g clip-path="url(#clipPath15973)">
            <ellipse cx="381.34067" cy="1064.8263" fill="#fff" id="path11190" rx="63.440514" ry="53.444862" transform="rotate(301.8055)" />
            <g clip-path="url(#clipPath15935)">
              <ellipse cx="-17.787979" cy="1112.6768" fill="url(#linearGradient10551)" id="path10758" rx="48.115543" ry="39.336929" transform="rotate(282.15356)" />
              <path d="m 1072.1247,253.37532 36.0426,52.58485 21.7122,-23.65484 z" fill="#8f4dd3" />
              <path d="m 1072.1247,253.37532 62.3469,13.07808 -7.198,24.14062 z" fill="#62289e" />
              <ellipse cx="-25.770033" cy="1109.7528" rx="38.48547" ry="31.384026" transform="rotate(281.86512)" />
              <ellipse cx="1086.9309" cy="-270.87854" fill="#fff" rx="13.363968" ry="19.066963" transform="rotate(26.172298)" />
              <ellipse cx="1069.3845" cy="-380.70715" fill="#fff" rx="4.2210622" ry="5.796257" transform="rotate(32.949561)" />
            </g>
          </g>
          <path d="m 1147.2427,188.86853 c 22.4229,-23.68239 25.9475,-19.78332 3.661,3.52839 m 6.8989,9.81084 c 28.9872,-15.36108 30.8873,-10.96218 2.4559,4.45233 m 5.6804,11.84114 c 28.0088,-2.42957 28.8402,2.58372 -3.7576,5.23931 -6.1001,-39.13505 -40.9212,-53.71032 -70.4955,-39.78814 -28.0857,13.22135 -51.0975,49.67726 -35.3474,89.98971 -21.6514,-35.15679 1.7145,-79.29683 33.3277,-94.26015 31.215,-14.77481 69.5076,0.63195 76.2728,38.81927 z" />
        </g>
        <g>
          <path d="m 982.85756,183.30209 c -25.40132,-10.31121 -27.15195,-6.27272 -1.55567,4.41455 m -2.32232,9.89248 c -26.11428,-2.36332 -25.98662,1.42982 0.27357,4.55751" />
          <g clip-path="url(#clipPath17024)">
            <path d="m 1004.69,266.02317 c 15.1953,-38.92898 7.6471,-77.09939 -18.99268,-96.02179 -13.63917,32.65402 -14.5117,69.08357 -4.64439,107.34978 8.48891,-1.56614 17.02469,-5.07617 23.63707,-11.32799 z" fill="#fff" id="path4883-0" />
            <g clip-path="url(#clipPath17008)">
              <ellipse cx="271.27539" cy="-990.0788" fill="url(#linearGradient10553)" id="ellipse16982" rx="42.909534" ry="17.643404" transform="rotate(88.152633)" />
              <path d="m 1001.1836,242.59301 -18.88649,38.30586 -7.56455,-22.97212 z" fill="#8f4dd3" />
              <path d="m 1001.1836,242.59301 -28.03193,0.96917 1.81496,20.64039 z" fill="#62289e" />
              <ellipse cx="274.21658" cy="-991.80817" rx="34.198673" ry="14.0617" transform="rotate(88.152633)" />
              <ellipse cx="8.6603727" cy="1016.319" fill="#fff" rx="15.997619" ry="5.3711538" transform="rotate(283.08236)" />
              <ellipse cx="-9.0591335" cy="1024.1199" fill="#fff" rx="4.8034487" ry="1.7799042" transform="rotate(283.22603)" />
            </g>
          </g>
          <path d="m 1004.69,266.02317 c 22.6782,-52.77342 0.02,-83.00686 -17.04098,-97.10768 -19.61112,-16.20802 -22.39907,-12.57828 -2.73325,3.6552 15.53493,12.82354 36.34533,39.22919 19.77423,93.45248 z" />
        </g>
        <g>
          <path d="m 1004.69,266.02317 c -16.27382,16.23163 -36.93577,5.70058 -34.71653,25.55022 5.53285,49.48837 90.14123,81.09208 181.79333,38.31586 z" fill="#6dc6fb" />
          <path fill="#1c92cd" inkscape:original-d="m 1004.69,266.02317 c -16.27382,16.23163 -36.93577,5.70058 -34.71653,25.55022 5.53285,49.48837 90.14123,81.09208 181.79333,38.31586" inkscape:path-effect="#path-effect12359" />
          <path d="m 994.19928,288.70394 c -1.61099,5.48961 -5.56398,6.51238 -9.49655,2.74385 2.74022,8.507 11.22153,6.30766 9.49655,-2.74385 z m -11.10387,30.46608 c 18.55109,0.20326 28.81309,-4.81326 35.55149,-18.81459 -2.1312,17.2265 -14.5431,23.98743 -30.73606,24.70522" fill="#1c92cd" />
        </g>
      </g>
      <g>
        <g>
          <path d="m 1209.0121,189.10054 c 18.8698,89.0142 -14.2156,145.96038 -68.0832,178.74891 20.2223,4.06109 37.754,2.69736 52.6604,-6.95112 -12.1816,30.55375 -11.2353,62.96304 13.3442,91.61226 -2.7204,-29.49392 4.3907,-51.75728 19.3211,-71.05485 -1.9534,46.86216 18.7848,78.49994 62.8036,95.29488 -65.4383,-102.40275 -7.3808,-246.64239 -62.0403,-350.55459 z" fill="#f3a4d9" />
          <path d="m 1219.9359,150.93744 -10.9238,38.1631 c 18.8698,89.0142 -14.2156,145.96038 -68.0832,178.74891 20.2223,4.06109 37.754,2.69736 52.6604,-6.95112 -12.1816,30.55375 -11.2353,62.96304 13.3442,91.61226 -33.6777,-75.32584 65.3085,-133.47811 13.0024,-301.57315 z" fill="#961370" />
          <path d="m 1209.0121,189.10054 c 18.8698,89.0142 -14.2156,145.96038 -68.0832,178.74891 20.2223,4.06109 37.754,2.69736 52.6604,-6.95112 -12.1816,30.55375 -11.2353,62.96304 13.3442,91.61226 -2.7204,-29.49392 4.3907,-51.75728 19.3211,-71.05485 -1.9534,46.86216 18.7848,78.49994 62.8036,95.29488 -65.4383,-102.40275 -7.3808,-246.64239 -62.0403,-350.55459 z" fill="none" stroke="#d91e9b" stroke-width="7" />
        </g>
        <g>
          <path d="m 1159.9227,133.82014 c -18.4416,10.23171 -28.9315,28.32608 -19.6493,51.6408 -25.3458,-10.86744 -37.4735,-28.42511 -37.5379,-53.01935 -19.4098,11.79045 -24.6993,28.66983 -20.5358,52.12434 -24.0861,-10.19646 -35.6183,-28.24829 -34.7505,-53.93505 -20.2504,13.86224 -27.721,31.95949 -23.9785,55.10191 -24.53359,-12.12652 -34.2904,-30.55436 -31.14081,-55.33646 -17.66451,12.53583 -25.64785,29.29086 -25.23147,51.86389 -59.9558,-65.03889 12.80338,-198.356273 137.62178,-120.594961 23.1566,14.426405 57.5826,24.158947 88.8196,26.967363 z" fill="#f3a4d9" />
          <path d="m 1092.469,85.624069 c 22.5394,11.010517 55.97,19.401141 87.0023,21.969051 l -19.5486,26.22702 c -18.4416,10.23171 -28.9315,28.32608 -19.6493,51.6408 -25.3458,-10.86744 -37.4735,-28.42511 -37.5379,-53.01935 -19.4098,11.79045 -24.6993,28.66983 -20.5358,52.12434 -24.0861,-10.19646 -35.6183,-28.24829 -34.7505,-53.93505 -20.2504,13.86224 -27.721,31.95949 -23.9785,55.10191 -39.13204,-51.872 8.8057,-129.512851 68.9983,-100.108721 z" fill="#961370" />
          <path d="m 1159.9227,133.82014 c -18.4416,10.23171 -28.9315,28.32608 -19.6493,51.6408 -25.3458,-10.86744 -37.4735,-28.42511 -37.5379,-53.01935 -19.4098,11.79045 -24.6993,28.66983 -20.5358,52.12434 -24.0861,-10.19646 -35.6183,-28.24829 -34.7505,-53.93505 -20.2504,13.86224 -27.721,31.95949 -23.9785,55.10191 -24.53359,-12.12652 -34.2904,-30.55436 -31.14081,-55.33646 -17.66451,12.53583 -25.64785,29.29086 -25.23147,51.86389 -59.9558,-65.03889 12.80338,-198.356273 137.62178,-120.594961 23.1566,14.426405 57.5826,24.158947 88.8196,26.967363 z" fill="none" stroke="#d91e9b" stroke-width="7" />
          <g clip-path="url(#clipPath17106)">
            <path d="m 1072.5446,112.17828 c -123.92995,-147.152479 -126.22275,-145.921772 -44.5005,30.21365 z" fill="#6dc6fb" stroke="#1c92cd" stroke-width="7" />
            <path d="m 989.78927,59.211198 c 4.16839,-12.46966 6.46469,-23.306288 7.3118,-35.388412 m 7.27893,68.713382 c 8.8089,-12.878091 14.5797,-26.336599 17.5412,-40.789945 m -4.1424,70.427847 c 13.7337,-12.50956 22.6346,-25.858811 28.5584,-40.860569" fill="none" stroke="#1c92cd" stroke-width="3.5" />
          </g>
          <path d="m 1005.6059,93.720686 c -3.3096,-7.256769 -6.38496,-14.054616 -9.22096,-20.397188 11.37446,-1.738497 21.47636,-7.669677 28.97976,-16.674509 4.7017,5.43788 9.7292,11.303445 15.0883,17.592748 -8.7514,10.435894 -20.5973,17.2705 -34.8471,19.478949 z" fill="#ebebeb" />
          <path d="m 1006.1769,70.331277 9.086,20.145915 9.2224,-3.665125 -15.1101,-18.043699 z" fill="#fff" />
          <path fill="#d7d7d7" inkscape:original-d="m 1005.6059,93.720686 c -3.3096,-7.256769 -6.38496,-14.054616 -9.22096,-20.397188 11.37446,-1.738497 21.47636,-7.669677 28.97976,-16.674509 4.7017,5.43788 9.7292,11.303445 15.0883,17.592748 -8.7514,10.435894 -20.5973,17.2705 -34.8471,19.478949 z" inkscape:path-effect="#path-effect17095" />
          <path d="m 1009.7267,151.63532 c -5.1644,-45.1685 34.9215,-89.371744 82.7423,-66.011251" fill="#961370" />
        </g>
        <g>
          <path d="m 1205.5923,230.60502 c 63.436,-77.58596 17.5471,-157.216738 4.1032,-159.890911 -10.7997,-2.148182 -48.0089,28.975606 -55.7814,78.092901 z" fill="#6dc6fb" />
          <path fill="#1c92cd" inkscape:original-d="m 1205.5923,230.60502 c 63.436,-77.58596 17.5471,-157.216751 4.1032,-159.890911 -10.7997,-2.148195 -48.0089,28.975606 -55.7814,78.092901" inkscape:path-effect="#path-effect890" />
          <path d="m 1205.829,115.1825 c 10.5782,23.16192 6.2049,51.19092 -7.9426,70.70033 10.0403,-23.32715 13.6483,-46.34956 7.9426,-70.70033 z" fill="#1c92cd" />
        </g>
      </g>
      <g>
        <path d="m 1139.3869,482.34604 c 11.4345,92.08349 -12.6216,158.78712 -1.3408,251.36217 4.9278,40.44092 104.7923,-6.57317 92.048,-47.99691 -22.7574,-73.96712 -21.2727,-143.27642 -50.0004,-211.57532 z" fill="#6dc6fb" />
        <path fill="#1c92cd" inkscape:original-d="m 1139.3869,482.34604 c 11.4345,92.08349 -12.6216,158.78712 -1.3408,251.36217 4.9278,40.44092 104.7923,-6.57317 92.048,-47.99691 -22.7574,-73.96712 -21.2727,-143.27642 -50.0004,-211.57532" inkscape:path-effect="#path-effect17479" />
        <path d="m 1219.366,473.86975 c -56.743,-41.86889 -110.6509,0.25436 -68.2898,46.7183 32.1302,35.24197 109.2569,71.60286 123.2894,56.54785 7.8324,-8.40303 -13.6539,-47.56323 -42.8269,-84.42565 z" fill="#6dc6fb" />
        <path fill="#1c92cd" inkscape:original-d="m 1219.366,473.86975 c -56.743,-41.86889 -110.6509,0.25436 -68.2898,46.7183 32.1302,35.24197 109.2569,71.60286 123.2894,56.54785 7.8324,-8.40303 -13.6539,-47.56323 -42.8269,-84.42565" inkscape:path-effect="#path-effect13316" />
        <path d="m 1239.1758,502.2467 c -4.1277,3.90874 -8.3965,2.43802 -15.044,-4.92352 3.2676,22.72824 -12.064,17.47748 -27.9115,-1.30795 6.6354,27.81768 -11.5176,19.53507 -25.2272,5.94589 2.6084,8.53525 -0.8949,25.11094 -23.5943,14.4452" style="stroke:#1c92cd;stroke-width:5;fill:none;stroke-miterlimit:20" />
        <path d="m 1168.0085,516.5872 88.1006,63.44241 m -59.1872,-69.55508 77.7312,65.65166 m -50.2639,-70.50292 49.6166,56.59506" style="stroke:#1c92cd;stroke-width:3.5;fill:none;stroke-miterlimit:20" />
      </g>
      <use xlink:href="#path4672" />
      <g transform="rotate(51.737176-596.41326 1158.5459)scale(1.8353874)">
        <g fill="#54a2e1">
          <path d="m 20.3,-9 c -5.5,14 -14.5,14.6 -19.9,14.3 l -0.5,1.9 c 6.6,1.8 15.7,1.2 21.7,-7.6 z" />
          <path d="m -2.3557714,22.080316 c -9.3743556,-11.76314 -5.3939709,-19.8573687 -2.4341632,-24.3839058 l -1.3954483,-1.3830127 c -4.8588461,4.8157676 -8.8892301,12.9965988 -4.2682071,22.5927515 z" />
          <path d="m -17.944229,-13.080316 c 14.874356,-2.23686 19.8939713,5.2573687 22.3341636,10.0839058 l 1.8954483,-0.5169873 c -1.7411543,-6.6157675 -6.81076951,-14.1965985 -17.4317929,-14.9927515 z" />
        </g>
        <g fill="#5a318e" transform="rotate(180)">
          <path d="m 20.3,-9 c -5.5,14 -14.5,14.6 -19.9,14.3 l -0.5,1.9 c 6.6,1.8 15.7,1.2 21.7,-7.6 z" />
          <path d="m -2.3557714,22.080316 c -9.3743556,-11.76314 -5.3939709,-19.8573687 -2.4341632,-24.3839058 l -1.3954483,-1.3830127 c -4.8588461,4.8157676 -8.8892301,12.9965988 -4.2682071,22.5927515 z" />
          <path d="m -17.944229,-13.080316 c 14.874356,-2.23686 19.8939713,5.2573687 22.3341636,10.0839058 l 1.8954483,-0.5169873 c -1.7411543,-6.6157675 -6.81076951,-14.1965985 -17.4317929,-14.9927515 z" />
        </g>
        <path d="m -10.18,4.52 1.18,-11.07 10.17,-4.52 9.01,6.55 -1.18,11.07 -10.17,4.52 z" fill="none" stroke="#576ab7" />
      </g>
    </g>
    <g>
      <path d="m 585.10992,840.30665 c -11.60351,76.95544 12.21072,76.0808 82.65585,59.15995 1.08893,-28.99394 -20.74029,-38.27211 -45.96809,-27.75182 -4.34772,-15.7631 -7.02029,-30.16707 -9.35714,-46.64891 z" fill="#38407c" />
      <path fill="#151730" inkscape:original-d="m 585.10992,840.30665 c -11.60351,76.95544 12.21072,76.0808 82.65585,59.15995 1.08893,-28.99394 -20.74029,-38.27211 -45.96809,-27.75182 -4.34772,-15.7631 -7.02029,-30.16707 -9.35714,-46.64891" inkscape:path-effect="#path-effect5544" />
      <path d="m 643.08011,889.03231 c 38.25862,30.05789 43.5167,81.36862 62.0211,96.37304 22.63616,18.35465 108.06714,12.51205 110.1655,1.98371 3.23224,-16.21751 -131.27357,-152.72195 -156.65983,-144.47519 -9.14715,2.97147 -33.10015,15.83992 -53.78186,29.61045 z" fill="#38407c" />
      <path fill="#151730" inkscape:original-d="m 643.08011,889.03231 c 38.25862,30.05789 43.5167,81.36862 62.0211,96.37304 22.63616,18.35465 108.06714,12.51205 110.1655,1.98371 3.23224,-16.21751 -131.27357,-152.72195 -156.65983,-144.47519 -9.14715,2.97147 -33.10015,15.83992 -53.78186,29.61045" inkscape:path-effect="#path-effect5546" />
      <path d="m 690.66184,969.47991 c 3.36691,7.97501 7.32197,15.29883 16.19243,20.8715 24.09695,15.13839 112.22378,12.86599 111.04308,-4.76224 -0.88902,-13.27326 -34.15231,-50.33022 -62.30151,-78.72704 0.91843,13.19714 4.44593,28.2329 10.54062,41.66277 -8.61288,-2.80381 -16.57198,-3.87695 -23.87024,-2.70883 21.14877,12.05179 20.62999,40.5876 -51.60438,23.66384 z" fill="#c4bff9" stroke="#9791f1" stroke-width="7" />
      <use transform="translate(494.82915 545.27562)scale(.44685978)" xlink:href="#path4389" />
      <use transform="translate(308.31227 110.36918)scale(.86014806)" xlink:href="#path4389" />
    </g>
    <ellipse cx="1177.7062" cy="943.15533" opacity=".25" rx="169.30461" ry="33.647743" />
  </g>
  <path d="m 846.50015,624.06054 c 77.61742,32.27684 361.02095,-88.66755 408.07005,-182.09428 47.0491,-93.42672 163.6132,69.9776 158.2326,-237.2238 -7.2238,-412.43677 -425.26166,-429.46509 -577.32925,1.11566 -52.76049,149.3918 -55.58739,390.5013 11.0266,418.20242 z m -1161.56045,-804.09501 h 2422.1206 v 1384.06897 h -2422.1206 z" filter="url(#filter4860)" opacity=".4" />
  <circle cx="1137.8882" cy="24.247044" fill="#fff" filter="url(#filter5062)" r="57.201599" transform="translate(-343.1138-1.8477514)scale(1.3064417)" />
</svg>