<svg xmlns="http://www.w3.org/2000/svg" xmlns:inkscape="http://www.inkscape.org/namespaces/inkscape" xmlns:xlink="http://www.w3.org/1999/xlink" height="467.57187" viewBox="0 0 995.77356 467.57187" width="995.77356">
  <defs>
    <inkscape:path-effect bendpath1="m -26.321526,50.38086 h 53.582813" bendpath2="m 18.539133,50.105349 c 13.020466,30.50275 14.36694,69.500051 0.420939,100.764781" bendpath3="m -26.321526,150.50736 h 53.582813" bendpath4="m -21.790216,50.23805 c 7.427424,30.621988 5.519557,66.50757 -7.850502,100.49115" effect="envelope" id="path-effect4420" yy="false" />
    <inkscape:path-effect bendpath1="m -13.993625,-23.454047 c 8.5569077,3.309887 19.9811683,3.717365 28.956255,0.322628" bendpath2="m 14.005607,-22.100206 c 8.113924,13.5072471 8.847209,28.8906809 5.936865,43.811179" bendpath3="m -25.135872,16.975164 c 13.482061,6.142063 33.8898849,7.215144 48.266684,0.552494" bendpath4="m -15.163359,-23.493001 c -9.4517,12.109921 -12.76865,26.3857212 -8.267458,41.074042" effect="envelope" id="path-effect3385" xx="false" />
    <inkscape:path-effect effect="powerstroke" id="path-effect1366" interpolator_type="CubicBezierSmooth" offset_points="0.22,2" start_linecap_type="zerowidth" />
    <inkscape:path-effect effect="powerstroke" end_linecap_type="zerowidth" id="path-effect1364" interpolator_type="CubicBezierSmooth" offset_points="0.4,2 | 6.79,2" start_linecap_type="zerowidth" />
    <inkscape:path-effect effect="powerstroke" end_linecap_type="zerowidth" id="path-effect1350" interpolator_type="CubicBezierSmooth" offset_points="0.33,2 | 8.86,2" start_linecap_type="zerowidth" />
    <inkscape:path-effect effect="powerstroke" id="path-effect1348" interpolator_type="CubicBezierSmooth" offset_points="0.29,2" start_linecap_type="zerowidth" />
    <inkscape:path-effect effect="powerstroke" end_linecap_type="zerowidth" id="path-effect5181" interpolator_type="CubicBezierSmooth" offset_points="0.23,2 | 2.76,2" start_linecap_type="zerowidth" />
    <inkscape:path-effect effect="powerstroke" end_linecap_type="zerowidth" id="path-effect8265" interpolator_type="CubicBezierSmooth" offset_points="0.42,2 | 1.8,2" start_linecap_type="zerowidth" />
    <inkscape:path-effect effect="join_type" id="path-effect8229" line_width="4" />
    <inkscape:path-effect effect="powerstroke" end_linecap_type="zerowidth" id="path-effect1860" interpolator_type="CubicBezierSmooth" offset_points="0.22,2 | 2.74,2" start_linecap_type="zerowidth" />
    <linearGradient id="linearGradient14694">
      <stop offset="0" stop-color="#4a1767" />
      <stop offset="1" stop-color="#794897" />
    </linearGradient>
    <linearGradient id="linearGradient9129">
      <stop offset="0" stop-color="#20476b" />
      <stop offset="1" stop-color="#3977b8" />
    </linearGradient>
    <linearGradient id="linearGradient932">
      <stop offset="0" stop-color="#230f38" />
      <stop offset="1" stop-color="#5c2594" />
    </linearGradient>
    <clipPath id="clipPath10805-0">
      <use xlink:href="#path10781-69" />
    </clipPath>
    <clipPath id="clipPath9147-28">
      <use xlink:href="#path9101-8" />
    </clipPath>
    <inkscape:path-effect effect="powerstroke" end_linecap_type="zerowidth" id="path-effect5966-2" interpolator_type="CubicBezierSmooth" offset_points="0.42,2 | 1.8,2" start_linecap_type="zerowidth" />
    <clipPath id="clipPath4070">
      <use xlink:href="#path3624" />
    </clipPath>
    <clipPath id="clipPath4054">
      <use xlink:href="#path3830" />
    </clipPath>
    <clipPath id="clipPath8240">
      <path d="m 992.29263,1466.2694 c 55.05257,-52.0541 33.94887,-61.3097 -17.31001,-18.2968 -5.22893,5.7955 -10.31838,9.6325 -15.62555,9.9324 -50.80282,6.7364 5.64529,66.1042 20.84091,22.0594 2.43281,-6.397 6.3127,-10.5892 12.09465,-13.695 z" />
    </clipPath>
    <filter color-interpolation-filters="sRGB" height="1.4986254" id="filter13702" width="1.2533655" x="-0.12668274" y="-0.24931271">
      <feGaussianBlur stdDeviation="3.2923881" />
    </filter>
    <inkscape:path-effect effect="powerstroke" end_linecap_type="zerowidth" id="path-effect4437-3" interpolator_type="CubicBezierSmooth" offset_points="0.26,2 | 2.72,2" start_linecap_type="zerowidth" />
    <linearGradient gradientTransform="matrix(0.91290096,0,0,0.91290096,90.748848,118.57178)" gradientUnits="userSpaceOnUse" id="linearGradient1287" x1="764.88239" x2="819.297" y1="1305.8065" y2="1286.6548" xlink:href="#linearGradient14694" />
    <linearGradient gradientTransform="matrix(0.91290096,0,0,0.91290096,90.748848,118.57178)" gradientUnits="userSpaceOnUse" id="linearGradient1321" x1="1004.2758" x2="930.94739" y1="1396.7352" y2="1384.6306" xlink:href="#linearGradient14694" />
    <linearGradient gradientTransform="matrix(0.91290096,0,0,0.91290096,90.748848,118.57178)" gradientUnits="userSpaceOnUse" id="linearGradient1323" x1="853.7663" x2="809.61969" y1="1318.8717" y2="1328.8334" xlink:href="#linearGradient14694" />
    <clipPath id="clipPath4361">
      <path inkscape:original-d="m -13.1,146.3 -10.6,-20.1 9.7,-24.1 10.4,20.7 z m 27.2,-16.8 -10.6,-20.1 9.7,-24.1 10.4,20.7 z m -17.4,-31.6 -10.6,-20.1 9.7,-24.1 10.4,20.7 z" />
    </clipPath>
    <linearGradient gradientUnits="userSpaceOnUse" id="linearGradient1237" x1="753.56726" x2="713.22388" y1="159.15656" y2="158.28142" xlink:href="#linearGradient932" />
    <linearGradient gradientUnits="userSpaceOnUse" id="linearGradient1239" x1="853.60211" x2="850.91821" y1="709.22571" y2="761.21588" xlink:href="#linearGradient9129" />
  </defs>
  <g transform="translate(-24.171934-1256.6148)">
    <g>
      <path d="m 958.50871,1291.1415 c -74.34604,-60.4913 -203.02554,-36.1317 -223.01341,69.2146 z" fill="#5e50a0" stroke="#4a1767" stroke-width="4" />
      <path d="m 833.16256,1262.0607 c 19.34303,15.3538 33.76154,33.9388 43.03212,54.5245 m -64.74708,-48.176 c 24.55765,12.3219 43.95931,29.7104 57.59606,50.5866" fill="none" stroke="#4a1767" stroke-width="2" />
      <path d="m 922.1246,1383.3714 c 44.74286,51.8323 89.4756,58.1545 91.4938,33.4074 3.7027,-45.4004 -21.24709,-67.3895 -86.00638,-78.9302 z" fill="url(#linearGradient1321)" stroke="#4a1767" stroke-width="4" />
      <path d="m 1012.9186,1395.1849 c -7.4425,16.5825 -25.85125,24.2322 -50.39208,23.8487 m 41.82788,-45.376 c -4.72393,22.1509 -31.0441,35.1764 -60.11474,31.8714" fill="none" stroke="#4a1767" stroke-width="2" />
    </g>
    <path d="m 486.61682,1697.3823 c 23.60163,-2.2291 42.32604,-5.9563 63.79935,-15.2179 11.60356,-29.096 64.17366,-43.2035 71.71173,-6.0129 7.53806,37.1907 -46.37625,44.6662 -68.39339,22.3846 -23.38485,-0.1694 -42.08278,3.6885 -64.6897,10.8252 z" fill="#2aa8de" id="use6861" opacity=".1" />
    <path d="m 821.40322,1440.2445 -23.45386,-16.2666 21.69082,-15.369 -5.52061,12.8126 10.06088,-10.8135 z" style="stroke:#b0d8e7;stroke-width:2;stroke-miterlimit:20;fill:#fff" />
    <path d="m 740.26795,1417.9111 c 14.51902,68.2594 45.05824,108.0909 43.19626,173.856 -0.59348,20.9623 -67.53868,8.1652 -62.12875,-30.679 6.86679,-49.3046 -6.40362,-80.9315 -8.46249,-135.1858 z" fill="#dfe4e3" stroke="#bdc1c2" stroke-width="4" />
    <g>
      <path d="m 250.56333,1599.3485 -143.60535,-31.2082 c -27.918338,32.0105 -76.231872,34.2869 -82.145496,-4.9215 -7.658908,-50.78 55.300189,-80.787 85.445616,-6.5092 l 144.91957,31.4938 c 3.19837,0.6951 0.29379,12.2117 -4.61434,11.1451 z" fill="#a176db" opacity=".1" />
      <path d="m 715.04761,1504.0423 c -1.42216,59.3081 -16.26743,115.0017 -45.97911,163.6562 -10.22448,16.7431 55.6776,30.5255 66.77984,-3.0051 15.82478,-47.7935 18.92184,-104.4615 6.58948,-160.2339 z" fill="#11a2f9" stroke="#1c92cd" stroke-width="4" />
      <path d="m 808.48149,1482.3375 c 6.70515,1.6649 13.04066,8.619 14.03448,23.3758 -8.74134,2.4063 -16.23574,-4.8746 -14.03448,-23.3758 z" fill="#ef6f2f" />
      <g transform="translate(-1.5)">
        <path d="m 710.10483,1566.5026 c 43.95157,-9.0063 46.98267,-52.4268 6.98064,-52.1766 -30.34078,0.1898 -80.36516,21.1788 -79.22027,34.2225 0.639,7.2805 28.30145,13.7913 58.14956,15.6895 z" fill="#11a2f9" stroke="#1c92cd" stroke-width="4" />
        <path d="m 688.25468,1563.7894 c -0.091,-3.6155 2.42154,-5.0079 8.73202,-5.0173 -12.13748,-8.1301 -3.12827,-13.1441 12.5001,-12.6405 -15.97757,-8.7043 -4.33376,-13.7617 7.92755,-14.4591 -5.14604,-2.4001 -11.49213,-11.1126 3.21379,-17.3052" style="stroke:#1c92cd;stroke-width:3;stroke-miterlimit:20;fill:none" />
        <path d="m 710.91729,1523.797 -66.64872,14.8876 m 58.08282,1.6236 -64.25463,8.8646 m 54.8003,6.2972 -49.42762,-1.1661" style="stroke:#1c92cd;stroke-width:2;stroke-miterlimit:20;fill:none" />
      </g>
      <path d="m 254.91535,1590.4728 c 57.14807,12.3125 112.76428,-12.5911 141.29843,-81.6079 40.45465,-97.8493 139.26592,-117.2503 258.85669,-69.3966 76.61953,30.659 90.27021,79.8272 154.26452,93.8894 -4.79656,-18.8498 -5.57485,-38.6231 -1.17107,-57.0066 6.13303,10.4916 6.80632,18.5145 6.14719,28.7105 15.89182,-6.1684 24.07671,-18.8935 19.29097,-30.364 -4.19981,-10.0661 0.22287,-19.3913 11.94088,-21.6401 6.24214,-1.1979 7.93553,14.1069 13.55034,12.07 113.45964,-44.7048 161.6678,123.8589 36.06447,142.5805 -134.04,19.9791 -210.51048,-53.4608 -283.58692,-95.9175 -78.43417,-45.5694 -147.67785,-47.5612 -184.37496,12.84 -42.67778,70.2451 -108.30904,88.0217 -173.87116,72.9522 -53.93256,-12.3964 -72.75934,-15.5855 -140.7137,-31.0373 -14.153227,-3.2182 -20.361484,26.9122 -60.087374,22.5169 -32.270025,-3.5703 -34.770962,-54.474 -10.567675,-68.0736 46.26823,-25.9977 62.894799,36.9982 69.198569,38.2209 26.36084,5.1132 58.55441,12.9056 143.7608,31.2632 z" fill="#6dc6fb" />
      <g>
        <g clip-path="url(#clipPath4070)" transform="rotate(95.226109 195.04211 891.31491)scale(1.0265253)">
          <ellipse cx="69.230705" cy="757.37787" fill="#fff" id="path3624" rx="35.752079" ry="29.751688" transform="rotate(286.21675)" />
          <g clip-path="url(#clipPath4054)">
            <ellipse cx="734.35297" cy="148.65259" fill="url(#linearGradient1237)" id="path3830" rx="26.508593" ry="21.759327" transform="rotate(277.80505 734.35297 148.65258)" />
            <path d="m 728.88383,149.91499 24.87662,31.40874 10.86112,-19.81054 z" fill="#8f4dd3" />
            <path d="m 728.88383,149.91499 35.56894,2.43485 -2.80782,14.94468 z" fill="#62289e" />
            <ellipse cx="-48.086704" cy="745.91858" rx="21.242731" ry="17.436905" transform="rotate(277.80505)" />
            <ellipse cx="748.88123" cy="-41.063255" fill="#fff" rx="6.9485822" ry="9.53438" transform="rotate(13.750415)" />
            <ellipse cx="761.17657" cy="-31.689978" fill="#fff" rx="2.4523847" ry="3.3649974" transform="rotate(13.750415)" />
          </g>
        </g>
        <path d="m 912.33684,1549.2387 c 14.14052,11.9148 12.04903,14.0377 -1.87693,2.188 m -5.32673,4.2269 c 9.64538,15.9028 7.218,17.1227 -2.43939,1.536 m -6.5161,3.6033 c 2.2943,15.7739 -0.51623,16.4089 -3.08855,-1.9546 21.95071,-4.7367 28.93229,-24.7274 20.08192,-41.01 -8.40489,-15.463 -30.09565,-25.7297 -52.13321,-17.3657 19.57394,-11.9499 44.97766,-1.3203 54.48426,16.0824 9.38661,17.1833 2.0481,39.1661 -19.34442,44.2479 z" />
        <path d="m 855.70521,1501.2348 c 6.91762,17.571 6.78605,34.9714 0.0817,48.9753 -19.13511,-9.7315 -18.66003,-40.7846 -0.0817,-48.9753 z" fill="#6dc6fb" />
        <path d="m 855.70521,1501.2348 c 7.91299,16.9995 8.64141,35.603 0.0817,48.9753 5.19266,-14.6998 5.11862,-31.2163 -0.0817,-48.9753 z" fill="#1c92cd" />
        <ellipse cx="1596.7329" cy="-701.31311" fill="#fc87c8" filter="url(#filter13702)" rx="31.708616" ry="14.77587" transform="rotate(87.095088-136.28906 526.92948)scale(.57113998)" />
      </g>
      <path fill="#1c92cd" inkscape:original-d="m 654.07047,1439.4683 c 76.61952,30.659 90.27021,79.8272 154.25458,93.8861" inkscape:path-effect="#path-effect1366" />
      <path fill="#1c92cd" inkscape:original-d="m 819.59865,1562.9774 c -13.67472,-26.5156 -19.23732,-58.229 -12.43473,-86.6263 6.13303,10.4916 6.80632,18.5145 6.14719,28.7105 15.89182,-6.1684 24.07671,-18.8935 19.29097,-30.364 -4.19981,-10.0661 0.22287,-19.3913 11.94088,-21.6401 6.24214,-1.1979 7.93553,14.1069 13.55034,12.07 113.45964,-44.7048 161.6678,123.8589 36.06447,142.5805 -134.04,19.9791 -210.51045,-53.4609 -283.58692,-95.9175" inkscape:path-effect="#path-effect1364" />
      <g>
        <path d="m 966.46598,1592.6369 c -92.87465,45.53 -108.73742,97.2594 -45.01623,117.0339 -42.91316,3.5323 -63.09325,-9.587 -61.05208,-38.0761 -12.00891,11.8128 -16.40577,26.7796 -12.80518,48.0121 -21.18518,-15.7618 -23.03864,-31.7148 -12.87574,-50.2457 -15.00885,5.8843 -28.65757,5.3429 -45.10653,1.5125 53.62039,-19.6534 93.23417,-46.1389 128.84467,-80.5863 z" fill="#f3a4d9" />
        <path d="m 939.38002,1591.1342 c -49.5215,47.2017 -127.79781,70.1383 -91.78753,128.4726 -21.18518,-15.7618 -23.03864,-31.7148 -12.87574,-50.2457 -15.00885,5.8843 -28.65757,5.3429 -45.10653,1.5125 53.62039,-19.6534 93.23417,-46.1389 128.84467,-80.5863 z" fill="#961370" />
        <path d="m 966.46598,1592.6369 c -92.87465,45.53 -108.73742,97.2594 -45.01623,117.0339 -42.91316,3.5323 -63.09325,-9.587 -61.05208,-38.0761 -12.00891,11.8128 -16.40577,26.7796 -12.80518,48.0121 -21.18518,-15.7618 -23.03864,-31.7148 -12.87574,-50.2457 -15.00885,5.8843 -28.65757,5.3429 -45.10653,1.5125 53.62039,-19.6534 93.23417,-46.1389 128.84467,-80.5863 z" style="stroke:#d91e9b;stroke-width:4;stroke-miterlimit:20;fill:none" />
      </g>
      <g>
        <path d="m 715.90549,1510.49 c 16.29889,57.0422 18.70725,114.63 4.8277,169.9238 -4.77627,19.0279 62.24074,12.5657 62.85717,-22.7498 0.87865,-50.3376 -13.03532,-105.3581 -41.41244,-154.9301 z" fill="#6dc6fb" />
        <path fill="#1c92cd" inkscape:original-d="m 715.90549,1510.49 c 16.29889,57.0422 18.70725,114.63 4.8277,169.9238 -4.77627,19.0279 62.24074,12.5657 62.85717,-22.7498 0.87865,-50.3376 -13.03532,-105.3581 -41.41244,-154.9301" inkscape:path-effect="#path-effect5181" />
      </g>
      <g>
        <path d="m 947.70978,1557.5329 c -8.31704,-10.1405 -21.1679,-12.6893 -34.3956,-4.4095 3.82053,-16.7184 13.20875,-26.0967 28.24767,-28.8802 -9.37867,-10.5589 -20.29519,-11.9116 -34.1795,-6.7476 3.5506,-15.8729 13.30756,-24.9421 29.11887,-27.277 -10.73992,-10.8421 -22.64485,-13.3933 -36.38522,-8.5217 4.68144,-16.362 14.86652,-24.3869 30.37896,-25.2251 -9.63995,-9.408 -20.78093,-12.4226 -34.54408,-9.6494 33.09973,-43.9358 122.77762,-14.2981 89.13149,70.7384 -6.24207,15.7762 -7.74439,36.0732 -5.97735,55.4965 z" fill="#f3a4d9" />
        <path d="m 969.05812,1512.739 c -4.2212,15.0174 -5.01359,34.5558 -3.12227,53.8271 l -18.22607,-9.0332 c -8.31704,-10.1405 -21.1679,-12.6893 -34.3956,-4.4095 3.82053,-16.7184 13.20875,-26.0967 28.24767,-28.8802 -9.37867,-10.5589 -20.29519,-11.9116 -34.1795,-6.7476 3.5506,-15.8729 13.30756,-24.9421 29.11887,-27.277 -10.73992,-10.8421 -22.64485,-13.3933 -36.38522,-8.5217 27.3856,-29.711 80.21501,-9.0628 68.94212,31.0421 z" fill="#961370" />
        <path d="m 947.70978,1557.5329 c -8.31704,-10.1405 -21.1679,-12.6893 -34.3956,-4.4095 3.82053,-16.7184 13.20875,-26.0967 28.24767,-28.8802 -9.37867,-10.5589 -20.29519,-11.9116 -34.1795,-6.7476 3.5506,-15.8729 13.30756,-24.9421 29.11887,-27.277 -10.73992,-10.8421 -22.64485,-13.3933 -36.38522,-8.5217 4.68144,-16.362 14.86652,-24.3869 30.37896,-25.2251 -9.63995,-9.408 -20.78093,-12.4226 -34.54408,-9.6494 33.09973,-43.9358 122.77762,-14.2981 89.13149,70.7384 -6.24211,15.7762 -7.74439,36.0732 -5.97735,55.4965 z" fill="none" stroke="#d91e9b" stroke-width="4" />
        <g clip-path="url(#clipPath8240)">
          <path d="m 960.89426,1498.5482 c 79.90964,-89.0378 78.95364,-90.3434 -22.45254,-24.7934 z" fill="#6dc6fb" stroke="#1c92cd" stroke-width="4" />
          <path d="m 986.07693,1443.0832 c 8.05561,1.3992 14.93247,1.7999 22.43987,1.1934 m -41.5674,10.8869 c 8.7397,4.2141 17.55283,6.5065 26.7155,6.9789 m -43.6873,4.0245 c 8.97264,7.2763 18.01064,11.5033 27.78683,13.7456" fill="none" stroke="#1c92cd" stroke-width="2" />
        </g>
        <path d="m 979.64423,1477.5773 c 3.32211,-3.7379 6.43449,-7.2574 9.33463,-10.5612 -6.54734,-3.1623 -12.12422,-8.4943 -15.06785,-16.0037 -3.78743,2.3914 -7.8258,4.9616 -12.11765,7.7077 3.51869,8.9814 9.3471,15.1986 17.85087,18.8572 z" fill="#ebebeb" />
        <path d="m 976.95795,1456.2294 -11.71009,9.0562 4.60915,5.7683 8.1432,-13.1242 z" fill="#fff" />
        <path fill="#d7d7d7" inkscape:original-d="m 979.64423,1477.5773 c 3.32211,-3.7379 6.43449,-7.2574 9.33463,-10.5612 -6.54734,-3.1623 -12.12422,-8.4943 -15.06785,-16.0037 -3.78743,2.3914 -7.8258,4.9616 -12.11765,7.7077 3.51869,8.9814 9.3471,15.1986 17.85087,18.8572 z" inkscape:path-effect="#path-effect8229" />
        <path d="m 920.99618,1469.0537 c 26.69657,-7.0095 56.84769,12.4287 48.06194,43.6853 z" fill="#961370" />
      </g>
      <g>
        <path d="m 939.83769,1556.1401 c 23.53811,-1.685 51.15957,10.5821 52.67523,19.132 1.67241,9.4341 -38.73503,52.3373 -95.94101,26.475 z" fill="#6dc6fb" />
        <path fill="#1c92cd" inkscape:original-d="m 939.83769,1556.1401 c 23.53811,-1.685 51.15957,10.5821 52.67523,19.132 1.67241,9.4341 -38.73503,52.3373 -95.94101,26.475" inkscape:path-effect="#path-effect8265" />
        <path d="m 964.85027,1581.0137 c -13.86824,8.0879 -28.10137,10.6354 -43.29534,8.3595 14.77657,5.3198 30.09134,3.46 43.29534,-8.3595 z" fill="#1c92cd" />
      </g>
      <path d="m 846.48836,1466.854 c -3.04362,0.1081 -4.28041,-2.2225 -2.97181,-4.9526 -4.05763,3.2365 -1.53446,7.1651 2.97181,4.9526 z" fill="#1c92cd" />
      <g transform="translate(.4405915-.4838438)">
        <path d="m 704.97403,1562.6637 c 44.85672,-0.8541 55.74218,-42.9972 16.36311,-50.0338 -29.86829,-5.3371 -82.87785,6.1939 -84.12679,19.228 -0.69714,7.2751 25.31767,18.7133 54.32137,26.0138 z" fill="#6dc6fb" />
        <path fill="#1c92cd" inkscape:original-d="m 704.97403,1562.6637 c 44.85672,-0.8541 55.74218,-42.9972 16.36311,-50.0338 -29.86829,-5.3371 -82.87785,6.1939 -84.12679,19.228 -0.69714,7.2751 25.31767,18.7133 54.32137,26.0138" inkscape:path-effect="#path-effect4437-3" />
        <path d="m 683.983,1556.0179 c 0.5687,-3.5718 3.29279,-4.4834 9.49951,-3.3437 -10.45447,-10.2041 -0.683,-13.494 14.5925,-10.1536 -14.12587,-11.4676 -1.75592,-14.3207 10.42746,-12.7742 -4.62309,-3.2968 -9.27695,-13.0191 6.31061,-16.4309" style="stroke:#1c92cd;stroke-width:3;stroke-miterlimit:20;fill:none" />
        <path d="m 713.54778,1520.8197 -68.24528,2.5049 m 56.81655,12.1709 -65.33243,-2.9487 m 53.27578,16.1359 -48.38929,-10.1453" style="stroke:#1c92cd;stroke-width:2;stroke-miterlimit:20;fill:none" />
      </g>
      <path d="m 255.17767,1588.2034 -144.91957,-31.4938 c -30.145427,-74.2778 -93.104524,-44.2708 -85.445616,6.5092 5.913624,39.2084 54.227158,36.932 82.145496,4.9215 l 143.60532,31.2082 c -3.19833,-0.6951 -0.29383,-12.2117 4.61437,-11.1451 z" fill="#a176db" opacity=".1" />
      <g transform="rotate(102.37875-592.08739 801.81969)scale(1.4107452)" inkscape:path-effect="#path-effect3385">
        <path fill="#54a2e1" inkscape:original-d="m -17.944229,-13.080316 c 14.874356,-2.23686 19.8939713,5.2573687 22.3341636,10.0839058 l 1.8954483,-0.5169873 c -1.7411543,-6.6157675 -6.81076951,-14.1965985 -17.4317929,-14.9927515 z m 15.5884576,35.160632 c -9.3743556,-11.76314 -5.3939709,-19.8573687 -2.4341632,-24.3839058 l -1.3954483,-1.3830127 c -4.8588461,4.8157676 -8.8892301,12.9965988 -4.2682071,22.5927515 z m 22.6557714,-31.080316 c -5.5,14 -14.5,14.6 -19.9,14.3 l -0.5,1.9 c 6.6,1.8 15.7,1.2 21.7,-7.6 z" />
        <path fill="#5a318e" inkscape:original-d="m 17.944229,13.080316 c -14.874356,2.23686 -19.8939713,-5.2573687 -22.3341636,-10.0839058 l -1.8954483,0.5169873 c 1.7411543,6.6157675 6.81076951,14.1965985 17.4317929,14.9927515 z m -15.5884576,-35.160632 c 9.3743556,11.76314 5.3939709,19.8573687 2.4341632,24.3839058 l 1.3954483,1.3830127 c 4.8588461,-4.8157676 8.8892301,-12.9965988 4.2682071,-22.5927515 z m -22.6557714,31.080316 c 5.5,-14 14.5,-14.6 19.9,-14.3 l 0.5,-1.9 c -6.6,-1.8 -15.7,-1.2 -21.7,7.6 z" />
        <path fill="#576ab7" inkscape:original-d="m 1.2304688,-11.644531 -10.6972657,4.753906 -1.2402341,11.6445312 9.4765622,6.8906248 10.6972657,-4.753906 1.2402341,-11.6445312 z m -0.1210938,1.148437 8.5429688,6.2109378 -1.1191407,10.4960937 -9.6425781,4.2851565 -8.5429688,-6.2109378 1.1191407,-10.4960937 z" />
      </g>
    </g>
    <path d="m 489.59373,1698.8841 c -47.17151,3.2663 -78.11381,-46.1445 -122.83624,-32.8179 -62.30813,18.5669 -83.03369,-68.8897 -27.04466,-90.8388 136.50105,-53.5117 241.94365,105.7523 362.07311,-73.2382 26.48008,-39.4548 34.18203,-86.8968 77.43541,-116.4808 3.46446,18.957 11.20912,34.1134 22.0343,44.7532 1.57838,-7.877 9.08477,-12.5288 20.94644,-13.4846 -5.51442,6.8514 -7.28668,14.5967 -4.18266,23.7862 8.13863,5.1308 16.78683,7.0052 25.50162,5.9066 6.30603,-0.7949 1.40764,-16.7744 7.37169,-17.1003 32.0346,-1.7503 55.50988,-14.8447 68.69785,-32.6178 105.99611,21.3117 109.39171,12.7005 12.28485,-32.6378 6.77598,-49.0286 -36.83272,-101.9458 -104.45551,-83.7665 -87.43279,23.5049 -152.9662,88.427 -200.58653,170.9078 -89.1209,154.3619 -207.07796,29.4704 -303.36612,93.1439 -87.07301,57.5797 -32.71852,171.619 46.61404,142.5552 47.56863,-17.4269 74.65375,27.4707 119.96292,19.1699 15.62286,-2.8622 59.56016,-15.2783 68.0826,-8.2688 24.84507,20.4344 58.45085,8.85 61.50008,-10.3377 5.22991,-32.9098 -35.55686,-44.5436 -64.81699,-7.1774 -7.35381,9.3911 -40.79516,16.8528 -65.2162,18.5438 z" fill="#eaeef0" />
    <g transform="rotate(250.67292 1607.5049 323.04541)scale(1.0151936-1.0151936)">
      <path d="m 895.06016,727.15844 c 6.18163,-0.92527 12.16592,0.29256 17.87913,4.01817 -4.18611,-5.54226 -9.82176,-7.8885 -15.91852,-7.54654 z m 3.07089,-7.46266 c 5.43192,-2.0398 12.18225,-1.77556 18.05367,0.14351 -5.07554,-4.34843 -11.42123,-5.19682 -16.93334,-4.01968 z" />
      <g clip-path="url(#clipPath10805-0)">
        <path d="m 832.87546,753.0149 c -1.2732,-12.09351 -0.56191,-22.51959 1.55831,-31.35534 24.55607,-9.78361 43.80507,-13.92259 67.02262,-10.74018 -2.15345,32.39137 -30.77737,50.27151 -68.58093,42.09552 z" fill="#fff" id="path10781-69" />
        <g clip-path="url(#clipPath9147-28)">
          <ellipse cx="845.40521" cy="734.29193" fill="url(#linearGradient1239)" id="path9101-8" rx="22.906321" ry="32.951572" />
          <path d="m 839.53312,737.71752 28.18425,31.8446 11.25954,-18.45176 z" fill="#76ade5" />
          <path d="m 839.53312,737.71752 40.17552,4.01807 -3.63329,15.96478 z" fill="#5693cf" />
          <ellipse cx="843.56091" cy="735.17828" rx="18.370092" ry="26.426052" />
          <ellipse cx="1055.5018" cy="-367.64966" fill="#fff" rx="11.428059" ry="7.9643164" transform="rotate(59.382245)" />
          <ellipse cx="1067.5115" cy="-354.19019" fill="#fff" rx="4.0254602" ry="2.8053789" transform="rotate(59.382245)" />
        </g>
      </g>
      <path d="m 901.45639,710.91938 c 2.54799,-38.32591 -54.97669,-39.45975 -67.02262,10.74018 24.55607,-9.78361 43.80507,-13.92259 67.02262,-10.74018 z" fill="#b8e1f0" />
      <path d="m 898.12234,709.86255 c 5.45111,-2.28542 9.81079,-5.4007 13.24485,-9.41611 -1.36113,4.43293 -3.82606,7.83976 -7.9278,10.21038 m -14.80557,-0.6069 c 5.30289,-3.36151 9.05067,-7.4083 11.63618,-12.35473 -0.28504,4.74081 -2.19361,9.14907 -5.98863,12.59144 m -12.5548,-0.38372 c 3.78001,-3.7372 5.86672,-7.88155 7.59273,-12.70471 0.22426,4.72349 -0.54888,8.86589 -2.79989,12.45777 m -12.45409,1.0046 c 2.47837,-3.72409 4.02665,-7.94684 4.63276,-12.63261 1.18811,4.38434 1.1938,8.08846 -0.14131,12.14667 m -45.68129,42.84029 c -2.2864,-11.6692 -2.4764,-22.17717 0.40106,-32.38146 23.60119,-10.31127 45.61589,-13.75923 68.82001,-11.85734 8.4876,0.69567 13.14423,0.0788 19.34519,-2.9603 -4.80279,5.7456 -11.44749,6.93273 -19.774,6.19644 -23.33821,-2.06373 -41.20786,0.7605 -65.94878,11.16132 -2.14543,8.60678 -2.74814,18.00279 -2.84348,29.84134 z" />
    </g>
    <path d="m 840.51987,1433.3083 c -3.02207,1.1624 -3.26127,3.9566 -0.84348,6.0826 -5.31781,-1.4761 -4.48622,-6.3695 0.84348,-6.0826 z" fill="#bdc1c2" />
    <path d="m 978.06896,1386.693 c 1.7618,8.4901 4.40126,14.9495 8.85048,21.9252 m -29.04608,-32.3924 c -0.88277,11.0056 1.49373,19.8683 7.83582,29.8151 m -27.91901,-39.6531 c -2.3877,12.7267 -0.73598,23.5746 4.95105,35.416" style="stroke:#bdc1c2;stroke-width:2;stroke-miterlimit:20;fill:none" />
    <path fill="#bdc1c2" inkscape:original-d="m 777.1079,1354.1944 c -1.45142,33.8313 7.86211,60.0604 24.14775,76.0672 1.57838,-7.877 9.08477,-12.5288 20.94644,-13.4846 -5.51442,6.8514 -7.28668,14.5967 -4.18266,23.7862 8.13863,5.1308 16.78683,7.0052 25.50162,5.9066 6.30603,-0.7949 1.40764,-16.7744 7.37169,-17.1003 32.0346,-1.7503 55.50988,-14.8447 68.69785,-32.6178 105.99611,21.3117 109.39171,12.7005 12.28485,-32.6378 6.77598,-49.0286 -36.83272,-101.9458 -104.45551,-83.7665 -87.43279,23.5049 -152.9662,88.427 -200.58653,170.9078" inkscape:path-effect="#path-effect1350" />
    <g transform="rotate(250.67292 1597.6909 322.9599)scale(1-1)">
      <path d="m 898.42792,672.41414 c -0.21835,-23.59733 13.74219,-50.40273 22.36979,-51.38393 9.51982,-1.08267 49.82797,41.91383 20.45922,97.40133 z" fill="#eaeef0" />
      <path fill="#bdc1c2" inkscape:original-d="m 898.42792,672.41414 c -0.21835,-23.59733 13.74219,-50.40273 22.36979,-51.38393 9.51982,-1.08267 49.82797,41.91383 20.45922,97.40133" inkscape:path-effect="#path-effect5966-2" />
      <path d="m 924.80838,648.99629 c 7.21013,14.34423 8.86784,28.7082 5.65182,43.7313 6.22813,-14.41727 5.32399,-29.81804 -5.65182,-43.7313 z" fill="#bdc1c2" />
    </g>
    <path fill="#bdc1c2" inkscape:original-d="m 701.78594,1501.9892 c 26.48008,-39.4548 34.18203,-86.8968 77.52116,-116.5342" inkscape:path-effect="#path-effect1348" />
    <g>
      <path d="m 738.00986,1422.875 c -1.04684,69.7786 19.85507,115.4108 3.39408,179.1097 -5.24687,20.3038 -67.66099,-7.0806 -53.73639,-43.7445 17.67439,-46.5372 11.7805,-80.3252 21.85567,-133.6755" fill="#eaeef0" />
      <path fill="#bdc1c2" inkscape:original-d="m 738.00986,1422.875 c -1.04684,69.7786 19.85507,115.4108 3.39408,179.1097 -5.24687,20.3038 -67.66099,-7.0806 -53.73639,-43.7445 17.67439,-46.5372 11.7805,-80.3252 21.85567,-133.6755" inkscape:path-effect="#path-effect1860" />
      <path d="m 689.88052,1547.312 c 15.77905,16.4598 35.98606,27.6964 57.23156,33.5377 1.38914,-7.2703 1.68654,-14.4742 1.93797,-22.0359 -17.9794,-3.9609 -37.62086,-15.6985 -53.69758,-32.1984 -1.50823,7.1502 -3.00468,13.5129 -5.47195,20.6966 z" fill="#fac42d" />
      <path d="m 715.90054,1543.7898 -5.24357,20.5951 -8.7431,-6.3606 3.06597,-22.5221 z" fill="#ffff64" />
      <path d="m 689.88052,1547.312 c 15.77905,16.4598 35.98606,27.6964 57.23156,33.5377 1.38914,-7.2703 1.68654,-14.4742 1.93797,-22.0359 -17.9794,-3.9609 -37.62086,-15.6985 -53.69758,-32.1984 -1.50823,7.1502 -3.00468,13.5129 -5.47195,20.6966 z" fill="none" stroke="#a0833d" stroke-width="2" />
    </g>
    <g>
      <path d="m 340.80667,1577.5882 c 22.67121,-13.6725 42.0198,-36.3428 55.40711,-68.7233 l 30.98211,15.7656 c -15.97224,26.2894 -35.15946,45.2298 -56.35481,57.8498 z" fill="#6dc6fb" />
    </g>
    <use xlink:href="#use6861" />
    <path d="m 804.3342,1296.9634 c 5.22225,75.5645 18.91509,109.6643 43.86454,130.6365 12.44371,10.46 -5.82224,39.4576 5.07948,63.8264 -68.20012,-33.2813 -112.36964,-137.208 -48.94402,-194.4629 z" fill="#4a1767" opacity=".5" />
    <g>
      <path d="m 964.68755,1288.5549 c 43.05985,38.8427 53.41745,73.2133 48.93085,128.2239 3.0389,-37.2608 -51.2451,-70.7253 -110.15292,-58.7971 -43.6268,8.8339 -82.25804,12.3885 -96.94939,-12.6729 -18.38788,-31.3671 26.74335,-55.1611 41.80042,-23.2252 49.05686,-38.572 101.56874,-46.8814 116.37104,-33.5287 z" fill="#5e50a0" stroke="#4a1767" stroke-width="4" />
      <path d="m 803.54084,1321.6749 c 38.91633,52.9695 127.37931,-16.3861 209.45806,46.8566 m -206.87016,-50.9305 c 34.22127,41.8115 136.64908,-23.0772 201.36236,30.4407" fill="none" stroke="#4a1767" stroke-width="2" />
      <path d="m 875.30501,1322.3754 c 2.78554,13.2849 -46.95766,20.396 -50.20751,13.0505 -3.24983,-7.3455 1.24036,-20.0844 17.77158,-27.7312 15.579,-1.8784 29.87131,2.4495 32.43593,14.6807 z" fill="url(#linearGradient1323)" stroke="#4a1767" stroke-width="4" />
      <path d="m 816.13419,1306.5396 c 1.13688,7.6782 3.24115,15.9526 8.96331,28.8863 -3.24983,-7.3455 12.83787,-15.3181 27.0616,-13.1122 -9.66114,-7.8366 -20.14661,-14.7677 -36.02491,-15.7741 z" fill="#5e50a0" stroke="#4a1767" stroke-width="4" />
      <path d="m 781.27699,1287.2858 c -4.69432,21.0512 12.42579,36.1653 25.2391,58.023 -15.15918,-25.8594 63.87563,-46.3659 68.78892,-22.9334 -6.13689,-29.2683 -31.58188,-4.594 -60.41154,-46.0506 -7.23269,-10.4005 -29.79411,-6.18 -33.61648,10.961 z" fill="url(#linearGradient1287)" stroke="#4a1767" stroke-width="4" />
      <path d="m 833.78971,1295.5894 c -18.5777,1.7293 -33.45814,8.7495 -43.68266,25.0861 m 35.82834,-31.5955 c -18.95137,-1.1916 -34.40644,5.7143 -43.08435,17.5874" fill="none" stroke="#4a1767" stroke-width="2" />
    </g>
    <g clip-path="url(#clipPath4361)" transform="matrix(-.10171492-.47760255.56171866-.12558767 529.45052 1683.371)" inkscape:path-effect="#path-effect4420">
      <path fill="#7dd1f5" inkscape:original-d="m -13.1,146.3 -10.6,-20.1 9.7,-24.1 10.4,20.7 z m 27.2,-16.8 -10.6,-20.1 9.7,-24.1 10.4,20.7 z m -17.4,-31.6 -10.6,-20.1 9.7,-24.1 10.4,20.7 z" />
      <path fill="#2696cb" inkscape:original-d="m -13.600781,98.780864 -0.998047,0.0371 0.779297,20.787106 c -0.980421,0.1069 -1.801785,0.80295 -2.373047,1.72656 -0.01725,0.0279 -0.02996,0.0615 -0.04687,0.0898 l -5.398438,-5.66601 -0.724609,0.68945 5.648438,5.93164 c -0.378263,0.91152 -0.631807,1.95084 -0.751954,3.01367 -0.0011,0.01 -8.72e-4,0.0196 -0.002,0.0293 l -8.853515,0.38086 0.04297,1 8.740235,-0.37695 c -0.03723,1.14994 0.08311,2.27567 0.402343,3.23437 0.0697,0.20931 0.167441,0.39986 0.259766,0.59375 l -4.751953,7.89063 0.855469,0.51562 4.492187,-7.45898 c 0.421458,0.47522 0.955587,0.80847 1.613281,0.89648 0.270832,0.0362 0.529515,0.0187 0.779297,-0.0293 l 0.28711,18.4414 1,-0.0156 -0.292969,-18.84375 c 0.463222,-0.3134 0.866107,-0.75968 1.1875,-1.2793 0.102293,-0.16538 0.186719,-0.35284 0.277344,-0.5332 l 5.878906,3.39648 0.5,-0.86523 -5.982422,-3.45703 c 0.290337,-0.80925 0.497059,-1.69243 0.59961,-2.59961 0.0247,-0.21848 0.03136,-0.43742 0.04492,-0.65625 l 10.449219,-3.58008 -0.324219,-0.94727 -10.105468,3.46289 c -0.01474,-0.56315 -0.06243,-1.11325 -0.164063,-1.63281 l 6.742188,-9.66992 -0.820313,-0.57227 -6.289062,9.02149 c -0.38485,-0.95606 -1.00665,-1.74885 -1.914063,-2.03516 z m -0.04883,21.800776 c 0.09235,-0.004 0.186786,7.7e-4 0.283203,0.0137 0.771333,0.10323 1.306036,0.71584 1.654297,1.76172 0.34826,1.04589 0.441086,2.46242 0.285156,3.8418 -0.15593,1.37938 -0.562667,2.72589 -1.130859,3.64453 -0.568193,0.91864 -1.20523,1.36494 -1.976563,1.26172 -0.771333,-0.10323 -1.304083,-0.71779 -1.652344,-1.76367 -0.34826,-1.04589 -0.443039,-2.46047 -0.287109,-3.83985 0.15593,-1.37938 0.562666,-2.72588 1.130859,-3.64453 0.497169,-0.80381 1.046925,-1.24656 1.69336,-1.27539 z m 27.24883,-38.600776 -0.998047,0.0371 0.779297,20.787106 c -0.980421,0.1069 -1.801785,0.80295 -2.373047,1.72656 -0.01725,0.0279 -0.02996,0.0615 -0.04687,0.0898 l -5.3984377,-5.666006 -0.724609,0.68945 5.6484377,5.931636 c -0.378263,0.91152 -0.631807,1.95084 -0.7519537,3.01367 -0.0011,0.01 -8.72e-4,0.0196 -0.002,0.0293 l -8.853515,0.38086 0.04297,1 8.740235,-0.37695 c -0.03723,1.14994 0.08311,2.27567 0.4023427,3.23437 0.0697,0.20931 0.167441,0.39986 0.259766,0.59375 l -4.7519527,7.89063 0.855469,0.51562 4.4921867,-7.45898 c 0.421458,0.47522 0.955587,0.80847 1.613281,0.89648 0.270832,0.0362 0.529515,0.0187 0.779297,-0.0293 l 0.28711,18.4414 1,-0.0156 -0.292969,-18.84375 c 0.463222,-0.3134 0.866107,-0.75968 1.1875,-1.2793 0.102293,-0.16538 0.186719,-0.35284 0.277344,-0.5332 l 5.878906,3.39648 0.5,-0.86523 -5.982422,-3.45703 c 0.290337,-0.80925 0.497059,-1.69243 0.59961,-2.59961 0.0247,-0.21848 0.03136,-0.43742 0.04492,-0.65625 l 10.449219,-3.58008 -0.324219,-0.94727 -10.105468,3.46289 c -0.01474,-0.56315 -0.06243,-1.11325 -0.164063,-1.63281 l 6.742188,-9.669916 -0.820313,-0.57227 -6.289062,9.021486 c -0.38485,-0.95606 -1.00665,-1.74885 -1.914063,-2.03516 z m -0.04883,21.800776 c 0.09235,-0.004 0.186786,7.7e-4 0.283203,0.0137 0.771333,0.10323 1.306036,0.71584 1.654297,1.76172 0.34826,1.04589 0.441086,2.46242 0.285156,3.8418 -0.15593,1.37938 -0.562667,2.72589 -1.130859,3.64453 -0.568193,0.91864 -1.20523,1.36494 -1.976563,1.26172 -0.771333,-0.10323 -1.304083,-0.71779 -1.652344,-1.76367 -0.34826,-1.04589 -0.443039,-2.46047 -0.287109,-3.83985 0.15593,-1.37938 0.562666,-2.72588 1.130859,-3.64453 0.497169,-0.80381 1.046925,-1.24656 1.69336,-1.27539 z m -17.35117,-53.40078 -0.998047,0.0371 0.779297,20.78711 c -0.980421,0.1069 -1.801785,0.80295 -2.373047,1.72656 -0.01725,0.0279 -0.02996,0.0615 -0.04687,0.0898 l -5.398438,-5.66601 -0.724609,0.68945 5.648438,5.93164 c -0.378263,0.91152 -0.631807,1.95084 -0.751954,3.01367 -0.0011,0.01 -8.72e-4,0.0196 -0.002,0.0293 l -8.853515,0.38086 0.04297,1 8.740235,-0.37695 c -0.03723,1.14994 0.08311,2.27567 0.402343,3.23437 0.0697,0.20931 0.167441,0.39986 0.259766,0.59375 l -4.751953,7.89063 0.855469,0.51562 4.492187,-7.45898 c 0.421458,0.47522 0.955587,0.80847 1.613281,0.89648 0.270832,0.0362 0.529515,0.0187 0.779297,-0.0293 l 0.28711,18.4414 1,-0.0156 -0.292969,-18.84375 c 0.463222,-0.3134 0.866107,-0.75968 1.1875,-1.2793 0.102293,-0.16538 0.186719,-0.35284 0.277344,-0.5332 l 5.878906,3.39648 0.5,-0.86523 -5.982422,-3.45703 c 0.290337,-0.80925 0.497059,-1.69243 0.59961,-2.59961 0.0247,-0.21848 0.03136,-0.43742 0.04492,-0.65625 l 10.449219,-3.58008 -0.324219,-0.94727 -10.105468,3.46289 c -0.01474,-0.56315 -0.06243,-1.11325 -0.164063,-1.63281 l 6.742188,-9.66992 -0.820313,-0.57227 -6.289062,9.02149 c -0.38485,-0.95606 -1.00665,-1.74885 -1.914063,-2.03516 z m -0.04883,21.80078 c 0.09235,-0.004 0.186786,7.7e-4 0.283203,0.0137 0.771333,0.10323 1.306036,0.71584 1.654297,1.76172 0.34826,1.04589 0.441086,2.46242 0.285156,3.8418 -0.15593,1.37938 -0.562667,2.72589 -1.130859,3.64453 -0.568193,0.91864 -1.20523,1.36494 -1.976563,1.26172 -0.771333,-0.10323 -1.304083,-0.71779 -1.652344,-1.76367 -0.34826,-1.04589 -0.443039,-2.46047 -0.287109,-3.83985 0.15593,-1.37938 0.562666,-2.72588 1.130859,-3.64453 0.497169,-0.80381 1.046925,-1.24656 1.69336,-1.27539 z" />
    </g>
  </g>
</svg>