<svg xmlns="http://www.w3.org/2000/svg" viewBox="-20 -46 40 92">
  <path d="M-20 40l20 6 8-75h-23z"/>
  <path d="M15-11L-3-29l3-17 15 17z" fill="#282828"/>
  <path d="M0-26l15-3 5 69-20 6v-92l-15 17z" fill="#141414"/>
  <path d="M5.4 7.4c1.8 3.6 4.4 5.6 7.4 6.7-3.2 1.3-5.3 3.1-7.5 5.6m.2-21.3c1.4 3 3.6 5 6.5 6-2.4 1.2-4 2.8-5.6 4.7M2-4.2l12.5-3 1.9 26.8L2 23.8zm-7.1-1c-.4-6.6-4.4-10-9.1-10 3.9 4.3 7.7 4.3 12.1 2.1-4.6-1.9-9 .1-10.9 6.6 5.1-4 6.5-6.5 5.1-13-2.2 5.5-1.5 9.1 2.8 14.3zM-8.5-13l-1.8 48.9" stroke="#343434" fill="none" stroke-linecap="round" stroke-linejoin="round"/>
</svg>
