<svg xmlns="http://www.w3.org/2000/svg" xmlns:xlink="http://www.w3.org/1999/xlink" viewBox="-50 -30 100 60">
  <clipPath id="K"><use xlink:href="#J"/></clipPath>
  <g clip-path="url(#K)">
    <path d="M-.6 26.6C-22.1 13.2-30-.5-30-12.3-30-34-8.6-32.6.6-23.8c9.2-7.5 29.3-7.6 29.3 13.8 0 12.2-9.4 24.7-30.5 36.6z" fill="#08becc" id="J"/>
    <path d="m-22.6 8.6 8.3-6.6-3.2-15-12.9-2.4v-15H0v4.5l-7.2 3.2v6h38v14.5h-20l-11.1 15.1-11 7.4z" fill="#24bad2"/>
    <path d="m-7.2-22.7-15.3-5.3 5 15-11.1 9.5 14.3 5.5 33.8-16.5 10.3-1.8V-28.9H0v3l8 2.8-8 32.7-.3 3.3 10.6 8.9 12.5-12.6-8.7-7z" fill="#50c9e4"/>
    <path d="M0 9.6-12.6-1v-12h-4.9l10.3-9.7 7.7 3.9H8v-4.3l13.2-3.8-1.7 12.4 9.2 12.3-14.6 4.4H10Z" fill="#80ccda"/>
    <path d="M14.1 2.2 0 9.6-14.3 2-12.6-4.9-17.5-13 .5-18.8-12.6-4.9 0 9.6 13.5-4.6.5-18.8 8-23.1l11.5 8.6-6 9.9z" fill="#8dfffd"/>
  </g>
  <path d="M-38.8 13.2c2.5-6.3-.7-11-3.1-3.9zm1.2-.3c-9-7.4-.2-15.8 1.8-5.4 2.5-2.9.8-7.3-1.4-7.3 2.8-3.8 0-10.9-2.7-10.6 5.8 11.4-9.7 10-5.4 21-2.4-.7-4.1 1.3-3.2 3.7.6-.7 1.7-1.9 2.6-1.2l6.3 4.9c3.6 2.8 6.6-.7 14.5-.7 5.4 0 6.5 3.8 6.5 5.9 0 2.9-2.4 1.8-1.6 1l1.4-1.4c-2.6-5.8-5.9-2.6-3.9 1.3-1.8.9 0 5.6 2.8 5.6 4.3 0 5.8-7.6 1-12.4-5.2-5.2-7.6-2.4-14.4-2.4-3.7-2.2.3-6.2 2.8-3.4.3-6.5-8.3-5.5-7.1 1.4zm76.4.3c-2.5-6.3.7-11 3.1-3.9zm-1.2-.3c9-7.4.2-15.8-1.8-5.4C33.3 4.6 35 .2 37.2.2c-2.8-3.8 0-10.9 2.7-10.6-5.8 11.4 9.7 10 5.4 21 2.4-.7 4.1 1.3 3.2 3.7-.6-.7-1.7-1.9-2.6-1.2L39.6 18c-3.6 2.8-6.6-.7-14.5-.7-5.4 0-6.5 3.8-6.5 5.9 0 2.9 2.4 1.8 1.6 1l-1.4-1.4c2.6-5.8 5.9-2.6 3.9 1.3 1.8.9 0 5.6-2.8 5.6-4.3 0-5.8-7.6-1-12.4 5.2-5.2 7.6-2.4 14.4-2.4 3.7-2.2-.3-6.2-2.8-3.4-.3-6.5 8.3-5.5 7.1 1.4z" fill="#e4c137"/>
</svg>
