<svg xmlns="http://www.w3.org/2000/svg" viewBox="-30 -48 60 96">
  <path d="m20-47c-36.9 7.3-46.2 26.5-44 70.7 11.2 3.2 17.3-1 16.5-16.3 4.6.4 7.1-2.7 9.3-6 14 13 32.5-7.2 20.9-20 12.1-5.8 5.8-25.1-2.7-28.4zm-17.8 58.8c-7.5.2-7.5 10.5.1 10.3s7.4-10.5-.1-10.3zm5.9 7c4.1-.4 3.9-6.1-.4-5.8s-3.7 6.2.4 5.8zm-25.9 18.8c5.7.8 7.2-9.9 1.6-10.6s-7.3 9.8-1.6 10.6zm-8.9 2.6c-3.4-.1-3.8 6.7-.2 6.8s3.6-6.7.2-6.8z"/>
  <path fill="#fff" d="m6.9-31.7a8.8 8.4-46 1 0 10 10.3 15.1 14-39 1 1-10-10.3z"/>
</svg>
