<?xml version="1.0" encoding="UTF-8" standalone="no"?>
<!-- Created with Inkscape (http://www.inkscape.org/) -->

<svg
   xmlns:dc="http://purl.org/dc/elements/1.1/"
   xmlns:cc="http://creativecommons.org/ns#"
   xmlns:rdf="http://www.w3.org/1999/02/22-rdf-syntax-ns#"
   xmlns:svg="http://www.w3.org/2000/svg"
   xmlns="http://www.w3.org/2000/svg"
   xmlns:xlink="http://www.w3.org/1999/xlink"
   xmlns:sodipodi="http://sodipodi.sourceforge.net/DTD/sodipodi-0.dtd"
   xmlns:inkscape="http://www.inkscape.org/namespaces/inkscape"
   width="744.09448819"
   height="1052.3622047"
   id="svg2"
   version="1.1"
   inkscape:version="0.48.3.1 r9886"
   sodipodi:docname="De Stille Luide Emoties.svg"
   inkscape:export-filename="/home/parclytaxel/Pictures/De Stille Luide Emoties.png"
   inkscape:export-xdpi="979.47412"
   inkscape:export-ydpi="979.47412">
  <sodipodi:namedview
     id="base"
     pagecolor="#ffffff"
     bordercolor="#666666"
     borderopacity="1.0"
     inkscape:pageopacity="0.0"
     inkscape:pageshadow="2"
     inkscape:zoom="0.50742986"
     inkscape:cx="379.9301"
     inkscape:cy="526.18109"
     inkscape:document-units="px"
     inkscape:current-layer="layer1"
     showgrid="true"
     showguides="true"
     inkscape:window-width="1364"
     inkscape:window-height="698"
     inkscape:window-x="0"
     inkscape:window-y="0"
     inkscape:window-maximized="1"
     inkscape:guide-bbox="true"
     inkscape:object-nodes="false"
     inkscape:snap-smooth-nodes="false">
    <inkscape:grid
       type="xygrid"
       id="grid3812"
       empspacing="5"
       visible="true"
       enabled="false"
       snapvisiblegridlinesonly="true"
       spacingx="8px"
       spacingy="8px" />
  </sodipodi:namedview>
  <defs
     id="defs4">
    <linearGradient
       inkscape:collect="always"
       id="linearGradient10000">
      <stop
         style="stop-color:#ceb0ce;stop-opacity:1;"
         offset="0"
         id="stop10002" />
      <stop
         style="stop-color:#ceb0ce;stop-opacity:0;"
         offset="1"
         id="stop10004" />
    </linearGradient>
    <inkscape:path-effect
       effect="skeletal"
       id="path-effect8425"
       is_visible="true"
       pattern="m 363.97259,82.024387 c -12.50106,0 -24.78926,0.999998 -37.28926,3.999998 12.75,3 24.7882,3.999999 37.28926,3.999999 l 137,0 0,-7.999997 z"
       copytype="single_stretched"
       prop_scale="1"
       scale_y_rel="false"
       spacing="0"
       normal_offset="0"
       tang_offset="0"
       prop_units="false"
       vertical_pattern="false"
       fuse_tolerance="0"
       pattern-nodetypes="scsccs" />
    <inkscape:path-effect
       effect="skeletal"
       id="path-effect6708"
       is_visible="true"
       pattern="m -75.847825,653.36667 c -12.50106,0 -24.789255,1 -37.289255,4 12.75,3 24.831111,2.96503 37.289255,4 l 338.000005,0 0,-8 z"
       copytype="single_stretched"
       prop_scale="1"
       scale_y_rel="false"
       spacing="0"
       normal_offset="0"
       tang_offset="0"
       prop_units="false"
       vertical_pattern="false"
       fuse_tolerance="0"
       pattern-nodetypes="scsccs" />
    <inkscape:path-effect
       effect="skeletal"
       id="path-effect6676"
       is_visible="true"
       pattern="M 77.28926,596 C 64.7882,596 52.5,597 40,600 c 12.75,3 24.7882,4 37.28926,4 l 502,0 0,-8 z"
       copytype="single_stretched"
       prop_scale="1"
       scale_y_rel="false"
       spacing="0"
       normal_offset="0"
       tang_offset="0"
       prop_units="false"
       vertical_pattern="false"
       fuse_tolerance="0"
       pattern-nodetypes="scsccs" />
    <inkscape:path-effect
       effect="skeletal"
       id="path-effect6615"
       is_visible="true"
       pattern="m 308.81826,439.31789 c -12.50106,0 -24.78926,1 -37.28926,4 12.75,3 25.07392,4 37.28926,4 l 38,0 0,-8 z"
       copytype="single_stretched"
       prop_scale="1"
       scale_y_rel="false"
       spacing="0"
       normal_offset="0"
       tang_offset="0"
       prop_units="false"
       vertical_pattern="false"
       fuse_tolerance="0"
       pattern-nodetypes="scsccs" />
    <inkscape:path-effect
       effect="skeletal"
       id="path-effect6583"
       is_visible="true"
       pattern="M 123.28926,498 C 110.7882,498 98.5,499 86,502 c 12.75,3 24.7882,4 37.28926,4 l 306,0 C 440.93608,506 452.5,505 464,502 c -11.25,-2.75 -23.06392,-4 -34.71074,-4 z"
       copytype="single_stretched"
       prop_scale="1"
       scale_y_rel="false"
       spacing="0"
       normal_offset="0"
       tang_offset="0"
       prop_units="false"
       vertical_pattern="false"
       fuse_tolerance="0"
       pattern-nodetypes="scsscss" />
    <inkscape:path-effect
       effect="skeletal"
       id="path-effect6509"
       is_visible="true"
       pattern="M 191.28926,348 C 178.7882,348 166.5,349 154,352 c 12.75,3 25.07392,4 37.28926,4 l 54,0 0,-8 z"
       copytype="single_stretched"
       prop_scale="1"
       scale_y_rel="false"
       spacing="0"
       normal_offset="0"
       tang_offset="0"
       prop_units="false"
       vertical_pattern="false"
       fuse_tolerance="0"
       pattern-nodetypes="scsccs" />
    <inkscape:path-effect
       effect="skeletal"
       id="path-effect6475"
       is_visible="true"
       pattern="m 116.72111,216.78275 c -12.50106,0 -24.789263,1 -37.289263,4 12.75,3 24.788203,4 37.289263,4 l 342,0 c 11.64682,0 23.21074,-1 34.71074,-4 -11.25,-2.75 -23.06392,-4 -34.71074,-4 z"
       copytype="single_stretched"
       prop_scale="1"
       scale_y_rel="false"
       spacing="0"
       normal_offset="0"
       tang_offset="0"
       prop_units="false"
       vertical_pattern="false"
       fuse_tolerance="0"
       pattern-nodetypes="scsscss" />
    <inkscape:path-effect
       effect="skeletal"
       id="path-effect3861"
       is_visible="true"
       pattern="m 288.07815,295.57064 c -18.25106,0 -49.28926,0.5 -70.28926,4 21.19555,3.1107 52.82852,3.99999 70.28926,3.99999 l 120,0 c 11.64682,0 23.21074,-0.99999 34.71074,-3.99999 -11.25,-2.75 -23.06392,-4 -34.71074,-4 z"
       copytype="single_stretched"
       prop_scale="1"
       scale_y_rel="false"
       spacing="0"
       normal_offset="0"
       tang_offset="0"
       prop_units="false"
       vertical_pattern="false"
       fuse_tolerance="0"
       pattern-nodetypes="scsscss" />
    <inkscape:path-effect
       effect="skeletal"
       id="path-effect3827"
       is_visible="true"
       pattern="m 280,0 c -12.50106,0 -24.78926,0.99999847 -37.28926,3.9999985 12.75,3 24.7882,3.9999985 37.28926,3.9999985 l 101,0 c 11.64682,0 23.21074,-0.9999985 34.71074,-3.9999985 C 404.46074,1.2499985 392.64682,0 381,0 z"
       copytype="single_stretched"
       prop_scale="1"
       scale_y_rel="false"
       spacing="0"
       normal_offset="0"
       tang_offset="0"
       prop_units="false"
       vertical_pattern="false"
       fuse_tolerance="0"
       pattern-nodetypes="scsscss" />
    <linearGradient
       inkscape:collect="always"
       id="linearGradient3825">
      <stop
         style="stop-color:#17155b;stop-opacity:1"
         offset="0"
         id="stop3827" />
      <stop
         style="stop-color:#6763db;stop-opacity:1"
         offset="1"
         id="stop3829" />
    </linearGradient>
    <linearGradient
       inkscape:collect="always"
       xlink:href="#linearGradient3825"
       id="linearGradient3841"
       gradientUnits="userSpaceOnUse"
       x1="369.72849"
       y1="185.86552"
       x2="362.5795"
       y2="252.16183" />
    <clipPath
       clipPathUnits="userSpaceOnUse"
       id="clipPath3852">
      <path
         style="fill:none;stroke:#008000;stroke-width:1.00896776;stroke-linecap:butt;stroke-linejoin:miter;stroke-miterlimit:4;stroke-opacity:1"
         d="m 395.4074,208.6098 c 1.2824,19.39294 -5.39763,36.70858 -17.81456,45.21553 -12.13533,-2.47308 -26.60916,-3.13888 -37.33762,-0.1596 -12.24928,-7.15042 -22.93769,-20.61786 -28.4605,-37.78048 -3.01461,-9.36815 -4.13688,-18.73953 -3.59439,-27.42587 z"
         id="path3854"
         inkscape:connector-curvature="0"
         sodipodi:nodetypes="cccscc" />
    </clipPath>
    <linearGradient
       inkscape:collect="always"
       xlink:href="#linearGradient3825"
       id="linearGradient4388"
       x1="440.59024"
       y1="185.71054"
       x2="441.14276"
       y2="251.77324"
       gradientUnits="userSpaceOnUse" />
    <clipPath
       clipPathUnits="userSpaceOnUse"
       id="clipPath3806">
      <use
         x="0"
         y="0"
         xlink:href="#path3020"
         id="use3808"
         width="1"
         height="1" />
    </clipPath>
    <filter
       inkscape:collect="always"
       id="filter7396">
      <feGaussianBlur
         inkscape:collect="always"
         stdDeviation="2.774013"
         id="feGaussianBlur7398" />
    </filter>
    <clipPath
       clipPathUnits="userSpaceOnUse"
       id="clipPath8442">
      <path
         sodipodi:nodetypes="cc"
         inkscape:connector-curvature="0"
         id="path8444"
         d="M 395.40533,140.87735 C 385.55514,133.94689 380.4257,126.48134 375.75,115.23718 L 458,26.112181 l 39.5,14.75 -69,132.249999 z"
         style="fill:none;stroke:#008000" />
    </clipPath>
    <clipPath
       clipPathUnits="userSpaceOnUse"
       id="clipPath8446">
      <path
         style="fill:none;stroke:#008000"
         d="M 413.94853,89.525783 C 400.5104,102.9064 387.2492,116.44616 374.04186,130.0202 l 18.20814,35.34198 23.5,-33.75 z"
         id="path8448"
         inkscape:connector-curvature="0" />
    </clipPath>
    <linearGradient
       inkscape:collect="always"
       xlink:href="#linearGradient10000"
       id="linearGradient10444"
       gradientUnits="userSpaceOnUse"
       x1="336.76273"
       y1="35.439667"
       x2="327.11014"
       y2="17.938768" />
    <clipPath
       clipPathUnits="userSpaceOnUse"
       id="clipPath10467">
      <path
         style="font-size:medium;font-style:normal;font-variant:normal;font-weight:normal;font-stretch:normal;text-indent:0;text-align:start;text-decoration:none;line-height:normal;letter-spacing:normal;word-spacing:normal;text-transform:none;direction:ltr;block-progression:tb;writing-mode:lr-tb;text-anchor:start;baseline-shift:baseline;color:#000000;fill:none;stroke:#000000;stroke-width:1;stroke-miterlimit:4;stroke-dasharray:none;marker:none;visibility:visible;display:inline;overflow:visible;enable-background:accumulate;font-family:Sans;-inkscape-font-specification:Sans"
         d="m 350.59375,36.9375 c -12.66517,-0.252361 -25.24926,0.987091 -37.83796,4.056542 L 367.53732,175.14988 216.34187,203.02001 204.49707,10.367745 346.63472,-6.0059552 z"
         id="path10469"
         inkscape:connector-curvature="0"
         sodipodi:nodetypes="ccccccc" />
    </clipPath>
  </defs>
  <metadata
     id="metadata7">
    <rdf:RDF>
      <cc:Work
         rdf:about="">
        <dc:format>image/svg+xml</dc:format>
        <dc:type
           rdf:resource="http://purl.org/dc/dcmitype/StillImage" />
        <dc:title></dc:title>
      </cc:Work>
    </rdf:RDF>
  </metadata>
  <g
     inkscape:label="Layer 1"
     inkscape:groupmode="layer"
     id="layer1"
     style="display:inline">
    <path
       id="path4125"
       style="fill:#883a78;stroke:#5f2351;stroke-width:8;stroke-linecap:butt;stroke-linejoin:miter;stroke-miterlimit:4;stroke-opacity:1;stroke-dasharray:none;fill-opacity:1"
       d="m 331.5862,535.06632 c 3.62354,38.16196 -5.13037,65.45306 -21.93822,104.21479 -16.21241,37.38854 8.53943,116.59604 72.86345,234.13184 11.69217,21.36447 -116.59993,20.66301 -121.71428,0 -46.87172,-189.37132 -27.96057,-250.26538 -20.58811,-253.6222 z"
       inkscape:connector-curvature="0"
       sodipodi:nodetypes="cssscc" />
    <g
       id="g8378">
      <path
         style="fill:#2d6a39;stroke:none;stroke-width:8;stroke-linecap:butt;stroke-linejoin:miter;stroke-miterlimit:4;stroke-opacity:1;stroke-dasharray:none;fill-opacity:1"
         d="m 268.93934,86.008629 c -22.86232,-9.775368 -48.93838,-13.830351 -76,-14.5 -9.61142,35.800991 -12.8443,79.545571 -5.43934,121.853551 7.34626,-0.72529 14.20063,-0.66136 21.5,0 -0.54445,33.63951 1.95177,65.01998 7,99 7.92791,-0.7608 15.51259,-0.81979 23.5,-0.5 z"
         id="path8376"
         inkscape:connector-curvature="0"
         sodipodi:nodetypes="ccccccc" />
      <path
         style="fill:#93d19f;stroke:none;stroke-width:1;stroke-linecap:butt;stroke-linejoin:miter;stroke-miterlimit:4;stroke-opacity:1;stroke-dasharray:none;fill-opacity:1"
         d="m 209,189.86218 c -0.54445,33.63951 1.95177,68.51998 7,102.5 7.92791,-0.7608 15.51259,-0.81979 23.5,-0.5 l 14.10238,-98.61036 C 239.30589,191.54118 223.89915,190.27591 209,189.86218 z"
         id="path8374"
         inkscape:connector-curvature="0"
         sodipodi:nodetypes="ccccc" />
      <path
         sodipodi:nodetypes="ccccccc"
         inkscape:connector-curvature="0"
         id="path8321"
         d="m 268.93934,86.008629 c -22.86232,-9.775368 -48.93838,-13.830351 -76,-14.5 -9.61142,35.800991 -12.8443,79.545571 -5.43934,121.853551 7.34626,-0.72529 14.20063,-0.66136 21.5,0 -0.54445,33.63951 1.95177,65.01998 7,99 7.92791,-0.7608 15.51259,-0.81979 23.5,-0.5 z"
         style="fill:none;stroke:#66c57a;stroke-width:8;stroke-linecap:butt;stroke-linejoin:miter;stroke-miterlimit:4;stroke-opacity:1;stroke-dasharray:none" />
    </g>
    <g
       id="g6631">
      <path
         style="fill:#883a78;stroke:none;stroke-width:1;stroke-miterlimit:4;stroke-dasharray:none;fill-opacity:1"
         d="m 296.8332,396.6827 c 27.6127,68.22971 59.41079,76.90028 113.53627,22.33086 14.16857,21.59047 32.74626,67.2234 46.16847,110.47868 8.7989,28.3559 110.53127,-17.47857 93.93429,-46.10837 C 446.02604,303.2141 388.81051,319.82373 352.6729,389.1464 340.6372,384.02387 331.2492,378.22058 319.58454,369.18091 z"
         id="path6627"
         inkscape:connector-curvature="0"
         sodipodi:nodetypes="ccssccc" />
      <path
         inkscape:original-d="m 344.2605,407.38891 c 35.35534,-83.43859 93.07468,-119.16654 206.21173,75.99496 16.59698,28.6298 -85.13539,74.46427 -93.93429,46.10837 C 438.86343,472.53322 412.24935,411.45136 397.84376,407.0813"
         inkscape:path-effect="#path-effect6583"
         sodipodi:nodetypes="cssc"
         inkscape:connector-curvature="0"
         id="path6557"
         d="m 369.92437,356.62614 c -5.71008,6.18031 -10.35482,13.11288 -14.17904,20.32423 -5.12016,9.63455 -8.86241,19.85165 -11.48483,30.43854 5.84443,-9.41123 11.37883,-18.39142 17.25173,-26.95542 4.44118,-6.46416 9.02869,-12.70639 14.28047,-18.3812 0.818,-0.88389 1.65385,-1.7486 2.50871,-2.59231 5.40658,-5.31468 11.54421,-9.83135 18.35102,-12.41966 1e-5,0 1e-5,0 2e-5,0 6.57431,-2.55113 13.90369,-3.24521 20.94247,-2.17472 10e-6,0 10e-6,0 2e-5,0 8.78553,1.29568 17.23201,5.20582 25.11071,10.09794 0,0 1e-5,0 1e-5,0 10.97025,6.85109 20.73758,15.72336 29.9022,25.24853 29.66227,30.86373 52.68044,67.75649 74.40381,105.17792 0.69606,1.20943 1.14756,2.55901 1.25227,3.88591 0.1362,1.34875 -0.0889,2.82371 -0.52532,4.29673 0,0 0,10e-6 -10e-6,10e-6 -1.04831,3.67 -3.65904,7.06962 -6.63116,10.35484 -10e-6,10e-6 -10e-6,10e-6 -2e-5,2e-5 -3.76084,4.05532 -8.23016,7.56345 -12.98264,10.78926 -10e-6,0 -2e-5,10e-6 -2e-5,10e-6 -5.30784,3.5893 -10.95172,6.72152 -16.79736,9.47068 -5.8292,2.73717 -11.82667,5.07726 -17.95998,6.89011 -5.44976,1.60103 -10.93165,2.82763 -16.3934,3.20928 -1e-5,0 -1e-5,0 -2e-5,0 -4.28286,0.23845 -8.39602,0.20869 -11.73596,-1.18555 -10e-6,-10e-6 -10e-6,-10e-6 -2e-5,-10e-6 -1.27466,-0.52319 -2.41227,-1.16213 -3.19536,-1.97878 -0.76334,-0.7413 -1.34923,-1.74529 -1.68443,-2.81571 -4.46719,-14.39641 -9.35997,-28.6619 -14.67918,-42.76767 -4.7493,-12.59737 -9.83522,-25.10193 -15.49324,-37.37699 -0.19722,-0.42787 -0.39574,-0.85509 -0.59559,-1.28163 -4.62656,-9.8947 -9.97592,-19.649 -16.9157,-28.2106 0,0 0,0 0,0 -2.38993,-2.95649 -5.03397,-5.8386 -8.07241,-8.21352 -1.96316,-1.5697 -4.29993,-3.07096 -6.75836,-3.37508 2.20768,1.08114 3.68596,3.00082 5.15224,4.93829 2.14172,2.9108 3.88975,6.08192 5.62131,9.34188 2.47328,4.67388 4.77639,9.44814 7.0262,14.28317 2.2498,4.83503 4.44715,9.73021 6.69674,14.60647 0.19347,0.42026 0.38701,0.84035 0.58061,1.26024 5.5573,12.05268 10.56972,24.38175 15.27273,36.8505 5.26238,13.95501 10.10345,28.06989 14.52405,42.31584 0.70575,2.28422 1.96021,4.39082 3.69013,6.12354 1.78161,1.72825 3.82625,2.95777 5.91648,3.75054 10e-6,10e-6 2e-5,10e-6 2e-5,10e-6 5.14442,1.92386 10.42027,2.12991 15.22402,1.71442 6.24073,-0.46056 12.28772,-1.78984 18.08868,-3.51731 6.56331,-1.94341 12.93835,-4.42711 19.0927,-7.32096 6.17496,-2.89926 12.17787,-6.23552 17.87445,-10.08278 5.09164,-3.42665 10.01903,-7.32654 14.35683,-11.96455 3.48204,-3.64287 6.69054,-8.07661 8.4245,-13.45723 0,-10e-6 0,-2e-5 10e-6,-2e-5 0.71814,-2.28267 1.05108,-4.77096 0.84873,-7.33673 -0.23262,-2.57381 -1.03383,-5.03104 -2.3014,-7.20887 -21.76817,-37.60151 -45.16942,-75.00333 -75.55305,-106.70512 -9.40062,-9.8191 -19.67613,-19.10468 -31.42673,-26.48847 -8.44017,-5.33184 -17.90025,-9.61835 -28.1515,-11.22705 -1e-5,0 -2e-5,0 -3e-5,0 -8.36885,-1.28019 -17.05994,-0.438 -25.02761,2.61904 -10e-6,0 -2e-5,1e-5 -3e-5,1e-5 -8.10104,3.16097 -15.15561,8.27097 -21.10181,14.19963 -0.93836,0.93221 -1.85385,1.88294 -2.74766,2.85035 z"
         style="fill:#5f2351;stroke:none;stroke-width:8;stroke-linecap:butt;stroke-linejoin:miter;stroke-miterlimit:4;stroke-opacity:1;stroke-dasharray:none;fill-opacity:1" />
      <path
         inkscape:original-d="m 296.8332,396.6827 c 27.6127,68.22971 59.41079,76.90028 113.83899,22.10813"
         inkscape:path-effect="#path-effect6615"
         sodipodi:nodetypes="cc"
         inkscape:connector-curvature="0"
         id="path6547"
         d="m 344.68221,449.98998 c -0.0528,-0.011 -0.10554,-0.0222 -0.15825,-0.0336 -4.10816,-0.85023 -8.06574,-2.65973 -11.68072,-5.04634 -4.24277,-2.79767 -8.03275,-6.44552 -11.55246,-10.44404 -4.83434,-5.4955 -9.08551,-11.54793 -13.06679,-17.92875 -3.98128,-6.38082 -7.69291,-13.09251 -11.39079,-19.85459 2.08464,7.50507 4.52313,14.89759 7.621,21.9841 3.09787,7.0865 6.85273,13.86616 11.49855,20.11064 3.47256,4.66678 7.58017,9.0131 12.47822,12.52641 0,0 0,0 0,0 4.26927,3.0579 9.17314,5.34887 14.43883,6.47965 0,0 0,0 0,0 0.0681,0.0142 0.13624,0.0282 0.20439,0.042 5.23577,1.05923 10.59085,0.96628 15.70007,-0.0337 0,0 0,0 0,0 6.0283,-1.18482 11.67863,-3.44054 16.89514,-6.20565 0,0 0,0 0,0 14.51085,-7.6899 26.67289,-18.68015 37.84063,-29.9763 l -5.67568,-5.63798 c -11.02526,11.04525 -22.53769,21.55519 -35.89178,28.53539 0,0 0,0 0,0 -4.74647,2.48012 -9.66078,4.4773 -14.68708,5.43003 0,0 0,0 0,0 -4.20479,0.801 -8.51761,0.9003 -12.57328,0.0527 z"
         style="fill:#5f2351;stroke:none;fill-opacity:1" />
      <path
         sodipodi:nodetypes="cccc"
         inkscape:connector-curvature="0"
         id="path6623"
         d="m 354.66951,385.6818 -3.76777,6.77297 c -12.63954,-6.8059 -21.15254,-13.10919 -31.3172,-23.27386 12.46275,7.77818 22.18027,12.16986 35.08497,16.50089 z"
         style="fill:#5f2351;fill-opacity:1;fill-rule:nonzero;stroke:none" />
    </g>
    <g
       id="g8496">
      <path
         style="fill:#93d19f;stroke:none;stroke-width:8;stroke-linecap:butt;stroke-linejoin:miter;stroke-miterlimit:4;stroke-opacity:1;stroke-dasharray:none;fill-opacity:1"
         d="m 178,541.36218 c -61,49 -59,106 160,285 -19.6967,15.6967 -26.58579,24.46447 -42,44 -16.14079,-14.85385 -29.64383,-28.44485 -46.20754,-45.94574 -14.38783,11.14949 -26.58758,25.46321 -37.35534,41.26955 -13.76955,-11.59924 -28.35534,-25.14213 -40.75483,-42.44112 -15.05635,11.69238 -25.37006,21.39213 -37.73402,38.90559 C 115.32605,846.79601 102.38582,834.5408 85.1579,815.48141 68.31602,827.98751 57.795202,840.887 48.388348,855.7865 -91.2233,699.21082 -32.982693,516.41142 175,519.36218 z"
         id="path8494"
         inkscape:connector-curvature="0"
         sodipodi:nodetypes="ccccccccccc" />
      <path
         d="m 178,541.36218 c -61,49 -59,106 160,285 -19.6967,15.6967 -26.58579,24.46447 -42,44 C 59.154092,614.93813 96.031402,568.32511 177.04843,534.38399 z m -3,-22 1.17299,8.60194 C 54.481114,540.13327 20.003931,635.27154 174.50551,820.89132 159.44916,832.5837 147.59256,842.49055 135.2286,860.00401 -11.427195,736.73025 -6.702245,588.08679 83.704959,532.40414 110.03563,523.50721 140.45192,518.87203 175,519.36218 z"
         style="fill:#2d6a39;stroke:none;stroke-width:0.10000000000000001;stroke-miterlimit:4;stroke-dasharray:none;fill-opacity:1"
         id="path8487" />
      <path
         sodipodi:nodetypes="ccccccccccc"
         inkscape:connector-curvature="0"
         id="path8478"
         d="m 178,541.36218 c -61,49 -59,106 160,285 -19.6967,15.6967 -26.58579,24.46447 -42,44 -16.14079,-14.85385 -29.64383,-28.44485 -46.20754,-45.94574 -14.38783,11.14949 -26.58758,25.46321 -37.35534,41.26955 -13.76955,-11.59924 -28.35534,-25.14213 -40.75483,-42.44112 -15.05635,11.69238 -25.37006,21.39213 -37.73402,38.90559 C 115.32605,846.79601 102.38582,834.5408 85.1579,815.48141 68.31602,827.98751 57.795202,840.887 48.388348,855.7865 -91.2233,699.21082 -32.982693,516.41142 175,519.36218 z"
         style="fill:none;stroke:#66c57a;stroke-width:8;stroke-linecap:butt;stroke-linejoin:miter;stroke-miterlimit:4;stroke-opacity:1;stroke-dasharray:none" />
    </g>
    <path
       sodipodi:nodetypes="sscscscsssscs"
       inkscape:connector-curvature="0"
       id="path6722"
       d="m 186.17518,484.07809 c 33.70509,-61.68154 47.61915,-157.03313 53.82861,-286.72922 8.68934,-181.493116 271.70641,-129.187965 200.50733,59.28985 8.66783,3.1372 15.01644,5.75609 13.48888,11.86633 -6.19431,24.77723 -51.71087,54.5002 -109.49118,38.70629 -23.92653,90.58668 4.57464,118.5446 -7.9374,244.2937 -7.49773,75.35399 -53.61774,101.29407 -96.66454,95.4221 -3.54986,4.49222 -7.25517,9.13361 -11.07937,13.93555 -29.77574,37.38855 -37.75779,116.59604 -16.0719,234.13184 3.94184,21.36447 -124.095792,20.66301 -121.714278,0 21.825978,-189.37132 63.797038,-250.26538 72.387238,-253.6222 6.86801,-2.68383 14.72172,-3.36493 21.39921,-3.39937 -2.68289,-35.28364 -42.15823,-74.278 1.3474,-153.89487 z"
       style="fill:#943f82;stroke:none;stroke-width:1;stroke-linecap:butt;stroke-linejoin:miter;stroke-miterlimit:4;stroke-opacity:1;stroke-dasharray:none;fill-opacity:1" />
    <path
       style="fill:#6d285d;stroke:none;stroke-width:8;stroke-linecap:butt;stroke-linejoin:miter;stroke-miterlimit:4;stroke-opacity:1;stroke-dasharray:none;fill-opacity:1"
       d="m 258.96789,628.71049 c 4.38424,-6.01414 8.53054,-12.18177 12.31992,-18.57702 4.83855,-8.148 8.96694,-16.78164 11.98559,-25.76119 3.01866,-8.97954 4.92923,-18.3083 5.29803,-27.72438 -2.51868,9.25023 -5.83635,17.85103 -9.75832,26.09621 -3.92197,8.24518 -8.45515,16.12425 -13.47791,23.667 -4.00672,6.00801 -8.27856,11.85223 -12.82762,17.58757 -8.50624,11.65701 -17.70994,22.93728 -26.80905,34.37213 -8.76884,11.06369 -14.67388,23.96227 -18.80694,37.11254 -1e-5,10e-6 -1e-5,2e-5 -2e-5,4e-5 -5.35629,16.96231 -8.05313,34.56126 -9.38639,52.08383 -3.78999,49.70365 2.31721,99.50208 11.31682,148.15308 0.0873,0.19963 -0.0282,0.61149 -0.21033,0.91561 0,0 0,0 0,0 -0.29552,0.61884 -1.1519,1.2247 -2.19957,1.96552 -3.33607,2.20172 -7.66434,3.3066 -12.23992,4.41307 -1e-5,0 -2e-5,10e-6 -3e-5,10e-6 -6.22618,1.43265 -12.65774,2.25441 -19.17364,2.83232 -7.46435,0.65686 -14.97739,0.92838 -22.50368,0.90802 -7.55175,-0.0219 -15.09068,-0.33857 -22.58236,-1.0298 -6.59019,-0.61201 -13.10001,-1.46909 -19.41727,-2.90949 -4.68671,-1.11344 -9.13778,-2.25242 -12.691361,-4.44416 -8e-6,-10e-6 -1.6e-5,-10e-6 -2.4e-5,-2e-5 -1.138549,-0.74588 -2.080328,-1.37307 -2.483416,-2.05297 -0.219286,-0.3731 -0.400436,-0.75527 -0.305373,-0.86589 7.690264,-66.52816 18.171614,-133.10407 40.942554,-195.65767 1e-5,-10e-6 1e-5,-3e-5 2e-5,-4e-5 5.31678,-14.58323 11.18689,-28.89688 19.03573,-41.95023 2.11644,-3.50817 4.28696,-6.8596 6.79535,-9.78004 0.77502,-0.8963 1.51034,-1.70295 2.26341,-2.34205 0.5588,-0.40961 0.81232,-0.68551 0.83236,-0.62452 6.06929,-2.42086 12.95998,-3.05376 19.93567,-3.01163 l 0.0943,-7.99944 c -7.56968,-0.12942 -15.4624,0.68621 -22.94177,3.55979 -1.46891,0.64284 -2.49338,1.38306 -3.1452,2.01745 -1.20031,1.04547 -2.22185,2.1397 -3.12205,3.20482 -2.9416,3.46067 -5.37102,7.17198 -7.57206,10.85967 0,1e-5 -10e-6,1e-5 -10e-6,2e-5 -8.23733,13.75724 -14.32693,28.53162 -19.69421,43.33246 0,10e-6 -10e-6,2e-5 -10e-6,3e-5 -23.07571,63.5371 -33.700058,130.71891 -41.371512,197.4754 -0.200308,2.45214 0.455762,4.68364 1.730133,6.41386 1.487497,1.98237 3.233713,3.35353 4.896718,4.28491 4.889181,2.86285 10.119101,4.31423 15.027921,5.38136 6.79754,1.53992 13.65349,2.45203 20.45568,3.07461 7.75675,0.71446 15.53298,1.0424 23.29427,1.06354 7.73462,0.0225 15.48866,-0.25924 23.22667,-0.93872 6.73098,-0.58653 13.5248,-1.46546 20.26046,-3.00381 1e-5,0 2e-5,0 3e-5,0 4.80269,-1.04313 9.96696,-2.49758 14.7479,-5.46177 10e-6,-10e-6 3e-5,-10e-6 4e-5,-2e-5 1.63472,-0.96635 3.32627,-2.41763 4.7051,-4.50177 10e-6,-1e-5 2e-5,-3e-5 3e-5,-4e-5 1.19173,-1.91386 1.66266,-4.21383 1.27663,-6.57993 -8.89601,-48.34182 -14.96677,-97.45229 -11.20751,-146.08921 0,-10e-6 0,-2e-5 0,-3e-5 1.32618,-17.12075 3.90649,-34.11896 9.0368,-50.28162 0,-1e-5 1e-5,-2e-5 1e-5,-3e-5 3.99045,-12.5102 9.43917,-24.55236 17.43797,-34.5433 9.0694,-11.37883 18.34054,-22.74975 27.0114,-34.64408 z"
       id="path3773"
       inkscape:connector-curvature="0"
       sodipodi:nodetypes="cssssc"
       inkscape:path-effect="#path-effect6708"
       inkscape:original-d="m 288.57143,556.6479 c -5.75202,37.15181 -28.87459,65.45306 -59.74392,104.21479 -29.77575,37.38854 -37.75779,116.59604 -16.0719,234.13184 3.94184,21.36447 -124.095792,20.66301 -121.714278,0 21.825978,-189.37132 63.797038,-250.26538 72.387238,-253.6222 6.86801,-2.68383 14.72172,-3.36493 21.43872,-3.28571" />
    <path
       sodipodi:nodetypes="cssc"
       inkscape:connector-curvature="0"
       id="path3016"
       d="m 168.22976,594.08626 c 2.97986,9.759 6.78733,18.9229 10.16623,28.10563 1.76257,4.80953 3.39283,9.60234 4.42467,14.57496 0.97566,4.69329 1.40732,9.58707 0.89363,14.59533 1.94547,-4.68683 2.80638,-9.84708 2.80054,-14.96367 -0.005,-5.45814 -0.88371,-10.83909 -2.0995,-16.00526 -2.30007,-9.84645 -5.65583,-19.20809 -8.53881,-28.64275 -0.61804,-2.02255 -1.20092,-4.04578 -1.734,-6.07413 -3.66866,-13.94086 -5.18345,-28.44958 -3.68941,-42.64792 0,-10e-6 0,-2e-5 0,-4e-5 2.03359,-19.90798 9.49481,-39.14527 19.2322,-57.03225 20.13046,-36.93228 30.4349,-78.14924 37.6536,-119.07888 1e-5,-1e-5 1e-5,-2e-5 1e-5,-4e-5 9.92213,-56.00566 13.95708,-112.78166 16.66029,-169.37708 0.95406,-19.35529 4.94723,-38.652 13.60353,-55.67511 7.01514,-13.8352 17.17301,-26.12386 29.72963,-35.06391 10e-6,-1e-5 2e-5,-1e-5 3e-5,-2e-5 11.61242,-8.296163 25.24204,-13.782429 39.36831,-16.189103 14.06428,-2.396414 28.65329,-1.789552 42.55934,1.564379 14.04696,3.393239 27.43212,9.609094 38.95095,18.282234 10e-6,1e-5 2e-5,2e-5 3e-5,3e-5 11.90109,8.95503 21.80015,20.60379 28.61804,33.82628 10e-6,2e-5 2e-5,3e-5 2e-5,4e-5 7.67579,14.83204 11.42431,31.66098 11.77491,48.50708 0.45261,21.25879 -4.37863,42.5446 -11.96994,62.69964 l 7.48338,2.82828 c 7.90387,-20.8439 12.90678,-43.12567 12.48497,-65.68752 -0.34343,-17.93452 -4.38828,-35.93303 -12.66392,-52.01579 -10e-6,-1e-5 -10e-6,-2e-5 -2e-5,-4e-5 -7.39156,-14.31624 -18.05704,-26.87303 -30.91731,-36.55036 -12.43146,-9.348898 -26.79424,-16.026169 -41.88383,-19.666495 -14.93278,-3.607763 -30.59457,-4.251349 -45.77769,-1.674553 -15.27631,2.592921 -30.00775,8.537354 -42.67375,17.563598 -13.685,9.7831 -24.67311,23.0379 -32.22035,37.96232 -9.23905,18.31886 -13.51678,38.69268 -14.45717,58.90644 -2.71012,56.47204 -6.70718,112.91003 -16.5466,168.36305 0,1e-5 0,3e-5 -1e-5,4e-5 -7.22774,40.55088 -17.24655,80.95466 -36.79671,116.63935 -1e-5,2e-5 -1e-5,3e-5 -2e-5,4e-5 -10.13707,18.48401 -17.91053,38.72386 -20.16891,60.03993 0,1e-5 0,2e-5 0,4e-5 -1.57801,15.30856 0.0107,30.7738 3.91117,45.51747 0.56806,2.14463 1.18043,4.26607 1.82247,6.36876 z"
       style="fill:#6d285d;stroke:none;fill-opacity:1"
       inkscape:path-effect="#path-effect6676"
       inkscape:original-d="m 183.71429,651.36218 c 9.99999,-39.28571 -46.65864,-77.39357 2.46089,-167.28409 33.70509,-61.68154 47.61915,-157.03313 53.82861,-286.72922 8.68934,-181.493116 271.70641,-129.187965 200.37196,59.55697" />
    <g
       id="g10492">
      <path
         transform="matrix(0.9733378,0.1107642,-0.1107642,0.9733378,36.689193,-38.543657)"
         d="m 451.34655,208.37973 a 16.728418,49.344948 0 1 1 -33.45683,0 16.728418,49.344948 0 1 1 33.45683,0 z"
         sodipodi:ry="49.344948"
         sodipodi:rx="16.728418"
         sodipodi:cy="208.37973"
         sodipodi:cx="434.61813"
         id="path3020"
         style="fill:#ffffff;stroke:none"
         sodipodi:type="arc" />
      <g
         clip-path="url(#clipPath3806)"
         id="g4390">
        <path
           sodipodi:type="arc"
           style="fill:url(#linearGradient4388);fill-opacity:1;stroke:none"
           id="path4345"
           sodipodi:cx="435.13583"
           sodipodi:cy="218.41812"
           sodipodi:rx="15.8238"
           sodipodi:ry="41.243355"
           d="m 450.95963,218.41812 c 0,22.77808 -7.08455,41.24336 -15.8238,41.24336 -8.73924,0 -15.8238,-18.46528 -15.8238,-41.24336 0,-22.77807 7.08456,-41.24335 15.8238,-41.24335 8.73925,0 15.8238,18.46528 15.8238,41.24335 z"
           transform="matrix(0.99353464,0.11352927,-0.11352927,0.99353464,23.317258,-51.165276)" />
        <path
           transform="matrix(0.87673904,0.07963796,-0.07963796,0.87673904,65.206343,-10.791567)"
           d="m 450.95963,218.41812 c 0,22.14655 -7.08455,40.09987 -15.8238,40.09987 -8.73924,0 -15.8238,-17.95332 -15.8238,-40.09987 0,-22.14654 7.08456,-40.09987 15.8238,-40.09987 8.73925,0 15.8238,17.95333 15.8238,40.09987 z"
           sodipodi:ry="40.099869"
           sodipodi:rx="15.8238"
           sodipodi:cy="218.41812"
           sodipodi:cx="435.13583"
           id="path4347"
           style="fill:#000000;stroke:none"
           sodipodi:type="arc" />
        <path
           sodipodi:type="arc"
           style="fill:#ffffff;stroke:none"
           id="path4380"
           sodipodi:cx="439.99719"
           sodipodi:cy="200.03334"
           sodipodi:rx="6.5407376"
           sodipodi:ry="17.589281"
           d="m 446.53793,200.03334 c 0,9.71429 -2.92839,17.58928 -6.54074,17.58928 -3.61235,0 -6.54074,-7.87499 -6.54074,-17.58928 0,-9.71429 2.92839,-17.58928 6.54074,-17.58928 3.61235,0 6.54074,7.87499 6.54074,17.58928 z"
           transform="matrix(1.0191307,0.03776926,-0.03776926,1.0191307,-2.5087944,-20.621917)" />
      </g>
      <path
         sodipodi:nodetypes="cccccccccc"
         inkscape:connector-curvature="0"
         d="m 451.2268,174.47633 1.27565,4.70022 c 23.56225,-6.38901 22.79985,-9.65574 -1.27565,-4.70022 z m 2.28696,8.53957 0.99614,4.76728 c 23.89811,-4.98786 23.32977,-8.29389 -0.99614,-4.76728 z m 0.28311,13.58588 c 26.28183,-3.42991 25.87323,-7.43903 3.68631,-5.12415 -9.89621,-76.10847 -51.87588,1.14277 -35.83712,55.25431 -5.23385,-58.52084 23.98512,-116.54817 32.15081,-50.13016 z"
         style="fill:#000000;stroke:none"
         id="path3801" />
    </g>
    <path
       style="fill:none;stroke:#6d285d;stroke-width:8;stroke-linecap:butt;stroke-linejoin:miter;stroke-miterlimit:4;stroke-opacity:1;stroke-dasharray:none"
       d="m 344.42857,306.6479 c -23.84628,91.15012 4.65489,119.10804 -7.85715,244.85714 -7.49773,75.35399 -53.61774,101.29407 -96.6828,95.44746"
       id="path3014"
       inkscape:connector-curvature="0"
       sodipodi:nodetypes="csc" />
    <g
       id="g8369">
      <path
         style="fill:#93d19f;stroke:none;stroke-width:8;stroke-linecap:butt;stroke-linejoin:miter;stroke-miterlimit:4;stroke-opacity:1;stroke-dasharray:none;fill-opacity:1"
         d="M 301.85355,105.06929 C 329.16117,101.69061 353.35787,105.76598 375,117.36218 399.29282,79.015807 421.99649,51.710075 458.57778,24.693388 428.24923,5.5276779 397.47755,-4.4445303 362.06811,-3.7771747 358.55791,9.89269 355.91768,24.508799 354.03258,40.956844 c -25.10229,-1.06066 -49.62312,3.778175 -74.7254,17.213203 z"
         id="path8367"
         inkscape:connector-curvature="0"
         sodipodi:nodetypes="ccccccc" />
      <path
         style="fill:#2d6a39;fill-opacity:1;stroke:none"
         d="m 301.85355,105.06929 c 16.64425,-2.05934 32.02403,-1.41014 49.84159,3.14468 1.17077,-24.416814 3.12636,-45.47542 5.86777,-67.433903 -25.10229,-1.06066 -53.15345,3.954952 -78.25573,17.38998 z"
         id="path8365"
         inkscape:connector-curvature="0"
         sodipodi:nodetypes="ccccc" />
      <path
         sodipodi:nodetypes="ccccccc"
         inkscape:connector-curvature="0"
         id="path8319"
         d="M 301.85355,105.06929 C 329.16117,101.69061 353.35787,105.76598 375,117.36218 399.29282,79.015807 421.99649,51.710075 458.57778,24.693388 428.24923,5.5276779 397.47755,-4.4445303 362.06811,-3.7771747 358.55791,9.89269 355.91768,24.508799 354.03258,40.956844 c -25.10229,-1.06066 -49.62312,3.778175 -74.7254,17.213203 z"
         style="fill:none;stroke:#66c57a;stroke-width:8;stroke-linecap:butt;stroke-linejoin:miter;stroke-miterlimit:4;stroke-opacity:1;stroke-dasharray:none" />
    </g>
    <g
       id="g7560">
      <path
         sodipodi:nodetypes="cscc"
         style="fill:#943f82;fill-opacity:1;stroke:none"
         d="m 250.60406,208.16485 c -47.70061,-91.15102 27.58878,-173.852586 34.01455,-173.113658 6.42579,0.738928 35.68372,49.13146 28.89423,97.811128 z"
         id="path3835"
         inkscape:connector-curvature="0" />
      <path
         inkscape:connector-curvature="0"
         inkscape:original-d="m 250.60406,208.16485 c -47.70061,-91.15102 27.58878,-173.852586 34.01455,-173.113658 6.42579,0.738928 35.68372,49.13146 28.89423,97.811128"
         inkscape:path-effect="#path-effect3827"
         id="path3007"
         d="m 230.87524,147.07476 c 0.15155,11.01121 1.92952,21.8791 5.2518,32.20618 3.32228,10.32708 8.19518,20.11507 14.47702,28.88391 -3.72286,-10.34911 -6.4979,-20.47948 -8.46782,-30.60425 -1.96991,-10.12477 -3.1322,-20.2524 -3.26629,-30.59279 -0.0187,-1.44073 -0.0119,-2.88181 0.0206,-4.32252 0.3921,-18.46415 4.80762,-36.82686 12.10169,-53.924339 0,-2e-6 0,-5e-6 0,-8e-6 5.70087,-13.330181 13.03459,-25.9648 22.02339,-37.260697 2.86628,-3.591033 5.80576,-7.012277 9.04495,-9.974567 0.99545,-0.89913 1.89988,-1.699495 2.79161,-2.271924 0,-10e-7 0,-2e-6 0,-4e-6 0.2925,-0.17709 0.45694,-0.292155 0.50962,-0.298631 0.17973,0.06546 -0.21501,0.06138 -1.20013,0.109881 -10e-6,10e-7 -3e-5,10e-7 -4e-5,2e-6 -0.66462,-0.23243 -0.81202,-0.167965 -0.42099,-0.04136 10e-6,10e-7 10e-6,2e-6 10e-6,2e-6 0.38205,0.256979 0.80897,0.692859 1.33036,1.227651 1.57328,1.652775 2.96973,3.647709 4.3826,5.781866 4.36089,6.63738 7.84312,13.926273 10.85105,21.464156 1.07673,2.708498 2.07784,5.446591 2.99911,8.209978 2.41703,7.249993 4.42587,14.599698 6.03589,22.047141 1.23456,5.72477 2.23427,11.50975 2.94941,17.35965 0.71514,5.8499 1.14613,11.76431 1.22376,17.78823 1.63547,-5.67384 2.65784,-11.65674 3.08137,-17.76278 0.42353,-6.10605 0.24859,-12.33445 -0.46527,-18.510432 0,-10e-7 0,-2e-6 0,-3e-6 -0.91578,-7.959636 -2.70342,-15.85853 -5.23463,-23.452165 -0.96975,-2.909256 -2.02318,-5.789458 -3.15607,-8.636304 -3.12619,-7.884266 -6.85603,-15.649481 -11.59388,-22.893126 -1.49757,-2.305981 -3.18259,-4.66687 -5.24831,-6.879729 -0.65776,-0.717803 -1.46903,-1.490532 -2.48344,-2.238194 0,-3e-6 -10e-6,-6e-6 -10e-6,-8e-6 -0.4895,-0.506865 -1.59477,-1.055848 -3.33702,-1.412198 -1.5315,-0.01433 -2.46906,0.17827 -2.79679,0.455666 -0.76945,0.336874 -1.37194,0.684897 -1.82374,0.997507 -1.47269,0.983213 -2.71468,2.046793 -3.80427,3.061568 -3.687,3.395379 -6.91025,7.121214 -9.89628,10.888339 -9.46963,11.912055 -17.16851,25.158834 -23.11886,39.097177 0,2e-6 0,5e-6 0,8e-6 -7.67086,17.926464 -12.3002,37.278474 -12.74316,56.892244 -0.0327,1.53548 -0.0384,3.07068 -0.0172,4.60487 z"
         style="fill:#6d285d;fill-opacity:1;stroke:none" />
      <path
         sodipodi:nodetypes="ccc"
         inkscape:connector-curvature="0"
         id="path3810"
         d="m 278.29868,75.615827 c -16.54336,26.698113 -22.41998,57.625143 -15.66565,91.782953 -0.0307,-32.41948 5.00143,-64.13452 15.66565,-91.782953 z"
         style="fill:#6d285d;fill-opacity:1;fill-rule:nonzero;stroke:none" />
    </g>
    <g
       id="g8460">
      <path
         sodipodi:nodetypes="cccc"
         inkscape:connector-curvature="0"
         style="fill:#943f82;stroke:none;stroke-width:8;stroke-linecap:butt;stroke-linejoin:miter;stroke-miterlimit:4;stroke-opacity:1;stroke-dasharray:none;fill-opacity:1"
         d="M 417.54289,155.67284 C 501.67652,15.322341 497.60532,9.1883942 384.43191,125.11272 c 2.84678,5.6517 6.1301,10.52156 10.97342,15.76463 z"
         id="path8452"
         clip-path="none" />
      <path
         clip-path="url(#clipPath8442)"
         inkscape:original-d="M 417.54289,155.67284 C 503.49316,12.291851 497.38838,8.9860776 376.90873,132.80965"
         inkscape:path-effect="#path-effect8425"
         id="path8421"
         d="m 442.336,105.7784 c -0.1286,0.22323 -0.25703,0.44649 -0.3853,0.6698 -9.13658,15.90353 -17.49288,31.93513 -24.40781,49.22464 12.17892,-14.5626 22.12184,-29.29937 31.33755,-45.22962 0.12929,-0.22347 0.25846,-0.44718 0.38751,-0.67114 6.39759,-11.103018 12.73364,-22.289998 18.67806,-33.728936 2.12582,-4.08999 4.20984,-8.235953 6.15952,-12.477298 0,-2e-6 0,-4e-6 0,-5e-6 1.3983,-3.034062 2.76229,-6.176916 3.90227,-9.487252 0.7185,-1.963556 1.42717,-4.306005 1.61132,-7.04976 0.0934,-0.827306 -0.002,-1.952978 -0.416,-3.314306 0,-9e-6 0,-1.8e-5 0,-2.7e-5 -0.34049,-1.158031 -1.21399,-2.257927 -2.61194,-3.165128 0,-3e-6 -1e-5,-7e-6 -1e-5,-1e-5 -1.52485,-0.705921 -2.81053,-0.904669 -3.74622,-0.71273 -10e-6,1e-6 -10e-6,1e-6 -2e-5,2e-6 -1.2937,0.161959 -2.33699,0.480415 -3.13007,0.837257 -2.59372,1.094724 -4.75746,2.518806 -6.6451,3.87962 -3.0352,2.141895 -5.87522,4.440763 -8.61532,6.752159 -3.76119,3.168699 -7.40536,6.435818 -10.9892,9.730197 0,2e-6 0,5e-6 -10e-6,7e-6 -10.09475,9.278471 -19.85187,18.865613 -29.5167,28.489913 C 400.5104,102.9064 387.2492,116.44616 374.04186,130.0202 l 5.73374,5.5789 c 13.19524,-13.56134 26.42676,-27.07106 39.81761,-40.404317 9.64088,-9.598572 19.3209,-19.111956 29.2854,-28.268642 3.53653,-3.249486 7.09413,-6.44044 10.72952,-9.501701 2.66698,-2.242859 5.3249,-4.401312 8.06903,-6.330914 1.82392,-1.253954 3.46271,-2.390397 5.07027,-3.016702 0.4966,-0.171468 0.79142,-0.303845 0.88465,-0.279018 0,0 0,10e-7 0,10e-7 0.0185,0.0976 -0.26096,-0.0306 -0.94919,-0.268096 -0.63581,-0.480485 -0.97445,-0.820589 -1.02448,-1.154871 0,-3e-6 0,-5e-6 0,-8e-6 -0.012,-0.222328 -0.0648,-0.112635 -0.0299,0.266373 -0.0137,1.335625 -0.58129,2.942068 -1.18792,4.84174 -0.99308,2.908273 -2.25777,5.802941 -3.60439,8.742694 0,3e-6 0,6e-6 0,9e-6 -1.86992,4.07131 -3.89716,8.101192 -5.98917,12.129052 -5.85373,11.268395 -12.13411,22.353628 -18.51104,33.4237 z"
         style="fill:#6d285d;stroke:none;stroke-width:8;stroke-linecap:butt;stroke-linejoin:miter;stroke-miterlimit:4;stroke-opacity:1;stroke-dasharray:none;fill-opacity:1" />
      <path
         clip-path="url(#clipPath8446)"
         sodipodi:nodetypes="cccc"
         inkscape:connector-curvature="0"
         id="path8423"
         d="M 395.40533,140.87735 C 385.55514,133.94689 380.4257,126.48134 375.75,115.23718 l 7.46339,-3.52773 c 3.0677,10.61288 6.24816,19.14385 12.19194,29.1679 z"
         style="fill:#6d285d;fill-opacity:1;stroke:none" />
      <path
         sodipodi:nodetypes="cccccc"
         inkscape:connector-curvature="0"
         d="m 443.46777,67.822367 c 7.8374,1.201905 15.70625,1.254192 23.59156,0.260715 m -49.14561,23.778986 c 11.06839,3.821901 22.46456,5.160754 34.1099,4.331904 m -55.7543,17.746058 c 12.04641,6.99465 25.11168,10.61096 38.98495,11.34092"
         style="fill:none;stroke:#6d285d;stroke-width:4;stroke-linecap:butt;stroke-linejoin:miter;stroke-miterlimit:4;stroke-opacity:1;stroke-dasharray:none"
         id="path6645" />
    </g>
    <g
       id="g10433"
       clip-path="url(#clipPath10467)">
      <path
         sodipodi:nodetypes="cccc"
         inkscape:connector-curvature="0"
         id="path9994"
         d="M 330.5,75.112182 C 325.23658,44.5451 316.66589,29.315298 301.12042,21.694255 317,10.112182 341.25,12.612182 349,72.612182 z"
         style="fill:#c6a4c6;fill-opacity:1;stroke:none" />
      <path
         style="fill:#9c619c;fill-opacity:1;stroke:none"
         d="M 259.99956,83.625892 C 259.49995,38.815779 278.8702,12.825653 315.76282,11.143279 292.50051,24.295696 286.32322,44.049736 286.5,80.112182 z"
         id="path9996"
         inkscape:connector-curvature="0"
         sodipodi:nodetypes="cccc" />
      <path
         sodipodi:nodetypes="ccccc"
         inkscape:connector-curvature="0"
         id="path9990"
         d="m 355.92471,72.74364 c -10.18987,-85.29163 -74.88225,-81.229184 -71.92515,7.132252 l 4.57107,1.143398 c 0.70711,-76.6205811 43.39698,-81.3662696 52.79647,-7.473611 z"
         style="fill:#d8c0d8;fill-opacity:1;stroke:none" />
      <path
         style="fill:url(#linearGradient10444);fill-opacity:1;stroke:none"
         d="M 355.92471,72.74364 C 350.70512,29.054466 331.18503,8.8102364 313.78178,11.331543 l 0.69441,9.490082 c 11.12134,1.264261 22.55237,18.617245 26.89091,52.724054 z"
         id="path9998"
         inkscape:connector-curvature="0"
         sodipodi:nodetypes="ccccc" />
      <g
         id="use10022"
         transform="matrix(0.88866115,-0.05097864,0.05260875,0.99970241,-149.79164,24.20469)">
        <path
           sodipodi:type="arc"
           style="fill:#38195a;fill-opacity:1;stroke:#230f38;stroke-width:4.07773876;stroke-miterlimit:4;stroke-opacity:1;stroke-dasharray:none"
           id="path10484"
           sodipodi:cx="284"
           sodipodi:cy="103.86218"
           sodipodi:rx="39.5"
           sodipodi:ry="39.5"
           d="m 323.5,103.86218 c 0,21.81525 -17.68475,39.5 -39.5,39.5 -21.81525,0 -39.5,-17.68475 -39.5,-39.5 0,-21.815245 17.68475,-39.499997 39.5,-39.499997 21.81525,0 39.5,17.684752 39.5,39.499997 z"
           transform="matrix(1.4714037,0,0,1.4714037,56.24246,-36.404751)" />
        <path
           transform="matrix(1.0817701,0,0,1.0817701,166.89813,4.0633691)"
           d="m 323.5,103.86218 c 0,21.81525 -17.68475,39.5 -39.5,39.5 -21.81525,0 -39.5,-17.68475 -39.5,-39.5 0,-21.815245 17.68475,-39.499997 39.5,-39.499997 21.81525,0 39.5,17.684752 39.5,39.499997 z"
           sodipodi:ry="39.5"
           sodipodi:rx="39.5"
           sodipodi:cy="103.86218"
           sodipodi:cx="284"
           id="path10486"
           style="fill:none;stroke:#fa4139;stroke-width:1.38661599;stroke-miterlimit:4;stroke-opacity:1;stroke-dasharray:none"
           sodipodi:type="arc" />
        <path
           sodipodi:nodetypes="cccccccccccccccccccccccccccccc"
           inkscape:connector-curvature="0"
           d="m 504.90036,127.65061 -18.67174,-18.672 3.79259,-3.79282 18.67201,18.67201 z m -14.8789,4e-5 -3.79283,-3.79258 18.67195,-18.67196 3.79257,3.79256 z m -8.46119,-23.33976 -18.6717,-18.671985 3.79263,-3.792831 18.67194,18.672006 z m -14.87889,3e-5 -3.79278,-3.79258 18.67191,-18.671979 3.79253,3.792574 z m 14.87897,46.67974 -18.67171,-18.67197 3.79261,-3.79286 18.67193,18.67202 z m -14.87893,1e-5 -3.79275,-3.7925 18.67191,-18.67199 3.79256,3.79254 z"
           style="fill:#ffffff;stroke:none"
           id="path10488" />
        <path
           sodipodi:nodetypes="ccccc"
           inkscape:connector-curvature="0"
           id="path10490"
           d="m 457.84298,84.269489 -17.8012,25.303511 30.17531,6.84537 -30.17531,6.84535 17.8012,25.30354"
           style="fill:none;stroke:#6dc6fb;stroke-width:1.59839106;stroke-linecap:round;stroke-linejoin:round;stroke-miterlimit:4;stroke-opacity:1;stroke-dasharray:none;display:inline" />
      </g>
    </g>
    <g
       id="g7400">
      <path
         inkscape:connector-curvature="0"
         d="m 248.77684,550.5722 -2.56974,22.42689 m -4.95878,-6.29578 12.4875,-9.83533 m -11.20268,-1.37801 9.9177,12.59142 m -30.53475,17.33625 -2.56981,22.42666 m -4.95881,-6.29561 12.4874,-9.83535 m -11.20242,-1.37803 9.91753,12.59144 m -17.6029,-95.52155 -2.56973,22.42667 m -4.95872,-6.29561 12.48728,-9.83526 m -11.20262,-1.37812 9.91769,12.59148 m 49.38245,-14.87092 -12.06958,105.33384 M 246.00999,508.19414 233.9404,613.52805 m -2.96378,-107.18323 -8.62114,75.23855 m -6.41228,-77.08779 -12.06959,105.3339 m -2.96385,-107.18314 -12.06959,105.33382"
         style="fill:none;stroke:#ffffff;stroke-width:1.18309975;stroke-linecap:round;stroke-linejoin:miter;stroke-miterlimit:4;stroke-opacity:1;stroke-dasharray:none;display:inline"
         id="use4409" />
      <path
         id="path6726"
         style="fill:none;stroke:#ffffff;stroke-width:1.18309975000000001;stroke-linecap:round;stroke-linejoin:miter;stroke-miterlimit:4;stroke-opacity:1;stroke-dasharray:none;display:inline;filter:url(#filter7396)"
         d="m 248.77684,550.5722 -2.56974,22.42689 m -4.95878,-6.29578 12.4875,-9.83533 m -11.20268,-1.37801 9.9177,12.59142 m -30.53475,17.33625 -2.56981,22.42666 m -4.95881,-6.29561 12.4874,-9.83535 m -11.20242,-1.37803 9.91753,12.59144 m -17.6029,-95.52155 -2.56973,22.42667 m -4.95872,-6.29561 12.48728,-9.83526 m -11.20262,-1.37812 9.91769,12.59148 m 49.38245,-14.87092 -12.06958,105.33384 M 246.00999,508.19414 233.9404,613.52805 m -2.96378,-107.18323 -8.62114,75.23855 m -6.41228,-77.08779 -12.06959,105.3339 m -2.96385,-107.18314 -12.06959,105.33382"
         inkscape:connector-curvature="0" />
    </g>
    <g
       id="g10500">
      <path
         style="fill:#943f82;fill-opacity:1;stroke:none"
         d="M 284.28571,276.07648 C 367.85714,343.21933 445.75582,301.48182 454,268.50505 456.5867,258.15821 436.58874,257.82272 421.64606,246.73194 z"
         id="path3870"
         inkscape:connector-curvature="0"
         sodipodi:nodetypes="cscc" />
      <path
         inkscape:original-d="M 284.28571,276.07648 C 367.85714,343.21933 445.75582,301.48182 454,268.50505 456.5867,258.15821 436.58874,257.82272 421.64606,246.73194"
         inkscape:path-effect="#path-effect3861"
         sodipodi:nodetypes="csc"
         inkscape:connector-curvature="0"
         id="path3012"
         d="m 350.5596,305.10341 c -1.47618,-0.32493 -3.03121,-0.69219 -4.65008,-1.10583 -4.57771,-1.16658 -9.66122,-2.7135 -14.95196,-4.64578 -5.29073,-1.93228 -10.78789,-4.24973 -16.23368,-6.82162 -5.4458,-2.57189 -10.83991,-5.39523 -15.97398,-8.22938 -5.13407,-2.83416 -10.00849,-5.67569 -14.46419,-8.22432 3.53068,3.75027 7.75316,7.66458 12.46269,11.43088 4.70953,3.76629 9.90636,7.37948 15.30336,10.59041 5.39699,3.21092 10.99263,6.01592 16.42761,8.29696 5.43498,2.28103 10.70679,4.03837 15.41509,5.31294 1.73125,0.46753 3.38531,0.86942 4.94132,1.21311 16.14095,3.56528 33.02503,4.07045 49.336,0.83781 0,0 10e-6,0 10e-6,0 14.32413,-2.82967 28.26445,-8.54746 40.0208,-17.54396 4.74287,-3.62876 9.13776,-7.86397 12.79136,-12.78336 3.04033,-4.0606 5.55881,-8.74039 6.89662,-13.95608 0.46417,-1.68728 0.47952,-3.62934 -0.10739,-5.64637 -0.24188,-0.68572 -0.53347,-1.31963 -0.86438,-1.90044 -0.57212,-1.00417 -1.26443,-1.84727 -2.02139,-2.52139 0,0 0,0 0,0 -2.96403,-2.63761 -6.22334,-3.98416 -9.05182,-4.91708 -4.08408,-1.48099 -8.17758,-2.61268 -12.20201,-3.76417 -4.02444,-1.1515 -7.97561,-2.32007 -11.98752,-3.9938 2.7475,3.2369 6.22025,5.97235 9.92116,8.32773 3.70091,2.35537 7.62682,4.33334 11.40762,6.20432 2.65624,1.40236 5.05655,2.44062 6.4139,3.92248 0.26469,0.29998 0.49197,0.55817 0.6307,0.76986 0.0803,0.12258 0.12982,0.23043 0.13806,0.32226 0.12713,0.20273 0.0633,0.68145 -0.0381,1.25632 -0.94176,3.90257 -3.01693,7.6431 -5.56669,11.13828 -3.09748,4.20562 -6.97278,7.91185 -11.2326,11.19643 -10.57904,8.15527 -23.41601,13.37275 -36.71077,16.04303 0,0 0,0 0,1e-5 -15.10272,3.02299 -30.89138,2.52735 -46.04977,-0.80925 z"
         style="fill:#6d285d;fill-opacity:1;stroke:none" />
      <path
         inkscape:connector-curvature="0"
         d="m 435.526,294.06338 -6.26929,4.37653 c -16.88693,-8.74264 -21.4842,-16.40069 -22.83321,-31.11272 5.17937,13.36802 10.5728,19.13112 29.1025,26.73619 z m -2.2423,-28.82385 c -0.0286,4.6129 2.41912,6.3454 7.16279,4.40769 -4.43355,7.04202 -11.79406,2.71302 -7.16279,-4.40769 z"
         style="fill:#6d285d;fill-opacity:1;fill-rule:nonzero;stroke:none"
         id="path4255" />
    </g>
    <g
       id="g3856">
      <path
         d="m 312.3834,212.20898 c -40.97712,2.10784 -41.19426,-3.03761 -1.32568,-5.86067 z M 310.42244,201.947 c -40.8176,-4.18213 -40.24551,-9.30026 -0.41403,-5.99442 z"
         style="fill:#000000;stroke:none"
         id="path3822"
         inkscape:connector-curvature="0" />
      <g
         clip-path="url(#clipPath3852)"
         id="g3846">
        <path
           sodipodi:type="arc"
           style="fill:#ffffff;stroke:none"
           id="path3792"
           sodipodi:cx="354.81607"
           sodipodi:cy="223.02695"
           sodipodi:rx="41.668793"
           sodipodi:ry="57.07362"
           d="m 396.48486,223.02695 a 41.668793,57.07362 0 1 1 -83.33758,0 41.668793,57.07362 0 1 1 83.33758,0 z"
           transform="matrix(0.96046407,-0.30907062,0.30907062,0.96046407,-57.903068,98.460504)" />
        <path
           sodipodi:type="arc"
           style="fill:url(#linearGradient3841);fill-opacity:1;stroke:none"
           id="path3800"
           sodipodi:cx="378.68094"
           sodipodi:cy="220.7541"
           sodipodi:rx="33.174175"
           sodipodi:ry="45.456863"
           d="m 411.85511,220.7541 a 33.174175,45.456863 0 1 1 -66.34835,0 33.174175,45.456863 0 1 1 66.34835,0 z"
           transform="matrix(0.98507245,-0.17214027,0.17214027,0.98507245,-40.99074,59.76725)" />
        <path
           transform="matrix(0.834612,-0.12223685,0.12223685,0.834612,32.068532,74.612651)"
           d="m 411.85511,220.7541 a 33.174175,45.026016 0 1 1 -66.34835,0 33.174175,45.026016 0 1 1 66.34835,0 z"
           sodipodi:ry="45.026016"
           sodipodi:rx="33.174175"
           sodipodi:cy="220.7541"
           sodipodi:cx="378.68094"
           id="path3804"
           style="fill:#000000;stroke:none"
           sodipodi:type="arc" />
        <path
           sodipodi:type="arc"
           style="fill:#ffffff;stroke:none"
           id="path3812"
           sodipodi:cx="354.05847"
           sodipodi:cy="206.61197"
           sodipodi:rx="13.889598"
           sodipodi:ry="19.950512"
           d="m 367.94807,206.61197 a 13.889598,19.950512 0 1 1 -27.7792,0 13.889598,19.950512 0 1 1 27.7792,0 z"
           transform="matrix(0.97237246,0.23343475,-0.23343475,0.97237246,60.721084,-88.052113)" />
      </g>
      <path
         sodipodi:nodetypes="ccc"
         inkscape:connector-curvature="0"
         id="path3808"
         d="m 326.55539,257.68017 c 21.37548,-11.09005 42.71765,-10.69554 63.5175,0.33685 -21.90571,-5.27203 -40.47452,-6.16323 -63.5175,-0.33685 z"
         style="fill:#6d285d;fill-opacity:1;stroke:none" />
      <path
         sodipodi:nodetypes="sscccs"
         inkscape:connector-curvature="0"
         id="path3816"
         d="m 308.64286,191.5587 c -36.8754,-8.68609 -35.55882,-13.56123 0.17857,-5.64286 l 91.39286,20.25 c 1.01015,-5.3033 1.25389,-11.02384 0.5,-18.54332 4.90776,9.66759 6.37948,17.30383 5.57142,26.93618 z"
         style="fill:#000000;stroke:none" />
    </g>
    <g
       id="g6523"
       style="opacity:1">
      <path
         style="fill:#943f82;stroke:none;fill-opacity:1"
         d="m 294.24299,380.88579 c 10.33218,-48.98708 8.0291,-77.51451 -43.8435,-143.10141 10.3731,-30.56733 41.60099,-78.73664 69.34209,-117.1971 C 343.0413,88.284374 239.67831,34.743202 222.5511,68.752767 120.53391,271.32872 201.92882,290.64003 254.37362,341.78545 c 3.44853,12.9721 4.72035,25.22209 4.19351,39.52939 z"
         id="path6517"
         inkscape:connector-curvature="0"
         sodipodi:nodetypes="ccssccc" />
      <path
         inkscape:original-d="M 266.66705,355.28216 C 216.50082,292.57437 112.17381,287.92941 222.5511,68.752767 c 17.12721,-34.009563 120.4902,19.531605 97.19048,51.834513 -34.63195,48.01399 -74.69807,111.15921 -72.9682,136.17583"
         inkscape:path-effect="#path-effect6475"
         sodipodi:nodetypes="cssc"
         inkscape:connector-curvature="0"
         id="path6447"
         d="m 223.02948,320.04059 c 6.84681,5.69108 13.79346,11.00257 20.67263,16.34204 7.76383,6.03157 15.47132,12.07947 22.96494,18.89953 -2.55541,-4.46206 -5.47634,-8.64679 -8.62942,-12.58971 -3.15307,-3.94292 -6.53951,-7.6443 -10.06311,-11.15682 -6.29586,-6.28181 -13.01277,-11.98125 -19.83139,-17.64776 -0.8304,-0.69009 -1.65856,-1.38095 -2.48384,-2.07333 -7.45762,-6.26485 -14.70444,-12.65391 -21.15829,-19.66901 -6.50983,-7.07832 -12.24152,-14.82824 -16.53213,-23.26901 -4.79253,-9.38252 -7.82284,-19.68468 -9.22715,-30.20752 0,-1e-5 0,-1e-5 0,-1e-5 -1.80455,-13.44169 -1.04524,-27.25471 1.03598,-40.89118 0,-10e-6 0,-10e-6 0,-10e-6 2.86417,-18.69017 8.24521,-37.02242 14.6862,-55.00713 8.85487,-24.69999 19.80598,-48.672715 31.65975,-72.218768 1.49096,-3.105089 4.51978,-5.576907 7.9329,-6.935764 4.12847,-1.677354 8.98488,-1.92436 13.93034,-1.662574 5.94991,0.363929 11.9102,1.711908 17.78299,3.551808 10e-6,2e-6 2e-5,5e-6 3e-5,7e-6 6.42701,2.024785 12.67247,4.686269 18.67602,7.838441 0,4e-6 1e-5,8e-6 2e-5,1.1e-5 5.93666,3.122686 11.60727,6.704116 16.82205,10.820482 4.64944,3.686565 8.9372,7.705711 12.31006,12.292505 2.70722,3.769042 4.93034,7.745662 5.41823,11.789662 0.23753,1.7457 0.19226,3.5075 -0.20764,5.12703 0,1e-5 0,2e-5 0,2e-5 -0.39548,1.69992 -1.21309,3.36355 -2.29121,4.87376 -10e-6,10e-6 -10e-6,10e-6 -10e-6,2e-5 -17.9256,24.84598 -35.1728,50.31418 -50.35508,77.07872 -1.97791,3.48354 -3.92845,6.9976 -5.82311,10.55197 -4.21262,7.90287 -7.91458,16.11086 -10.63578,24.6552 -1.52792,4.78957 -2.75059,9.74917 -3.30994,14.7824 -0.4328,3.80804 -0.49801,7.78126 0.39986,11.44751 0.34138,-3.72002 1.4754,-7.21879 2.75761,-10.7001 1.6754,-4.50477 3.71771,-8.87369 5.85729,-13.25973 3.80371,-7.78862 7.89493,-15.47424 11.99381,-23.15938 1.85345,-3.47511 3.76934,-6.92903 5.71915,-10.37151 14.9666,-26.39902 32.05693,-51.62269 49.88449,-76.34514 1.64257,-2.26177 2.89026,-4.86231 3.58147,-7.68446 0.63799,-2.69944 0.7312,-5.4549 0.35147,-8.10802 -0.91066,-5.92249 -3.63084,-11.114582 -6.90942,-15.436082 -3.96685,-5.333701 -8.74701,-9.860654 -13.78725,-13.815927 -5.65513,-4.45628 -11.73673,-8.304506 -18.05502,-11.620875 -1e-5,-4e-6 -2e-5,-8e-6 -3e-5,-1.2e-5 -6.38628,-3.357744 -13.07011,-6.201797 -19.99113,-8.386146 -10e-6,-2e-6 -2e-5,-5e-6 -3e-5,-8e-6 -6.30094,-1.99893 -12.895,-3.465049 -19.68432,-3.906227 0,0 -1e-5,0 -1e-5,-10e-7 -5.62023,-0.405952 -11.61567,0.01875 -17.34743,2.195656 -5.10375,1.970298 -9.54343,5.726356 -12.16548,10.788484 -11.95188,23.724919 -23.03139,47.996778 -32.04495,73.116188 -6.56513,18.27799 -12.07176,37.10521 -15.06295,56.49204 0,1e-5 0,2e-5 -1e-5,3e-5 -2.19286,14.1576 -2.9599,28.72729 -1.05917,43.1612 0,10e-6 0,2e-5 0,3e-5 1.50304,11.34972 4.80102,22.51168 10.03017,32.78692 0,10e-6 0,2e-5 10e-6,3e-5 4.71045,9.21501 10.85681,17.56076 17.77614,25.0565 6.83735,7.40924 14.33121,14.03413 21.89942,20.37651 0.8366,0.702 1.67423,1.40092 2.51227,2.09751 z"
         style="fill:#6d285d;stroke:none;fill-opacity:1" />
      <path
         inkscape:original-d="m 294.24299,380.88579 c 10.33218,-48.98708 8.0291,-77.51451 -43.77692,-143.03814"
         inkscape:path-effect="#path-effect6509"
         sodipodi:nodetypes="cc"
         inkscape:connector-curvature="0"
         id="path5883"
         d="m 292.29053,318.53493 c 2.28687,9.28389 3.36097,18.80382 3.50896,28.41783 0.17624,11.08907 -0.76117,22.38796 -1.5565,33.93303 3.94214,-10.99487 6.94234,-22.17641 8.03272,-33.67147 0.96394,-10.25014 0.22633,-20.63108 -2.21854,-30.58924 -0.17183,-0.69987 -0.35105,-1.39815 -0.53773,-2.09472 0,0 0,-10e-6 0,-10e-6 -3.41444,-12.64334 -8.98664,-24.48268 -15.44451,-35.58595 0,0 0,0 0,0 -8.95977,-15.43134 -19.52774,-29.74776 -30.47112,-43.57759 l -6.27548,4.96168 c 10.82395,13.70123 21.17703,27.70172 29.82642,42.62978 0,0 0,0 0,0 6.20356,10.72588 11.5071,21.91897 14.63852,33.64722 0,0 0,0 0,1e-5 0.17265,0.64126 0.33838,1.28446 0.49726,1.92943 z"
         style="fill:#6d285d;stroke:none;fill-opacity:1" />
      <path
         style="fill:#6d285d;stroke:none;fill-opacity:1"
         d="m 258.56713,381.31484 c 1.70407,-14.11138 1.87576,-24.02217 0.13315,-35.69776 l -8.82528,-8.3799 c 4.5,14.25 7.00926,27.03032 8.69213,44.07766 z"
         id="path6483"
         inkscape:connector-curvature="0"
         sodipodi:nodetypes="cccc" />
    </g>
  </g>
</svg>
