<?xml version="1.0" encoding="UTF-8" standalone="no"?>
<!-- Created with Inkscape (http://www.inkscape.org/) -->

<svg
   xmlns:dc="http://purl.org/dc/elements/1.1/"
   xmlns:cc="http://creativecommons.org/ns#"
   xmlns:rdf="http://www.w3.org/1999/02/22-rdf-syntax-ns#"
   xmlns:svg="http://www.w3.org/2000/svg"
   xmlns="http://www.w3.org/2000/svg"
   xmlns:xlink="http://www.w3.org/1999/xlink"
   xmlns:sodipodi="http://sodipodi.sourceforge.net/DTD/sodipodi-0.dtd"
   xmlns:inkscape="http://www.inkscape.org/namespaces/inkscape"
   width="1052.3622"
   height="744.09448"
   id="svg2"
   version="1.1"
   inkscape:version="0.48.3.1 r9886"
   sodipodi:docname="Overijssel Pony.svg"
   inkscape:export-filename="/home/parclytaxel/Pictures/Overijssel Pony.png"
   inkscape:export-xdpi="948.25629"
   inkscape:export-ydpi="948.25629">
  <sodipodi:namedview
     id="base"
     pagecolor="#ffffff"
     bordercolor="#666666"
     borderopacity="1.0"
     inkscape:pageopacity="0.0"
     inkscape:pageshadow="2"
     inkscape:zoom="0.7176508"
     inkscape:cx="526.18109"
     inkscape:cy="372.04724"
     inkscape:document-units="px"
     inkscape:current-layer="layer1"
     showgrid="true"
     inkscape:window-width="1364"
     inkscape:window-height="698"
     inkscape:window-x="0"
     inkscape:window-y="0"
     inkscape:window-maximized="1"
     showguides="true"
     inkscape:guide-bbox="true">
    <inkscape:grid
       spacingy="8px"
       spacingx="8px"
       snapvisiblegridlinesonly="true"
       enabled="false"
       visible="true"
       empspacing="5"
       id="grid4139"
       type="xygrid" />
  </sodipodi:namedview>
  <defs
     id="defs4">
    <inkscape:path-effect
       bendpath4-nodetypes="cc"
       bendpath2-nodetypes="cc"
       bendpath3-nodetypes="cc"
       bendpath1-nodetypes="cc"
       bendpath4="M 107.00941,8.5397131 C 31.417869,71.018251 -0.37129433,125.89153 8.9252023,192.45815"
       bendpath3="M 6.1357375,205.4074 113.97345,193.91693"
       bendpath2="M 210.55377,10.55282 C 150.58229,76.115703 126.1322,135.8443 132.65287,207.29584"
       bendpath1="M 122.87282,-11.199648 209.83977,9.4431873"
       xx="true"
       yy="true"
       is_visible="true"
       id="path-effect3546"
       effect="envelope" />
    <inkscape:path-effect
       pattern-nodetypes="scsccs"
       fuse_tolerance="0"
       vertical_pattern="false"
       prop_units="false"
       tang_offset="0"
       normal_offset="0"
       spacing="0"
       scale_y_rel="false"
       prop_scale="1"
       copytype="single_stretched"
       pattern="m 533.16422,922 c -13.39983,0 -22.68426,1.10246 -33.75,4 10.88896,2.72076 20.35017,4 33.75,4 l 268,0 0,-8 z"
       is_visible="true"
       id="path-effect7216"
       effect="skeletal" />
    <inkscape:path-effect
       pattern-nodetypes="scsscss"
       fuse_tolerance="0"
       vertical_pattern="false"
       prop_units="false"
       tang_offset="0"
       normal_offset="0"
       spacing="0"
       scale_y_rel="false"
       prop_scale="1"
       copytype="single_stretched"
       pattern="m 567.78889,896.9798 c -13.39983,0 -24.8684,1.10246 -40,4 15.1316,2.89754 26.60017,4 40,4 l 187,0 c 13.39984,0 27.44399,-0.94148 40,-4 -12.55601,-2.73657 -26.60016,-4 -40,-4 z"
       is_visible="true"
       id="path-effect7068"
       effect="skeletal" />
    <inkscape:path-effect
       pattern-nodetypes="scsscss"
       fuse_tolerance="0"
       vertical_pattern="false"
       prop_units="false"
       tang_offset="0"
       normal_offset="0"
       spacing="0"
       scale_y_rel="false"
       prop_scale="1"
       copytype="single_stretched"
       pattern="m 553.25,795.5 c -13.39983,0 -22.68426,1.10246 -33.75,4 10.88896,2.72076 20.35017,4 33.75,4 l 268,0 c 25.5248,0 29.694,-1.06648 36.25,-4 -11.681,-2.48657 -27.7252,-4 -36.25,-4 z"
       is_visible="true"
       id="path-effect7026"
       effect="skeletal" />
    <inkscape:path-effect
       fuse_tolerance="0"
       vertical_pattern="false"
       prop_units="false"
       tang_offset="0"
       normal_offset="0"
       spacing="0"
       scale_y_rel="false"
       prop_scale="1"
       copytype="single_stretched"
       pattern="M 40,0 C 26.60017,0 15.1316,1.10246 0,4 15.1316,6.89754 26.60017,8 40,8 L 148,8 C 161.39984,8 175.44399,7.05852 188,4 175.44399,1.26343 161.39984,0 148,0 z"
       is_visible="true"
       id="path-effect4186"
       effect="skeletal" />
    <inkscape:path-effect
       pattern-nodetypes="scsscss"
       fuse_tolerance="0"
       vertical_pattern="false"
       prop_units="false"
       tang_offset="0"
       normal_offset="0"
       spacing="0"
       scale_y_rel="false"
       prop_scale="1"
       copytype="single_stretched"
       pattern="m 569.4719,184.99678 c -13.39983,0 -24.8684,1.10246 -40,4 15.1316,2.89754 26.60017,4 40,4 l 108,0 c 13.39984,0 27.44399,-0.94148 40,-4 -12.55601,-2.73657 -26.60016,-4 -40,-4 z"
       is_visible="true"
       id="path-effect4154"
       effect="skeletal" />
    <linearGradient
       inkscape:collect="always"
       id="linearGradient3850-8">
      <stop
         style="stop-color:#0c4025;stop-opacity:1"
         offset="0"
         id="stop3852-0" />
      <stop
         style="stop-color:#177b47;stop-opacity:1"
         offset="1"
         id="stop3854-1" />
    </linearGradient>
    <clipPath
       id="clipPath4976"
       clipPathUnits="userSpaceOnUse">
      <use
         height="1"
         width="1"
         id="use4978"
         xlink:href="#path8286"
         y="0"
         x="0" />
    </clipPath>
    <clipPath
       id="clipPath4987"
       clipPathUnits="userSpaceOnUse">
      <use
         height="1"
         width="1"
         transform="matrix(-0.99207644,-0.12563579,-0.12563579,0.99207644,1467.715,17.402251)"
         id="use4989"
         xlink:href="#path5862"
         y="0"
         x="0" />
    </clipPath>
    <linearGradient
       y2="1523.7295"
       x2="667.10492"
       y1="1462.6216"
       x1="666.75336"
       gradientUnits="userSpaceOnUse"
       id="linearGradient5147"
       xlink:href="#linearGradient3850-8"
       inkscape:collect="always" />
    <linearGradient
       y2="1523.7295"
       x2="667.10492"
       y1="1462.6216"
       x1="666.75336"
       gradientUnits="userSpaceOnUse"
       id="linearGradient6981"
       xlink:href="#linearGradient3850-8"
       inkscape:collect="always" />
    <clipPath
       id="clipPath6987"
       clipPathUnits="userSpaceOnUse">
      <use
         height="1"
         width="1"
         transform="matrix(-0.90522931,-0.42492329,-0.42492329,0.90522931,1478.2245,335.17097)"
         id="use6989"
         xlink:href="#path4993"
         y="0"
         x="0" />
    </clipPath>
  </defs>
  <metadata
     id="metadata7">
    <rdf:RDF>
      <cc:Work
         rdf:about="">
        <dc:format>image/svg+xml</dc:format>
        <dc:type
           rdf:resource="http://purl.org/dc/dcmitype/StillImage" />
        <dc:title></dc:title>
      </cc:Work>
    </rdf:RDF>
  </metadata>
  <g
     transform="translate(0,-308.2677)"
     id="layer1"
     inkscape:groupmode="layer"
     inkscape:label="Layer 1">
    <g
       id="g6314">
      <path
         style="fill:#e074d0;fill-opacity:1;stroke:#de51c8;stroke-width:8;stroke-linecap:butt;stroke-linejoin:miter;stroke-miterlimit:4;stroke-opacity:1;stroke-dasharray:none;display:inline"
         d="M 663.52248,729.52029 C 605.82129,721.19943 552.39677,705.43272 497.12967,678.75955 l -10.29971,70.7038 c 60.47127,17.87445 119.13679,26.25371 185.08626,22.44203 z"
         id="path3892"
         inkscape:connector-curvature="0"
         sodipodi:nodetypes="ccccc" />
      <g
         id="g6307">
        <path
           sodipodi:nodetypes="ccccc"
           inkscape:connector-curvature="0"
           id="path4503"
           d="m 514.38363,454.69067 c -113.04173,-20.12336 -121.74157,14.4598 -258.26579,14.43873 29.53641,80.77635 -36.65176,90.71903 -24.20782,166.29596 151.99756,5.73611 140.11322,-33.29527 258.43568,-17.67889 z"
           style="fill:#21468b;stroke:none;stroke-width:1;stroke-linecap:butt;stroke-linejoin:miter;stroke-miterlimit:4;stroke-opacity:1;stroke-dasharray:none;fill-opacity:1" />
        <path
           style="fill:#ae1c28;stroke:none;stroke-width:1;stroke-linecap:butt;stroke-linejoin:miter;stroke-miterlimit:4;stroke-opacity:1;stroke-dasharray:none;fill-opacity:1"
           d="m 514.38363,454.69067 c -113.04173,-20.12336 -121.74157,14.4598 -258.26579,14.43873 11.54999,31.58699 8.46233,52.3425 1.16285,70.42676 l 247.71064,-21.15494 z"
           id="path6293"
           inkscape:connector-curvature="0"
           sodipodi:nodetypes="ccccc" />
        <path
           style="fill:#ffffff;stroke:none;stroke-width:1;stroke-linecap:butt;stroke-linejoin:miter;stroke-miterlimit:4;stroke-opacity:1;stroke-dasharray:none"
           d="m 261.40625,218.8125 c -4.85756,19.38871 -16.05754,34.42958 -23.59375,52.9375 136.68316,7.16322 145.32241,-31.26099 261.125,-20.5 l 7.625,-51.78125 C 403.53355,184.90608 387.7355,219.06433 261.40625,218.8125 z"
           id="path6295"
           inkscape:connector-curvature="0"
           sodipodi:nodetypes="ccccc"
           transform="translate(0,308.2677)" />
        <path
           sodipodi:nodetypes="ccc"
           transform="translate(0,308.2677)"
           inkscape:connector-curvature="0"
           id="path4507"
           d="m 487.42298,313.70344 c -16.36824,-2.8393 13.38288,-175.96224 27.459,-172.6476 z"
           style="fill:#ffffff;stroke:none;stroke-width:1;stroke-linecap:butt;stroke-linejoin:miter;stroke-miterlimit:4;stroke-opacity:1;stroke-dasharray:none" />
        <path
           inkscape:connector-curvature="0"
           id="path7882"
           d="M 517.98466,447.94679 435.55098,975.98276"
           style="fill:none;stroke:#b9b2c6;stroke-width:10;stroke-linecap:round;stroke-linejoin:miter;stroke-miterlimit:4;stroke-opacity:1;stroke-dasharray:none;display:inline" />
      </g>
      <path
         sodipodi:nodetypes="sss"
         inkscape:connector-curvature="0"
         id="path7928"
         d="m 514.78306,686.43603 c -59.91144,-70.03578 -115.55191,48.74445 -34.38975,76.86069 14.9336,5.17331 47.49989,-61.53509 34.38975,-76.86069 z"
         style="fill:#e588d7;stroke:#df59ca;stroke-width:8;stroke-linecap:butt;stroke-linejoin:miter;stroke-miterlimit:4;stroke-opacity:1;stroke-dasharray:none;display:inline;fill-opacity:1" />
    </g>
    <g
       id="g4481">
      <path
         sodipodi:nodetypes="cccccccccccc"
         inkscape:connector-curvature="0"
         id="path4479"
         d="m 1014.6971,772.57633 c -7.1665,59.2604 -31.58688,105.34129 -85.43639,154.79361 10.10154,-49.07619 11.17843,-91.866 3.89856,-137.63227 l -12.71142,3.90078 c 0.14851,-40.37459 -7.24956,-72.40634 -26.67919,-102.03212 l -8.60657,10.30328 c -26.66017,-36.86544 -68.49969,-36.09756 -93.20722,-0.78329 l -10.23763,-6.18031 C 807.3326,594.6467 883.20367,550.94771 975.49458,597.07419 l -10.76492,10.37511 c 50.68354,38.40188 72.53404,98.77492 61.55934,170.14172 z"
         style="fill:#2a901e;stroke:none;stroke-width:8;stroke-linecap:butt;stroke-linejoin:miter;stroke-miterlimit:4;stroke-opacity:1;stroke-dasharray:none;fill-opacity:1" />
      <path
         sodipodi:nodetypes="cccccccc"
         inkscape:connector-curvature="0"
         id="path4477"
         d="m 929.26071,927.36994 c 10.10154,-49.07619 11.17843,-91.866 3.89856,-137.63227 l -12.71142,3.90078 c 0.14851,-40.37459 -7.24956,-72.40634 -26.67919,-102.03212 l -8.60657,10.30328 c -26.66017,-36.86544 -68.49969,-36.09756 -93.20722,-0.78329 l -4.78958,-2.8914 c 76.02326,-160.77069 284.74531,-20.92229 142.09542,229.13502 z"
         style="fill:#a8eba0;stroke:none;stroke-width:1;stroke-linecap:butt;stroke-linejoin:miter;stroke-miterlimit:4;stroke-opacity:1;stroke-dasharray:none;fill-opacity:1" />
      <path
         style="fill:none;stroke:#1f7215;stroke-width:8;stroke-linecap:butt;stroke-linejoin:miter;stroke-miterlimit:4;stroke-opacity:1;stroke-dasharray:none"
         d="m 1014.6971,772.57633 c -7.1665,59.2604 -31.58688,105.34129 -85.43639,154.79361 10.10154,-49.07619 11.17843,-91.866 3.89856,-137.63227 l -12.71142,3.90078 c 0.14851,-40.37459 -7.24956,-72.40634 -26.67919,-102.03212 l -8.60657,10.30328 c -26.66017,-36.86544 -68.49969,-36.09756 -93.20722,-0.78329 l -10.23763,-6.18031 C 807.3326,594.6467 883.20367,550.94771 975.49458,597.07419 l -10.76492,10.37511 c 50.68354,38.40188 72.53404,98.77492 61.55934,170.14172 z"
         id="path4467"
         inkscape:connector-curvature="0"
         sodipodi:nodetypes="cccccccccccc" />
    </g>
    <g
       id="g7232">
      <path
         sodipodi:nodetypes="ssssscs"
         inkscape:connector-curvature="0"
         id="path7230"
         d="m 773.4115,747.66204 c 1.59285,-20.56099 -80.44074,-13.80049 -70.1616,31.4669 24.40023,107.45397 -28.1829,173.31174 -25.90239,181.82237 2.34264,8.74248 78.16868,11.03214 84.47036,-1.57141 4.82134,-9.64264 24.11151,-73.97314 5.98142,-137.35886 -1.25435,-4.38541 -6.8006,-5.75605 -13.93435,-6.77551 4.73408,-22.84224 17.07596,-35.69231 19.54656,-67.58349 z"
         style="fill:#e074d0;stroke:none;fill-opacity:1" />
      <path
         inkscape:original-d="m 752.18656,827.16244 c 2.19164,-31.12142 18.35739,-42.48521 21.22494,-79.5004 1.59285,-20.56099 -80.44074,-13.80049 -70.1616,31.4669 24.40023,107.45397 -28.1829,173.31174 -25.90239,181.82237 2.34264,8.74248 78.16868,11.03214 84.47036,-1.57141 4.82134,-9.64264 24.11151,-73.97314 5.98142,-137.35886 -1.25435,-4.38541 -6.8006,-5.75605 -13.89714,-6.78339"
         inkscape:path-effect="#path-effect7216"
         style="fill:#de51c8;stroke:none;fill-opacity:1"
         d="m 767.65458,760.60018 c -0.64758,3.36717 -1.40334,6.56843 -2.2487,9.62833 -1.76528,6.42465 -3.95185,12.33646 -6.02176,18.09296 -2.14532,5.9402 -4.15241,11.78969 -5.49469,17.83232 -1.51371,6.83241 -2.11592,13.80704 -1.70287,21.00865 1.365,-7.01715 3.37196,-13.48013 5.91068,-19.70263 2.22196,-5.45834 4.88167,-10.7918 7.56678,-16.55416 2.62204,-5.61191 5.22654,-11.63313 7.30994,-18.48964 0.98988,-3.27269 1.84205,-6.70376 2.53547,-10.30404 0.90115,-4.67883 1.52429,-9.4043 1.89012,-14.14098 0.1509,-1.87528 -0.18532,-3.78622 -1.0174,-5.56601 -0.88382,-1.77032 -2.08156,-3.18951 -3.41641,-4.24633 -10e-6,-10e-6 -10e-6,-10e-6 -2e-5,-10e-6 -3.311,-2.58882 -7.02967,-3.88602 -10.46021,-4.53267 -4.51597,-0.94531 -9.05782,-1.17006 -13.46901,-0.97553 -1e-5,0 -2e-5,0 -3e-5,0 -5.04754,0.20945 -10.05815,0.95311 -14.93756,2.17991 -5.0142,1.25389 -9.94587,3.04639 -14.60581,5.48633 -4.47805,2.33245 -8.72783,5.35081 -12.31997,9.1807 -10e-6,0 -10e-6,10e-6 -10e-6,10e-6 -3.4999,3.73781 -6.20364,8.29759 -7.64562,13.35876 -1.56354,5.71046 -1.45949,11.64039 -0.1783,17.15855 5.30811,23.39408 7.47129,47.51639 5.8359,71.38677 -1.26213,18.49801 -4.79972,36.84429 -10.40463,54.53409 -3.92994,12.41737 -8.97915,24.52061 -14.54057,36.4333 -1.69088,3.61538 -3.50735,7.30239 -5.1281,11.20096 -0.51054,1.2069 -1.03933,2.5661 -1.45232,4.11059 0,10e-6 -10e-6,10e-6 -10e-6,2e-5 -0.35044,0.75373 -0.53651,2.2198 -0.17565,4.3062 0.78934,2.05719 1.83249,3.29664 2.79098,3.77166 1.31926,0.9135 2.58913,1.50077 3.69991,1.89328 1e-5,0 2e-5,0 3e-5,10e-6 3.40745,1.26877 6.80634,1.94727 10.02036,2.46114 9.36072,1.54186 18.77924,2.02334 28.08503,2.05761 9.5568,0.0532 19.26636,-0.36432 28.90711,-2.05955 3.58646,-0.61513 7.33818,-1.46759 11.03735,-2.99849 10e-6,0 2e-5,-10e-6 3e-5,-10e-6 1.36363,-0.55507 2.80563,-1.29989 4.2247,-2.33633 1.1238,-0.76939 2.24534,-1.95605 3.14626,-3.6072 1.11915,-2.26575 1.90095,-4.49816 2.59445,-6.57262 1.21868,-3.58918 2.2659,-7.20484 3.21444,-10.81556 2.80502,-10.67093 4.81484,-21.52296 6.17986,-32.42914 1.77101,-14.12341 2.43034,-28.40757 1.80311,-42.65943 0,-10e-6 0,-2e-5 0,-3e-5 -0.70601,-16.1055 -3.09258,-32.19653 -7.54237,-47.7709 0,-10e-6 0,-2e-5 0,-3e-5 -1.39656,-3.8031 -4.1682,-6.21747 -7.05657,-7.23973 -3.52362,-1.42658 -6.9917,-1.98678 -10.11326,-2.40239 l -1.14618,7.91746 c 3.08605,0.48304 5.90488,0.86326 8.16552,1.86244 1.35192,0.75601 2.59102,1.44454 2.45893,2.06222 4.26506,14.89414 6.5514,30.36934 7.2417,45.92342 0,1e-5 0,2e-5 0,3e-5 0.60862,13.76957 -0.0326,27.6047 -1.74881,41.31233 -1.32926,10.59648 -3.27207,21.10181 -5.97884,31.38902 -0.91726,3.48383 -1.91037,6.91969 -3.05208,10.27617 -0.70652,2.04521 -1.34861,3.94309 -2.17532,5.56904 0.0164,0.11801 -0.31528,0.36033 -0.77652,0.77419 -0.64602,0.50518 -1.52581,0.92845 -2.53802,1.37166 -10e-6,0 -10e-6,0 -2e-5,10e-6 -2.79691,1.19862 -5.98027,1.88366 -9.33226,2.49624 -8.93603,1.59182 -18.16901,1.96858 -27.47737,1.93726 -9.06043,-0.048 -18.05554,-0.49377 -26.81481,-1.95036 -3.06191,-0.52465 -5.95181,-1.06612 -8.49341,-2.05005 -1e-5,-10e-6 -1e-5,-10e-6 -1e-5,-10e-6 -0.83355,-0.34374 -1.48899,-0.60079 -1.85659,-0.90259 -0.14964,-0.32334 -0.17578,-0.0894 0.26005,0.64859 -0.035,0.60923 0.15609,0.50468 0.19064,-0.22163 0,-10e-6 0,-10e-6 0,-2e-5 0.2261,-0.91245 0.63726,-1.92122 1.09943,-3.05928 1.48146,-3.57999 3.25081,-7.16009 4.98674,-10.88021 5.66262,-12.11372 10.83788,-24.54008 14.91872,-37.40266 5.79463,-18.28421 9.4506,-37.25433 10.75977,-56.40559 0,-10e-6 10e-6,-2e-5 10e-6,-3e-5 1.68273,-24.71418 -0.54045,-49.60869 -6.01591,-73.70339 -0.98524,-4.46276 -1.12225,-9.08173 0.0794,-13.22567 1.01391,-3.69093 3.10149,-7.15364 5.79715,-10.06757 0,0 10e-6,-10e-6 10e-6,-10e-6 2.8089,-3.04245 6.34677,-5.5172 10.18426,-7.54988 4.01086,-2.11169 8.35271,-3.67898 12.83635,-4.81071 4.36842,-1.09601 8.83947,-1.7616 13.3189,-1.94571 0,0 10e-6,0 2e-5,0 3.93985,-0.15045 7.81811,0.0185 11.47825,0.8081 1e-5,0 2e-5,0 3e-5,0 2.82945,0.68168 5.41278,1.43401 7.0542,2.89803 10e-6,1e-5 10e-6,1e-5 10e-6,1e-5 0.59364,0.52137 1.07421,1.02671 1.2649,1.50477 0.21193,0.40475 0.29547,0.95987 0.25937,1.49855 -0.34592,4.45069 -0.92864,8.8782 -1.76887,13.24709 z"
         id="path7224"
         inkscape:connector-curvature="0"
         sodipodi:nodetypes="csssssc" />
    </g>
    <path
       sodipodi:nodetypes="ssscssscs"
       inkscape:connector-curvature="0"
       id="path7284"
       d="m 624.34063,630.3162 c 31.52591,-68.6935 75.57463,-55.32775 76.51723,-25.00068 3.52813,113.49911 64.93143,45.92651 103.56888,97.82184 33.54351,45.05348 9.9068,82.13099 5.52672,118.08686 6.25557,0.48786 12.72392,2.22047 14.37473,4.8424 31.87435,50.6238 27.32074,145.35894 22.4994,155.00158 -6.30169,12.60355 -78.71351,9.81389 -81.05615,1.07141 -2.43901,-9.10213 49.81827,-90.33807 -15.88899,-197.84563 C 696.61946,826.28226 561.9203,766.32718 624.34063,630.3162 z"
       style="fill:#e588d7;stroke:none;fill-opacity:1" />
    <path
       inkscape:path-effect="#path-effect7026"
       inkscape:original-d="m 766.54692,761.09348 c -28.76366,80.35905 -213.2855,24.101 -142.20629,-130.77728 31.52586,-68.69352 75.57463,-55.32775 76.51723,-25.00068 3.52813,113.49911 64.93143,45.92651 103.56888,97.82184 37.07853,49.80149 4.28978,89.85732 5.10635,129.67076"
       style="fill:#df59ca;fill-opacity:1;stroke:none"
       d="m 710.81181,801.5308 c 4.21463,-0.14018 8.24,-0.59377 12.0749,-1.32045 0,0 0,0 10e-6,0 5.57796,-1.05058 10.75311,-2.72822 15.45445,-4.92565 4.70134,-2.19743 8.93468,-4.91472 12.65348,-8.11872 3.97737,-3.44618 7.26936,-7.43603 9.87858,-11.82187 2.60922,-4.38585 4.53846,-9.17553 5.67369,-14.25063 -2.29025,4.60183 -5.09311,8.67292 -8.27521,12.26752 -3.1821,3.59461 -6.74787,6.71725 -10.70257,9.31979 -3.66866,2.43285 -7.66247,4.44509 -12.00247,6.07884 -4.34001,1.63375 -9.03089,2.88867 -14.05779,3.72039 0,0 0,1e-5 -10e-6,1e-5 -3.48213,0.57192 -7.12928,0.93565 -10.95917,1.05932 -6.54093,0.21121 -13.14605,-0.3717 -19.62904,-1.60249 -10.83894,-2.06864 -21.33621,-5.99869 -30.93073,-11.48947 -10.01656,-5.73736 -19.05083,-13.20707 -26.39758,-22.05818 -10e-6,0 -10e-6,-1e-5 -10e-6,-1e-5 -7.81709,-9.40686 -13.71104,-20.42939 -17.23265,-32.15048 0,0 0,-10e-6 0,-10e-6 -4.07433,-13.49711 -4.99204,-27.94484 -3.51775,-42.12263 0,-10e-6 0,-2e-5 0,-3e-5 1.86458,-17.95812 7.52281,-35.50391 15.13412,-52.13142 6.20243,-13.40105 13.70046,-26.24304 24.20376,-35.88301 6.54965,-5.91276 14.19137,-10.79337 22.27237,-11.43698 5.71283,-0.52909 11.77999,1.2025 15.75404,5.02514 10e-6,0 10e-6,10e-6 2e-5,2e-5 4.18177,3.79393 6.42378,9.79883 6.65354,15.74997 0,1e-5 0,1e-5 0,2e-5 0.35334,11.76406 1.29863,23.69571 3.97787,35.4319 0,1e-5 10e-6,2e-5 10e-6,3e-5 1.73132,7.70586 4.37331,15.51911 8.91475,22.50938 3.34159,5.10604 7.85648,9.50299 13.28178,12.569 5.01696,2.77649 10.41729,4.36588 15.72069,5.31217 5.59069,1.01693 11.10557,1.47977 16.44421,2.02367 5.60192,0.58306 11.0809,1.24135 16.29524,2.52082 5.48472,1.34534 10.76106,3.37199 15.42472,6.28177 1e-5,0 2e-5,10e-6 2e-5,10e-6 5.5262,3.40831 10.31347,8.10667 14.29925,13.43757 7.56534,10.20078 13.31996,21.78112 15.60366,34.02707 1.12482,5.85964 1.45625,11.88225 1.21457,17.94349 -0.19524,4.89669 -0.72791,9.42605 -1.37714,13.58244 -1.04549,6.64686 -2.36747,12.41214 -3.51176,17.50251 -1.14429,5.09038 -2.13574,9.50095 -2.89514,13.3851 -0.76464,3.86082 -1.30315,7.22056 -1.64547,10.19982 -0.34231,2.97925 -0.49362,5.5793 -0.50508,7.94753 -0.0115,2.36823 0.1153,4.50566 0.3552,6.56935 0.2399,2.06369 0.59166,4.05466 1.07592,6.1247 0.37354,-4.64737 1.17561,-9.50963 2.30402,-14.46703 1.12842,-4.9574 2.57483,-10.01172 4.07362,-15.04541 1.5973,-5.3314 3.2634,-10.66319 4.73625,-15.87485 1.47285,-5.21167 2.74435,-10.30499 3.66114,-15.09421 1.03283,-5.36976 1.56881,-10.34629 1.7266,-14.51962 0.24832,-6.56738 -0.12898,-13.18911 -1.35215,-19.74087 -2.62064,-13.67837 -8.85651,-26.35552 -17.04742,-37.31752 -4.47111,-6.02785 -9.99132,-11.3996 -16.49809,-15.45776 -10e-6,-10e-6 -10e-6,-10e-6 -2e-5,-2e-5 -5.52889,-3.41471 -11.58075,-5.76652 -17.75124,-7.25725 -5.82856,-1.40761 -11.66554,-2.12754 -17.36926,-2.70577 -5.44273,-0.56354 -10.74914,-0.99661 -15.81882,-1.93436 -4.76358,-0.8996 -9.34063,-2.19201 -13.25084,-4.42123 -4.20024,-2.33129 -7.79062,-5.86645 -10.50823,-9.98364 -3.84626,-5.77739 -6.1179,-12.72298 -7.8037,-19.90637 0,-1e-5 0,-1e-5 0,-1e-5 -2.52981,-10.961 -3.40882,-22.379 -3.77902,-33.89095 0,-10e-6 0,-2e-5 0,-3e-5 -0.19904,-7.84442 -3.28545,-15.71459 -9.18675,-21.34576 -5.98482,-5.48638 -14.12911,-7.92419 -21.98544,-7.14382 -10.54873,1.1542 -19.74493,6.73141 -26.93582,13.52678 -11.5848,10.78849 -19.69581,24.47593 -26.04272,38.41935 -7.91228,17.19767 -13.799,35.57736 -15.81955,54.63316 0,10e-6 -1e-5,2e-5 -1e-5,3e-5 -1.59726,15.08503 -0.5813,30.57861 3.81253,45.26016 0,10e-6 10e-6,2e-5 10e-6,3e-5 3.83277,12.7513 10.22928,24.7103 18.74036,34.95988 10e-6,0 10e-6,10e-6 2e-5,2e-5 7.99524,9.61811 17.75596,17.69818 28.57691,23.88923 10.34918,5.92599 21.67089,10.16105 33.40405,12.40448 7.01398,1.34762 14.20685,1.97504 21.39229,1.73604 z"
       id="path7188"
       inkscape:connector-curvature="0"
       sodipodi:nodetypes="csssc" />
    <path
       sodipodi:nodetypes="csssc"
       inkscape:connector-curvature="0"
       id="path7607"
       d="m 749.92071,784.13998 c 65.669,107.66156 13.41172,188.8975 15.85073,197.99963 2.34264,8.74248 74.75446,11.53214 81.05615,-1.07141 4.82134,-9.64264 9.37495,-104.37778 -22.4994,-155.00158 -1.65081,-2.62193 -8.11916,-4.35454 -14.54751,-5.02416"
       style="fill:none;stroke:#df59ca;stroke-width:8;stroke-linecap:butt;stroke-linejoin:miter;stroke-miterlimit:4;stroke-opacity:1;stroke-dasharray:none" />
    <g
       id="g7226">
      <path
         style="fill:#e588d7;fill-opacity:1;stroke:none"
         d="m 673.91563,779.70873 c 3.71601,158.77728 -35.30764,198.23079 -32.81197,207.54465 2.34264,8.74247 76.92423,12.63604 83.22591,0.0324 4.82135,-9.64264 21.42271,-110.43187 -15.74861,-214.916 z"
         id="path7649"
         inkscape:connector-curvature="0"
         sodipodi:nodetypes="csscc" />
      <path
         sodipodi:nodetypes="cssc"
         inkscape:connector-curvature="0"
         id="path7609"
         d="m 676.04342,857.43484 c 1.05024,-13.01564 1.35018,-25.13902 1.00601,-37.66263 -0.34418,-12.52362 -1.34264,-25.451 -3.1338,-40.06348 -1.10559,14.68028 -2.1109,27.52907 -3.03874,39.91887 -0.92785,12.3898 -1.76932,24.32377 -2.80526,37.16403 -0.55377,6.86389 -1.22873,13.71524 -2.03842,20.55032 -2.452,20.68017 -6.12058,41.19466 -11.9068,61.07083 -3.28459,11.3012 -7.39338,22.3782 -12.09568,33.21843 -1.26326,2.90258 -2.66173,5.91994 -3.84482,9.18754 0,0 0,0 0,10e-6 -0.38511,1.03423 -0.76545,2.23525 -1.02358,3.61953 -0.23331,0.94398 -0.26697,2.25148 0.0776,3.85039 0.76719,2.02348 1.78338,3.25564 2.72028,3.74806 1.28959,0.92824 2.53797,1.53802 3.63659,1.9543 0,10e-6 0,10e-6 0,10e-6 3.34748,1.32973 6.69893,2.0789 9.87265,2.6589 9.2011,1.72583 18.4831,2.40226 27.66301,2.62318 9.40234,0.24493 18.97265,0.0216 28.49804,-1.49642 3.53974,-0.5478 7.25335,-1.33614 10.92403,-2.81284 1.35699,-0.53656 2.79382,-1.2666 4.20901,-2.29153 1.13125,-0.77108 2.24988,-1.95654 3.1437,-3.59769 0,-10e-6 10e-6,-2e-5 10e-6,-3e-5 0.64244,-1.33471 1.01961,-2.53503 1.28823,-3.52326 10e-6,-1e-5 10e-6,-1e-5 10e-6,-2e-5 0.50521,-1.73749 0.91219,-3.45508 1.2752,-5.13481 1.12411,-5.18843 1.9393,-10.39099 2.62446,-15.55912 2.18094,-16.42189 3.06534,-32.96282 3.10732,-49.45327 0.0656,-22.93334 -1.55608,-45.90972 -4.9872,-68.60713 -1.95773,-12.95068 -4.80243,-26.08913 -8.59272,-38.72426 -3.79029,-12.63513 -8.52612,-24.76206 -14.04162,-35.70297 2.78556,11.91211 5.551,24.44703 8.05511,37.19713 2.50411,12.7501 4.74787,25.71444 6.66731,38.42549 3.364,22.27743 4.95636,44.84814 4.89915,67.39013 -0.0464,16.22026 -0.90752,32.41694 -3.03757,48.42055 -0.67288,5.04655 -1.45065,10.03493 -2.51221,14.91659 -0.34562,1.58507 -0.70654,3.12139 -1.13704,4.59101 0,10e-6 0,10e-6 0,2e-5 -0.29845,0.9554 -0.50083,1.71004 -0.76385,2.18624 0,0 0,0 0,0 0.0159,0.11462 -0.30517,0.35008 -0.75112,0.74768 -0.62395,0.48604 -1.48271,0.89045 -2.47476,1.31468 -2.73901,1.14498 -5.86583,1.76856 -9.16365,2.31857 -8.79881,1.42399 -17.88006,1.61438 -27.03087,1.39774 -8.92754,-0.22956 -17.78229,-0.86073 -26.38126,-2.48744 -3.01752,-0.58608 -5.8645,-1.18751 -8.35924,-2.21569 0,0 0,-1e-5 -10e-6,-1e-5 -0.82188,-0.35883 -1.47169,-0.63162 -1.84089,-0.94335 -0.15881,-0.32665 -0.19581,-0.11313 0.2173,0.58896 -0.0243,0.22221 0.0598,0.0674 0.0737,-0.39226 0.0981,-0.63859 0.36121,-1.39882 0.67187,-2.29716 0,0 10e-6,-10e-6 10e-6,-10e-6 1.00876,-2.82054 2.34455,-5.6798 3.65677,-8.71326 4.81934,-11.10548 9.04237,-22.49917 12.4384,-34.1685 5.9339,-20.42203 9.6901,-41.36787 12.16966,-62.36487 0.82019,-6.93925 1.50422,-13.88955 2.06563,-20.84718 z"
         style="fill:#df59ca;fill-opacity:1;stroke:none"
         inkscape:path-effect="#path-effect7068"
         inkscape:original-d="m 673.91563,779.70873 c 3.71601,158.77728 -35.30764,198.23079 -32.81197,207.54465 2.34264,8.74247 76.92423,12.63604 83.22591,0.0324 4.82135,-9.64264 21.42271,-110.43187 -15.74861,-214.916" />
    </g>
    <g
       inkscape:path-effect="#path-effect3546"
       transform="matrix(-0.17121683,-0.0097427,-0.03008691,0.41105035,819.17272,702.10902)"
       id="g3113">
      <path
         inkscape:original-d="m 15.876329,195.44871 54.227793,-65.92269 0,-35.640077 L 41.879535,21.33177 0,37.60011 0,182.41445 15.876329,195.44871 z m 82.909723,9.8328 -26.26455,-67.52332 -51.157059,62.19862 29.237268,24.0432 48.184341,-18.7185 z"
         d="m 22.314794,171.13719 c 5.488343,-6.28699 11.276991,-12.47095 17.293858,-18.54091 1.056788,-1.07135 2.12095,-2.14104 3.192143,-3.20939 12.090368,-12.04645 25.03945,-23.82485 38.640621,-35.41281 0.577068,-1.35769 1.167731,-2.71323 1.772147,-4.06654 0.786294,-1.78224 1.599084,-3.55952 2.438781,-5.33183 3.544219,-7.391325 7.513513,-14.664615 11.89877,-21.869071 2.988376,-10.729125 6.971716,-21.347031 11.918446,-32.119498 4.94673,-10.772467 10.84424,-21.700952 17.75205,-33.254475 -7.13521,2.314941 -14.46894,4.749166 -21.97572,7.107468 -7.506779,2.358302 -15.186102,4.640817 -22.983173,6.549667 C 71.407665,41.617048 61.43172,51.514586 52.46707,61.709355 c -8.964649,10.19477 -16.889558,20.69922 -23.444215,32.188622 -1e-6,3e-6 -2e-6,5e-6 -3e-6,7e-6 -0.963779,1.68937 -1.898026,3.39922 -2.80191,5.130803 -3.477567,6.662033 -6.442046,13.652233 -8.854666,20.933703 -2.41262,7.28147 -4.270931,14.85271 -5.620388,22.64793 -0.21549,1.24479 -0.418224,2.49526 -0.60865,3.75112 0,0 -10e-7,0 -10e-7,1e-5 -0.404508,2.66771 -0.752811,5.35753 -1.05472,8.066 4.349344,5.99136 8.437871,11.51685 12.232277,16.70964 z m 60.93583,10.50066 c -1.020858,-8.85888 -1.988981,-17.92635 -2.620869,-27.02029 -0.07976,-1.09051 -0.154384,-2.18345 -0.223362,-3.2788 -0.609375,-9.89553 -0.73785,-19.915 -0.132607,-29.9436 -10.560836,9.37856 -20.659349,18.92499 -30.23532,28.70988 -1.058884,1.08309 -2.111244,2.16818 -3.156876,3.25549 -7.242408,7.49299 -14.182334,15.18688 -20.734068,23.04713 6.625751,9.16717 12.268557,17.33449 17.421319,24.78454 6.305263,-3.4518 12.740898,-6.9441 19.336866,-10.2673 6.595969,-3.32319 13.353297,-6.47237 20.344917,-9.28705 0,0 0,0 0,0 z"
         id="path3103"
         inkscape:connector-curvature="0"
         style="fill:#b0f6bc" />
      <path
         inkscape:original-d="m 131.45339,28.55126 -54.260458,65.955363 0,35.607407 28.257248,72.58688 41.87954,-16.26838 0,-144.847 -15.87633,-13.03427 z M 48.511001,18.75105 74.775552,86.24179 125.93261,24.0105 96.695342,0 48.511001,18.75105 z"
         d="m 179.45552,31.751967 c -13.65699,8.393788 -26.9112,16.891289 -39.76746,25.540094 -12.85625,8.648805 -25.31901,17.450156 -37.41297,26.384485 -4.203013,7.018091 -8.016521,14.103235 -11.43368,21.293824 -0.830088,1.768 -1.633708,3.54055 -2.4113,5.31753 -0.674039,1.52156 -1.33101,3.04556 -1.971171,4.57183 -1.126803,12.25778 -1.076223,24.53686 -0.242013,36.63714 0.07659,1.08858 0.159227,2.17478 0.247414,3.25857 0.642751,8.27732 1.592906,16.53594 2.64293,24.6309 6.197236,-2.28287 12.59174,-4.29138 19.26351,-6.02966 6.67177,-1.73829 13.61967,-3.20304 20.95954,-4.53262 0.66849,-3.52304 1.37009,-7.09277 2.12406,-10.69523 0.23431,-1.11951 0.47367,-2.24218 0.71862,-3.36756 3.06799,-14.09488 7.07563,-28.57929 12.3604,-42.60272 0,0 0,0 0,0 0.6868,-1.82248 1.39438,-3.63746 2.12283,-5.44345 0,0 0,0 0,0 4.71141,-11.68071 10.24629,-22.921333 16.45779,-33.68588 6.2115,-10.764547 13.08214,-21.056135 20.55774,-31.083869 -1.94598,-3.067667 -3.31994,-6.469187 -4.21624,-10.193384 0,0 0,0 0,0 z M 133.94551,15.166535 c -6.58097,10.93926 -12.24048,21.256163 -17.06204,31.354562 -4.82156,10.098399 -8.79618,19.979432 -11.90938,29.903276 11.70638,-8.365944 23.69561,-16.644263 35.97858,-24.769263 12.28298,-8.125 24.86239,-16.096785 37.74306,-23.911028 -1.05663,-7.268797 -0.61038,-15.616 0.84795,-24.872626 -7.22094,1.5091766 -14.5688,3.2585786 -22.14532,5.3115863 -7.57652,2.0530077 -15.38187,4.4109727 -23.45285,6.9834927 z"
         id="path3105"
         inkscape:connector-curvature="0"
         style="fill:#4a7016" />
    </g>
    <g
       id="g4411">
      <g
         id="g4402">
        <path
           sodipodi:nodetypes="cccccccccccc"
           inkscape:connector-curvature="0"
           id="path4400"
           d="m 727.02822,495.36844 c -3.37942,22.32778 -9.91391,44.31308 -19.6347,66.06614 l 9.94267,2.66456 c -7.5445,23.4948 -18.89697,47.67465 -33.60697,65.97769 l 9.96888,2.98674 c -7.38151,26.87147 -20.02644,47.92943 -35.91206,74.79782 39.17442,-7.35887 61.99242,-21.89845 79.94774,-56.40911 l 8.327,5.58234 c 11.31038,-28.0942 15.94113,-51.90242 15.63418,-78.97725 l 9.98668,2.58113 c 0.95981,-34.5605 -6.14833,-63.80438 -21.03183,-94.97312 z"
           style="fill:#a8eba0;stroke:none;stroke-width:7.23568296000000011;stroke-miterlimit:4;stroke-dasharray:none;fill-opacity:1" />
        <path
           sodipodi:nodetypes="cccccccc"
           inkscape:connector-curvature="0"
           id="path4398"
           d="m 657.78604,707.86139 c 39.17442,-7.35887 61.99242,-21.89845 79.94774,-56.40911 l 8.327,5.58234 c 11.31038,-28.0942 15.94113,-51.90242 15.63418,-78.97725 l 9.98668,2.58113 c 0.95981,-34.5605 -6.14833,-63.80438 -21.03183,-94.97312 l -13.50566,5.54773 c 13.99259,77.97841 -1.4946,163.54268 -79.35811,216.64828 z"
           style="fill:#2a901e;fill-opacity:1;stroke:none" />
        <path
           style="fill:none;stroke:#1f7215;stroke-width:8;stroke-miterlimit:4;stroke-dasharray:none;stroke-opacity:1"
           d="m 727.02822,495.36844 c -3.37942,22.32778 -9.91391,44.31308 -19.6347,66.06614 l 9.94267,2.66456 c -7.5445,23.4948 -18.89697,47.67465 -33.60697,65.97769 l 9.96888,2.98674 c -7.38151,26.87147 -20.02644,47.92943 -35.91206,74.79782 39.17442,-7.35887 61.99242,-21.89845 79.94774,-56.40911 l 8.327,5.58234 c 11.31038,-28.0942 15.94113,-51.90242 15.63418,-78.97725 l 9.98668,2.58113 c 0.95981,-34.5605 -6.14833,-63.80438 -21.03183,-94.97312 z"
           id="path4387"
           inkscape:connector-curvature="0"
           sodipodi:nodetypes="cccccccccccc" />
      </g>
      <path
         sodipodi:type="arc"
         style="fill:#e588d7;fill-opacity:1;fill-rule:nonzero;stroke:#df59ca;stroke-width:8;stroke-miterlimit:4;stroke-opacity:1;stroke-dasharray:none"
         id="path3999"
         sodipodi:cx="696.25"
         sodipodi:cy="251.09448"
         sodipodi:rx="86.123978"
         sodipodi:ry="103.95417"
         d="m 782.37398,251.09448 c 0,57.41231 -38.55902,103.95417 -86.12398,103.95417 -47.56496,0 -86.12398,-46.54186 -86.12398,-103.95417 0,-57.4123 38.55902,-103.95417 86.12398,-103.95417 47.56496,0 86.12398,46.54187 86.12398,103.95417 z"
         transform="matrix(0.97676273,0.2143236,-0.2143236,0.97676273,29.494431,143.37965)" />
      <g
         id="g6994">
        <path
           style="fill:#ffffff;stroke:none;stroke-width:3.79999995000000013;stroke-linecap:butt;stroke-linejoin:miter;stroke-miterlimit:4;stroke-opacity:1;stroke-dasharray:none"
           d="m 617.58899,597.2452 c 9.18064,13.6624 23.6806,19.20949 40.21674,13.41088 -16.01266,32.2876 -47.40764,22.60192 -40.21674,-13.41088 z"
           id="path6991"
           inkscape:connector-curvature="0"
           sodipodi:nodetypes="ccc" />
        <path
           sodipodi:nodetypes="cccccccc"
           inkscape:connector-curvature="0"
           d="m 646.6785,625.77102 c -3.53806,-0.66095 -7.77671,-2.02285 -11.24338,-3.9134 4.50122,0.72797 9.69377,1.27518 14.901,0.61667 z m -29.57519,-10.78214 c 3.33104,1.83226 7.38307,3.17452 11.24041,4.08582 -3.89005,-2.37906 -8.23355,-5.01822 -11.75665,-8.9094 z"
           style="fill:#b0d8e7;fill-opacity:1;stroke:none"
           id="path7485" />
        <path
           d="m 631.63459,578.55211 c 9.20298,-4.33817 20.07011,-1.43091 25.40246,7.58532 -7.57044,-6.17475 -16.0116,-8.68863 -25.40246,-7.58532 z m 16.48076,21.66393 c 3.07474,-0.24394 4.60608,-1.67927 5.05854,-4.3058 2.48181,3.32298 -1.1636,7.06037 -5.05854,4.3058 z m -17.72947,-5.97712 c -2.45243,-1.67648 -3.09779,-3.68746 -2.0699,-6.32915 -3.77044,1.92357 -2.84182,6.63018 2.0699,6.32915 z"
           style="fill:#df59ca;fill-opacity:1;stroke:none;display:inline"
           id="path7472" />
        <path
           sodipodi:nodetypes="ccc"
           inkscape:connector-curvature="0"
           id="path7479"
           d="m 617.58899,597.2452 c 9.18064,13.6624 23.6806,19.20949 40.21674,13.41088 -16.01266,32.2876 -47.40764,22.60192 -40.21674,-13.41088 z"
           style="fill:none;stroke:#df59ca;stroke-width:3.79999995;stroke-linecap:butt;stroke-linejoin:miter;stroke-miterlimit:4;stroke-opacity:1;stroke-dasharray:none" />
      </g>
      <g
         id="g3989">
        <path
           style="fill:#e588d7;stroke:none;fill-opacity:1"
           d="M 579.20268,205.9797 C 542.05075,134.32724 604.4269,84.655425 612.42864,87.821785 c 6.75092,2.671398 12.11804,34.998965 3.77579,68.074405 z"
           id="path4194"
           inkscape:connector-curvature="0"
           transform="translate(0,308.2677)"
           sodipodi:nodetypes="cscc" />
        <path
           style="fill:#df59ca;fill-opacity:1;stroke:none;display:inline"
           d="m 602.90082,421.17739 c -16.29272,16.57122 -24.26081,39.57763 -19.71473,64.08243 0.15775,-23.62819 7.29109,-46.01615 19.71473,-64.08243 z"
           id="path7597"
           inkscape:connector-curvature="0"
           sodipodi:nodetypes="ccc" />
        <path
           inkscape:original-d="M 579.20268,205.9797 C 542.05075,134.32724 604.4269,84.655425 612.42864,87.821785 c 6.75092,2.671398 12.11804,34.998965 3.77579,68.074405"
           inkscape:path-effect="#path-effect4154"
           sodipodi:nodetypes="csc"
           transform="translate(0,308.2677)"
           inkscape:connector-curvature="0"
           id="path3307"
           d="m 563.54691,163.68519 c 0.12677,3.88113 0.56762,7.59966 1.28469,11.21536 0.71707,3.61569 1.71144,7.12936 2.98926,10.59483 2.55562,6.93094 6.23306,13.70166 11.38182,20.48432 -1.28822,-4.0582 -2.3288,-7.88379 -3.21067,-11.54327 -0.88187,-3.65947 -1.60494,-7.15407 -2.21454,-10.5739 -0.60961,-3.41982 -1.106,-6.7655 -1.49005,-10.13696 -0.38405,-3.37146 -0.65654,-6.7691 -0.7663,-10.29503 -0.0662,-2.12793 -0.0449,-4.25706 0.0692,-6.38308 0.63407,-12.6523 4.46925,-25.15501 10.76834,-36.22391 0,0 0,0 0,0 4.95143,-8.66922 11.25678,-16.5684 18.84003,-22.879573 2.54232,-2.097201 5.08309,-3.997371 7.76481,-5.312793 0.88938,-0.422172 1.64094,-0.769368 2.27543,-0.896376 0.52639,0.05255 0.48075,-0.12365 -0.2821,-0.193638 -0.17763,-0.288841 -0.0484,0.147237 0.55279,0.783844 0.69234,1.029977 1.20803,2.375788 1.73961,3.886621 1.55126,4.539835 2.2596,9.501515 2.74371,14.608585 0.0422,0.4616 0.0817,0.92347 0.11853,1.38558 0.57142,7.16955 0.73429,14.54563 0.66853,21.89459 -0.0658,7.34896 -0.35553,14.67019 -0.57559,21.7958 3.02962,-6.41699 5.35909,-13.65496 6.72462,-21.22246 1.36554,-7.56751 1.76186,-15.45715 1.15648,-23.10139 -0.039,-0.4927 -0.0809,-0.98525 -0.12554,-1.47762 -0.47308,-5.40426 -1.31008,-10.975749 -3.12968,-16.438009 -0.58808,-1.811473 -1.38969,-3.750832 -2.59736,-5.667264 -0.63859,-1.285982 -2.02771,-2.756461 -4.33252,-3.887047 -2.08324,-0.592477 -3.62564,-0.533388 -4.482,-0.157695 -1.5604,0.385926 -2.89428,0.942982 -4.02239,1.525953 -3.49987,1.764335 -6.55939,4.003377 -9.32104,6.329413 -8.40203,7.019754 -15.31659,15.646989 -20.66762,25.063749 0,10e-6 0,10e-6 0,10e-6 -6.90201,12.10566 -11.0833,25.79256 -11.80667,39.77646 -0.11412,2.35286 -0.13031,4.7026 -0.0538,7.0449 z"
           style="opacity:1;fill:#df59ca;stroke:none;stroke-width:8;stroke-linecap:butt;stroke-linejoin:miter;stroke-miterlimit:4;stroke-opacity:1;stroke-dasharray:none;fill-opacity:1" />
      </g>
      <g
         id="g5134"
         transform="matrix(0.99998573,0.00534223,-0.00534223,0.99998573,0.69842281,-4.5933385)">
        <path
           id="path4991"
           style="fill:#000000;fill-opacity:1;fill-rule:nonzero;stroke:none"
           d="m 582.51407,551.83344 c -9.87901,0.64426 -16.14941,2.25442 -22.36923,5.72539 4.8411,-6.23233 12.04342,-9.16426 21.47459,-10.84 z m -1.96613,-10.0334 c -11.02182,-3.35111 -17.02581,-3.88728 -25.21394,-2.88913 7.22082,-4.01147 13.85741,-4.57246 25.02417,-2.63512 z m 0.47277,-9.80578 c -8.11146,-6.75483 -15.50127,-8.77269 -24.46744,-9.5464 9.01939,-2.67996 17.60423,-1.04413 24.98654,3.44138 z m 3.26458,-16.99118 -1.77731,5.43599 c -5.34456,-8.70204 -11.40129,-12.77523 -19.46408,-15.2631 9.08451,-0.60612 15.85624,2.64038 21.24139,9.82711 z"
           inkscape:connector-curvature="0"
           sodipodi:nodetypes="cccccccccccccccc" />
        <path
           style="fill:#ffffff;stroke:none"
           d="m 589.23846,494.69273 c 45.06649,-1.12864 57.60227,29.6204 38.29469,82.90315 -42.16624,1.8566 -62.23173,-24.36587 -38.29469,-82.90315 z"
           id="path4993"
           inkscape:connector-curvature="0"
           sodipodi:nodetypes="ccc" />
        <g
           transform="matrix(-0.9052294,-0.42492333,-0.42492333,0.9052294,1480.5542,324.72544)"
           id="g4995"
           clip-path="url(#clipPath6987)">
          <path
             sodipodi:type="arc"
             style="fill:url(#linearGradient5147);fill-opacity:1;stroke:none"
             id="path4997"
             sodipodi:cx="680.85645"
             sodipodi:cy="1493.2469"
             sodipodi:rx="29.400219"
             sodipodi:ry="41.014709"
             d="m 710.25666,1493.2469 c 0,22.6518 -13.16292,41.0148 -29.40021,41.0148 -16.2373,0 -29.40022,-18.363 -29.40022,-41.0148 0,-22.6518 13.16292,-41.0147 29.40022,-41.0147 16.23729,0 29.40021,18.3629 29.40021,41.0147 z"
             transform="matrix(-0.93245373,-0.28197723,-0.28197723,0.93245373,1741.6229,-636.61029)" />
          <g
             transform="matrix(-0.99114735,-0.13276636,-0.13276636,0.99114735,1460.7991,173.3368)"
             id="g4999"
             clip-path="url(#clipPath4987)">
            <path
               style="fill:#20c770;fill-opacity:1;stroke:none"
               d="m 683.51518,512.01171 29.32707,-11.1052 2.49755,6.89461 -20.86508,23.64737 z"
               id="path5001"
               inkscape:connector-curvature="0"
               sodipodi:nodetypes="ccccc" />
            <path
               sodipodi:nodetypes="ccccc"
               transform="translate(0,-995.63782)"
               inkscape:connector-curvature="0"
               id="path5003"
               d="m 681.70391,1501.3826 30.76194,-7.1513 1.37291,5.0194 -27.86483,15.0291 z"
               style="fill:#179051;fill-opacity:1;stroke:none" />
          </g>
          <path
             transform="matrix(-0.74345701,-0.23750966,-0.23750966,0.74345701,1545.8755,-383.85161)"
             d="m 708.16148,1493.2469 c 0,23.8817 -12.22488,43.2415 -27.30503,43.2415 -15.08016,0 -27.30504,-19.3598 -27.30504,-43.2415 0,-23.8816 12.22488,-43.2415 27.30504,-43.2415 15.08015,0 27.30503,19.3599 27.30503,43.2415 z"
             sodipodi:ry="43.241501"
             sodipodi:rx="27.305037"
             sodipodi:cy="1493.2469"
             sodipodi:cx="680.85645"
             id="path5005"
             style="fill:#000000;stroke:none"
             sodipodi:type="arc" />
          <path
             sodipodi:type="arc"
             style="fill:#ffffff;stroke:none"
             id="path5007"
             sodipodi:cx="700.26349"
             sodipodi:cy="1475.7891"
             sodipodi:rx="8.4651718"
             sodipodi:ry="15.593426"
             d="m 708.72866,1475.7891 c 0,8.612 -3.78999,15.5934 -8.46517,15.5934 -4.67519,0 -8.46517,-6.9814 -8.46517,-15.5934 0,-8.612 3.78998,-15.5935 8.46517,-15.5935 4.67518,0 8.46517,6.9815 8.46517,15.5935 z"
             transform="matrix(0.99879961,-0.02403024,0.02403024,0.99879961,-34.959573,-908.90644)" />
          <path
             transform="matrix(0.31738726,0.00327438,-0.00327438,0.31738726,470.66328,93.726497)"
             d="m 710.07195,1475.7891 c 0,8.612 -4.3914,15.5934 -9.80846,15.5934 -5.41706,0 -9.80846,-6.9814 -9.80846,-15.5934 0,-8.612 4.3914,-15.5935 9.80846,-15.5935 5.41706,0 9.80846,6.9815 9.80846,15.5935 z"
             sodipodi:ry="15.593426"
             sodipodi:rx="9.8084602"
             sodipodi:cy="1475.7891"
             sodipodi:cx="700.26349"
             id="path5009"
             style="fill:#ffffff;stroke:none"
             sodipodi:type="arc" />
        </g>
        <path
           id="path5011"
           style="fill:#000000;fill-opacity:1;fill-rule:nonzero;stroke:none"
           d="m 623.40772,505.27968 c -0.96569,-7.10622 0.61703,-12.28011 4.18996,-19.22196 -0.665,8.85862 -0.60741,15.8816 1.62754,24.98665 z m -11.19571,-6.41411 c -3.10192,-5.7815 -1.98368,-12.88591 0.35413,-21.19511 0.10748,8.50941 2.48348,17.69083 7.24787,24.54581 z m -12.09604,-2.80981 c -3.85556,-5.32646 -4.44965,-12.48971 -3.12791,-21.04453 1.88128,8.35045 5.1007,16.50263 11.16202,22.49567 z m -12.21607,-0.74742 c -4.42638,-5.10898 -6.14159,-9.79137 -5.84623,-18.35098 3.23444,8.19778 6.62773,12.98372 13.51177,18.23413 z m 0.64901,-2.80662 c 45.46063,0.0552 62.68981,29.20269 38.98423,85.09421 17.66584,-59.56747 -2.24615,-80.30794 -39.65235,-79.83001 -7.84352,0.10003 -16.01902,-3.2031 -20.036,-10.86504 6.56271,4.00187 13.27054,5.59173 20.70412,5.60084 z"
           inkscape:connector-curvature="0"
           sodipodi:nodetypes="ccccccccccccccccccccc" />
      </g>
      <g
         id="g4393">
        <path
           style="fill:#2a901e;stroke:none;stroke-width:8;stroke-miterlimit:4;stroke-dasharray:none;fill-opacity:1"
           d="m 739.29341,179.51686 c -19.19357,-4.88173 -39.17303,-5.34953 -59.78028,-0.66637 l -1.89569,-11.38109 c -20.80086,4.89568 -38.44256,12.39314 -57.81587,26.12918 l -2.26125,-12.89024 c -30.83304,8.62432 -58.92874,20.67449 -86.9338,41.26797 3.91506,-55.88655 26.18094,-95.30908 77.57779,-107.85 l -2.93117,-10.89814 c 27.66999,-6.463188 52.50625,-3.891868 77.62279,5.05513 l 3.01569,-11.201428 c 30.69552,9.882738 54.94629,30.704888 70.33196,55.828058 z"
           id="path4391"
           inkscape:connector-curvature="0"
           sodipodi:nodetypes="cccccccccccc"
           transform="translate(0,308.2677)" />
        <path
           style="fill:#a8eba0;fill-opacity:1;stroke:none"
           d="m 739.29341,179.51686 c -19.19357,-4.88173 -39.17303,-5.34953 -59.78028,-0.66637 l -1.89569,-11.38109 c -20.80086,4.89568 -38.44256,12.39314 -57.81587,26.12918 l -2.26125,-12.89024 c -30.83304,8.62432 -58.92874,20.67449 -86.9338,41.26797 43.36385,-80.60399 141.22764,-110.77958 217.89545,-56.93133 z"
           id="path4389"
           inkscape:connector-curvature="0"
           sodipodi:nodetypes="cccccccc"
           transform="translate(0,308.2677)" />
        <path
           transform="translate(0,308.2677)"
           sodipodi:nodetypes="cccccccccccc"
           inkscape:connector-curvature="0"
           id="path3611"
           d="m 739.29341,179.51686 c -19.19357,-4.88173 -39.17303,-5.34953 -59.78028,-0.66637 l -1.89569,-11.38109 c -20.80086,4.89568 -38.44256,12.39314 -57.81587,26.12918 l -2.26125,-12.89024 c -30.83304,8.62432 -58.92874,20.67449 -86.9338,41.26797 3.91506,-55.88655 26.18094,-95.30908 77.57779,-107.85 l -2.93117,-10.89814 c 27.66999,-6.463188 52.50625,-3.891868 77.62279,5.05513 l 3.01569,-11.201428 c 30.69552,9.882738 54.94629,30.704888 70.33196,55.828058 z"
           style="fill:none;stroke:#1f7215;stroke-width:8;stroke-miterlimit:4;stroke-dasharray:none;stroke-opacity:1" />
      </g>
      <g
         id="g3994"
         transform="matrix(0.9999863,0.00523399,-0.00523399,0.9999863,2.2765838,-3.9562865)">
        <path
           sodipodi:nodetypes="cscc"
           inkscape:connector-curvature="0"
           id="path4196"
           d="m 733.01498,562.27914 c 68.61827,-33.93961 44.87655,-117.65246 37.81834,-119.40957 -7.04524,-1.75388 -31.6168,17.90965 -41.02209,53.3077 z"
           style="fill:#e588d7;fill-opacity:1;stroke:none" />
        <path
           sodipodi:nodetypes="ccc"
           inkscape:connector-curvature="0"
           id="path4632-7-25"
           d="m 764.36603,469.1236 c 4.78118,22.82678 -0.95667,46.57774 -18.07679,64.81237 12.67183,-20.04335 18.77964,-42.81953 18.07679,-64.81237 z"
           style="fill:#df59ca;fill-opacity:1;stroke:none;display:inline" />
        <path
           inkscape:original-d="m 733.01498,562.27914 c 68.61827,-33.93961 44.87655,-117.65246 37.81834,-119.40957 -7.04524,-1.75388 -31.6168,17.90965 -41.02209,53.3077"
           inkscape:path-effect="#path-effect4186"
           style="fill:#df59ca;fill-opacity:1;stroke:none"
           d="m 763.15276,531.18985 c -3.33074,5.05743 -6.87586,9.5296 -10.81262,13.84558 -2.65337,2.91323 -5.50235,5.75317 -8.67289,8.61021 -3.17054,2.85703 -6.66445,5.73299 -10.65227,8.6335 4.72545,-1.4092 9.03865,-3.16563 13.00082,-5.22899 3.96217,-2.06337 7.57647,-4.43331 10.90492,-7.13368 4.935,-4.00967 9.22165,-8.72253 12.9127,-14.32672 0.87001,-1.32096 1.70202,-2.66734 2.49438,-4.0373 7.18125,-12.46706 11.00165,-26.5968 11.96546,-40.76998 0,-10e-6 0,-10e-6 0,-10e-6 0.79922,-11.44507 -0.0784,-23.05411 -2.86028,-34.25245 -0.90141,-3.67711 -2.04735,-7.44903 -3.76623,-11.12401 -0.52211,-1.14608 -1.20239,-2.41084 -2.15481,-3.69685 -10e-6,-1e-5 -10e-6,-1e-5 -10e-6,-1e-5 -0.31626,-0.44112 -0.77198,-0.95109 -1.39067,-1.49491 -0.38272,-0.41523 -1.15412,-0.84884 -2.32162,-1.22618 -10e-6,-10e-6 -2e-5,-10e-6 -3e-5,-10e-6 -2.36557,-0.43004 -4.27998,-0.14487 -5.59092,0.40885 -2.10652,0.69882 -3.94501,1.66488 -5.55403,2.69185 -4.79606,3.02277 -8.85758,6.83072 -12.42217,10.82866 -0.36009,0.40162 -0.71641,0.80626 -1.06898,1.21385 -5.12972,5.93026 -9.38616,12.80693 -12.36118,20.04489 -2.97502,7.23796 -4.6654,14.82006 -4.9911,22.00113 3.12608,-6.43701 6.60644,-12.96492 10.50208,-19.21172 3.89565,-6.24679 8.20767,-12.20371 12.89266,-17.59696 0.322,-0.37068 0.64738,-0.7384 0.97613,-1.1031 3.30329,-3.6424 6.79452,-6.97146 10.71129,-9.39197 1.33029,-0.80933 2.57252,-1.49845 3.76525,-1.861 0.88349,-0.15223 1.33705,-0.38825 1.20839,-0.26142 0,0 -10e-6,0 -10e-6,0 -0.63714,-0.24531 -0.94199,-0.36195 -0.90713,-0.42457 -0.0256,-0.043 0.0264,0.0417 0.17942,0.2189 0,0 0,10e-6 10e-6,10e-6 0.4393,0.54781 0.83209,1.33838 1.29236,2.27432 1.40302,2.94155 2.3729,6.21943 3.23801,9.64191 2.57112,10.31536 3.3762,21.09616 2.64271,31.76771 0,0 0,0 0,0 -0.92771,13.12103 -4.39636,26.10031 -10.91022,37.3186 -0.71398,1.23522 -1.46434,2.44979 -2.24942,3.64187 z"
           id="path4129"
           inkscape:connector-curvature="0"
           sodipodi:nodetypes="csc" />
      </g>
      <g
         id="g5021"
         transform="matrix(0.99728699,0.07361125,-0.07361125,0.99728699,43.742329,-49.474434)">
        <path
           sodipodi:nodetypes="cccccccccccccccc"
           inkscape:connector-curvature="0"
           d="m 716.60621,587.33061 c 8.67319,4.77345 13.66853,8.89138 17.82893,14.6728 -1.74057,-7.69727 -7.01936,-13.40729 -14.84941,-18.92507 z m 6.03622,-8.25223 c 11.40262,1.64016 17.06721,3.70121 24.0589,8.07819 -4.83765,-6.69549 -10.60969,-10.01846 -21.54395,-13.00038 z m 3.73099,-9.08057 c 10.21073,-2.67664 17.75873,-1.36955 26.20659,1.73281 -7.03114,-6.25255 -15.49922,-8.41267 -24.08724,-7.48163 z m 4.25041,-16.77171 -0.69615,5.67663 c 8.53099,-5.6136 15.74353,-6.73326 24.10037,-5.56642 -7.9697,-4.40213 -15.47927,-4.33402 -23.40422,-0.11021 z"
           style="fill:#000000;fill-opacity:1;fill-rule:nonzero;stroke:none"
           id="path8455" />
        <path
           sodipodi:nodetypes="ccc"
           inkscape:connector-curvature="0"
           id="path8286"
           d="m 734.95524,532.48186 c -40.31593,-20.17147 -65.06282,2.45499 -70.22616,58.89235 37.38124,19.59804 66.4945,5.95631 70.22616,-58.89235 z"
           style="fill:#ffffff;stroke:none" />
        <g
           clip-path="url(#clipPath4976)"
           id="g4963">
          <path
             transform="matrix(-0.93445726,-0.27526485,-0.27526485,0.93445726,1733.2641,-644.81233)"
             d="m 710.25666,1493.2469 c 0,22.6518 -13.16292,41.0148 -29.40021,41.0148 -16.2373,0 -29.40022,-18.363 -29.40022,-41.0148 0,-22.6518 13.16292,-41.0147 29.40022,-41.0147 16.23729,0 29.40021,18.3629 29.40021,41.0147 z"
             sodipodi:ry="41.014709"
             sodipodi:rx="29.400219"
             sodipodi:cy="1493.2469"
             sodipodi:cx="680.85645"
             id="path5862"
             style="fill:url(#linearGradient6981);fill-opacity:1;stroke:none"
             sodipodi:type="arc" />
          <g
             clip-path="url(#clipPath4987)"
             id="g5874"
             transform="matrix(-0.99207643,-0.12563579,-0.12563579,0.99207643,1458.2718,167.13317)">
            <path
               sodipodi:nodetypes="ccccc"
               inkscape:connector-curvature="0"
               id="path5872"
               d="m 683.51518,512.01171 29.32707,-11.1052 2.49755,6.89461 -20.86508,23.64737 z"
               style="fill:#20c770;fill-opacity:1;stroke:none" />
            <path
               style="fill:#179051;fill-opacity:1;stroke:none"
               d="m 681.70391,1501.3826 30.76194,-7.1513 1.37291,5.0194 -27.86483,15.0291 z"
               id="path5870"
               inkscape:connector-curvature="0"
               transform="translate(0,-995.63782)"
               sodipodi:nodetypes="ccccc" />
          </g>
          <path
             sodipodi:type="arc"
             style="fill:#000000;stroke:none"
             id="path5864"
             sodipodi:cx="680.85645"
             sodipodi:cy="1493.2469"
             sodipodi:rx="27.305037"
             sodipodi:ry="43.241501"
             d="m 708.16148,1493.2469 c 0,23.8817 -12.22488,43.2415 -27.30503,43.2415 -15.08016,0 -27.30504,-19.3598 -27.30504,-43.2415 0,-23.8816 12.22488,-43.2415 27.30504,-43.2415 15.08015,0 27.30503,19.3599 27.30503,43.2415 z"
             transform="matrix(-0.74514567,-0.23215747,-0.23215747,0.74514567,1539.3394,-390.6526)" />
          <path
             transform="matrix(-0.91953174,-0.39069101,-0.39069101,0.91953174,1920.0408,-532.77904)"
             d="m 708.72866,1475.7891 c 0,8.612 -3.78999,15.5934 -8.46517,15.5934 -4.67519,0 -8.46517,-6.9814 -8.46517,-15.5934 0,-8.612 3.78998,-15.5935 8.46517,-15.5935 4.67518,0 8.46517,6.9815 8.46517,15.5935 z"
             sodipodi:ry="15.593426"
             sodipodi:rx="8.4651718"
             sodipodi:cy="1475.7891"
             sodipodi:cx="700.26349"
             id="path5866"
             style="fill:#ffffff;stroke:none"
             sodipodi:type="arc" />
          <path
             sodipodi:type="arc"
             style="fill:#ffffff;stroke:none"
             id="path5868"
             sodipodi:cx="700.26349"
             sodipodi:cy="1475.7891"
             sodipodi:rx="9.8084602"
             sodipodi:ry="15.593426"
             d="m 710.07195,1475.7891 c 0,8.612 -4.3914,15.5934 -9.80846,15.5934 -5.41706,0 -9.80846,-6.9814 -9.80846,-15.5934 0,-8.612 4.3914,-15.5935 9.80846,-15.5935 5.41706,0 9.80846,6.9815 9.80846,15.5935 z"
             transform="matrix(-0.29351266,-0.12081279,-0.12081279,0.29351266,1087.1777,221.8952)" />
        </g>
        <path
           sodipodi:nodetypes="ccccccccccccccccscscs"
           inkscape:connector-curvature="0"
           d="m 691.80978,530.29252 7.71577,-2.74634 c 3.8938,-6.02244 4.65957,-11.37852 4.375,-19.18073 -3.16226,8.30167 -6.19862,14.63461 -12.09077,21.92707 z m 12.27064,-3.99242 8.30536,0.19713 c 5.26464,-3.91552 7.27116,-10.82182 8.68569,-19.33695 -3.7132,7.65728 -9.76542,14.95896 -16.99105,19.13982 z m 12.55966,0.69325 7.88933,2.10029 c 5.75349,-3.18337 9.33512,-9.41535 11.77376,-17.72107 -5.25131,6.7597 -11.62961,12.7713 -19.66309,15.62078 z m 12.37602,3.25119 6.88954,3.36272 c 6.17783,-2.74391 9.72015,-6.25369 13.08992,-14.12762 -6.41131,6.0465 -11.51672,8.93692 -19.97946,10.7649 z m 7.49436,0.5469 c -41.17588,-19.26708 -69.49075,-0.0849 -71.78138,60.58278 9.31998,-61.4289 36.49114,-71.86101 70.14932,-55.53357 7.0576,3.42358 15.86192,3.90733 22.75394,-1.32158 -7.64123,0.83395 -14.38894,-0.57716 -21.12188,-3.72763 z"
           style="fill:#000000;fill-opacity:1;fill-rule:nonzero;stroke:none"
           id="path8380" />
      </g>
    </g>
  </g>
</svg>
