<?xml version="1.0" encoding="UTF-8" standalone="no"?>
<!-- Created with Inkscape (http://www.inkscape.org/) -->

<svg
   xmlns:dc="http://purl.org/dc/elements/1.1/"
   xmlns:cc="http://creativecommons.org/ns#"
   xmlns:rdf="http://www.w3.org/1999/02/22-rdf-syntax-ns#"
   xmlns:svg="http://www.w3.org/2000/svg"
   xmlns="http://www.w3.org/2000/svg"
   xmlns:sodipodi="http://sodipodi.sourceforge.net/DTD/sodipodi-0.dtd"
   xmlns:inkscape="http://www.inkscape.org/namespaces/inkscape"
   width="1792"
   height="1024"
   id="svg2"
   version="1.1"
   inkscape:version="0.48.3.1 r9886"
   sodipodi:docname="Breezie Parcly.svg"
   inkscape:export-filename="/home/parclytaxel/Pictures/Breezie Parcly.png"
   inkscape:export-xdpi="562.5"
   inkscape:export-ydpi="562.5">
  <defs
     id="defs4">
    <inkscape:path-effect
       effect="skeletal"
       id="path-effect5125"
       is_visible="true"
       pattern="m -6.5568957,557.20014 c -8.3191703,0 -16.1704803,1.42387 -24.6348803,4 8.21905,2.57612 16.31571,4 24.6348803,4 l 461.9999957,0 c 8.31918,0 17.15187,-1.54655 24.63489,-4 -7.48302,-2.82147 -16.31571,-4 -24.63489,-4 z"
       copytype="single_stretched"
       prop_scale="1"
       scale_y_rel="false"
       spacing="0"
       normal_offset="0"
       tang_offset="0"
       prop_units="false"
       vertical_pattern="false"
       fuse_tolerance="0"
       pattern-nodetypes="scsscss" />
    <inkscape:path-effect
       effect="skeletal"
       id="path-effect5105"
       is_visible="true"
       pattern="m 468.69794,588.31284 c -8.31917,0 -16.17048,1.42387 -24.63488,4 8.21905,2.57612 16.31571,4 24.63488,4 l 136,0 c 8.31918,0 17.15187,-1.54655 24.63489,-4 -7.48302,-2.82147 -16.31571,-4 -24.63489,-4 z"
       copytype="single_stretched"
       prop_scale="1"
       scale_y_rel="false"
       spacing="0"
       normal_offset="0"
       tang_offset="0"
       prop_units="false"
       vertical_pattern="false"
       fuse_tolerance="0"
       pattern-nodetypes="scsscss" />
    <inkscape:path-effect
       effect="skeletal"
       id="path-effect5085"
       is_visible="true"
       pattern="m 519.60963,461.03362 c -8.31917,0 -16.17048,1.42387 -24.63488,4 8.21905,2.57612 16.31571,4 24.63488,4 l 141,0 c 8.31918,0 17.15187,-1.54655 24.63489,-4 -7.48302,-2.82147 -16.31571,-4 -24.63489,-4 z"
       copytype="single_stretched"
       prop_scale="1"
       scale_y_rel="false"
       spacing="0"
       normal_offset="0"
       tang_offset="0"
       prop_units="false"
       vertical_pattern="false"
       fuse_tolerance="0"
       pattern-nodetypes="scsscss" />
    <inkscape:path-effect
       effect="skeletal"
       id="path-effect4286"
       is_visible="true"
       pattern="m 450.71435,512.12809 c -8.31917,0 -16.17048,1.42387 -24.63488,4 8.21905,2.57612 16.31571,4 24.63488,4 l 52,0 c 8.31918,0 17.15187,-1.54655 24.63489,-4 -7.48302,-2.82147 -16.31571,-4 -24.63489,-4 z"
       copytype="single_stretched"
       prop_scale="1"
       scale_y_rel="false"
       spacing="0"
       normal_offset="0"
       tang_offset="0"
       prop_units="false"
       vertical_pattern="false"
       fuse_tolerance="0"
       pattern-nodetypes="scsscss" />
    <inkscape:path-effect
       effect="skeletal"
       id="path-effect4266"
       is_visible="true"
       pattern="m 424.53648,486.28104 c -8.31917,0 -16.17048,1.42387 -24.63488,4 8.21905,2.57612 16.31571,4 24.63488,4 l 52,0 c 8.31918,0 17.15187,-1.54655 24.63489,-4 -7.48302,-2.82147 -16.31571,-4 -24.63489,-4 z"
       copytype="single_stretched"
       prop_scale="1"
       scale_y_rel="false"
       spacing="0"
       normal_offset="0"
       tang_offset="0"
       prop_units="false"
       vertical_pattern="false"
       fuse_tolerance="0"
       pattern-nodetypes="scsscss" />
    <clipPath
       clipPathUnits="userSpaceOnUse"
       id="clipPath5139">
      <path
         style="fill:none;stroke:#000000"
         d="M 739.63369,505.94541 755.89715,496.57625 708,438.36218 l -300,-15 -35,134 300.5,100 73.73509,-54.54314 -16.26345,-12.37437 z"
         id="path5141"
         inkscape:connector-curvature="0" />
    </clipPath>
    <clipPath
       clipPathUnits="userSpaceOnUse"
       id="clipPath6466">
      <path
         sodipodi:nodetypes="cc"
         inkscape:connector-curvature="0"
         id="path6468"
         d="m 411.71813,525.86052 c -5.29962,-21.61853 -3.0193,-39.72666 7.40685,-57.55077 L 414.36457,304.24321 -38.183766,278.78736 -50.911688,656.38238 403.05087,671.93873 z"
         style="fill:none;stroke:#000000" />
    </clipPath>
  </defs>
  <sodipodi:namedview
     id="base"
     pagecolor="#ffffff"
     bordercolor="#666666"
     borderopacity="1.0"
     inkscape:pageopacity="0.0"
     inkscape:pageshadow="2"
     inkscape:zoom="0.52148438"
     inkscape:cx="896"
     inkscape:cy="512"
     inkscape:document-units="px"
     inkscape:current-layer="layer1"
     showgrid="true"
     inkscape:window-width="1364"
     inkscape:window-height="698"
     inkscape:window-x="0"
     inkscape:window-y="0"
     inkscape:window-maximized="1"
     showguides="true"
     inkscape:guide-bbox="true"
     fit-margin-top="0"
     fit-margin-left="0"
     fit-margin-right="0"
     fit-margin-bottom="0">
    <inkscape:grid
       type="xygrid"
       id="grid5107"
       empspacing="8"
       visible="true"
       enabled="false"
       snapvisiblegridlinesonly="true"
       spacingx="32px"
       spacingy="32px" />
  </sodipodi:namedview>
  <metadata
     id="metadata7">
    <rdf:RDF>
      <cc:Work
         rdf:about="">
        <dc:format>image/svg+xml</dc:format>
        <dc:type
           rdf:resource="http://purl.org/dc/dcmitype/StillImage" />
        <dc:title />
      </cc:Work>
    </rdf:RDF>
  </metadata>
  <g
     inkscape:label="Layer 1"
     inkscape:groupmode="layer"
     id="layer1"
     transform="translate(-433.84535,-7.6537609)">
    <g
       id="g3850">
      <rect
         transform="translate(433.84535,7.6537609)"
         y="0"
         x="0"
         height="1024"
         width="1792"
         id="rect5109"
         style="fill:#230f38;fill-opacity:1;fill-rule:evenodd;stroke:none" />
      <path
         d="M 108.30738,457.95243 C 893.90277,595.71145 1601.9469,804.18031 2409.0432,810.96295 M 124.82963,258.67433 c 827.037,121.45831 1478.17837,-14.10368 2310.86847,16.85031"
         style="fill:none;stroke:#bda7d4;stroke-width:10.50976561999999959;stroke-linecap:butt;stroke-linejoin:miter;stroke-miterlimit:4;stroke-opacity:1;stroke-dasharray:none"
         id="path3829" />
      <path
         d="M 106.72377,510.47764 C 916.05029,637.25195 1561.6808,940.70688 2403.8436,948.5468 M 126.41321,206.14941 C 979.66305,331.32312 1621.8789,103.7859 2440.134,128.45482"
         style="fill:none;stroke:#9d7cbe;stroke-width:10.50976561999999959;stroke-linecap:butt;stroke-linejoin:miter;stroke-miterlimit:4;stroke-opacity:1;stroke-dasharray:none"
         id="path3827" />
      <path
         d="m 104.8235,573.50759 c 815.87614,103.572 1492.8434,531.85101 2294.2679,532.61361 M 127.99681,153.62416 C 1057.0521,286.93335 1631.8918,-34.340961 2444.5674,-18.615285"
         style="fill:none;stroke:#7c50a9;stroke-width:10.50976561999999959;stroke-linecap:butt;stroke-linejoin:miter;stroke-miterlimit:4;stroke-opacity:1;stroke-dasharray:none"
         id="path3825" />
      <path
         d="m 102.92319,636.5375 c 828.35858,77.62343 1490.31051,615.8916 2291.73521,616.6539 M 129.58036,101.09923 C 1096.3604,244.32079 1625.822,-181.72779 2438.4951,-166.00186"
         style="fill:none;stroke:#5c2594;stroke-width:10.50976561999999959;stroke-linecap:butt;stroke-linejoin:miter;stroke-miterlimit:4;stroke-opacity:1;stroke-dasharray:none"
         id="path3035" />
      <path
         id="path3847"
         d="M 111.47419,352.90252 C 894.4042,498.70747 1680.2311,536.08728 2417.2754,537.83293"
         style="fill:none;stroke:#ffffff;stroke-width:10.50976562;stroke-linecap:butt;stroke-linejoin:miter;stroke-miterlimit:4;stroke-opacity:1;stroke-dasharray:none" />
      <path
         d="M 109.8906,405.42745 C 886.71917,542.92225 1664.5088,677.10078 2416.343,673.44252 M 112.74107,310.88257 c 806.40439,126.68641 1563.13953,78.42409 2308.33603,100.8902"
         style="fill:none;stroke:#ded3e9;stroke-width:10.50976561999999959;stroke-linecap:butt;stroke-linejoin:miter;stroke-miterlimit:4;stroke-opacity:1;stroke-dasharray:none"
         id="path5146" />
    </g>
    <g
       id="g4114"
       transform="matrix(0.61152824,0,0,0.61152824,708.1965,169.0292)">
      <path
         id="path5135"
         style="fill:#6dc6fb;fill-opacity:1;stroke:none"
         d="m 853.66312,624.29437 c 16.00002,13.99998 145.7604,183.53252 162.64638,166.64645 12.5116,-12.51165 -71.82038,-113.8146 -152.14638,-185.06066 -2.9041,-2.57581 -73.9225,-9.52331 -67.5162,-50.69359 6.1994,-39.84077 62.3695,-27.82269 71.2597,-28.87007 110.8365,-13.05801 230.90098,-42.90192 228.24328,-60.39538 -3.5868,-23.60936 -208.8522,35.92824 -229.77458,39.7031 -7.66505,1.38295 -33.68117,-54.30205 -120.04061,-3.65889 -67.58513,-8.75353 -178.38554,-1.85915 -266.83899,-42.0497 -42.28192,-19.21162 -78.05214,74.7494 -13.064,83.6035 91.94594,12.52688 189.12283,58.64782 271.47691,52.33045 80.59887,61.96816 109.94077,23.3578 115.75449,28.44479 z"
         inkscape:connector-curvature="0"
         sodipodi:nodetypes="ssssssscsscs" />
      <path
         clip-path="url(#clipPath5139)"
         sodipodi:nodetypes="cssc"
         inkscape:connector-curvature="0"
         id="path4052"
         d="m 751.42667,502.74412 c -66.85451,-9.926 -181.1595,-1.58471 -271.93095,-42.82849 -42.28192,-19.21162 -78.05214,74.7494 -13.064,83.6035 93.50717,12.73959 192.42444,60.22376 275.88985,51.95198"
         style="fill:none;stroke:#1c92cd;stroke-width:8;stroke-linecap:butt;stroke-linejoin:miter;stroke-miterlimit:4;stroke-opacity:1;stroke-dasharray:none" />
      <path
         sodipodi:nodetypes="ccc"
         inkscape:connector-curvature="0"
         id="path4130"
         d="M 410.07712,625.59716 C 240.41758,556.02748 258.37757,411.94879 438.79205,383.21226 z"
         style="fill:#6dc6fb;fill-opacity:1;stroke:#1c92cd;stroke-width:8;stroke-linecap:butt;stroke-linejoin:miter;stroke-miterlimit:4;stroke-opacity:1;stroke-dasharray:none" />
      <path
         inkscape:connector-curvature="0"
         d="m 463.35257,378.14113 c 29.76403,-3.70282 39.7748,-41.87455 50.19698,-29.25814 10.42212,12.61636 -26.2279,31.04905 -49.82512,33.61126 z m -11.82674,3.52685 c 25.21343,-19.77658 12.08195,-45.17469 25.9077,-42.26673 13.82565,2.90829 1.41747,25.3373 -20.54011,41.62118 z m -9.95019,0.8454 c 11.94659,-21.61549 -8.90976,-43.12243 3.19446,-44.19527 12.10413,-1.07288 12.75101,23.11313 1.83952,43.54954 z m -11.64675,252.32721 c 27.80639,11.24337 27.6487,50.70566 40.96855,41.19896 13.3198,-9.50669 -17.34676,-36.75646 -39.4881,-45.30947 z m -10.51946,-6.45376 c 19.26963,25.60295 0.0401,46.76243 14.14834,47.51323 14.10829,0.7505 7.89505,-24.11753 -9.1281,-45.50708 z m -9.39681,-3.37947 c 5.97672,23.96308 -19.715,39.37317 -8.29542,43.52716 11.41953,4.154 18.27346,-19.04955 12.99328,-41.60676 z"
         style="fill:#000000;stroke:none"
         id="path5315" />
      <path
         sodipodi:nodetypes="zzz"
         inkscape:connector-curvature="0"
         id="path4126"
         d="M 313.82869,489.95287 C 336.53712,325.89444 589.36649,352.04239 564.11784,520.52461 538.86919,689.00684 291.12026,654.0113 313.82869,489.95287 z"
         style="fill:#6dc6fb;fill-opacity:1;stroke:#1c92cd;stroke-width:8;stroke-linecap:butt;stroke-linejoin:miter;stroke-miterlimit:4;stroke-opacity:1;stroke-dasharray:none" />
      <g
         id="g5147">
        <path
           style="fill:#6dc6fb;fill-opacity:1;stroke:none"
           d="M 636.33532,508.48952 C 623.84292,496.12375 611.72722,481.57486 604.13603,464.74691 591.15962,435.98115 587.91105,394.96564 573.3727,366.2833 544.89308,310.09658 496.75118,250.43701 508.80195,243.63 c 18.49931,-10.44953 58.43883,55.09224 85.02669,110.32692 14.24158,29.58602 17.28948,73.19512 28.05948,102.10771 7.3481,19.72632 18.7568,35.18339 30.9811,48.1033 z"
           id="path5145"
           inkscape:connector-curvature="0"
           sodipodi:nodetypes="cssssscc" />
        <path
           sodipodi:nodetypes="csssssc"
           inkscape:connector-curvature="0"
           id="path4134"
           d="m 592.22713,443.22382 c 2.27546,7.938 5.03255,15.64695 8.6201,23.00669 4.12307,8.37881 9.36294,15.96747 15.37782,22.94673 6.01487,6.97925 12.81294,13.34682 20.11027,19.31228 -5.86255,-7.06453 -11.41878,-14.31613 -16.34432,-21.81712 -4.92555,-7.501 -9.22288,-15.25032 -12.5617,-23.41111 -2.96438,-7.1564 -5.33006,-14.58479 -7.50852,-22.23562 -2.46662,-8.66283 -4.50698,-17.56958 -6.69456,-26.48948 -4.06137,-16.7833 -8.22837,-34.06901 -16.28568,-50.06134 -7.34172,-14.47884 -15.53413,-28.446 -23.95543,-42.19183 -7.81626,-12.76135 -15.88019,-25.30752 -23.69439,-37.94719 -3.22151,-5.21182 -6.39147,-10.42041 -9.38439,-15.69536 0,0 -10e-6,0 -10e-6,0 -2.35181,-4.15245 -4.59715,-8.27371 -6.44193,-12.48443 0,0 0,0 0,-1e-5 -1.22468,-2.92481 -2.37901,-5.55466 -2.53252,-7.97008 -0.005,-0.72567 -0.0612,-1.19994 0.0519,-1.29676 -0.0267,0.0777 -0.0647,0.0934 -0.21449,0.22359 0.58095,-0.33602 1.28725,-0.53679 1.98841,-0.58008 0.7967,-0.0729 1.73411,0.10556 2.73839,0.39419 2.74891,0.7799 5.39537,2.69919 8.12214,4.86034 10e-6,1e-5 10e-6,1e-5 2e-5,2e-5 3.64329,2.97148 6.95734,6.48965 10.17725,10.20795 1e-5,10e-6 1e-5,10e-6 2e-5,2e-5 3.96522,4.59268 7.6603,9.46888 11.22596,14.48357 0,10e-6 10e-6,2e-5 10e-6,2e-5 8.50013,11.9574 16.14731,24.56949 23.42438,37.43642 7.72592,13.6661 14.96231,27.61676 21.77864,41.7766 7.52594,15.53572 11.26004,32.92508 15.02391,50.40658 2.15815,10.15634 4.11104,20.5061 6.66791,30.78882 1.70059,6.83912 3.80074,13.73694 6.51001,20.46694 3.87085,9.54426 9.09785,18.41085 15.06327,26.2804 5.96542,7.86956 12.65537,14.7446 19.37966,20.53336 -5.30943,-7.12745 -10.62814,-14.89426 -15.38674,-23.18092 -4.75859,-8.28666 -8.94565,-17.09226 -12.08029,-26.23138 -2.25202,-6.50076 -4.08082,-13.14766 -5.72359,-19.793 -2.46993,-9.99138 -4.40236,-20.25632 -6.60652,-30.53442 -3.70643,-17.51175 -7.64565,-35.50099 -15.63926,-52.2062 -6.88499,-14.30383 -14.20276,-28.4102 -22.02278,-42.24375 -7.35297,-13.01259 -15.14779,-25.85698 -23.86729,-38.13329 -3.65836,-5.1519 -7.50816,-10.2255 -11.69015,-15.07575 0,-1e-5 0,-1e-5 0,-1e-5 -3.36587,-3.91488 -7.0092,-7.75401 -11.1651,-11.17084 -10e-6,0 -10e-6,-10e-6 -2e-5,-10e-6 -2.98094,-2.51403 -6.53036,-4.91832 -10.83102,-6.31532 -1.68634,-0.54223 -3.57343,-0.83447 -5.58745,-0.7354 -1.89535,0.11559 -3.7503,0.65619 -5.43435,1.59958 -1.60532,0.95233 -2.75946,2.34031 -3.36176,3.98744 -0.59294,1.82817 -0.68911,3.46338 -0.50782,4.77956 0.43423,4.01397 1.80274,7.47372 3.17505,10.45977 0,1e-5 10e-6,2e-5 10e-6,2e-5 2.03371,4.61693 4.40126,8.98173 6.80855,13.21504 0,1e-5 10e-6,2e-5 10e-6,2e-5 3.07413,5.41548 6.2951,10.71016 9.53744,15.95361 7.86356,12.71914 15.92164,25.2558 23.67683,37.91867 8.36497,13.66187 16.45286,27.44188 23.64189,41.6304 7.56799,14.83441 11.5228,31.54623 15.6491,48.3397 2.1465,8.85367 4.21306,17.8614 6.77317,26.79237 z"
           style="fill:#1c92cd;fill-opacity:1;stroke:none"
           inkscape:path-effect="#path-effect5085"
           inkscape:original-d="M 636.33532,508.48952 C 623.84292,496.12375 611.72722,481.57486 604.13603,464.74691 591.15962,435.98115 587.91105,394.96564 573.3727,366.2833 544.89308,310.09658 496.75118,250.43701 508.80195,243.63 c 18.49931,-10.44953 58.43883,55.09224 85.02669,110.32692 14.24158,29.58602 17.28948,73.19512 28.05948,102.10771 7.3481,19.72632 18.7568,35.18339 30.9811,48.1033" />
      </g>
      <path
         inkscape:original-d="m 724.30952,585.06214 c 91,77 123.2297,33.87383 129.3536,39.23223 16,14 145.7604,183.53252 162.64638,166.64645 12.5116,-12.51165 -71.82038,-113.8146 -152.14638,-185.06066 -2.9041,-2.57581 -73.9225,-9.52331 -67.5162,-50.69359 6.1994,-39.84077 62.3695,-27.82269 71.2597,-28.87007 110.8365,-13.05801 230.90098,-42.90192 228.24328,-60.39538 -3.5868,-23.60936 -208.85218,35.92837 -229.77458,39.7031 -8.0075,1.44473 -36.0424,-59.39154 -131.8419,3.71958"
         inkscape:path-effect="#path-effect5125"
         sodipodi:nodetypes="csssssssc"
         inkscape:connector-curvature="0"
         d="m 783.05216,618.99818 c -10.35194,-4.50347 -20.05622,-9.70504 -29.69706,-15.40044 -9.64084,-5.6954 -19.2121,-11.90227 -29.04558,-18.5356 7.90853,8.37913 16.32306,16.28163 25.51013,23.30944 9.18707,7.02781 19.14674,13.18769 30.03214,17.95666 0.2043,0.0895 0.40882,0.17861 0.61356,0.26731 12.57385,5.47277 26.31465,9.23737 40.44587,8.94714 4.72595,-0.11309 9.4479,-0.715 14.06286,-1.82479 3.50361,-0.84723 6.88688,-1.9752 10.15495,-3.26358 2e-5,-1e-5 4e-5,-2e-5 6e-5,-2e-5 2.2942,-0.89702 4.29269,-1.84178 6.14725,-2.40929 0.59978,-0.14617 0.91574,-0.27704 0.94295,-0.22837 0,0 0,0 0,0 -0.17148,0.0885 -0.51301,-0.10677 -1.19019,-0.51196 0.50764,0.44036 1.03196,0.96674 1.60168,1.54523 0.78735,0.80394 1.56852,1.64414 2.35715,2.50674 2.20475,2.41237 4.36572,4.90075 6.53273,7.41907 2e-5,2e-5 3e-5,3e-5 5e-5,5e-5 6.35017,7.38099 12.59194,14.88601 18.85958,22.40008 16.93442,20.30313 33.86428,40.65368 51.2557,60.64913 8.86674,10.19448 17.85212,20.31064 27.08159,30.2254 7.90797,8.49739 16.00249,16.90282 24.58236,24.87521 3.40479,3.16451 6.91308,6.27699 10.60149,9.22975 2e-5,10e-6 3e-5,3e-5 5e-5,4e-5 2.8512,2.29003 5.87746,4.53779 9.20392,6.49762 0,10e-6 0,2e-5 0,3e-5 2.1995,1.35842 4.8739,2.68065 8.105,3.29707 1.1695,0.23346 2.5614,0.2518 4.1065,-0.0678 10e-5,0 10e-5,-10e-6 10e-5,-10e-6 1.4114,-0.32618 2.7212,-1.04118 3.8209,-2.11304 0.8566,-0.88449 1.4637,-1.86692 1.8209,-2.88502 0.3941,-1.14146 0.5701,-2.21025 0.584,-3.16266 0.037,-2.50768 -0.4427,-4.71641 -1.0614,-6.58052 -0.8394,-2.69742 -1.929,-5.20717 -3.0866,-7.56964 -1.4933,-3.06442 -3.1416,-6.00528 -4.8515,-8.8595 0,-2e-5 -1e-4,-4e-5 -1e-4,-6e-5 -4.459,-7.44594 -9.3991,-14.52105 -14.47474,-21.40973 0,-10e-6 -10e-6,-2e-5 -10e-6,-3e-5 -6.39747,-8.68766 -13.09081,-17.12764 -19.93375,-25.41318 -16.43805,-19.9044 -33.78359,-39.02088 -51.67225,-57.57196 -10e-6,-1e-5 -10e-6,-2e-5 -2e-5,-3e-5 -19.15111,-19.86252 -38.98099,-39.10026 -59.64508,-57.42925 -0.86546,-0.6542 -1.4135,-0.95967 -1.60403,-0.96364 -0.47975,-0.19167 -0.88678,-0.32504 -1.21322,-0.41821 -1.03984,-0.30767 -2.01919,-0.54005 -2.9226,-0.74945 -2.93537,-0.68725 -5.83215,-1.31172 -8.66431,-1.98562 -8.23734,-1.96635 -16.3219,-4.26932 -23.96296,-7.45753 -1e-5,0 -2e-5,-10e-6 -3e-5,-10e-6 -4.16094,-1.73636 -8.17356,-3.70526 -11.88588,-6.05566 -3.55221,-2.25877 -6.83435,-4.81357 -9.49889,-7.81169 -2.53598,-2.85561 -4.56757,-6.11467 -5.66916,-9.5948 -1.2412,-3.76699 -1.41679,-7.958 -0.79691,-12.04946 0.6416,-4.00913 1.88648,-7.87564 3.9309,-11.15403 1.75777,-2.86957 4.16334,-5.38473 6.9442,-7.37974 5.60624,-4.10848 12.87374,-6.04975 20.31761,-7.09832 2e-5,-10e-6 5e-5,-10e-6 7e-5,-10e-6 7.12386,-0.95434 14.46933,-0.89873 21.88583,-0.5086 2.82674,0.15216 5.69729,0.37159 8.61795,0.55488 2e-5,0 4e-5,10e-6 6e-5,10e-6 1.06501,0.0676 2.17187,0.1314 3.32122,0.15878 2e-5,0 4e-5,0 7e-5,0 0.75887,0.0278 1.6816,0.0288 2.75737,-0.0855 27.81197,-3.27672 55.50964,-7.48082 83.04834,-12.52356 2e-5,0 4e-5,0 6e-5,-1e-5 24.86434,-4.55186 49.64596,-9.75887 74.16876,-16.1112 0,0 0,-1e-5 0,-2e-5 10.0314,-2.59826 20.0372,-5.39825 29.9516,-8.56931 10e-5,0 10e-5,-10e-6 10e-5,-2e-5 7.7999,-2.49206 15.6054,-5.21029 23.2404,-8.51257 5.1247,-2.18491 10.4676,-4.6936 15.3185,-8.40784 1.535,-1.13656 3.1433,-2.63598 4.5044,-4.66245 0.5245,-0.7848 0.9791,-1.74353 1.3006,-2.87094 0.2842,-1.02023 0.3597,-2.13902 0.1971,-3.31066 0,-4e-5 0,-9e-5 0,-1.3e-4 -0.2504,-1.5164 -0.8821,-2.86926 -1.8261,-3.96845 -1.0559,-1.17357 -2.1887,-1.98383 -3.2694,-2.48875 0,-10e-6 0,-2e-5 -10e-5,-3e-5 -2.9702,-1.4189 -5.9105,-1.93876 -8.4897,-2.14778 -3.845,-0.39237 -7.6188,-0.3741 -11.2767,-0.21736 0,10e-6 0,10e-6 -10e-5,10e-6 -4.7263,0.19495 -9.4021,0.62643 -14.0251,1.16221 -11.6495,1.34866 -23.1635,3.34038 -34.5799,5.52385 0,1e-5 0,1e-5 -10e-5,2e-5 -13.3248,2.54663 -26.5703,5.40988 -39.76346,8.41978 -25.88739,5.90579 -51.61129,12.40401 -77.27412,19.03131 -9.50536,2.45459 -18.99088,4.93601 -28.4795,7.35496 -2e-5,0 -4e-5,10e-6 -7e-5,10e-6 -3.23958,0.82579 -6.46701,1.64303 -9.69045,2.41751 -1.99963,0.47821 -3.91292,0.94891 -5.76459,1.28016 0.91735,0.0712 1.16533,-0.0359 0.82096,-0.0191 -0.40856,-0.18758 -0.92513,-0.61903 -1.6184,-1.15893 -2.05953,-1.67275 -4.1061,-3.63871 -6.39143,-5.6031 -2e-5,-2e-5 -3e-5,-3e-5 -5e-5,-5e-5 -6.94411,-5.99556 -14.8795,-11.1137 -23.7541,-14.31433 -5.87822,-2.09618 -12.0231,-3.33387 -18.20243,-3.76883 -6.81816,-0.47492 -13.62807,-0.019 -20.26902,1.11346 -0.86788,0.148 -1.73449,0.30992 -2.59901,0.48521 -11.38401,2.32614 -22.40505,6.74769 -32.40057,12.27967 -9.99551,5.53198 -18.98004,12.12915 -26.71764,18.64201 9.13568,-4.39065 19.00783,-9.19826 29.23388,-13.37768 10.22605,-4.17943 20.80891,-7.68745 31.4275,-9.7053 0.79994,-0.15333 1.59942,-0.29795 2.39792,-0.43338 6.1101,-1.03634 12.28425,-1.46243 18.36173,-1.02398 5.49599,0.39199 10.93213,1.4809 16.0762,3.32249 7.71858,2.72735 14.81277,7.35646 21.23049,12.84723 2.06488,1.77522 4.16502,3.78602 6.55216,5.73766 0.75148,0.63769 1.71384,1.36348 2.95576,2.0419 0.73502,0.58314 2.19952,0.95315 4.31647,0.80793 2.17333,-0.39493 4.23621,-0.89707 6.21336,-1.37449 3.28637,-0.78982 6.5495,-1.6159 9.79753,-2.44402 2e-5,-1e-5 4e-5,-1e-5 6e-5,-2e-5 9.5209,-2.42723 19.01441,-4.91071 28.50349,-7.36111 25.6358,-6.6197 51.28603,-13.10001 77.05311,-18.97758 13.13412,-2.99585 26.28712,-5.8397 39.48582,-8.3616 10e-5,0 10e-5,-1e-5 10e-5,-1e-5 11.3261,-2.16249 22.6457,-4.12446 33.997,-5.43459 4.5026,-0.51911 8.9812,-0.93519 13.4337,-1.11599 0,0 0,0 0,0 3.4761,-0.13529 6.8648,-0.16566 10.1213,0.18107 2.295,0.29826 4.3108,0.54692 5.7164,1.33419 0,10e-6 0,10e-6 0,2e-5 0.4343,0.25895 0.7384,0.41822 0.7833,0.53579 0,0 10e-5,0 10e-5,0 0.01,0.0194 0.034,0.0427 0,-0.0204 0,0 0,0 0,0 0.01,-0.0573 -0.01,-0.0288 -0.016,0.0398 -0.01,0.11252 -0.1322,0.31885 -0.302,0.61373 -0.4971,0.8637 -1.4962,1.69777 -2.6768,2.66641 -3.8495,3.03061 -8.6182,5.19973 -13.5958,7.38912 -7.2704,3.15175 -14.8288,5.77722 -22.4992,8.23433 0,1e-5 0,1e-5 -10e-5,2e-5 -9.7269,3.11247 -19.5889,5.8709 -29.5204,8.4446 -24.28244,6.29208 -48.87558,11.45747 -73.60327,15.98635 -3e-5,0 -5e-5,1e-5 -7e-5,1e-5 -27.37888,5.01317 -54.90826,9.19197 -82.54346,12.44766 -0.3806,0.0573 -0.92991,0.0387 -1.63709,0.0327 -0.96118,-0.0212 -1.96243,-0.0805 -3.00438,-0.14519 -2e-5,0 -4e-5,0 -6e-5,0 -2.8486,-0.17883 -5.74248,-0.39961 -8.68795,-0.55897 -10e-6,0 -2e-5,0 -3e-5,0 -7.67141,-0.42415 -15.5102,-0.46061 -23.36579,0.56602 -10e-6,0 -2e-5,0 -3e-5,0 -8.21597,1.02238 -16.68589,3.43881 -23.92486,8.52381 -3.61204,2.58047 -6.73636,5.86599 -9.10042,9.69081 -2.67271,4.38286 -4.28179,9.23749 -5.02351,14.11839 -0.82073,5.1667 -0.54797,10.58671 1.08842,15.73647 1.53952,4.70382 4.12212,8.9226 7.32222,12.474 3.31505,3.68085 7.16006,6.71161 11.1875,9.23959 4.19673,2.64439 8.60883,4.82066 13.08433,6.67774 2e-5,0 4e-5,10e-6 6e-5,2e-5 8.21878,3.41071 16.71072,5.84594 25.18512,7.85427 2e-5,0 4e-5,10e-6 6e-5,10e-6 2.94199,0.69941 5.84776,1.326 8.69127,1.992 0.89936,0.21275 1.72394,0.40395 2.45828,0.62589 2e-5,10e-6 4e-5,10e-6 5e-5,2e-5 0.24056,0.0761 0.39864,0.1215 0.46639,0.15434 0.13925,0.13126 -0.0705,-0.0356 -0.66929,-0.45324 20.4864,18.1699 40.16613,37.2636 59.19461,56.99716 2e-5,2e-5 3e-5,3e-5 5e-5,5e-5 17.7752,18.43593 34.98418,37.39943 51.26257,57.11302 6.77501,8.20512 13.37717,16.5282 19.66018,25.06249 2e-5,10e-6 3e-5,3e-5 4e-5,5e-5 4.9926,6.78542 9.79186,13.64868 14.05206,20.77416 0,2e-5 0,4e-5 0,6e-5 1.6307,2.72846 3.1695,5.46695 4.523,8.25242 1.0497,2.17337 1.9887,4.30153 2.6348,6.42486 0.4339,1.55207 0.7974,2.88338 0.7113,3.94826 -0.031,0.35776 -0.047,0.60343 -0.1027,0.69329 -0.031,0.0456 -0.019,0.0576 0.036,-0.0261 0.06,-0.0326 0.027,-0.0281 0.01,-0.0183 0,0 0,0 0,0 -0.1056,0.0679 -0.4444,0.0162 -0.9469,-0.0325 -1.5963,-0.19812 -3.3654,-1.19112 -5.389,-2.30937 0,-1e-5 0,-2e-5 0,-3e-5 -2.8259,-1.64828 -5.5353,-3.67805 -8.2533,-5.84364 -10e-6,-10e-6 -3e-5,-3e-5 -4e-5,-4e-5 -3.47686,-2.77976 -6.8362,-5.76379 -10.15464,-8.84437 -8.36424,-7.76668 -16.3218,-16.03529 -24.17146,-24.46477 -9.14491,-9.82303 -18.07007,-19.87225 -26.90091,-30.02462 -17.31506,-19.90645 -34.20915,-40.215 -51.14839,-60.52315 -6.2626,-7.5085 -12.53066,-15.04456 -18.93848,-22.49321 -10e-6,-2e-5 -3e-5,-3e-5 -4e-5,-5e-5 -2.18305,-2.53811 -4.39689,-5.08611 -6.69133,-7.59794 -0.82048,-0.89851 -1.6645,-1.80518 -2.54572,-2.70613 -0.61253,-0.6295 -1.28664,-1.29754 -2.05105,-1.97022 -1.46692,-1.09621 -2.8936,-1.56067 -4.11446,-1.46733 -4e-5,0 -8e-5,0 -1.2e-4,0 -1.4188,0.0553 -2.52064,0.30838 -3.3006,0.595 -2.52622,0.80663 -4.70267,1.81422 -6.68111,2.59774 -10e-6,1e-5 -3e-5,2e-5 -5e-5,2e-5 -3.0113,1.18146 -6.04268,2.19846 -9.09927,2.93065 -4.0436,0.97481 -8.20561,1.50341 -12.38304,1.60488 -12.54113,0.35254 -25.16095,-3.19452 -37.0829,-8.29451 -0.19466,-0.0837 -0.38914,-0.16781 -0.58343,-0.25233 z"
         style="fill:#1c92cd;fill-opacity:1;stroke:none"
         id="path4175" />
      <g
         id="g4687">
        <path
           inkscape:connector-curvature="0"
           style="fill:#6dc6fb;fill-opacity:1;stroke:none"
           d="m 554.74832,490.92186 c 30.61771,-66.23949 -17.67744,-121.16964 -30.09719,-121.63371 -5.95706,-0.22304 -37.83103,46.21179 -16.45679,85.96987 z"
           id="path4685"
           sodipodi:nodetypes="cccc" />
        <path
           id="path4050"
           d="m 560.18975,436.59049 c 0.2765,2.53102 0.4774,5.04888 0.60341,7.55917 0.39891,7.72441 0.071,15.38676 -0.91829,23.14377 -0.98934,7.75701 -2.64284,15.61378 -5.12655,23.62843 4.39701,-6.86982 7.90089,-14.37565 10.2874,-22.29108 2.38651,-7.91544 3.65669,-16.2433 3.58972,-24.70632 -0.0251,-2.73211 -0.18717,-5.47024 -0.48568,-8.20249 -1.20259,-11.00745 -4.15682,-21.80269 -8.64512,-31.90591 -4.38202,-9.90298 -10.202,-19.29797 -17.66264,-27.36164 0,0 0,-1e-5 0,-1e-5 -2.57962,-2.80222 -5.46198,-5.51823 -8.80736,-7.82472 -1.19799,-0.83116 -2.54446,-1.63075 -4.06708,-2.29921 0,0 0,-1e-5 0,-1e-5 -1.05771,-0.50762 -2.4494,-0.9217 -4.15692,-1.03952 -1e-5,0 -2e-5,0 -2e-5,0 -1.93148,0.13854 -3.14533,0.58175 -3.62812,1.07082 -1.06177,0.66643 -1.90195,1.36995 -2.56623,2.02161 0,0 -10e-6,1e-5 -10e-6,1e-5 -2.10231,2.01196 -3.81404,4.19912 -5.31243,6.34457 -4.62521,6.56161 -8.17985,13.76146 -10.87783,21.18063 -0.42263,1.15374 -0.8241,2.31677 -1.2033,3.48819 -2.6273,8.11636 -3.94143,16.95791 -3.49429,25.59989 0.29829,5.74315 1.4285,11.35593 3.24322,16.49687 1.81471,5.14095 4.311,9.80611 7.23271,13.76448 -1.59794,-4.67004 -2.78069,-9.60331 -3.46203,-14.68899 -0.68135,-5.08568 -0.86212,-10.32126 -0.51282,-15.52297 0.52402,-7.8827 2.20674,-15.73717 4.61086,-23.18706 0.34698,-1.07523 0.71424,-2.14462 1.10065,-3.20726 2.51788,-6.86995 5.74555,-13.44558 9.89691,-19.30797 1.38563,-1.93713 2.75316,-3.72687 4.27982,-5.1523 0.50893,-0.45961 0.90015,-0.82029 1.21936,-0.99308 0.37437,-0.0318 0.10369,-0.0891 -0.82546,0.087 0,0 -10e-6,0 -10e-6,0 0.17705,-0.0474 0.61152,0.15016 1.28526,0.38998 0,0 0,0 10e-6,0 0.87002,0.3644 1.76762,0.91657 2.72047,1.55695 2.6588,1.80136 5.09159,4.12975 7.45867,6.66184 0,1e-5 0,1e-5 0,1e-5 6.7689,7.28089 12.10695,15.94475 16.21688,25.16825 4.15541,9.3651 6.89687,19.36774 8.00684,29.52811 z"
           style="fill:#1c92cd;fill-opacity:1;stroke:none"
           inkscape:connector-curvature="0"
           inkscape:path-effect="#path-effect4266"
           inkscape:original-d="m 554.74832,490.92186 c 30.61771,-66.23949 -17.67744,-121.16964 -30.09719,-121.63371 -5.95706,-0.22304 -37.83103,46.21179 -16.45679,85.96987" />
      </g>
      <g
         id="g5151">
        <path
           sodipodi:nodetypes="cscc"
           inkscape:connector-curvature="0"
           id="path5143"
           d="M 646.89532,578.52661 C 557.78261,679.80731 452.92929,823.26495 442.30952,805.94082 430.39311,786.50146 536.28512,660.752 635.43082,569.23371 z"
           style="fill:#6dc6fb;fill-opacity:1;stroke:none" />
        <path
           style="fill:#1c92cd;fill-opacity:1;stroke:none"
           d="m 596.71227,643.81105 c 17.70213,-21.39946 33.43751,-42.35249 50.18305,-65.28444 -20.07223,18.91315 -38.61781,38.75215 -56.34755,60.18503 -4.94928,5.98301 -9.88396,11.97609 -14.81074,17.97328 -21.23252,25.8448 -42.25104,51.82704 -63.6408,77.46302 -8.85856,10.61686 -17.7704,21.16564 -26.88546,31.5114 -1e-5,10e-6 -1e-5,2e-5 -2e-5,2e-5 -7.09778,8.05363 -14.25569,15.98653 -21.80091,23.45736 -2.7833,2.75469 -5.59119,5.4245 -8.50588,7.90358 0,0 -10e-6,0 -10e-6,10e-6 -2.16286,1.82856 -4.2789,3.53128 -6.48493,4.85731 -0.79245,0.47313 -1.52861,0.88042 -2.22703,1.15474 0,0 -10e-6,0 -10e-6,0 -0.54868,0.19527 -0.94224,0.34534 -1.17299,0.33828 -0.1306,-0.0389 -0.0901,0.0205 0.21738,0.0895 0.30195,0.18984 0.45065,0.28396 0.4834,0.39017 -0.0952,-0.11022 -0.16369,-0.38372 -0.24946,-0.7484 -0.0972,-0.46064 -0.0919,-1.0478 -0.0553,-1.72947 0.10621,-1.88392 0.72787,-3.91569 1.47351,-6.08945 0,-10e-6 0,-2e-5 10e-6,-2e-5 1.038,-2.93361 2.3952,-5.82911 3.88128,-8.73731 1e-5,0 1e-5,-10e-6 1e-5,-2e-5 1.87815,-3.66489 3.9631,-7.25989 6.15352,-10.82766 1e-5,-10e-6 1e-5,-10e-6 2e-5,-2e-5 5.62213,-9.15577 11.85978,-17.98507 18.32458,-26.70104 8.03934,-10.83493 16.44907,-21.41643 25.05953,-31.8546 20.52267,-24.87822 42.12043,-48.88628 64.34714,-72.3144 4.88448,-5.14815 9.79985,-10.26666 14.74727,-15.35344 9.66606,-9.93833 19.48036,-20.32747 28.98268,-30.56317 9.50232,-10.2357 18.69347,-20.31792 27.0463,-29.69761 -10.14176,7.44167 -20.7425,16.10374 -31.22014,25.41788 -10.47764,9.31413 -20.83163,19.27915 -30.54387,29.265 -4.97106,5.11109 -9.90928,10.2535 -14.81582,15.42511 -22.3253,23.5298 -44.04557,47.67629 -64.71466,72.7297 -8.67329,10.51276 -17.16747,21.20216 -25.31289,32.17831 -6.54336,8.81424 -12.91165,17.83671 -18.71649,27.28052 0,0 0,1e-5 -10e-6,1e-5 -2.26434,3.68322 -4.44996,7.45717 -6.45551,11.36452 -1.58546,3.08057 -3.08229,6.29923 -4.30019,9.7068 0,1e-5 0,2e-5 0,2e-5 -0.89934,2.45014 -1.66833,5.1837 -1.91551,8.19483 -0.0948,1.1376 -0.0648,2.38964 0.16136,3.7241 0.18372,1.13102 0.60311,2.32532 1.30218,3.51081 0.6406,1.0978 1.65972,2.03666 3.02004,2.70875 1.42305,0.57733 2.72769,0.74722 3.81805,0.59825 1.3632,-0.15076 2.51624,-0.48423 3.45144,-0.88848 0,0 10e-6,0 2e-5,-10e-6 1.25315,-0.51416 2.37391,-1.11427 3.38084,-1.7332 2.78048,-1.70031 5.2416,-3.6522 7.52021,-5.60483 0,-10e-6 10e-6,-10e-6 2e-5,-2e-5 3.13375,-2.6702 6.08963,-5.47595 8.94985,-8.31137 7.75402,-7.68362 15.0362,-15.74827 22.17372,-23.85262 10e-6,-1e-5 10e-6,-1e-5 2e-5,-2e-5 9.1877,-10.42907 18.1462,-21.03226 27.02543,-31.67465 21.44128,-25.69829 42.47274,-51.69615 63.6796,-77.50988 4.92316,-5.99246 9.85218,-11.9785 14.79376,-17.95219 z"
           id="path4132"
           inkscape:connector-curvature="0"
           sodipodi:nodetypes="csc"
           inkscape:path-effect="#path-effect5105"
           inkscape:original-d="M 646.89532,578.52661 C 557.78261,679.80731 452.92929,823.26495 442.30952,805.94082 430.39311,786.50146 536.28512,660.752 635.43082,569.23371" />
      </g>
      <g
         id="g4199"
         style="display:inline"
         transform="matrix(-1.2255026,-0.17962101,-0.17962101,1.2255026,2094.7652,-91.165788)">
        <path
           style="fill:#f3a4d9;fill-opacity:1;stroke:none"
           d="m 977.40897,674.50169 c -110.2056,1.83615 -130.00565,87.1751 -263.93888,93.75526 -94.62762,4.64907 -206.20903,-62.57074 -215.07495,-177.81297 18.72653,31.21527 37.80537,49.89521 67.59419,62.30772 -22.30711,-32.65868 -27.92871,-63.35645 -22.76209,-96.18937 39.67173,81.1516 102.92807,114.49749 190.42081,103.4404 -35.95327,-8.17983 -59.52179,-22.10389 -84.71457,-47.44821 151.05952,39.449 184.54212,-13.94701 330.8758,47.41018 9.50587,3.98577 5.13841,14.41138 -2.40031,14.53699 z"
           id="path6482"
           inkscape:connector-curvature="0"
           sodipodi:nodetypes="sscccccss" />
        <path
           style="fill:#961370;fill-opacity:1;stroke:none"
           d="m 723.65062,711.43623 c -72.47527,2.36039 -165.72912,-50.60776 -180.42338,-154.8739 -5.16662,32.83292 0.45498,63.53069 22.76209,96.18937 -29.78882,-12.41251 -48.86766,-31.09245 -67.59419,-62.30772 8.86592,115.24223 120.44733,182.46204 215.07495,177.81297 133.93323,-6.58016 153.73328,-91.91902 263.93888,-93.75526 3.67088,-0.0612 6.58984,-2.56454 7.57145,-5.46985 -142.71322,-24.91282 -156.44285,38.9884 -261.3298,42.40439 z"
           id="path4050-9"
           inkscape:connector-curvature="0"
           sodipodi:nodetypes="scccsscs" />
        <path
           sodipodi:nodetypes="sscccccss"
           inkscape:connector-curvature="0"
           id="path3243"
           d="m 977.40897,674.50169 c -110.2056,1.83615 -130.00565,87.1751 -263.93888,93.75526 -94.62762,4.64907 -206.20903,-62.57074 -215.07495,-177.81297 18.72653,31.21527 37.80537,49.89521 67.59419,62.30772 -22.30711,-32.65868 -27.92871,-63.35645 -22.76209,-96.18937 39.67173,81.1516 102.92807,114.49749 190.42081,103.4404 -35.95327,-8.17983 -59.52179,-22.10389 -84.71457,-47.44821 151.05952,39.449 184.54212,-13.94701 330.8758,47.41018 9.50587,3.98577 5.13841,14.41138 -2.40031,14.53699 z"
           style="fill:none;stroke:#d91e9b;stroke-width:6.45892572;stroke-linecap:butt;stroke-linejoin:miter;stroke-miterlimit:20;stroke-opacity:1;stroke-dasharray:none" />
      </g>
      <g
         transform="translate(10.292893,45.155076)"
         style="opacity:0.7;display:inline"
         id="g4047">
        <path
           inkscape:connector-curvature="0"
           style="opacity:0.428;fill:#ffffff;stroke:none"
           d="m 1737.2573,702.68024 c 342.896,60.12168 355.1809,-30.78646 151.9728,-45.09664 -593.9855,-41.82924 -401.187,-133.92069 -1259.17123,-141.96007 18.48377,215.27134 -76.0423,489.31917 342.61234,682.38527 301.93869,139.2415 868.94349,63.9892 378.13049,-254.83574 250.1752,115.11964 697.1524,-71.7855 270.1271,-114.2857 -294.4408,-29.30456 -545.6936,-141.33611 -738.9749,-209.8962 137.6895,20.43187 274.4107,101.99 472.3373,57.40484 129.2791,-29.12154 -11.7738,-89.63964 -146.9198,-87.81335 -208.4894,2.81742 -387.38933,-26.94749 -531.46506,-62.72903 654.51426,1.36115 726.34566,118.08846 1061.35096,176.82662 z"
           id="path4012" />
        <path
           id="path3924"
           style="opacity:0.25;fill:#ffffff;fill-rule:evenodd;stroke:none"
           d="m 1500.3476,812.15062 c 110.0049,37.18225 34.8143,91.6368 -89.9038,70.10868 -201.5414,-34.78892 -341.4504,-184.36632 -528.4899,-263.26814 48.91085,17.34949 101.53401,37.48277 157.6407,58.35808 158.6636,81.47126 224.6159,126.40618 351.3612,166.87668 97.9621,31.27987 95.8857,-20.31844 -25.3266,-61.24484 43.6986,11.10226 88.6011,21.00383 134.7184,29.16954 z M 814.14478,1104.0803 c 249.78292,90.0687 427.49642,-6.4488 352.80502,-98.2735 C 1097.0859,919.91694 874.71536,686.00902 630.05887,515.62354 645.71664,697.9819 580.27921,922.51792 814.14478,1104.0803 z M 681.90458,581.42141 C 729.41431,750.13108 835.26055,1084.0723 995.32046,1024.9012 1109.3631,982.74183 814.835,763.06676 681.90458,581.42141 z M 1199.125,898 c 330.8175,145.1287 195.4322,368.6468 -205.8155,309.0218 306.5236,126.6826 837.1519,47.7312 357.4922,-263.84874 211.3356,97.24734 563.1097,-21.03112 409.886,-85.68102 C 1707.8254,951.25633 1504.4668,957.37213 1199.125,898 z M 770.14212,568.43007 c 269.14458,44.50969 593.90228,30.01888 569.44848,77.88859 -25.502,49.92165 -392.23879,-24.2057 -569.44848,-77.88859 z"
           inkscape:connector-curvature="0" />
        <path
           id="path3878"
           style="fill:none;stroke:#ffffff;stroke-width:6;stroke-linecap:butt;stroke-linejoin:miter;stroke-miterlimit:20;stroke-opacity:1;stroke-dasharray:none"
           d="m 1039.4457,677.29452 c 158.8125,81.52598 224.7648,126.4609 351.5101,166.9314 97.9621,31.27987 95.8857,-20.31844 -25.2548,-61.22246 M 770.14212,568.43007 c 269.14458,44.50969 593.90228,30.01888 569.44848,77.88859 -25.502,49.92165 -392.23879,-24.2057 -569.44848,-77.88859 z m -88.23754,12.99134 C 729.41431,750.13108 835.26055,1084.0723 995.32046,1024.9012 1109.3631,982.74183 814.835,763.06676 681.90458,581.42141 z M 1175.6875,655.5 c 106.5891,-10.18249 96.7019,-25.9384 2.9063,-48.40625 m -130.625,-8.96875 c 66.0222,20.79919 72.0323,32.87285 -1.0626,36.625 m 232.4688,166.5625 c 122.1231,33.82932 138.2697,20.05739 82.4375,-19.3125 m -77.4687,-21.34375 c 13.0835,17.62369 -13.5704,21.22565 -105.8126,-9.90625 M 1157.75,739.6875 c 8.0153,-3.29849 13.5884,-8.10853 16.2812,-14.15625 m -281.43745,88.875 c -33.18363,33.02714 -79.05341,30.2605 -131.9375,-0.84375 m 37.40625,78.0625 c 59.70095,55.79651 130.3707,79.26158 196.6875,40.625 M 768.78125,684.875 c -16.87968,6.23783 -35.54278,6.19895 -55.5625,0.5 M 732,740.25 c 34.10404,15.93396 64.98761,17.43733 90.90625,1.96875 m -9.01243,361.66645 c 250.03388,90.2638 427.74738,-6.2537 353.05598,-98.0784 C 1097.0859,919.91694 874.71536,686.00902 630.05887,515.62354 M 1760.75,857.53125 c -52.9246,93.72508 -256.2832,99.84088 -561.625,40.46875 330.8175,145.1287 195.4322,368.6468 -206.15625,308.875 M 881.9539,618.99116 c 187.0395,78.90182 326.9485,228.47922 528.4899,263.26814 124.7181,21.52812 199.9087,-32.92643 90.1055,-70.07299 m 236.708,-109.50607 c 342.896,60.12168 355.1809,-30.78646 151.9728,-45.09664 -593.9855,-41.82924 -401.187,-133.92069 -1259.17123,-141.96007 18.48377,215.27134 -76.0423,489.31917 342.61234,682.38527 301.93869,139.2415 868.94349,63.9892 378.13049,-254.83574 250.1752,115.11964 697.1524,-71.7855 270.1271,-114.2857 -294.4408,-29.30456 -545.6936,-141.33611 -738.9749,-209.8962 137.6895,20.43187 274.4107,101.99 472.3373,57.40484 129.2791,-29.12154 -11.7738,-89.63964 -146.9198,-87.81335 -208.4894,2.81742 -387.38933,-26.94749 -531.46506,-62.72903 654.51426,1.36115 726.34566,118.08846 1061.35096,176.82662 z"
           inkscape:connector-curvature="0"
           sodipodi:nodetypes="csccsccsccccccccccccccccccccscccccscsscscscsscs" />
      </g>
      <g
         id="g4058"
         style="opacity:0.7;display:inline"
         transform="matrix(0.9976714,0.06820425,0.06820425,-0.9976714,-19.197697,990.0228)">
        <path
           id="path4060"
           d="m 1737.2573,702.68024 c 342.896,60.12168 355.1809,-30.78646 151.9728,-45.09664 -593.9855,-41.82924 -401.187,-133.92069 -1259.17123,-141.96007 18.48377,215.27134 -76.0423,489.31917 342.61234,682.38527 301.93869,139.2415 868.94349,63.9892 378.13049,-254.83574 250.1752,115.11964 697.1524,-71.7855 270.1271,-114.2857 -294.4408,-29.30456 -545.6936,-141.33611 -738.9749,-209.8962 137.6895,20.43187 274.4107,101.99 472.3373,57.40484 129.2791,-29.12154 -11.7738,-89.63964 -146.9198,-87.81335 -208.4894,2.81742 -387.38933,-26.94749 -531.46506,-62.72903 654.51426,1.36115 726.34566,118.08846 1061.35096,176.82662 z"
           style="opacity:0.428;fill:#ffffff;stroke:none"
           inkscape:connector-curvature="0" />
        <path
           inkscape:connector-curvature="0"
           d="m 1500.3476,812.15062 c 110.0049,37.18225 34.8143,91.6368 -89.9038,70.10868 -201.5414,-34.78892 -341.4504,-184.36632 -528.4899,-263.26814 48.91085,17.34949 101.53401,37.48277 157.6407,58.35808 158.6636,81.47126 224.6159,126.40618 351.3612,166.87668 97.9621,31.27987 95.8857,-20.31844 -25.3266,-61.24484 43.6986,11.10226 88.6011,21.00383 134.7184,29.16954 z M 814.14478,1104.0803 c 249.78292,90.0687 427.49642,-6.4488 352.80502,-98.2735 C 1097.0859,919.91694 874.71536,686.00902 630.05887,515.62354 645.71664,697.9819 580.27921,922.51792 814.14478,1104.0803 z M 681.90458,581.42141 C 729.41431,750.13108 835.26055,1084.0723 995.32046,1024.9012 1109.3631,982.74183 814.835,763.06676 681.90458,581.42141 z M 1199.125,898 c 330.8175,145.1287 195.4322,368.6468 -205.8155,309.0218 306.5236,126.6826 837.1519,47.7312 357.4922,-263.84874 211.3356,97.24734 563.1097,-21.03112 409.886,-85.68102 C 1707.8254,951.25633 1504.4668,957.37213 1199.125,898 z M 770.14212,568.43007 c 269.14458,44.50969 593.90228,30.01888 569.44848,77.88859 -25.502,49.92165 -392.23879,-24.2057 -569.44848,-77.88859 z"
           style="opacity:0.25;fill:#ffffff;fill-rule:evenodd;stroke:none"
           id="path4062" />
        <path
           sodipodi:nodetypes="csccsccsccccccccccccccccccccscccccscsscscscsscs"
           inkscape:connector-curvature="0"
           d="m 1039.4457,677.29452 c 158.8125,81.52598 224.7648,126.4609 351.5101,166.9314 97.9621,31.27987 95.8857,-20.31844 -25.2548,-61.22246 M 770.14212,568.43007 c 269.14458,44.50969 593.90228,30.01888 569.44848,77.88859 -25.502,49.92165 -392.23879,-24.2057 -569.44848,-77.88859 z m -88.23754,12.99134 C 729.41431,750.13108 835.26055,1084.0723 995.32046,1024.9012 1109.3631,982.74183 814.835,763.06676 681.90458,581.42141 z M 1175.6875,655.5 c 106.5891,-10.18249 96.7019,-25.9384 2.9063,-48.40625 m -130.625,-8.96875 c 66.0222,20.79919 72.0323,32.87285 -1.0626,36.625 m 232.4688,166.5625 c 122.1231,33.82932 138.2697,20.05739 82.4375,-19.3125 m -77.4687,-21.34375 c 13.0835,17.62369 -13.5704,21.22565 -105.8126,-9.90625 M 1157.75,739.6875 c 8.0153,-3.29849 13.5884,-8.10853 16.2812,-14.15625 m -281.43745,88.875 c -33.18363,33.02714 -79.05341,30.2605 -131.9375,-0.84375 m 37.40625,78.0625 c 59.70095,55.79651 130.3707,79.26158 196.6875,40.625 M 768.78125,684.875 c -16.87968,6.23783 -35.54278,6.19895 -55.5625,0.5 M 732,740.25 c 34.10404,15.93396 64.98761,17.43733 90.90625,1.96875 m -9.01243,361.66645 c 250.03388,90.2638 427.74738,-6.2537 353.05598,-98.0784 C 1097.0859,919.91694 874.71536,686.00902 630.05887,515.62354 M 1760.75,857.53125 c -52.9246,93.72508 -256.2832,99.84088 -561.625,40.46875 330.8175,145.1287 195.4322,368.6468 -206.15625,308.875 M 881.9539,618.99116 c 187.0395,78.90182 326.9485,228.47922 528.4899,263.26814 124.7181,21.52812 199.9087,-32.92643 90.1055,-70.07299 m 236.708,-109.50607 c 342.896,60.12168 355.1809,-30.78646 151.9728,-45.09664 -593.9855,-41.82924 -401.187,-133.92069 -1259.17123,-141.96007 18.48377,215.27134 -76.0423,489.31917 342.61234,682.38527 301.93869,139.2415 868.94349,63.9892 378.13049,-254.83574 250.1752,115.11964 697.1524,-71.7855 270.1271,-114.2857 -294.4408,-29.30456 -545.6936,-141.33611 -738.9749,-209.8962 137.6895,20.43187 274.4107,101.99 472.3373,57.40484 129.2791,-29.12154 -11.7738,-89.63964 -146.9198,-87.81335 -208.4894,2.81742 -387.38933,-26.94749 -531.46506,-62.72903 654.51426,1.36115 726.34566,118.08846 1061.35096,176.82662 z"
           style="fill:none;stroke:#ffffff;stroke-width:6;stroke-linecap:butt;stroke-linejoin:miter;stroke-miterlimit:20;stroke-opacity:1;stroke-dasharray:none"
           id="path4064" />
      </g>
      <g
         id="g6473">
        <path
           sodipodi:nodetypes="cccccssccccccc"
           inkscape:connector-curvature="0"
           id="path6460"
           d="M 616.89001,664.3027 C 646.43774,605.99582 631.70982,542.14911 589.01995,498.69757 633.5,510.86218 667,527.36218 693,556.86218 c -6,-61 -62.5,-98.5 -123,-105 30.50085,-14.93165 60.82052,-19.63997 102,-15.5 -60.08222,-59.62132 -292.79704,-37.29104 -282.55573,73.82067 9.55882,103.7071 174.39772,-20.63601 165.70635,41.6091 -11.14641,79.82741 -51.94518,166.70758 -121.14719,195.34434 18.71935,6.16813 35.65799,5.51578 52.75503,0.87985 -29.52666,26.20975 -38.71101,69.6401 -16.98808,108.20336 2.39037,-28.09829 16.19323,-51.10213 37.03876,-63.39645 -11.29446,39.64869 -2.61121,91.91604 36.66358,122.49346 -26.25258,-119.02103 50.49342,-217.98077 36.90979,-353.21679 25.90754,29.02617 38.05997,55.37831 36.5075,102.20298 z"
           style="fill:#f3a4d9;fill-opacity:1;stroke:none" />
        <path
           id="path6450"
           style="fill:#961370;fill-opacity:1;stroke:none"
           d="m 672,436.36218 c -41.17948,-4.13997 -71.49915,0.56835 -102,15.5 60.5,6.5 117,44 123,105 C 653.87131,465.28814 512.44761,455.00232 401.70864,463.49293 449.09675,394.03041 621.50815,386.25766 672,436.36218 z M 555.15062,551.79195 c -11.14641,79.82741 -51.94518,166.70758 -121.14719,195.34434 18.71935,6.16813 35.65799,5.51578 52.75503,0.87985 -29.52666,26.20975 -38.71101,69.6401 -16.98808,108.20336 -19.18406,-85.06782 94.73295,-107.39212 98.36519,-303.35489 1.52262,-82.14661 -72.17101,-15.76558 -171.65568,-18.17073 33.92806,56.06983 166.48788,-38.88614 158.67073,17.09807 z"
           inkscape:connector-curvature="0"
           sodipodi:nodetypes="cccccscccscs" />
        <path
           style="fill:none;stroke:#d91e9b;stroke-width:8;stroke-linecap:butt;stroke-linejoin:miter;stroke-miterlimit:20;stroke-opacity:1;stroke-dasharray:none"
           d="M 616.89001,664.3027 C 646.43774,605.99582 631.70982,542.14911 589.01995,498.69757 633.5,510.86218 667,527.36218 693,556.86218 c -6,-61 -62.5,-98.5 -123,-105 30.50085,-14.93165 60.82052,-19.63997 102,-15.5 -60.08222,-59.62132 -292.79704,-37.29104 -282.55573,73.82067 9.55882,103.7071 174.39772,-20.63601 165.70635,41.6091 -11.14641,79.82741 -51.94518,166.70758 -121.14719,195.34434 18.71935,6.16813 35.65799,5.51578 52.75503,0.87985 -29.52666,26.20975 -38.71101,69.6401 -16.98808,108.20336 2.39037,-28.09829 16.19323,-51.10213 37.03876,-63.39645 -11.29446,39.64869 -2.61121,91.91604 36.66358,122.49346 -26.25258,-119.02103 50.49342,-217.98077 36.90979,-353.21679 25.90754,29.02617 38.05997,55.37831 36.5075,102.20298 z"
           id="path4011-2"
           inkscape:connector-curvature="0"
           sodipodi:nodetypes="cccccssccccccc" />
        <path
           inkscape:connector-curvature="0"
           id="path5359"
           style="fill:#3fb4f9;fill-opacity:1;stroke:#1c8ec7;stroke-width:6;stroke-linecap:butt;stroke-linejoin:miter;stroke-miterlimit:4;stroke-opacity:1;stroke-dasharray:none"
           d="m 431.12487,485.94211 c -0.15988,6.65898 -150.45128,-15.49177 -80.61284,-58.95278 72.0971,-44.86659 -91.39814,-68.38262 -248.79498,-71.08936 -78.995082,-1.35847 6.71583,40.59022 -57.198491,30.56245 -55.84655,-8.76199 -46.863123,-48.3487 59.334531,-45.44722 242.4446,6.62394 330.77515,49.01222 252.66936,96.22718 -45.53753,27.52743 74.86201,37.88887 74.60242,48.69973 z m -2.00546,30.02504 c 1.56903,-6.47346 -149.33435,-23.97575 -93.12413,36.07988 58.02812,61.9979 -105.98255,42.39696 -258.71678,4.27417 -76.65498586,-19.13325 16.992514,-37.46896 -47.339353,-44.32512 -56.211395,-5.99072 -57.779866,34.57219 45.550147,59.25555 235.897906,56.35104 332.189556,38.26874 268.965286,-27.55268 -36.86125,-38.37543 82.11751,-17.22212 84.66483,-27.7318 z"
           clip-path="url(#clipPath6466)" />
        <path
           style="fill:#d91e9b;fill-opacity:1;fill-rule:evenodd;stroke:none"
           d="m 419.12498,439.94757 c -7.77818,17.67766 -9.70495,35.98401 -7.40685,57.55077 -7.42462,-21.74353 -5.1443,-40.22666 7.40685,-57.55077 z"
           id="path6462"
           inkscape:connector-curvature="0"
           transform="translate(0,28.362183)"
           sodipodi:nodetypes="ccc" />
      </g>
      <g
         id="g4693">
        <path
           id="path4679"
           d="m 549.24638,545.14673 c 10.81137,72.16807 -50.95122,111.34886 -63.00266,108.31107 -5.78042,-1.45706 -23.35218,-54.96721 8.31476,-87.13506 z"
           style="fill:#6dc6fb;fill-opacity:1;stroke:none"
           inkscape:connector-curvature="0"
           sodipodi:nodetypes="cscc" />
        <path
           inkscape:connector-curvature="0"
           style="fill:#1c92cd;fill-opacity:1;stroke:none"
           d="m 546.61901,601.88699 c 1.05658,-2.54796 1.97865,-5.12958 2.7661,-7.73725 2.41875,-8.04711 3.52323,-16.27409 3.46652,-24.49563 -0.0567,-8.22153 -1.27703,-16.44619 -3.60525,-24.50738 0.10058,8.15586 -0.47874,16.13383 -1.69171,23.90313 -1.21298,7.7693 -3.05834,15.33149 -5.62434,22.68708 -0.82695,2.38154 -1.72691,4.74322 -2.69868,7.08672 -3.915,9.44131 -9.35178,18.27364 -15.96695,26.09746 -6.53181,7.70067 -14.08549,14.51971 -22.62472,19.61 0,0 0,0 -10e-6,0 -2.98222,1.7666 -5.9704,3.31924 -9.0277,4.30263 -1.09421,0.34744 -2.11065,0.62571 -3.04795,0.73148 -0.71392,0.0412 -1.18631,0.10904 -1.34291,0.0139 0,0 1e-5,0 1e-5,0 0.8424,0.42961 1.11827,0.45054 0.76789,0.31495 -0.25796,-0.25542 -0.53234,-0.71138 -0.89195,-1.2953 0,0 0,-1e-5 0,-1e-5 -1.06561,-1.79643 -1.87631,-3.89789 -2.66304,-6.14592 -2.34058,-6.79141 -3.59452,-14.00835 -4.08462,-21.30874 -0.0729,-1.12832 -0.12546,-2.25774 -0.15696,-3.38709 -0.21826,-7.82517 0.30053,-15.84192 1.96521,-23.58147 1.0953,-5.10893 2.72205,-10.10832 4.81862,-14.80488 2.09658,-4.69655 4.66363,-9.08704 7.58191,-13.04793 -3.98933,2.90652 -7.74201,6.67127 -10.94196,11.103 -3.19996,4.43174 -5.84383,9.52692 -7.71258,14.97392 -2.80982,8.196 -3.95924,17.05685 -3.71367,25.58434 0.0354,1.23071 0.0946,2.4596 0.17671,3.68552 0.50892,7.87808 1.90165,15.78589 4.50094,23.38133 0.83655,2.4796 1.86617,5.05906 3.3198,7.5799 0.45486,0.81182 1.06399,1.72275 1.8962,2.66022 0.32628,0.60483 1.36706,1.37072 3.18209,2.0455 0,0 1e-5,0 2e-5,0 1.67209,0.36581 3.1241,0.35868 4.28178,0.16808 1.64899,-0.21461 3.16567,-0.60447 4.54868,-1.06629 3.858,-1.27568 7.38641,-3.0743 10.64841,-5.04058 0,0 0,-1e-5 0,-1e-5 9.42276,-5.64764 17.64408,-13.03331 24.62761,-21.30987 7.14172,-8.43896 13.00502,-17.97241 17.2465,-28.20081 z"
           id="path4030"
           inkscape:path-effect="#path-effect4286"
           inkscape:original-d="m 549.24638,545.14673 c 10.81137,72.16807 -50.95122,111.34886 -63.00266,108.31107 -5.78042,-1.45706 -23.35218,-54.96721 8.31476,-87.13506" />
      </g>
    </g>
  </g>
</svg>
