<svg xmlns="http://www.w3.org/2000/svg" xmlns:cc="http://creativecommons.org/ns#" xmlns:dc="http://purl.org/dc/elements/1.1/" xmlns:inkscape="http://www.inkscape.org/namespaces/inkscape" xmlns:rdf="http://www.w3.org/1999/02/22-rdf-syntax-ns#" xmlns:sodipodi="http://sodipodi.sourceforge.net/DTD/sodipodi-0.dtd" xmlns:xlink="http://www.w3.org/1999/xlink" height="600" viewBox="0 0 1200 600" width="1200">
  <title>Dawn to Dusk on a {15/6}</title>
  <metadata>
    <rdf:RDF>
      <cc:Work rdf:about="">
        <dc:format>image/svg+xml</dc:format>
        <dc:type rdf:resource="http://purl.org/dc/dcmitype/StillImage" />
        <dc:title>Dawn to Dusk on a {15/6}</dc:title>
        <dc:date>2 August 2015</dc:date>
        <dc:creator>
          <cc:Agent>
            <dc:title>Parcly Taxel / Jeremy Tan</dc:title>
          </cc:Agent>
        </dc:creator>
        <dc:coverage>Starshine flying (second character for the Pentadecathlon Commissions)</dc:coverage>
        <dc:rights>
          <cc:Agent>
            <dc:title>CC BY-SA 4.0 / FAL 1.3</dc:title>
          </cc:Agent>
        </dc:rights>
      </cc:Work>
    </rdf:RDF>
  </metadata>
  <defs>
    <inkscape:path-effect effect="powerstroke" id="path-effect4280" interpolator_type="CubicBezierSmooth" offset_points="2.5,4.5" />
    <linearGradient id="linearGradient7624">
      <stop offset="0" stop-color="#faed3f" />
      <stop offset="1" stop-color="#fcf592" />
    </linearGradient>
    <linearGradient id="linearGradient7608">
      <stop offset="0" stop-color="#fb8b3f" />
      <stop offset="1" stop-color="#fcb686" />
    </linearGradient>
    <inkscape:path-effect effect="powerstroke" id="path-effect4277" interpolator_type="CubicBezierSmooth" offset_points="2.5,4.5" />
    <inkscape:path-effect effect="powerstroke" id="path-effect4243" interpolator_type="CubicBezierSmooth" offset_points="2.5,4.5" />
    <linearGradient id="linearGradient5681">
      <stop offset="0" stop-color="#ec4a44" />
      <stop offset="1" stop-color="#ca1a15" />
    </linearGradient>
    <inkscape:path-effect effect="powerstroke" id="path-effect5071" interpolator_type="CubicBezierSmooth" offset_points="0.25,4.5 | 0.8,4.5" start_linecap_type="zerowidth" />
    <inkscape:path-effect effect="powerstroke" id="path-effect5069" interpolator_type="CubicBezierSmooth" offset_points="0.24,4.5" start_linecap_type="zerowidth" />
    <inkscape:path-effect effect="powerstroke" id="path-effect4382" interpolator_type="CubicBezierSmooth" offset_points="0.21,4.5 | 4.8,4.5" start_linecap_type="zerowidth" />
    <inkscape:path-effect effect="powerstroke" id="path-effect4353" interpolator_type="CubicBezierSmooth" offset_points="0.27,4.5 | 1,4.5" start_linecap_type="zerowidth" />
    <inkscape:path-effect effect="powerstroke" id="path-effect4337" interpolator_type="CubicBezierSmooth" offset_points="0.36,4.5 | 1,4.5" start_linecap_type="zerowidth" />
    <inkscape:path-effect effect="powerstroke" end_linecap_type="zerowidth" id="path-effect4511" interpolator_type="CubicBezierSmooth" miter_limit="20" offset_points="0.21,4.5 | 5.76,4.5" start_linecap_type="zerowidth" />
    <inkscape:path-effect effect="powerstroke" id="path-effect4250" interpolator_type="CubicBezierSmooth" offset_points="0.37,4.5" start_linecap_type="zerowidth" />
    <inkscape:path-effect effect="powerstroke" end_linecap_type="zerowidth" id="path-effect5610" interpolator_type="CubicBezierSmooth" offset_points="0.3,4.5 | 0.68,4.5" start_linecap_type="zerowidth" />
    <inkscape:path-effect effect="powerstroke" end_linecap_type="zerowidth" id="path-effect5608" interpolator_type="CubicBezierSmooth" offset_points="0.24,4.5 | 6.63,4.5" start_linecap_type="zerowidth" />
    <inkscape:path-effect effect="powerstroke" end_linecap_type="zerowidth" id="path-effect4213" interpolator_type="CubicBezierSmooth" offset_points="0.21,4.5 | 2.81,4.5" start_linecap_type="zerowidth" />
    <linearGradient id="linearGradient5829">
      <stop offset="0" stop-color="#f1e432" />
      <stop offset="1" stop-color="#f5ec70" />
    </linearGradient>
    <inkscape:path-effect effect="powerstroke" end_linecap_type="zerowidth" id="path-effect4675" interpolator_type="CubicBezierSmooth" offset_points="0.18,4.5 | 1.64,4.5" start_linecap_type="zerowidth" />
    <clipPath id="clipPath5845">
      <use xlink:href="#ellipse5792" />
    </clipPath>
    <clipPath id="clipPath5861">
      <use xlink:href="#path5790" />
    </clipPath>
    <linearGradient gradientUnits="userSpaceOnUse" id="linearGradient5009" x1="1028.4507" x2="1030.0573" y1="-42.687725" y2="23.481003" xlink:href="#linearGradient5829" />
    <linearGradient gradientUnits="userSpaceOnUse" id="linearGradient5683" x1="163.87007" x2="156.81779" y1="337.03644" y2="405.03473" xlink:href="#linearGradient5681" />
    <linearGradient gradientUnits="userSpaceOnUse" id="linearGradient4337" x1="1025.1304" x2="983.59808" y1="517.32001" y2="568.71814" xlink:href="#linearGradient5681" />
    <linearGradient gradientUnits="userSpaceOnUse" id="linearGradient7610" x1="177.62733" x2="394.71173" y1="296.99393" y2="252.08199" xlink:href="#linearGradient7608" />
    <linearGradient gradientUnits="userSpaceOnUse" id="linearGradient7626" x1="177.62733" x2="394.71173" y1="296.99393" y2="252.08199" xlink:href="#linearGradient7624" />
    <linearGradient gradientUnits="userSpaceOnUse" id="linearGradient4284" x1="1100.8678" x2="862.09576" y1="239.43359" y2="325.8584" xlink:href="#linearGradient7608" />
    <linearGradient gradientUnits="userSpaceOnUse" id="linearGradient4292" x1="1100.8678" x2="862.09576" y1="239.43359" y2="325.8584" xlink:href="#linearGradient7624" />
    <linearGradient gradientUnits="userSpaceOnUse" id="linearGradient4308" x1="1063.7198" x2="1061.3007" y1="324.66498" y2="396.61218" xlink:href="#linearGradient5681" />
    <clipPath id="clipPath4580">
      <path d="m 1074.035,422.51432 c -3.4473,-2.88612 -5.8789,-4.70705 -7.217,-6.6039 -0.5633,-0.79853 -0.6161,-1.21234 -0.6171,-1.36479 -6e-4,-0.10538 0.01,-0.59085 0.7866,-1.56969 26.2127,-33.06048 33.0609,-66.20076 26.892,-95.20216 26.7139,31.05874 14.4281,79.45368 -19.8445,104.74054 z" />
    </clipPath>
    <clipPath id="clipPath4661">
      <path d="m 1033.1074,144.43555 c -11.8131,-0.0507 -22.6818,1.88955 -32.4844,5.32617 -4.95335,-1.24108 -11.49977,-2.51031 -19.12495,-2.79297 -8.39848,-0.31132 -17.02452,0.60758 -25.625,3.15625 -11.48184,3.40253 -20.55921,9.01319 -27.40625,14.52539 -6.26129,0.10256 -14.4138,0.81079 -23.22852,3.35547 -9.67089,2.79185 -18.91967,7.44161 -27.08789,14.30664 -8.14474,6.8453 -14.16771,15.01051 -18.4668,23.48242 -2.54035,5.00609 -4.32165,9.82116 -5.60351,14.08203 -0.37048,0.5368 -1.40138,2.06852 -3.50977,5.82813 -2.45628,4.37998 -6.29003,11.88714 -9.36914,22.35156 -3.83826,13.04442 -5.01892,24.85939 -6.43164,40.35742 -0.74505,8.17349 -1.56085,16.9293 -3.39648,25.23633 -12.8297,5.77043 -27.48013,9.8304 -43.46485,12.06836 -15.51607,2.17235 -32.04137,2.6143 -49.24414,1.41211 -69.57487,-45.08297 -101.69301,-100.64312 -171.48633,-147.19141 -26.11619,-17.41805 -49.8108,-27.83829 -68.96875,-32.42968 -7.18423,-1.72178 -13.77657,-2.70473 -19.6621,-2.85157 -0.61309,-0.0153 -1.21882,-0.0206 -1.81641,-0.0176 -7.81708,0.039 -14.29434,1.65267 -19.14453,5.08594 -0.74189,-0.17729 -1.48933,-0.36216 -2.22071,-0.52539 -9.29409,-2.07421 -17.76514,-3.0138 -24.89062,-2.66601 -6.81218,0.33249 -13.00629,1.87554 -17.26367,5.36328 -2.1508,1.76198 -3.77506,4.00019 -4.65625,6.71484 -0.87585,2.69819 -0.92958,5.59303 -0.31055,8.58008 1.18685,5.72696 4.90991,12.12952 10.96094,19.125 6.04396,6.98731 14.83535,14.98925 26.6875,23.92773 -10.60446,-5.36135 -22.14062,-9.84022 -34.75781,-13.27734 -53.85481,-14.67082 -127.59316,-10.84267 -234.26172,22.99805 -23.43553,7.43495 -48.32366,8.99754 -71.89844,3 -23.435413,-5.96207 -45.910835,-19.54589 -62.906251,-42.64258 -1.704131,-2.3159 -3.32656,-4.69087 -4.863281,-7.1211 -1.145366,2.76903 -2.164584,5.58659 -3.05664,8.44727 -5.88204,18.86273 -5.422196,37.10342 0.923828,53.34961 4.437316,11.35979 11.707004,21.57503 21.396484,30.13477 0.246007,1.29971 0.699532,3.42519 1.599609,6.76171 1.391614,5.15863 4.601856,15.58187 11.904297,26.61524 2.836308,4.28542 7.32582,10.24798 14.013672,16.29492 6.769475,6.12075 15.132583,11.73564 25.339842,16.14063 2.53566,1.09427 5.1079,2.07844 7.70899,2.96289 -1.52913,4.75765 -2.79197,9.71429 -3.77539,14.75 -2.975,15.23368 -3.41485,31.11078 -0.48438,44.16601 1.46523,6.52762 3.77431,12.38636 7.29492,17.07031 3.52061,4.68396 8.43145,8.16206 14.3711,9.27149 93.69249,17.50019 191.56716,19.25726 276.00781,-2.5625 8.26075,5.1162 19.61651,10.82107 33.96484,14.84765 7.98223,2.24008 20.19174,5.0449 35.18555,5.89258 14.90174,0.84247 26.93514,-0.56854 34.53125,-1.81445 0.007,-10e-4 0.0142,-0.003 0.0215,-0.004 106.18569,15.76524 166.89859,14.51987 216.74219,11.08985 13.13481,-0.90388 25.48902,-1.94809 37.72656,-2.875 8.05128,5.71956 19.33521,13.30005 34.85547,22.89648 47.67312,29.47706 113.1129,72.74597 187.23828,130.51563 4.75965,3.70943 10.51704,5.31907 16.61714,5.28125 6.0348,-0.0374 12.4882,-1.68238 18.8614,-4.41211 12.41,-5.31538 25.1729,-15.03183 35.2109,-26.52344 9.9823,-11.42781 17.5246,-24.91581 18.9395,-37.83984 0.7346,-6.71201 -0.1855,-13.28351 -3.2911,-19.27539 -3.1074,-5.99541 -8.2025,-11.02364 -15.2929,-14.93555 -10.9589,-6.04614 -21.8005,-11.81499 -32.5,-17.33594 6.2211,-8.13492 13.0501,-15.37454 20.3457,-21.61133 0.078,0.0246 0.154,0.0542 0.2324,0.0781 10.4079,3.17343 22.1502,-0.55942 30.1562,-11.72852 1.9595,-2.73361 3.1948,-5.47492 3.6348,-8.26953 0.4455,-2.82952 0.029,-5.42712 -0.9473,-7.76758 -0.6405,-1.53648 -1.5296,-2.94111 -2.5332,-4.23633 11.0844,-0.27285 20.6188,-8.08983 27.6817,-18.58984 7.6309,-11.34469 12.8941,-26.28922 14.9219,-41.32617 1.5097,-11.19585 1.2581,-22.46902 -1.5508,-32.35352 5.0528,1.11689 10.0734,2.37462 15.1465,3.64649 20.5206,5.14472 41.1602,10.20841 66.0644,4.86133 3.8618,-0.82916 7.6725,-1.8767 11.416,-3.13672 -3.4629,-1.47028 -6.8188,-3.18033 -10.0429,-5.11914 -12.5871,-7.5693 -19.9162,-16.66444 -24.9336,-26.88672 -5.0649,-10.31918 -7.8687,-22.00937 -10.8457,-34.78125 -3.2587,-13.98039 -6.5804,-28.50282 -12.9883,-43.83789 -6.3855,-15.28137 -15.4777,-30.42746 -29.293,-45.4668 -19.7678,-21.51913 -49.9397,-36.14205 -77.4141,-40.0293 -5.2226,-0.73893 -10.2941,-1.10197 -15.2031,-1.12304 z M 444.01367,309.38086 c 4.38267,-0.0614 8.83046,0.29397 13.35547,1.18945 3.34945,0.66285 6.80191,1.63376 10.37109,2.98828 -4.04219,2.15828 -7.99223,4.32383 -11.86523,6.38868 -7.92776,4.2266 -12.14031,6.49599 -17.625,9.15625 -0.70065,0.33983 -1.33606,0.63451 -1.99414,0.94531 -0.1467,-0.47275 -0.30065,-0.96289 -0.50391,-1.54883 -0.89709,-2.58615 -2.82334,-7.3567 -6.8789,-11.08008 -1.98303,-1.8206 -4.49195,-3.39011 -7.64649,-4.41406 3.36098,-0.94102 6.65133,-1.73847 9.82032,-2.3125 4.26656,-0.77286 8.58412,-1.25108 12.96679,-1.3125 z" />
    </clipPath>
  </defs>
  <g clip-path="url(#clipPath4661)">
    <g opacity="0.85">
      <g>
        <path d="m 540.59407,298.38943 c 3.82955,76.16311 -44.77227,113.7682 -121.38772,93.88079 -88.91507,14.17823 -190.18392,1.06846 -265.59611,-51.00565 -41.09575,-28.3777 28.02684,-127.59635 60.13763,-99.8714 57.56233,49.7002 130.39042,73.2583 199.85388,74.88237 10.01195,0.23408 16.25105,5.76074 19.07189,18.22111 31.78592,-8.97897 56.41115,-37.32397 107.92043,-36.10722 z" fill="#f6cd7a" />
        <path fill="#ecb344" inkscape:original-d="m 417.73929,337.89108 c 39.90567,-3.15391 63.57916,-40.90186 122.85478,-39.50165 3.82955,76.16311 -44.77227,113.7682 -121.38772,93.88079 -88.91507,14.17823 -190.18392,1.06846 -265.59611,-51.00565 -41.09575,-28.3777 28.02684,-127.59635 60.13763,-99.8714 57.56233,49.7002 130.39042,73.2583 199.85388,74.88237 10.01195,0.23408 16.25105,5.76074 19.04019,17.68207" inkscape:path-effect="#path-effect4250" />
      </g>
      <path d="m 787.08936,422.84336 c 101.98541,-8.29357 201.14548,-6.52535 290.74074,1.17248 39.9521,3.4326 66.4208,-115.54556 4.5843,-111.29851 -101.05193,6.94045 -201.09358,26.30741 -301.75537,58.81007 z" fill="#f6cd7a" stroke="#ecb344" stroke-width="9" />
      <path d="M 755.09308,375.54207 C 645.03717,427.8665 592.59198,400.40213 632.91604,365.63542 453.21265,374.89257 445.18498,295.34405 577.17271,309.48568 486.15311,286.50149 401.0395,260.47627 405.8928,237.46267 c 4.39077,-20.82036 46.60547,-29.64568 118.97811,-2.75644 -126.81739,-76.65515 -63.22068,-119.73869 39.81062,-51.02253 73.18846,48.81265 104.94449,108.55817 185.0112,155.55042 z" style="stroke:#ecb344;fill:#f6cd7a;stroke-miterlimit:20;stroke-width:9" />
      <g transform="rotate(-3.1117544e-4,1328.5661,243.37749)">
        <path d="m 1061.2888,448.9003 c -20.5767,13.4216 -38.5171,34.00388 -51.1411,60.0655 -50.83344,-47.14008 26.334,-121.80197 51.1411,-60.0655 z" fill="#fff" stroke="#b0d8e7" stroke-width="4.5" />
        <path d="m 1005.141,444.11982 c 5.5998,10.69352 12.7193,21.48429 20.3345,31.10194 -9.1466,-6.88741 -18.3607,-16.89915 -24.4196,-26.29242 z" fill="#b0d8e7" />
      </g>
      <g>
        <path d="m 930.09465,169.13078 c -37.42641,0.0246 -62.77882,21.45863 -71.9082,52.71275 -30.35364,46.35317 -7.29592,90.48311 -38.50686,125.32608 l 251.16801,-17.74219 c 51.1716,-8.46882 82.8808,21.23844 130.6211,10.98829 -52.3021,-31.45191 -22.264,-89.95907 -79.0566,-151.78321 -22.2102,-24.17784 -73.4822,-51.83429 -121.5625,-34.18181 -27.64586,-7.30837 -51.93806,-1.04529 -70.75495,14.68009 z" fill="url(#linearGradient4292)" />
        <path d="m 819.67773,347.16992 47.77149,-41.82031 c -13.75561,-30.13021 -16.2223,-59.67142 -9.26465,-83.50977 -30.35264,46.35717 -7.2959,90.48711 -38.50684,125.33008 z M 927.23438,264.7793 c 12.73414,-66.06148 41.39817,-98.45112 73.61332,-110.31641 v -0.0156 c -68.24651,-18.03168 -116.05918,46.5883 -111.48247,132.23826 z m 179.20902,-90.33399 c -57.084,9.98879 -104.2015,41.21263 -129.92778,92.26172 l 41.25978,27.81836 c 46.456,-33.59521 96.4166,-40.88841 144.6504,-23.69141 -5.8852,-25.06142 -13.4172,-53.24625 -40.0156,-82.20117 -4.5403,-4.94254 -9.9321,-9.7357 -15.9668,-14.1875 z" fill="url(#linearGradient4284)" />
        <path fill="#fa761c" inkscape:original-d="m 896.91567,221.74648 c 15.88552,-50.1343 54.56224,-80.34407 103.93513,-67.29982" inkscape:path-effect="#path-effect4337" />
        <path fill="#fa761c" inkscape:original-d="m 856.40735,270.74833 c -10.10584,-55.55746 18.82643,-101.58047 73.6838,-101.61947" inkscape:path-effect="#path-effect4353" />
        <path fill="#fa761c" inkscape:original-d="m 961.39111,183.21563 c 48.77729,-59.43313 127.65109,-30.90822 161.01979,5.4168 56.7926,61.82416 26.7536,120.33231 79.0557,151.78422 -47.7403,10.25015 -79.4493,-19.45819 -130.6209,-10.98937 l -251.16885,17.74294 c 31.21094,-34.84297 8.15442,-78.97284 38.50413,-125.33587" inkscape:path-effect="#path-effect4382" />
      </g>
      <g>
        <path d="m 38.443558,182.99092 c 32.584939,44.28278 87.064052,57.99236 139.789562,41.26513 202.62718,-64.28371 298.56222,-23.98116 350.17527,81.22434 l -38.71197,15.0881 C 405.63471,259.8816 355.36477,399.24195 163.59218,335.69289 106.20005,337.74316 68.795203,307.7861 60.610568,262.78519 38.092798,243.61055 28.449746,215.03943 38.443558,182.99092 Z" fill="url(#linearGradient7626)" />
        <path d="m 235.15625,319.45321 c 145.37562,-57.31365 217.67233,-56.86576 264.18796,-2.48113 l 18.61223,-7.71749 C 457.77792,223.47288 371.44335,214.03919 201.7207,275.5625 142.68538,296.9624 90.435504,288.1203 60.643554,262.80278 c 11.167376,61.5991 77.182556,95.02237 174.512696,56.65043 z" fill="url(#linearGradient7610)" />
        <path fill="#fa761c" inkscape:original-d="M 201.72118,275.56335 C 98.02364,313.15301 15.221713,257.45955 38.443558,182.99092 71.028497,227.2737 125.50761,240.98328 178.23312,224.25605 380.8603,159.97234 476.79534,200.27489 528.40839,305.48039 l -38.71197,15.0881 C 405.63471,259.8816 355.36477,399.24195 163.49651,335.69625" inkscape:path-effect="#path-effect5069" />
        <path fill="#fa761c" inkscape:original-d="M 235.15528,319.45333 C 137.82515,357.82528 71.810005,324.40209 60.633839,262.80499" inkscape:path-effect="#path-effect5071" />
      </g>
      <path d="m 1010.1817,508.77245 c -8.2952,-19.66261 -4.6817,-52.67355 22.9527,-75.26975 5.1898,25.83499 30.2675,30.77122 43.2014,12.72733 13.2829,-18.53085 -22.8301,-23.49335 -12.8744,-36.04986 101.5158,-128.03612 -98.61966,-252.4013 -188.28704,-125.50264 -32.17191,45.53019 -113.47005,62.85902 -213.28752,32.19693 -170.97305,-52.51978 -189.93733,13.68242 -239.54779,34.56321 -3.65391,-11.34864 -10.35462,-16.39223 -20.34376,-15.67662 -74.88132,5.36437 -162.654,-6.75831 -241.72654,-34.88382 -42.12007,-14.98179 -63.127639,106.74592 -25.00186,113.86718 93.19711,17.40766 190.51698,19.1112 273.88078,-2.61683 34.19685,18.8788 70.89272,24.58668 104.85939,18.8524 210.20517,31.28824 240.74256,-4.14607 364.98135,8.73488 36.11102,37.77967 84.56259,63.46553 131.19329,69.05759 z" fill="#f3d28f" />
      <g transform="matrix(0.20363472,0.79224077,-0.79224077,0.20363472,514.17258,367.90821)">
        <path d="M 1.2293353e-4,-53.901502 12.102708,-16.658346 51.262958,-16.65687 19.582517,6.3621405 31.682296,43.606208 1.2095233e-4,20.589583 -31.682055,43.606207 -19.582274,6.3621395 -51.262715,-16.656873 l 39.160251,-0.0015 z" fill="#faed3f" stroke="#fb8b3f" stroke-width="5" />
        <path d="M 40.056705,-36.067053 20.477856,-2.1525443 46.680081,26.95018 8.3752697,18.809749 -11.206134,52.722783 -15.300961,13.77721 -53.60516,5.6338925 -17.83109,-10.295363 -21.922983,-49.241245 4.2814546,-20.140511 Z" fill="none" stroke="#bc1e17" stroke-width="5" />
        <path d="M 21.923828,-49.241422 17.831934,-10.295541 53.606002,5.6337155 15.301804,13.777032 11.206975,52.722604 -8.3744274,18.809569 -46.67924,26.95 -20.477013,-2.1527247 -40.05586,-36.067235 -4.2805803,-20.140697 Z" fill="none" stroke="#faed3f" stroke-width="5" />
      </g>
      <path d="m 422.49884,351.72323 c -3.8137,-11.6342 -10.51441,-16.67779 -20.50355,-15.96218 -74.88132,5.36437 -162.654,-6.75831 -241.72654,-34.88382 -42.12007,-14.98179 -63.127639,106.74592 -25.00186,113.86718 94.99507,17.74349 194.2735,19.17108 278.90995,-3.76228 m 99.84997,19.97822 c 212.80154,31.69727 241.45509,-5.01877 369.70657,9.30266" fill="none" stroke="#ecb344" stroke-width="9" />
      <path d="m 401.74401,407.70429 19.01954,10.96832 -3.03379,-17.61932 z" fill="#f3d28f" />
      <path d="m 886.7987,447.35973 -15.51155,-15.18152 16.66667,0.82509 z" fill="#f3d28f" />
      <path d="m 1056.7371,432.9383 c -0.4122,3.92505 1.8687,6.04529 5.8437,5.39235 -5.0762,4.72915 -10.5122,0.12852 -5.8437,-5.39235 z" fill="#ecb344" />
      <path fill="#ecb344" inkscape:original-d="m 409.02186,355.24875 c 60.825,-12.86328 67.6774,-95.26051 252.86498,-38.37429 99.81747,30.66209 181.11561,13.33326 213.28752,-32.19693 89.66738,-126.89866 289.80284,-2.53348 188.28704,125.50264 -9.9557,12.55651 26.1573,17.51905 12.8744,36.04986 -13.7961,19.24678 -39.0116,12.09726 -43.0549,-13.66667 -24.2772,22.43483 -33.46242,51.60713 -23.0992,76.20909 -53.65996,-6.43502 -109.73114,-39.47847 -146.72539,-87.00512" inkscape:path-effect="#path-effect5608" />
      <path fill="#ecb344" inkscape:original-d="m 562.47817,413.91781 c -50.6345,28.44211 -116.7764,26.55107 -173.11264,-14.39344" inkscape:path-effect="#path-effect5610" />
      <g>
        <path d="m 870.84232,306.51215 c 1.97164,-113.93844 100.10191,-139.33336 111.43593,-132.69296 11.0032,6.44654 13.47232,63.81322 -13.43407,102.89016 z" fill="#f3d28f" />
        <path fill="#ecb344" inkscape:original-d="m 870.84232,306.51215 c 1.97164,-113.93844 100.10191,-139.33336 111.43593,-132.69296 11.0032,6.44654 13.47232,63.81322 -13.43407,102.89016" inkscape:path-effect="#path-effect4675" />
        <path d="m 955.71094,212.05454 c -20.07568,11.7149 -40.92812,38.3509 -48.06302,64.00689 0.62397,-26.25632 24.53904,-57.3488 48.06302,-64.00689 z" fill="#ecb344" />
      </g>
      <g>
        <path d="M 737.77112,375.54207 C 633.7692,427.8665 578.14636,400.40213 614.44788,365.63542 435.81555,374.89257 418.58404,295.34405 552.20797,309.48568 452.82022,285.56802 367.60381,258.7508 372.36581,235.48247 c 3.40132,-16.61972 42.25507,-29.53243 118.8883,-0.77624 -140.58912,-82.72274 -69.61432,-110.87775 29.08419,-53.81565 77.79194,44.9749 114.67877,105.75044 207.83161,158.34354 z" fill="#f3d28f" />
        <path fill="#ecb344" inkscape:original-d="M 737.77112,375.54207 C 633.7692,427.8665 578.14636,400.40213 614.44788,365.63542 435.81555,374.89257 418.58404,295.34405 552.20797,309.48568 452.82022,285.56802 367.60381,258.7508 372.36581,235.48247 c 3.40132,-16.61972 42.25507,-29.53243 118.8883,-0.77624 -140.58912,-82.72274 -69.61432,-110.87775 29.08419,-53.81565 77.79194,44.9749 114.67877,105.75044 207.83161,158.34354" inkscape:path-effect="#path-effect4511" />
        <path d="M 675.24838,357.91812 C 569.83147,376.94622 533.5621,295.04425 622.57763,313.03494" fill="#f3d28f" />
        <path d="m 684.68151,397.21715 c -24.02405,-4.04705 -26.07802,-25.62242 -9.43313,-39.29903 -105.41691,19.0281 -141.68628,-62.87387 -52.67075,-44.88318 -81.70353,-60.66167 -76.12998,-96.3329 -9.51427,-60.71102" style="stroke:#ecb344;fill:none;stroke-miterlimit:20;stroke-width:9" />
      </g>
      <g>
        <path d="M 751.1998,430.24895 C 839.24519,480.74492 921.32603,537.37083 993.48029,593.60429 1024.7885,618.00444 1112.2325,532.4355 1059.585,503.3891 971.74782,454.92804 878.11162,416.30905 774.39992,384.02739 Z" fill="#f3d28f" />
        <path fill="#ecb344" inkscape:original-d="M 751.1998,430.24895 C 839.24519,480.74492 921.32603,537.37083 993.48029,593.60429 1024.7885,618.00444 1112.2325,532.4355 1059.585,503.3891 971.74782,454.92804 878.11162,416.30905 774.39992,384.02739" inkscape:path-effect="#path-effect4213" />
      </g>
    </g>
    <g>
      <g>
        <path d="m 960.5446,568.43738 c 6.47009,4.84695 12.87075,9.69822 19.19944,14.54963 39.47166,-14.7667 61.69096,-47.40813 68.08836,-86.00475 -7.1305,-3.84058 -14.3,-7.61808 -21.5108,-11.33435 -5.5909,37.3222 -25.6435,65.59842 -65.777,82.78947 z" fill="url(#linearGradient4337)" />
        <path fill="#9c1512" inkscape:original-d="m 979.74404,582.98701 c 39.47166,-14.7667 61.69096,-47.40813 68.08836,-86.00475 -7.1305,-3.84058 -14.3,-7.61808 -21.5108,-11.33435 -5.5909,37.3222 -25.6435,65.59842 -65.777,82.78947 6.47009,4.84695 12.87075,9.69822 19.19944,14.54963 39.47166,-14.7667 61.69096,-47.40813 68.08836,-86.00475" inkscape:path-effect="#path-effect4277" />
      </g>
      <g>
        <path d="m 170.42918,304.38754 c -24.18451,23.54404 -34.44758,76.37594 -25.8889,112.03461 8.04641,1.40857 16.11901,2.69885 24.20637,3.86598 -7.41784,-36.06886 0.40691,-82.89163 23.72347,-108.97079 -7.40093,-2.17511 -14.75339,-4.48542 -22.04094,-6.9298 z" fill="url(#linearGradient5683)" />
        <path fill="#9c1512" inkscape:original-d="m 168.74665,420.28813 c -7.41784,-36.06886 0.40691,-82.89163 23.72347,-108.97079 -7.40093,-2.17511 -14.75339,-4.48542 -22.04094,-6.9298 -24.18451,23.54404 -34.44758,76.37594 -25.8889,112.03461 8.04641,1.40857 16.11901,2.69885 24.20637,3.86598 -7.41784,-36.06886 0.40691,-82.89163 23.72347,-108.97079" inkscape:path-effect="#path-effect4243" />
      </g>
      <g clip-path="url(#clipPath4580)">
        <path d="m 1071.5859,313.51367 c -8.0575,0.62472 -16.1081,1.3316 -24.1543,2.11524 14.3584,32.50864 11.7851,73.50513 -6.3125,105.62109 8.0588,0.52756 16.0434,1.10625 23.9649,1.73047 18.7901,-31.96944 19.7073,-76.27347 6.5019,-109.4668 z" fill="url(#linearGradient4308)" />
        <path fill="#9c1512" inkscape:original-d="m 1065.084,422.98047 c 18.7901,-31.96944 19.7073,-76.27347 6.5019,-109.4668 -8.0575,0.62472 -16.1081,1.3316 -24.1543,2.11524 14.3584,32.50864 11.7851,73.50513 -6.3125,105.62109 8.0588,0.52756 16.0434,1.10625 23.9649,1.73047 18.7901,-31.96944 19.7073,-76.27347 6.5019,-109.4668" inkscape:path-effect="#path-effect4280" />
      </g>
    </g>
    <g>
      <path d="m 970.18555,153.05859 h 0.002 l 15.54102,13.32227 43.51953,15.41797 74.1582,-11.53906 5.2422,-8.80274 -2.2462,-10.17187 -48.873,-31.03907 v 0.002 l -89.1523,15.71875 z m 152.82815,442.74414 32.3847,-96.8164 -13.4843,-5.25977 -91.1075,66.85156 0.8653,30.82813 61.2617,11.26563 z M 69.445312,503.11523 117.70117,405.79492 116.30078,404.33398 80.408203,436.9707 56.800781,493.86719 Z m 216.757808,-210.13085 13.35352,30.29687 41.46094,55.9707 72.6582,-0.27539 -0.36523,-7.25 -31.82032,-99.59765 -28.42968,-30.65821 z m 191.18165,-71.88477 0.0937,2.10937 8.9414,12.49414 63.21289,22.4043 -13.65429,-28.66211 z m 484.45898,27.61328 38.66405,28.66992 10.0625,2.17969 40.0039,-46.70312 -61.86522,-4.8125 -24.80273,18.3789 z m -261.41406,201.49414 53.55469,-122.12305 -124.63672,18.2754 -12.11914,124.60156 z m 161.61328,-59.26367 -12.19727,38.33789 29.01758,26.91992 28.25586,-64.27539 z" fill="#fff" opacity="0.05" />
      <path d="m 109.7207,355.70898 80.80274,9.05664 17.47851,-11.01953 2.78125,-9.58398 -0.49023,-1.11719 -76.55469,-9.92969 -21.13672,8.88282 z m -27.478512,-107.66796 56.996092,12.9082 64.73438,-42.57031 -5.17578,-12.70118 -27.34376,-16.01757 z m 268.037112,-44.61524 61.77148,33.74414 49.45313,-81.59961 -0.0254,-0.5039 -58.47657,-17.63086 z m 751.1426,-17.05664 -9.8907,14.9668 -29.373,124.86328 0.1445,0.3125 79.2637,-22.27344 6.7481,-16.92578 z m -527.19143,-3.49219 -15.85742,83.24219 14.74414,36.95117 44.7207,-40.92187 z m 455.01563,238.74805 -71.75782,-50.44336 -25.01562,-8.58398 -25.35352,29.32812 -28.25586,64.27539 2.80664,13.27735 137.93558,-27.01758 z m -519.41407,-62.73633 15.10742,-17.38672 -38.51953,-105.79883 -8.9414,-12.49414 -29.11524,41.84961 -35.05273,106.66797 0.36523,7.25 8.64063,5.75586 h 0.002 z m -206.89258,49.04297 38.07813,-28.67969 -41.46094,-55.9707 -78.98437,22.54883 z" fill="#fff" opacity="0.1" />
      <path d="m 1019.5664,620 32.1055,-28.59375 -0.8653,-30.82813 -33.205,-95.90039 -90.81058,83.57813 -0.38672,4.54297 19.26367,32.45117 71.29293,34.75 z m -906.96484,-278.00195 21.13672,-8.88282 56.42774,-50.03125 -50.92774,-22.13476 -56.996092,-12.9082 -6.628907,1.85937 z m 236.3711,-137.19922 4.08789,36.67187 28.42968,30.65821 29.31641,-30.68164 1.24414,-4.27735 -61.77148,-33.74414 z m 754.43354,-34.53906 -74.1582,11.53906 -40.53902,46.24805 61.86522,4.8125 40.957,-31.52344 9.8907,-14.9668 z m 38.1602,133.97851 -79.2637,22.27344 -21.3711,89.30469 27.9102,5.10937 40.8828,-14.62109 42.2891,-48.56836 -0.6973,-34.58594 z m -986.66796,132.41016 36.36718,41.11718 12.94922,5.84376 31.15235,-24.90821 -27.36524,-104.95508 -17.47851,11.01953 z m 49.07422,-218.26953 24.02343,45.05664 25.1875,2.28515 37.3711,-56.54492 -70.55078,-21.02539 -21.20703,17.52734 z m 670.85742,66.08203 57.64258,78.13672 25.01562,8.58398 43.01952,-93.79883 -38.66405,-28.66992 -52.48437,-0.20703 z" fill="#fff" opacity="0.4" />
      <path d="m 341.14648,120 -43.76171,29.98633 13,51.02344 38.58789,3.78906 1.30664,-1.37305 52.72265,-65.99023 L 389.78711,120 Z m 535.08204,0 -3.3086,2.07422 -4.17969,5.93555 39.93946,81.87695 61.50586,-56.82813 -1.8086,-17.09179 L 959.64844,120 Z M 1232,304.70312 l -29.9883,-24.50195 -17.5,-3.12695 -36.1972,10.23828 -6.7481,16.92578 9.75,18.91211 80.6836,17.55273 z m -660.63672,-142.26757 0.0879,4.82812 2.7793,15.61328 43.60742,79.27149 43.96484,-14.37891 -0.28125,-37.30273 -69.00976,-50.74024 -4.625,-1.33789 z m 611.24022,258.23828 -72.8789,-14.36914 -40.8828,14.62109 73.0723,72.80078 13.4843,5.25977 50.5996,-4.59961 11.4922,-11.00195 z m -165.0019,44.0039 2.0039,-22.21679 -137.93558,27.01758 -1.33594,3.60351 46.45704,75.17383 z m -807.30863,-121.63281 3.27148,-65.20117 -23.39843,5.24023 -56.42774,50.03125 z m 212.02539,41.6875 h -0.002 l -8.64063,-5.75586 -72.6582,0.27539 -38.07813,28.67969 -33.79687,34.84766 63.5625,64.0664 99.12109,-61.30273 h 0.002 z" fill="#fff" opacity="0.35" />
      <path d="m 75.341797,249.76953 0.271484,0.13086 6.628907,-1.85937 89.210932,-58.38086 -15.70507,-54.45508 -72.410159,7.64648 -9.058594,31.88086 z M 20,456.13867 80.408203,436.9707 116.30078,404.33398 102.24219,377.10352 28.611328,382.14453 20,386.12305 Z m 232.37109,-318.11328 -3.80273,17.5293 43.15234,52.32422 18.66407,-6.86914 -13,-51.02344 z m 674.41993,410.23047 -46.45704,-75.17383 -53.64453,29.61719 -1.84375,10.38086 6.17578,36.21484 35.43946,20.05664 59.94336,-16.55273 z m -545.30079,-276.12695 31.82032,99.59765 35.05273,-106.66797 -37.55664,-23.61132 z m 236.34766,-9.98047 -44.7207,40.92187 -3.42578,10.07422 59.65625,33.21485 124.63672,-18.2754 3.05859,-2.98437 0.61719,-1.33399 -95.85743,-75.99609 z m 175.64063,30.81445 -14.3125,14.0293 82.87695,83.95117 45.07617,0.98242 25.35352,-29.32812 -57.64258,-78.13672 z m 257.09568,-60.10351 -40.0039,46.70312 51.5879,46.63672 29.373,-124.86328 z m -589.09568,-77.79297 0.0254,0.5039 15.88086,65.5293 58.59375,8.3457 35.47265,-62.18164 -0.0879,-4.82812 -67.95508,-29.51563 z m -151.09375,45.94336 -18.66407,6.86914 -1.16601,1.29687 -37.3711,56.54492 33.01953,27.26368 66.85743,-51.51368 -4.08789,-36.67187 z" fill="#fff" opacity="0.25" />
      <path d="m 71.896484,250.20703 -44.533203,64.9375 1.248047,67 73.630862,-5.04101 7.47851,-21.39454 2.88086,-13.71093 -36.988279,-92.09766 -0.271484,-0.13086 z M 389.78711,120 403.00195,137.43555 461.47852,155.06641 503.4082,132.91992 506.42969,120 Z m 518.89258,89.88672 0.67969,38.61914 52.48437,0.20703 2.0625,-2.28711 21.82227,-80.04492 -15.54102,-13.32227 h -0.002 z m 243.33401,147.84961 -42.2891,48.56836 72.8789,14.36914 14.2481,-40.30078 z m -549.98245,129.61328 7.74609,-2.97266 6.28125,-12.67968 -106.22656,-112.8086 -87.51367,25.84375 9.50976,60.81055 h -0.002 l 17.36328,43.50781 137.18555,0.48047 h 0.002 z M 81.126953,515.39258 191.26562,477.76562 154.89844,436.64844 117.70117,405.79492 69.445312,503.11523 Z M 210.7832,344.16211 l 9.78907,1.66797 78.98437,-22.54883 -13.35352,-30.29687 -33.01953,-27.26368 -25.1875,-2.28515 -14.43164,14.4082 -3.27148,65.20117 z m 546.25977,-19.0625 51.28711,84.15625 41.51562,20.02539 12.19727,-38.33789 -82.87695,-83.95117 -21.50586,16.77343 z m -270.62305,-89.39649 38.51953,105.79883 44.75196,-28.35742 3.42578,-10.07422 -14.74414,-36.95117 -8.74024,-8.01172 z" fill="#fff" opacity="0.15" />
      <path d="m 20,240.84375 v 73.91406 l 7.363281,0.38672 44.533203,-64.9375 z m 1212,-9.9668 -41.1426,-19.49609 -33.7168,-42.30859 -48.4922,-7.61524 -5.2422,8.80274 -1.9843,16.10937 46.8926,100.94336 36.1972,-10.23828 v 0 l 17.5,3.12695 L 1232,232.12695 Z m -439.76953,-11.98242 -0.16406,65.45703 1.41211,8.61133 81.35156,-8.50195 34.5293,-35.95508 -0.67969,-38.61914 -39.93946,-81.87695 -44.70312,9.58203 z m 258.57613,341.68359 91.1075,-66.85156 -73.0723,-72.80078 -27.9102,-5.10937 -11.6855,5.80859 -9.6406,20.83594 -2.0039,22.21679 z m -860.64058,-277.49414 23.39843,-5.24023 14.43164,-14.4082 -24.02343,-45.05664 -64.73438,42.57031 z m 220.64062,-41.63671 37.55664,23.61132 29.11524,-41.84961 -0.0937,-2.10937 -15.88086,-65.5293 -49.45313,81.59961 z M 881.66992,469.47852 878.86328,456.20117 849.8457,429.28125 808.33008,409.25586 795.61914,479.125 h 0.002 l 31.06836,23.57422 53.64453,-29.61719 z m -264.4414,1.48242 12.11914,-124.60156 -59.65625,-33.21485 -44.75196,28.35742 -15.10742,17.38672 106.22656,112.8086 z m -514.98633,-93.85742 14.05859,27.23046 1.40039,1.46094 37.19727,30.85352 35.625,-71.88282 -80.80274,-9.05664 z" fill="#fff" opacity="0.2" />
      <path d="m 20,240.84375 51.896484,9.36328 3.445313,-0.4375 -1.0625,-75.03711 L 20,166.87891 Z m 1212,99.85937 -80.6836,-17.55273 0.6973,34.58594 44.8379,22.63672 L 1232,360.27734 Z m -1023.99805,13.04297 27.36524,104.95508 33.77539,-15.92187 33.79687,-34.84766 -82.36718,-62.10156 -9.78907,-1.66797 z m 12.00196,-165.5957 70.55078,21.02539 1.16601,-1.29687 -43.15234,-52.32422 z m 315.97461,41.29492 13.65429,28.66211 8.74024,8.01172 15.85742,-83.24219 -2.7793,-15.61328 z m 427.92773,16.98047 24.80273,-18.3789 40.53902,-46.24805 -43.51948,-15.41797 z m 98.25195,79.77344 -51.5879,-46.63672 -10.0625,-2.17969 -43.01952,93.79883 71.75782,50.44336 11.6855,-5.80859 21.3711,-89.30469 z M 795.61914,479.125 l 12.71094,-69.86914 -51.28711,-84.15625 -3.05859,2.98437 -53.55469,122.12305 24.99804,25.49219 z" fill="#fff" opacity="0.3" />
    </g>
  </g>
  <g transform="matrix(1.0279782,0.02184472,-0.02184472,1.0279782,-21.335864,-31.522148)">
    <path d="m 899.81482,355.85247 c 7.83965,-4.89671 16.25579,-3.8992 23.00935,1.01706 l -0.89229,4.87271 c -6.09441,-5.24586 -13.80043,-7.70255 -22.11706,-5.88977 z m -3.24638,16.44902 c 7.83193,-7.76276 17.36425,-8.83765 26.48524,-4.49507 l 0.0425,4.86978 c -8.60807,-4.36202 -17.35395,-5.04463 -26.52776,-0.37471 z m 6.58503,15.00691 c 5.84138,-7.0486 12.98358,-10.20918 19.99949,-8.85072 l 1.62374,4.69441 c -7.23061,-1.6615 -14.42789,-0.60178 -21.62323,4.15631 z" />
    <g clip-path="url(#clipPath5861)">
      <path d="m 984.76902,428.09174 c 84.42248,-86.51479 -6.87833,-164.62282 -48.6874,-110.06055 -36.19489,47.23636 -7.84823,104.78896 48.6874,110.06055 z" fill="#fff" id="path5790" />
      <g clip-path="url(#clipPath5845)" transform="matrix(1.1014025,-0.03559754,0.03559754,1.1014025,-117.83261,-1.8173705)">
        <ellipse cx="1049.9742" cy="-10.54731" fill="url(#linearGradient5009)" id="ellipse5792" rx="40.227806" ry="48.830006" transform="rotate(21.755376)" />
        <path d="m 930.42695,379.73329 -5.14381,31.52021 60.84498,-22.73576 z" fill="#fefacc" />
        <path d="m 926.95041,365.60061 59.17771,22.91713 -61.71802,-0.41325 z" fill="#fcf598" />
        <ellipse cx="1052.9294" cy="-23.517967" rx="31.889706" ry="38.708981" transform="rotate(22.573496)" />
        <ellipse cx="506.41721" cy="901.26373" fill="#fff" rx="20.405012" ry="13.588354" transform="rotate(-40.408609)" />
        <ellipse cx="504.59442" cy="914.12122" fill="#fff" rx="7.1425948" ry="5.0480871" transform="rotate(-39.467981)" />
      </g>
    </g>
    <path d="m 955.30592,274.89863 c -2.57438,9.07042 -0.14929,17.25841 7.49156,25.15199 l -6.77269,1.47791 c -6.949,-7.86398 -7.69213,-18.89935 -0.71887,-26.6299 z m -18.54973,6.11026 c 0.01,9.32962 4.69281,17.39256 13.86525,23.39775 l -6.30428,2.88281 c -8.7746,-6.1254 -12.45048,-16.95822 -7.56097,-26.28056 z m 48.01283,147.08285 c 75.92348,-88.05173 -4.41586,-157.12593 -48.6874,-110.06055 -9.71006,-4.39799 -17.15683,-13.91675 -15.37828,-24.2076 2.70211,7.86228 8.52011,13.55519 14.81622,16.24717 53.70784,-47.97137 136.11324,40.10386 49.24946,118.02098 z" />
  </g>
  <g>
    <path fill="#fff" id="path4657" transform="matrix(0.50181316,0.0890608,-0.0890608,0.50181316,215.41794,300.17607)" sodipodi:arg1="1.6030432" sodipodi:arg2="2.3884414" sodipodi:cx="50.631973" sodipodi:cy="231.22678" sodipodi:r1="34.590473" sodipodi:r2="4.3238091" sodipodi:sides="4" sodipodi:type="star" />
    <use transform="rotate(-60,133.74832,149.90068)" xlink:href="#path4657" />
    <use transform="matrix(-0.57756481,-1.476877,1.476877,-0.57756481,624.79477,778.59128)" xlink:href="#path4657" />
    <use transform="matrix(0.81806355,0.22435867,-0.22435867,0.81806355,987.32694,145.51931)" xlink:href="#path4657" />
    <use transform="matrix(1.0290464,0.20858702,-0.20858702,1.0290464,567.07679,-150.90091)" xlink:href="#path4657" />
    <use transform="matrix(0.81542499,-0.61595453,0.61595453,0.81542499,652.79014,126.15047)" xlink:href="#path4657" />
    <use transform="matrix(0.64964691,-0.13681724,0.13681724,0.64964691,747.11284,-82.83969)" xlink:href="#path4657" />
    <use transform="matrix(0.41623145,-0.38048962,0.38048962,0.41623145,480.36245,339.35454)" xlink:href="#path4657" />
    <use transform="matrix(0.61624711,0.407648,-0.407648,0.61624711,105.0259,-68.827455)" xlink:href="#path4657" />
    <use transform="matrix(0.30267786,1.7082025,-1.7082025,0.30267786,740.69329,-255.19696)" xlink:href="#path4657" />
    <use transform="matrix(-0.05844863,0.63270452,-0.63270452,-0.05844863,1460.2131,210.3133)" xlink:href="#path4657" />
    <use transform="matrix(0.74315255,0.43093663,-0.43093663,0.74315255,851.97024,-88.840295)" xlink:href="#path4657" />
    <use transform="matrix(0.33378125,0.36017989,-0.36017989,0.33378125,940.43706,179.51311)" xlink:href="#path4657" />
    <use transform="matrix(0.17617528,-0.5642135,0.5642135,0.17617528,347.2921,309.52992)" xlink:href="#path4657" />
    <use transform="matrix(0.39556692,-0.5262917,0.5262917,0.39556692,-185.46466,309.5231)" xlink:href="#path4657" />
    <use transform="matrix(-0.01746633,-0.86531204,0.86531204,-0.01746633,207.29605,559.9566)" xlink:href="#path4657" />
    <use transform="matrix(-0.22888345,-0.63520453,0.63520453,-0.22888345,655.61498,453.00579)" xlink:href="#path4657" />
    <use transform="matrix(0.20307742,-0.84132608,0.84132608,0.20307742,633.60897,317.29272)" xlink:href="#path4657" />
    <use transform="matrix(-0.58210642,0.39634614,-0.39634614,-0.58210642,576.41662,406.12851)" xlink:href="#path4657" />
    <use transform="matrix(-0.91245807,-0.94714624,0.94714624,-0.91245807,717.07292,1123.0732)" xlink:href="#path4657" />
    <use transform="matrix(0.62033601,-0.20879138,0.20879138,0.62033601,868.61722,165.20862)" xlink:href="#path4657" />
    <use transform="matrix(0.61296458,-0.25057882,0.25057882,0.61296458,808.84053,309.42419)" xlink:href="#path4657" />
  </g>
</svg>
