<?xml version="1.0" encoding="UTF-8" standalone="no"?>
<!-- Created with Inkscape (http://www.inkscape.org/) -->

<svg xmlns:dc="http://purl.org/dc/elements/1.1/" xmlns:cc="http://creativecommons.org/ns#" xmlns:rdf="http://www.w3.org/1999/02/22-rdf-syntax-ns#" xmlns:svg="http://www.w3.org/2000/svg" xmlns="http://www.w3.org/2000/svg" xmlns:xlink="http://www.w3.org/1999/xlink" xmlns:sodipodi="http://sodipodi.sourceforge.net/DTD/sodipodi-0.dtd" xmlns:inkscape="http://www.inkscape.org/namespaces/inkscape" id="svg2" version="1.1" inkscape:version="0.48.5 r" width="1185.8955" height="1447.1521" sodipodi:docname="Quasi-Qilin 1.svg" inkscape:export-filename="/home/parclytaxel/Pictures/Quasi-Qilin 1.png" inkscape:export-xdpi="482.96463" inkscape:export-ydpi="482.96463">
  <metadata id="metadata8">
    <rdf:RDF>
      <cc:Work rdf:about="">
        <dc:format>image/svg+xml</dc:format>
        <dc:type rdf:resource="http://purl.org/dc/dcmitype/StillImage" />
        <dc:title></dc:title>
      </cc:Work>
    </rdf:RDF>
  </metadata>
  <defs id="defs6">
    <inkscape:path-effect effect="skeletal" id="path-effect5317" is_visible="true" pattern="m 645.96629,764.2809 c -21.79194,0 -43.0638,2.0145 -65,7 22.68403,5.23477 43.20806,7 65,7 l 296.99999,0 0,-14 z" copytype="single_stretched" prop_scale="1" scale_y_rel="false" spacing="0" normal_offset="0" tang_offset="0" prop_units="false" vertical_pattern="false" fuse_tolerance="0" pattern-nodetypes="scsccs" />
    <inkscape:path-effect effect="skeletal" id="path-effect5250" is_visible="true" pattern="m 327.51124,920.80337 0,14 1281.99996,0 c 21.7919,0 43.3131,-2.26378 65,-7 -21.6869,-4.9855 -43.2081,-7 -65,-7 z" copytype="single_stretched" prop_scale="1" scale_y_rel="false" spacing="0" normal_offset="0" tang_offset="0" prop_units="false" vertical_pattern="false" fuse_tolerance="0" pattern-nodetypes="ccscsc" />
    <inkscape:path-effect effect="skeletal" id="path-effect5216" is_visible="true" pattern="m 448.9908,933.28561 0,14 409.99998,0 c 21.7919,0 43.3131,-2.26378 65,-7 -21.6869,-4.9855 -43.2081,-7 -65,-7 z" copytype="single_stretched" prop_scale="1" scale_y_rel="false" spacing="0" normal_offset="0" tang_offset="0" prop_units="false" vertical_pattern="false" fuse_tolerance="0" pattern-nodetypes="ccscsc" />
    <inkscape:path-effect effect="skeletal" id="path-effect5184" is_visible="true" pattern="m 364.06742,705.05618 0,14 511.99998,0 c 21.7919,0 43.3131,-2.26378 65,-7 -21.6869,-4.9855 -43.2081,-7 -65,-7 z" copytype="single_stretched" prop_scale="1" scale_y_rel="false" spacing="0" normal_offset="0" tang_offset="0" prop_units="false" vertical_pattern="false" fuse_tolerance="0" pattern-nodetypes="ccscsc" />
    <inkscape:path-effect effect="skeletal" id="path-effect5146" is_visible="true" pattern="m 200.6056,1180.5664 c -21.79194,0 -43.0638,2.0145 -65,7 22.68403,5.2348 43.20806,7 65,7 l 620.99999,0 c 21.7919,0 43.31311,-2.2638 65.00001,-7 -21.6869,-4.9855 -43.20811,-7 -65.00001,-7 z" copytype="single_stretched" prop_scale="1" scale_y_rel="false" spacing="0" normal_offset="0" tang_offset="0" prop_units="false" vertical_pattern="false" fuse_tolerance="0" pattern-nodetypes="scsscss" />
    <inkscape:path-effect effect="skeletal" id="path-effect5114" is_visible="true" pattern="m 805.23681,510.51521 c -21.79194,0 -43.0638,2.0145 -65,7 22.68403,5.23477 43.20806,7 65,7 l 912.99999,0 c 21.7919,0 43.3131,-2.26378 65,-7 -21.6869,-4.9855 -43.2081,-7 -65,-7 z" copytype="single_stretched" prop_scale="1" scale_y_rel="false" spacing="0" normal_offset="0" tang_offset="0" prop_units="false" vertical_pattern="false" fuse_tolerance="0" pattern-nodetypes="scsscss" />
    <inkscape:path-effect effect="skeletal" id="path-effect5064" is_visible="true" pattern="m 444.18021,339.72364 c -21.79194,0 -43.0638,2.0145 -65,7 22.68403,5.23477 43.20806,7 65,7 l 356.99999,0 c 21.79195,0 43.31308,-2.26378 65,-7 -21.68692,-4.9855 -43.20805,-7 -65,-7 z" copytype="single_stretched" prop_scale="1" scale_y_rel="false" spacing="0" normal_offset="0" tang_offset="0" prop_units="false" vertical_pattern="false" fuse_tolerance="0" pattern-nodetypes="scsscss" />
    <linearGradient inkscape:collect="always" id="linearGradient5008">
      <stop style="stop-color:#1cabda;stop-opacity:1;" offset="0" id="stop5010" />
      <stop style="stop-color:#76d0ed;stop-opacity:1" offset="1" id="stop5012" />
    </linearGradient>
    <linearGradient inkscape:collect="always" xlink:href="#linearGradient5008" id="linearGradient5014" x1="973.29919" y1="354.09485" x2="959.56281" y2="488.90594" gradientUnits="userSpaceOnUse" />
    <clipPath clipPathUnits="userSpaceOnUse" id="clipPath5032">
      <use x="0" y="0" xlink:href="#path4203" id="use5034" width="1" height="1" />
    </clipPath>
    <clipPath clipPathUnits="userSpaceOnUse" id="clipPath5351">
      <path style="font-size:medium;font-style:normal;font-variant:normal;font-weight:normal;font-stretch:normal;text-indent:0;text-align:start;text-decoration:none;line-height:normal;letter-spacing:normal;word-spacing:normal;text-transform:none;direction:ltr;block-progression:tb;writing-mode:lr-tb;text-anchor:start;baseline-shift:baseline;color:black;fill:none;stroke:yellow;stroke-width:1;stroke-miterlimit:4;stroke-dasharray:none;marker:none;visibility:visible;display:inline;overflow:visible;enable-background:accumulate;font-family:Sans;-inkscape-font-specification:Sans" d="m 698.06052,732.0843 c -20.74447,-1.6142 -41.38522,-2.17738 -61.65427,-1.55305 l 114.41006,208.11884 197.92435,10.9681 25.9246,-176.4867 z" id="path5353" inkscape:connector-curvature="0" sodipodi:nodetypes="cccccc" />
    </clipPath>
    <clipPath clipPathUnits="userSpaceOnUse" id="clipPath5355">
      <path id="path5357" style="fill:none;stroke:yellow;stroke-width:1;stroke-miterlimit:4;stroke-dasharray:none" d="m 826.5625,773.34375 c 1.20638,-1.91379 6.58671,-5.00795 17.40625,-5.9375 10.81954,-0.92955 26.41026,-0.0198 46.4375,3.3125 -71.50372,-36.07191 -160.95274,-50.05105 -246.70238,-49.3783 18.8476,42.89052 44.02697,83.06725 74.87117,118.40644 z" inkscape:connector-curvature="0" sodipodi:nodetypes="cscccc" />
    </clipPath>
    <clipPath clipPathUnits="userSpaceOnUse" id="clipPath5359">
      <path style="font-size:medium;font-style:normal;font-variant:normal;font-weight:normal;font-stretch:normal;text-indent:0;text-align:start;text-decoration:none;line-height:normal;letter-spacing:normal;word-spacing:normal;text-transform:none;direction:ltr;block-progression:tb;writing-mode:lr-tb;text-anchor:start;baseline-shift:baseline;color:black;fill:none;stroke:yellow;stroke-width:1;stroke-miterlimit:4;stroke-dasharray:none;marker:none;visibility:visible;display:inline;overflow:visible;enable-background:accumulate;font-family:Sans;-inkscape-font-specification:Sans" d="m 895.96875,777.03125 c -27.84306,-10.56657 -57.43264,-19.7727 -87.86171,-27.15638 l -57.78928,166.34047 116.6607,25.42605 z" id="path5361" inkscape:connector-curvature="0" sodipodi:nodetypes="ccccc" />
    </clipPath>
    <linearGradient inkscape:collect="always" xlink:href="#linearGradient5008" id="linearGradient5470" gradientUnits="userSpaceOnUse" x1="973.29919" y1="354.09485" x2="959.56281" y2="488.90594" />
  </defs>
  <sodipodi:namedview pagecolor="#ffffff" bordercolor="#666666" borderopacity="1" objecttolerance="10" gridtolerance="10" guidetolerance="10" inkscape:pageopacity="0" inkscape:pageshadow="2" inkscape:window-width="1364" inkscape:window-height="698" id="namedview4" showgrid="true" fit-margin-top="0" fit-margin-left="0" fit-margin-right="0" fit-margin-bottom="0" showguides="true" inkscape:zoom="0.3690006" inkscape:cx="592.94775" inkscape:cy="723.57605" inkscape:window-x="0" inkscape:window-y="0" inkscape:window-maximized="1" inkscape:current-layer="layer2" inkscape:object-paths="false" />
  <g inkscape:groupmode="layer" id="layer2" inkscape:label="Drawing" style="display:inline" transform="translate(-15.707107,-11.065352)">
    <g id="g5431">
      <g id="g5260">
        <path style="fill:#1a71c8;fill-opacity:1;stroke:none" d="m 556.27296,998.44956 c -60.29806,113.86984 -87.437,246.24734 -77.75933,395.89074 1.79834,27.8073 168.0226,24.9082 161.08746,-1.5957 -101.31119,-387.1789 94.1469,-408.2255 114.83011,-559.34862 10.02272,-73.23164 -86.48092,-92.98334 -119.88064,-31.04205 -29.79469,55.2556 -25.70271,122.20393 -39.10002,179.57062 -18.57561,-1.98161 -32.81409,4.50787 -39.17758,16.52501 z" id="path5258" inkscape:connector-curvature="0" sodipodi:nodetypes="ssssscs" />
        <path sodipodi:nodetypes="csssssc" inkscape:connector-curvature="0" id="path5224" d="m 594.47572,988.77981 1.4246,-13.92734 c -8.96334,-0.9969 -18.5187,-0.12468 -27.4433,3.65257 -7.64505,3.28774 -14.25425,9.0642 -18.37026,16.66871 -64.41201,121.80435 -87.47356,262.58025 -78.55854,399.61835 0.40372,3.7578 1.85101,6.8379 3.9029,9.0179 2.41325,2.633 5.03286,4.4541 7.48889,5.6972 2e-5,0 3e-5,0 4e-5,10e-5 7.00013,3.6794 14.27593,5.5691 21.09156,6.8994 10e-6,0 3e-5,0 4e-5,0 9.19768,1.8781 18.4318,2.9449 27.57064,3.6178 10.28433,0.7641 20.5805,1.026 30.84624,0.884 2e-5,0 3e-5,0 4e-5,0 10.13787,-0.1379 20.30196,-0.6695 30.44514,-1.7169 8.74099,-0.8948 17.59238,-2.1713 26.39243,-4.3047 3.51593,-0.8502 7.09485,-1.8792 10.66905,-3.2208 2.79744,-1.0275 5.74767,-2.3718 8.66218,-4.2588 1e-5,0 2e-5,0 4e-5,0 2.17527,-1.2844 4.49243,-3.3906 6.44072,-6.5088 0.79836,-1.3635 1.36625,-2.9613 1.64641,-4.7531 10e-6,0 10e-6,0 2e-5,-1e-4 0.23823,-1.8166 0.12356,-3.5614 -0.31147,-5.1727 -11.03036,-42.1807 -19.92307,-84.8874 -24.81841,-128.0174 -3.74286,-33.0134 -5.15501,-66.2576 -2.68015,-99.1757 1.94488,-25.888 6.32724,-51.5709 13.7867,-76.2966 10e-6,0 2e-5,0 3e-5,-10e-5 6.20991,-20.6178 14.60433,-40.5945 24.78013,-59.6331 1e-5,0 2e-5,0 4e-5,0 9.04483,-16.9343 19.54764,-33.18658 30.60861,-49.1626 2e-5,-2e-5 3e-5,-4e-5 5e-5,-6e-5 10.25654,-14.80445 21.048,-29.44673 31.27838,-44.68358 9.81068,-14.59165 19.06045,-29.8355 26.45558,-46.18571 7.6479,-16.93696 13.03928,-34.95871 15.5825,-53.47258 1.25469,-8.97843 1.08828,-18.32217 -1.02444,-27.44986 -1.84822,-7.89605 -5.23825,-15.44932 -10.06249,-22.08094 -9.27054,-12.55276 -23.06032,-21.00702 -37.90564,-24.44403 -15.39922,-3.59804 -31.76342,-2.16064 -46.30589,3.95168 -16.17596,6.86499 -29.44988,19.41598 -37.67889,34.70961 -9.96394,18.54573 -16.41017,38.58296 -20.76098,58.7594 -4.36999,20.19705 -6.84171,40.53351 -9.23033,60.62947 -1.45215,12.13115 -2.85615,24.19241 -4.66848,36.09294 -1.1271,7.40105 -2.22459,14.73884 -3.4026,22.0462 -1.47925,9.10668 -3.06726,18.1835 -5.05454,27.22156 -1.98729,9.0381 -4.3726,18.0376 -7.53921,27.076 6.18779,-7.3308 11.30621,-15.5998 15.46238,-24.3355 4.15616,-8.73578 7.35075,-17.94072 9.77007,-27.26879 1.94613,-7.46515 3.43898,-15.02493 4.60102,-22.62843 1.86851,-12.22605 3.29396,-24.43831 4.73283,-36.54593 2.40299,-20.07783 4.80143,-39.97743 9.0105,-59.31888 4.21044,-19.2799 10.2037,-38.09181 19.40206,-55.08344 6.79826,-12.57512 17.77379,-23.03928 30.78372,-28.44911 11.78465,-4.96018 25.2732,-6.15611 37.67897,-3.22725 11.82907,2.8245 22.91557,9.48639 29.79581,19.0669 3.67631,5.01765 6.29307,10.88731 7.74268,17.0301 1.70734,7.13427 1.79319,14.77802 0.78275,22.34992 -2.32742,17.07374 -7.34899,33.8091 -14.47309,49.6134 -6.8941,15.32106 -15.76484,29.88328 -25.31847,44.14082 -9.99707,14.89823 -20.74981,29.48374 -31.16224,44.51326 -2e-5,2e-5 -3e-5,4e-5 -5e-5,7e-5 -11.24373,16.219 -22.02598,32.92866 -31.44694,50.53476 -10e-6,0 -2e-5,0 -3e-5,10e-5 -10.59152,19.8068 -19.33867,40.6372 -25.83835,62.1942 -7.77783,25.8368 -12.34565,52.5178 -14.34309,79.291 -2.53549,34.0099 -1.10651,68.1296 2.73067,101.802 5.00653,43.9823 14.02138,87.3432 25.18483,129.9802 -0.0238,-0.04 -0.0147,-0.1334 -0.005,-0.342 0,0 0,0 0,0 0.0524,-0.1902 0.0491,-0.244 0.0472,-0.2017 -0.0137,0.3288 -0.844,0.8474 -1.98001,1.7462 -2e-5,0 -4e-5,10e-5 -5e-5,10e-5 -1.60317,1.0915 -3.63177,1.9656 -5.89729,2.848 -2.84954,1.0817 -5.88554,1.9429 -9.04027,2.7172 -7.918,1.938 -16.14509,3.1067 -24.51953,3.9814 -9.67019,1.001 -19.41847,1.5084 -29.19769,1.644 -9.90088,0.1349 -19.78677,-0.1146 -29.61539,-0.8468 -8.7648,-0.659 -17.40787,-1.6436 -25.7975,-3.3711 -2e-5,0 -5e-5,0 -7e-5,0 -6.39379,-1.3778 -12.39612,-2.8057 -17.27114,-5.5141 -2e-5,0 -4e-5,0 -6e-5,0 -1.62823,-0.9538 -2.94911,-1.741 -3.59272,-2.5957 -0.331,-0.5386 -0.63079,-0.8438 -0.46038,-0.6936 -8.66996,-134.8741 13.85879,-273.165 76.96012,-392.1631 2.303,-4.5175 6.64964,-8.19854 11.5826,-10.3825 5.99387,-2.71259 13.21279,-3.22166 20.43396,-2.56309 z" style="fill:#155a9f;fill-opacity:1;stroke:none" inkscape:path-effect="#path-effect5250" inkscape:original-d="m 595.18802,981.81614 c -18.31309,-1.8732 -32.55157,4.61628 -38.91506,16.63342 -60.29806,113.86984 -87.437,246.24734 -77.75933,395.89074 1.79834,27.8073 168.0226,24.9082 161.08746,-1.5957 -101.31119,-387.1789 94.1469,-408.2255 114.83011,-559.34862 10.02272,-73.23164 -86.48092,-92.98334 -119.88064,-31.04205 -38.77809,71.91573 -20.15458,163.6381 -56.8175,228.50327" />
      </g>
      <path style="fill:#1a71c8;fill-opacity:1;stroke:#155a9f;stroke-width:14;stroke-linecap:butt;stroke-linejoin:miter;stroke-miterlimit:4;stroke-opacity:1;stroke-dasharray:none;stroke-dashoffset:7.8" d="m 882.53651,911.39327 c -63.14225,145.68893 -91.04938,312.48523 -76.68219,478.62063 2.90039,33.5387 157.39783,25.8388 150.5108,-0.2921 -43.73674,-165.9469 -50.03744,-321.1581 -18.58983,-485.90438 z" id="path5088" inkscape:connector-curvature="0" sodipodi:nodetypes="csscc" />
      <g id="g5424">
        <path style="fill:#69d2ed;fill-opacity:1;stroke:none" d="M 1037.3257,293.09867 C 1152.6648,196.01296 1131.8683,45.621127 969.27183,18.065352 985.52401,36.45423 995.48472,56.69718 1001.1252,75.453965 982.35848,59.301422 961.65343,52.008172 940.35851,49.277199 c 17.01113,19.560958 25.51092,37.624045 32.4962,61.201411 -141.88336,-29.99659 -278.99784,8.11115 -373.02715,130.20227 59.00196,0.44994 115.30518,21.55952 161.8772,63.82338 -132.43482,-24.87046 -72.20771,146.29225 -95.00714,255.58788 44.37616,-8.98528 78.11017,-33.87006 95.58073,-68.63961 7.55771,64.73877 30.06259,95.42336 44.51751,165.04032 16.87128,-14.94279 26.44601,-35.81533 28.83875,-55.87254 22.9428,31.33554 35.4512,70.60851 37.39399,113.87254 25.9571,-20.60726 38.9428,-44.18592 43.46425,-74.9714 z" id="path5429" inkscape:connector-curvature="0" sodipodi:nodetypes="cccccccccccccc" />
        <path style="fill:#c7eef8;fill-opacity:1;stroke:none" d="m 814.71529,332.14672 c -69.81864,-11.17483 -117.64901,22.45884 -142.19841,94.94624 -0.53996,41.53375 1.28119,87.59834 -6.81926,132.99918 83.13666,-74.76376 70.52739,-154.94383 145.87996,-168.18086 z" id="path5422" inkscape:connector-curvature="0" sodipodi:nodetypes="ccccc" />
        <path sodipodi:nodetypes="cccccccccccccc" inkscape:connector-curvature="0" id="path5420" d="M 1037.3257,293.09867 C 1152.6648,196.01296 1131.8683,45.621127 969.27183,18.065352 985.52401,36.45423 995.48472,56.69718 1001.1252,75.453965 982.35848,59.301422 961.65343,52.008172 940.35851,49.277199 c 17.01113,19.560958 25.51092,37.624045 32.4962,61.201411 -141.88336,-29.99659 -278.99784,8.11115 -373.02715,130.20227 59.00196,0.44994 115.30518,21.55952 161.8772,63.82338 -132.43482,-24.87046 -72.20771,146.29225 -95.00714,255.58788 44.37616,-8.98528 78.11017,-33.87006 95.58073,-68.63961 7.55771,64.73877 30.06259,95.42336 44.51751,165.04032 16.87128,-14.94279 26.44601,-35.81533 28.83875,-55.87254 22.9428,31.33554 35.4512,70.60851 37.39399,113.87254 25.9571,-20.60726 38.9428,-44.18592 43.46425,-74.9714 z" style="fill:none;stroke:#1ebce6;stroke-width:14;stroke-linecap:butt;stroke-linejoin:miter;stroke-miterlimit:20;stroke-opacity:1;stroke-dasharray:none;stroke-dashoffset:7.8" />
      </g>
      <path sodipodi:nodetypes="ccccccccc" inkscape:connector-curvature="0" id="path5416" d="M 167,377.29289 C 85.748737,352.47666 39.849243,297.06245 22.707107,214 32.593146,228.1967 43.328427,236.92462 56,246.29289 32.150758,157.6741 49.70101,92.884776 95,43.707107 86.964466,99.916739 94.050253,150.71573 109.70711,199.70711 114.47487,178.48528 122.63604,163.18198 135,150 c -4.72792,34.95837 1.77817,52.43324 0,85 13.35355,-18.74517 21.53553,-36.28249 26.70711,-58.76777 19,67.2929 21.6066,133.85608 5.29289,201.06066 z" style="fill:#69d2ed;fill-opacity:1;stroke:#1ebce6;stroke-width:14;stroke-linecap:butt;stroke-linejoin:miter;stroke-miterlimit:20;stroke-opacity:1;stroke-dasharray:none;stroke-dashoffset:7.8" />
      <path style="fill:#1b76d2;fill-opacity:1;stroke:#155a9f;stroke-width:14;stroke-miterlimit:20;stroke-opacity:1;stroke-dasharray:none" d="M 726.15731,736.66853 C 538.61236,501.17977 357.19662,637.2472 131.57865,315.74157 274,680.96068 514.35955,545.43258 661.01124,786.5618 z" id="path5414" inkscape:connector-curvature="0" sodipodi:nodetypes="cccc" />
      <path style="fill:#1b76d2;fill-opacity:1;stroke:none" d="m 749.29124,990.04865 c -24.49045,72.78585 -39.41157,155.58355 140.65784,440.68725 15.97361,25.291 -148.3371,28.6729 -160.74411,1.5957 -60.78184,-132.6512 -96.25634,-258.1637 -103.40713,-399.6517 -0.67811,-13.4174 16.15292,-25.0435 31.64298,-26.9386 C 635.08357,937.42042 574.42788,880.40568 639.15271,780.08219 722.58962,650.75498 860.84404,783.04159 924.9016,761.90874 918.02115,596.7746 816.77283,570.608 800.67131,426.14069 776.82122,212.15108 1105.0474,173.74515 1129.7143,421.40293 c 1.4626,14.68498 45.2776,-5.34356 47.8724,8.72326 14.038,76.10138 -45.3854,145.30062 -136.6446,161.11528 131.6475,184.88132 2.9611,499.25983 -291.65086,398.80718 z" id="path5391" inkscape:connector-curvature="0" sodipodi:nodetypes="cssscscssscc" />
      <path inkscape:original-d="m 925.31171,795.06479 c 5.9826,-195.4316 -107.51105,-215.23484 -124.6404,-368.9241 -23.85009,-213.98961 304.37609,-252.39554 329.04299,-4.73776 1.4626,14.68498 45.2776,-5.34357 47.8724,8.72326 18.9448,102.70132 -95.9014,192.8322 -242.30399,157.5708" inkscape:path-effect="#path-effect5114" sodipodi:nodetypes="csssc" inkscape:connector-curvature="0" id="path4977" d="m 912.81351,713.86138 c 2.4443,13.33162 4.50348,26.61113 6.50114,40.06908 1.99767,13.45794 3.93285,27.09735 5.99706,41.13433 3.0581,-14.35656 4.61449,-28.33554 4.80084,-42.19613 0.18635,-13.86059 -0.98708,-27.60784 -3.54847,-41.5326 -2.28741,-12.43528 -5.29337,-24.75138 -9.12223,-36.86696 -4.87115,-15.34971 -11.01589,-30.24738 -18.15248,-44.608 -6.60668,-13.28915 -14.00107,-26.06983 -21.66185,-38.56833 0,-10e-6 -10e-6,-10e-6 -10e-6,-2e-5 -15.01298,-24.53023 -30.89393,-48.12433 -43.12364,-73.22489 -6.62704,-13.57287 -12.26185,-27.60295 -16.61367,-41.99282 -4.9951,-16.49143 -8.3418,-33.50993 -10.26197,-50.70973 -2.55785,-23.234 -1.07703,-46.9579 5.98875,-68.88931 10e-6,-10e-6 10e-6,-2e-5 10e-6,-3e-5 6.10258,-19.05666 16.42579,-36.79456 30.0569,-51.40603 0,-10e-6 10e-6,-10e-6 2e-5,-2e-5 13.13265,-14.10733 29.33037,-25.40409 47.002,-33.38622 10e-6,-10e-6 3e-5,-2e-5 5e-5,-2e-5 17.83122,-8.05032 37.20244,-12.7553 56.78147,-14.04467 19.86292,-1.30129 39.97583,0.925 58.98247,6.70373 19.5312,5.93535 37.9298,15.6794 53.652,28.63169 17.1233,14.07448 31.0738,32.03671 41.182,51.91942 0,1e-5 0,3e-5 0,5e-5 12.1106,23.77283 18.7658,50.30787 21.4749,77.20279 0.1291,1.68638 0.6909,3.48521 1.7285,5.2966 10e-5,4e-5 10e-5,8e-5 10e-5,1.2e-4 1.0462,1.65839 2.3262,2.95541 3.7553,3.86832 3.253,1.90469 6.24,2.63606 8.562,2.69087 3.1001,0.26664 5.9686,0.15615 8.5693,-0.0664 3.022,-0.23844 5.9246,-0.59594 8.7186,-0.94244 5.4718,-0.62608 10.3594,-1.45418 14.6227,-1.06871 1.5404,0.2477 2.5432,0.25875 2.6692,0.51921 -0.034,0.016 -0.1284,-0.10717 -0.3728,-0.37109 0,-1e-5 -10e-5,-2e-5 -10e-5,-2e-5 -0.1998,-0.33518 -0.3037,-0.51229 -0.2988,-0.62713 4.2626,23.02171 1.1448,47.45749 -8.7431,68.68449 0,1e-5 0,3e-5 0,5e-5 -10.1771,22.01636 -27.3046,40.75134 -47.509,54.81506 -22.9914,15.98829 -50.1053,25.9836 -78.0136,30.59158 -6.4704,1.06704 -12.9875,1.83928 -19.5311,2.3316 -13.4159,1.00937 -26.82071,1.41103 -40.37754,1.36107 -13.55684,-0.0499 -27.26662,-0.55179 -41.24575,-1.48287 12.84093,5.6568 26.39786,9.72257 40.29887,12.09192 13.90101,2.36936 28.14632,3.04532 42.37332,1.97549 6.9393,-0.52181 13.8623,-1.33749 20.7489,-2.46193 29.7155,-4.84646 58.7334,-15.61221 83.7255,-32.90286 22.0287,-15.22704 40.7281,-35.82876 52.2247,-60.41529 0,-2e-5 0,-4e-5 10e-5,-5e-5 11.112,-23.9271 14.5876,-51.17735 9.8165,-77.1279 -0.2936,-1.73275 -1.0216,-3.4769 -2.1972,-5.13668 0,-3e-5 0,-7e-5 -10e-5,-1.1e-4 -1.1902,-1.54766 -2.5396,-2.70948 -3.9584,-3.48391 -3.2611,-1.67298 -6.2357,-2.28532 -8.5849,-2.32308 -6.4104,-0.39789 -12.2107,0.45276 -17.3607,1.13639 -2.8009,0.34336 -5.4951,0.6799 -8.0933,0.87955 -2.3061,0.15992 -4.3774,0.27657 -6.1777,0.0849 0,0 0,0 0,0 -1.4216,-0.2953 -2.275,-0.27677 -2.1613,-0.44117 0.1307,0.0572 0.274,0.23869 0.5146,0.56718 0.1739,0.38557 0.2644,0.54218 0.2282,0.56973 -2.7874,-28.29116 -9.9253,-56.47646 -22.9229,-82.15356 0,0 0,-10e-6 0,-2e-5 -10.9075,-21.50734 -26.0529,-40.95957 -44.7666,-56.38944 -17.2005,-14.15263 -37.2088,-24.7591 -58.4812,-31.21897 -20.67425,-6.27544 -42.44926,-8.69319 -63.96867,-7.27811 -21.20831,1.38794 -42.19276,6.49567 -61.62118,15.25293 -2e-5,10e-6 -4e-5,2e-5 -5e-5,3e-5 -19.28219,8.6875 -36.97444,21.05597 -51.48557,36.60133 -10e-6,2e-5 -3e-5,3e-5 -4e-5,5e-5 -15.0629,16.16778 -26.41697,35.66444 -33.14945,56.68232 -7.69952,24.16989 -9.374,49.83414 -6.56975,74.71034 2.00035,17.9762 5.51842,35.8296 10.77607,53.21444 4.59579,15.17409 10.50401,29.90054 17.43389,44.08191 10e-6,2e-5 10e-6,4e-5 2e-5,6e-5 12.84261,26.22846 28.93738,50.2121 43.7651,74.3935 10e-6,10e-6 2e-5,3e-5 3e-5,5e-5 7.53336,12.30423 14.72771,24.72336 21.06175,37.48369 6.84239,13.77887 12.71819,28.0111 17.34565,42.61167 3.66302,11.50729 6.53377,23.2544 8.71661,35.15999 z" style="fill:#155a9f;fill-opacity:1;stroke:none" />
      <path sodipodi:nodetypes="cc" inkscape:connector-curvature="0" id="path4998" d="m 1040.9724,590.66219 c 131.6172,185.4606 2.9308,499.83911 -291.62669,399.13204" style="fill:none;stroke:#155a9f;stroke-width:14;stroke-linecap:butt;stroke-linejoin:miter;stroke-miterlimit:4;stroke-opacity:1;stroke-dasharray:none;stroke-dashoffset:7.8" />
      <g id="g5156">
        <path sodipodi:nodetypes="csscc" inkscape:connector-curvature="0" id="path5154" d="m 908.22752,921.21349 c 3.33346,181.90951 49.7627,357.34411 134.80658,510.57591 16.3362,29.4344 165.5376,22.1678 150.5108,-0.2921 -103.2034,-154.253 -186.4481,-341.6199 -230.0786,-517.85966 z" style="fill:#1b76d2;fill-opacity:1;stroke:none" />
        <path style="fill:#155a9f;fill-opacity:1;stroke:none" d="m 922.51359,1029.8139 c -2.10587,-18.1557 -4.24771,-36.0855 -6.58485,-54.08286 -2.33714,-17.99737 -4.86986,-36.06213 -7.70122,-54.51755 -2.26637,19.17977 -3.20567,37.55497 -3.07898,55.71715 0.12669,18.16217 1.31943,36.11436 3.4514,54.49696 16.37961,141.2306 59.32139,279.4177 128.31366,403.7587 1.7777,3.0642 4.0106,5.4443 6.3478,7.205 2.8111,2.1737 5.7507,3.8253 8.6286,5.1205 0,0 10e-5,0 10e-5,0 7.3691,3.3379 14.9729,5.2896 22.3359,6.6804 0,0 0,0 10e-5,0 9.0301,1.7426 18.1025,2.7531 27.1074,3.3464 9.6311,0.6396 19.276,0.8062 28.8936,0.5629 9.1349,-0.2285 18.3014,-0.8251 27.4481,-1.9315 0,0 0,0 0,0 7.5393,-0.9009 15.2242,-2.1534 22.868,-4.2694 2.9085,-0.8004 5.9126,-1.7892 8.928,-3.1142 10e-5,0 10e-5,0 10e-5,0 2.2332,-0.9335 4.7003,-2.2874 7.1452,-4.3052 0.9588,-0.79 1.9362,-1.8359 2.8649,-3.1598 0,0 1e-4,0 1e-4,-10e-5 0.8219,-1.1574 1.4704,-2.614 1.8767,-4.3443 0.3478,-1.7179 0.322,-3.4126 -0.062,-5.0214 -0.4613,-1.77 -1.1346,-3.2251 -1.933,-4.3508 -52.8098,-78.927 -98.2106,-162.7855 -136.8,-249.6344 0,0 0,0 0,0 -23.3886,-52.6498 -44.2961,-106.4202 -62.1733,-161.1447 -11.3649,-34.78947 -23.53342,-68.81056 -36.9232,-103.18806 3.95296,36.71371 12.15106,72.43381 23.61614,107.53486 18.03476,55.2146 39.11326,109.4308 62.68626,162.4821 0,10e-5 0,10e-5 0,10e-5 38.8805,87.5199 84.6674,172.0786 137.9583,251.7351 0.045,0.1352 0.054,0.063 -0.06,-0.2299 -0.082,-0.3213 -0.078,-0.6625 -0,-1.0864 0.1218,-0.3887 0.1746,-0.5812 0.2274,-0.6032 0,0 0,0 0,0 0.028,0.01 -0.1218,0.1248 -0.3825,0.3796 -0.7609,0.729 -2.0826,1.3602 -3.709,2.1373 -2.132,0.9564 -4.4978,1.7162 -7.0131,2.4271 -6.6299,1.861 -13.6235,2.9761 -20.794,3.8573 0,0 0,0 -1e-4,0 -8.6291,1.0472 -17.352,1.6114 -26.1172,1.8343 -9.2216,0.2318 -18.4393,0.074 -27.612,-0.5364 -8.594,-0.5767 -17.0891,-1.5125 -25.3753,-3.1221 0,0 0,0 0,0 -6.8372,-1.3581 -13.3827,-2.9701 -19.1609,-5.6613 0,0 -10e-5,0 -10e-5,0 -2.2186,-1.042 -4.2234,-2.1236 -5.824,-3.4104 -1.2685,-1.0676 -2.3011,-2.0405 -2.7472,-2.9832 -68.07772,-122.6313 -110.46198,-259.0917 -126.64101,-398.5786 z" id="path5000" inkscape:connector-curvature="0" sodipodi:nodetypes="cssc" inkscape:path-effect="#path-effect5146" inkscape:original-d="m 908.22752,921.21349 c 3.33346,181.90951 49.7627,357.34411 134.80658,510.57591 16.3362,29.4344 165.5376,22.1678 150.5108,-0.2921 -103.2034,-154.253 -186.4481,-341.6199 -230.0786,-517.85966" />
      </g>
      <path inkscape:connector-curvature="0" d="m 1175.8447,484.65725 -3.7479,10.15596 c -15.8504,-10.01377 -36.0747,-10.61847 -57.7492,-2.56866 19.0004,-15.24854 42.0109,-16.42772 61.4971,-7.5873 z m -26.135,-39.49559 c 3.8333,4.4696 8.0238,4.35476 10.8553,-0.85521 0.457,10.47772 -9.53,11.3518 -10.8553,0.85521 z" style="fill:#155a9f;fill-opacity:1;fill-rule:nonzero;stroke:none" id="path5022" />
      <path inkscape:original-d="m 657.81452,1005.5212 c -15.86376,2.1152 -32.69479,13.7413 -32.01668,27.1587 7.15079,141.488 42.62529,267.0005 103.40713,399.6517 12.40701,27.0772 176.7177,23.6953 160.74411,-1.5957 C 618.32995,1000.6817 790.37497,1030.9365 769.51124,862.39888" inkscape:path-effect="#path-effect5184" sodipodi:nodetypes="csssc" inkscape:connector-curvature="0" id="path5079" d="m 658.73968,1012.4598 -1.85032,-13.87719 c -9.28328,1.22181 -18.22134,4.92249 -25.63914,10.79749 -3.42845,2.6678 -6.59303,6.0523 -9.03523,10.2043 -2.28576,3.8656 -3.57652,8.4954 -3.40823,13.4487 0,10e-5 0,10e-5 0,10e-5 3.4899,69.0486 14.13901,137.7305 31.81564,204.576 0,0 0,0 0,0 17.98476,67.9759 42.99493,133.8764 72.21882,197.6383 1.65975,3.3158 3.85667,5.7339 6.10364,7.3411 1e-5,0 2e-5,0 3e-5,0 2.84403,2.1588 5.78607,3.7216 8.5996,4.9081 10e-6,0 2e-5,0 3e-5,0 7.63218,3.2669 15.45753,5.1053 22.99595,6.4507 10e-6,0 2e-5,10e-5 3e-5,10e-5 9.56823,1.7478 19.17249,2.784 28.71226,3.4306 10.35346,0.7063 20.72391,0.952 31.07417,0.7929 9.90895,-0.1499 19.85459,-0.6682 29.78767,-1.7152 8.22937,-0.8566 16.6107,-2.0733 24.95329,-4.2159 3.18258,-0.8125 6.46268,-1.8212 9.75138,-3.1906 2e-5,0 4e-5,0 6e-5,-10e-5 2.44156,-0.9692 5.12246,-2.3676 7.7667,-4.4685 1.03724,-0.8231 2.09273,-1.9071 3.09313,-3.2777 2e-5,0 4e-5,0 6e-5,-1e-4 0.88524,-1.2 1.59358,-2.7057 2.04953,-4.4903 10e-6,-10e-5 2e-5,-10e-5 3e-5,-2e-4 0.39788,-1.7738 0.40928,-3.5337 0.0499,-5.2107 -10e-6,-10e-5 -2e-5,-10e-5 -3e-5,-10e-5 -0.43362,-1.8518 -1.10239,-3.3923 -1.91118,-4.6037 -29.00194,-45.924 -56.85975,-92.5237 -82.02336,-140.4946 -10e-6,-10e-5 -2e-5,-10e-5 -3e-5,-10e-5 -17.89064,-34.1173 -34.48266,-68.8494 -47.80701,-104.7363 0,-10e-5 -10e-6,-10e-5 -10e-6,-10e-5 -9.27391,-25.0075 -17.00519,-50.5092 -21.1458,-76.5118 -10e-6,0 -10e-6,0 -10e-6,0 -2.96722,-18.634 -4.02204,-37.5257 -2.22634,-56.088 1.41494,-14.8959 4.76119,-29.6849 9.19775,-44.2239 0.3789,-1.2403 0.76571,-2.4801 1.15928,-3.7201 3.91111,-12.32191 8.30877,-24.67559 12.06143,-37.40085 4.3854,-14.82978 7.69956,-30.12794 8.87958,-45.65566 1.41149,-18.84198 -0.32536,-37.659 -4.45171,-55.76761 0.31628,18.58027 -1.00791,36.89093 -4.50966,54.55898 -2.86722,14.55017 -7.2736,28.74113 -12.25485,42.86093 -4.30202,12.16923 -9.01707,24.41858 -13.06668,37.16786 -0.4075,1.28294 -0.80957,2.56988 -1.20505,3.86115 -4.66233,15.2062 -8.19138,30.9148 -9.74614,46.9826 -1.90001,19.971 -0.80795,40.0452 2.33807,59.6355 0,0 1e-5,0 1e-5,0 4.37538,27.2454 12.34026,53.6354 21.8466,79.1767 13.6315,36.6672 30.46555,71.942 48.53309,106.3647 0,0 10e-6,0 10e-6,0 25.41012,48.4278 53.45483,95.3516 82.58405,141.4666 0.088,0.2086 0.13569,0.2178 0.0478,0.01 -10e-6,0 -10e-6,0 -10e-6,0 -0.0583,-0.2455 -0.0471,-0.5084 0.0178,-0.8577 0.11153,-0.3114 0.13571,-0.4358 0.14803,-0.4001 0,0 0,0 0,0 -0.0192,0.073 -0.22896,0.2464 -0.55604,0.5463 -0.93455,0.8452 -2.45603,1.5438 -4.28846,2.3689 -10e-6,0 -2e-5,0 -4e-5,0 -2.40132,1.0195 -5.04259,1.8129 -7.83487,2.5445 -7.33883,1.91 -15.04246,3.004 -22.92019,3.8479 -9.43777,0.9981 -18.96491,1.4911 -28.53216,1.6394 -9.9866,0.1524 -19.96777,-0.083 -29.90634,-0.762 -9.17696,-0.631 -18.25822,-1.6017 -27.14327,-3.234 -10e-6,0 -3e-5,0 -5e-5,0 -7.10919,-1.3376 -13.91884,-2.8672 -19.94887,-5.5244 -2e-5,0 -3e-5,0 -5e-5,0 -2.18916,-0.9827 -4.13074,-1.9539 -5.59821,-3.1333 -10e-6,0 -2e-5,-10e-5 -3e-5,-10e-5 -1.05554,-0.9498 -1.86693,-1.6219 -1.94703,-2.1031 -28.95058,-63.199 -53.69168,-128.3487 -71.4116,-195.3858 0,0 -10e-6,0 -10e-6,-10e-5 -17.42757,-65.8968 -27.92753,-133.6212 -31.36819,-201.7032 0,0 0,0 -10e-6,-1e-4 -0.17027,-1.7461 0.50547,-3.8144 1.56316,-5.7642 1.23442,-2.243 3.25514,-4.2988 5.60367,-6.218 5.30775,-4.229 11.96074,-6.9588 18.78394,-7.8845 z" style="fill:#155a9f;fill-opacity:1;stroke:none" />
      <path inkscape:original-d="m 924.65844,762.10249 c -63.8144,20.9391 -202.06882,-111.34751 -285.50573,17.9797 -79.768,123.6404 30.8985,181.5012 24.9159,276.22571" inkscape:path-effect="#path-effect5216" sodipodi:nodetypes="csc" inkscape:connector-curvature="0" id="path5084" d="m 926.84083,768.75359 -4.36478,-13.3022 c -3.39737,1.13464 -7.11413,1.69395 -10.95161,1.89054 -4.25278,0.21071 -8.63997,-0.1035 -13.0942,-0.69622 -10.44951,-1.3891 -20.88751,-4.40001 -31.43698,-7.7538 -10e-6,-1e-5 -10e-6,-1e-5 -2e-5,-1e-5 -12.10117,-3.86969 -24.15437,-8.30476 -36.39408,-12.60308 -10e-6,0 -10e-6,-10e-6 -10e-6,-10e-6 -12.93705,-4.54842 -26.05272,-8.96489 -39.51208,-12.60045 -1e-5,0 -1e-5,0 -2e-5,0 -13.35603,-3.61583 -27.11281,-6.43874 -41.1974,-7.58477 -13.73209,-1.12586 -27.80781,-0.49083 -41.52068,2.74397 -14.36124,3.42438 -27.93835,9.80243 -39.7748,18.56339 -14.31267,10.64929 -25.92946,24.24563 -35.32354,38.87635 0,1e-5 -10e-6,2e-5 -10e-6,2e-5 -9.04156,13.98288 -16.864,28.98741 -22.33211,45.02563 -4.42274,12.99209 -7.15303,26.64562 -7.69832,40.50018 0,10e-6 0,2e-5 0,3e-5 -0.46605,12.33155 0.81158,24.63604 3.48843,36.55637 0,10e-6 0,2e-5 0,3e-5 2.59005,11.51367 6.37371,22.60152 10.7263,33.30125 4.33833,10.67873 9.19611,20.99502 13.99178,31.18926 2.60778,5.55098 5.19972,11.06777 7.67843,16.58998 2.05302,4.57383 4.09261,9.10907 6.07213,13.64154 4.3459,9.96491 8.43896,19.90021 11.72129,30.17701 3.37257,10.5437 5.91371,21.515 7.15006,33.0393 2.77942,-11.2707 3.35186,-23.2188 2.00474,-34.971 -1.31199,-11.4265 -4.32653,-22.60178 -8.28751,-33.2908 -1.79774,-4.85922 -3.78105,-9.62912 -5.88758,-14.32665 -2.54332,-5.67156 -5.16973,-11.26361 -7.78185,-16.81577 -4.79432,-10.20445 -9.55119,-20.29013 -13.68906,-30.49748 -4.13847,-10.22296 -7.69242,-20.57583 -10.03716,-31.09632 -2.42472,-10.85852 -3.593,-21.96347 -3.16038,-32.95775 0,-10e-6 0,-2e-5 0,-3e-5 0.46459,-12.358 2.95037,-24.69021 6.96479,-36.53625 4.96734,-14.6827 12.29247,-28.65827 20.84017,-41.93875 10e-6,-1e-5 10e-6,-1e-5 2e-5,-2e-5 8.78149,-13.54141 19.25322,-25.91671 31.88837,-35.21323 10.33329,-7.64828 22.21411,-13.23733 34.68592,-16.19639 11.96244,-2.87324 24.5844,-3.39657 37.15938,-2.40884 12.93862,1.0251 25.85377,3.70195 38.67248,7.14661 1e-5,0 2e-5,0 3e-5,10e-6 12.90627,3.47643 25.69066,7.79019 38.51823,12.29232 10e-6,0 10e-6,0 2e-5,0 12.11014,4.25526 24.28768,8.73205 36.76711,12.72826 1e-5,0 1e-5,10e-6 2e-5,10e-6 10.81354,3.48246 22.04776,6.67321 33.82565,8.29332 5.05942,0.69527 10.29136,1.04654 15.62846,0.8074 4.84548,-0.21074 9.79849,-0.99753 14.66037,-2.57296 z" style="fill:#155a9f;fill-opacity:1;stroke:none" />
      <g id="g5378">
        <path clip-path="none" sodipodi:nodetypes="csccc" inkscape:connector-curvature="0" id="path5367" d="m 885.41611,775.62134 c 97.66569,42.29122 37.44938,179.85095 -62.8956,136.26426 -64.76462,-28.1317 -125.85657,-98.22897 -163.83155,-174.66774 59.76082,0.72419 122.1871,11.23182 180.1209,28.07853 z" style="fill:#1b76d2;fill-opacity:1;stroke:none" />
        <path style="fill:none;stroke:#155a9f;stroke-width:14;stroke-miterlimit:4;stroke-opacity:1;stroke-dasharray:none" d="m 636.61646,737.5236 c 85.52837,-2.63448 178.34036,16.23345 256.88148,46.04016" id="path5264" inkscape:connector-curvature="0" sodipodi:nodetypes="cc" clip-path="url(#clipPath5355)" />
        <path style="fill:none;stroke:#155a9f;stroke-width:11;stroke-linecap:butt;stroke-linejoin:miter;stroke-miterlimit:20;stroke-opacity:1;stroke-dasharray:none;stroke-dashoffset:7.8" d="m 842.02196,918.68489 c -77.50681,-58.74336 -68.70276,-79.86119 -2.9797,-61.30425 -53.34485,-40.22616 -46.75747,-59.22051 17.62137,-44.52857 -57.60024,-36.23775 -46.61783,-61.07145 34.64582,-47.55012" id="path5266" inkscape:connector-curvature="0" sodipodi:nodetypes="cccc" clip-path="url(#clipPath5359)" />
        <path style="fill:#155a9f;fill-opacity:1;stroke:none" d="m 941.98985,846.43324 c 0.2024,-9.5055 -1.47406,-18.99458 -4.96957,-27.7462 -4.14304,-10.31255 -10.75504,-19.3774 -18.91519,-26.42389 -9.53421,-8.20681 -20.89911,-13.64028 -32.68898,-16.64181 5.22745,3.35364 10.06461,6.95644 14.44687,10.7846 4.38226,3.82817 8.31087,7.88249 11.72458,12.1897 5.97512,7.51617 10.45643,15.79125 13.16329,24.49664 2.31505,7.37851 3.40355,15.15687 3.24013,23.04655 -0.0158,0.76185 -0.0448,1.52342 -0.0869,2.28414 -0.46772,8.46696 -2.57187,16.88403 -6.0662,24.66427 0,1e-5 0,2e-5 -10e-6,2e-5 -3.51622,7.81565 -8.45032,15.01007 -14.50467,21.02578 0,0 0,1e-5 -10e-6,1e-5 -6.1693,6.13256 -13.54527,11.07637 -21.55923,14.33401 0,0 0,1e-5 -10e-6,1e-5 -8.618,3.52819 -18.10186,5.10506 -27.52799,4.83524 -11.16901,-0.29521 -22.36679,-3.2583 -32.93663,-7.81717 -17.75182,-7.69108 -34.32588,-18.26136 -49.76029,-30.36858 0,-10e-6 -10e-6,-10e-6 -2e-5,-2e-5 -16.83667,-13.22165 -32.24963,-28.32534 -46.42717,-44.55641 -29.87297,-34.21558 -54.2958,-73.20129 -72.60154,-114.83338 l -12.81646,5.6337 c 18.8476,42.89052 44.02697,83.06725 74.87117,118.40644 14.64909,16.79138 30.69428,32.49547 48.32388,46.35762 0,0 1e-5,10e-6 2e-5,10e-6 16.14665,12.70936 33.74485,23.89062 52.83271,32.20154 11.88221,5.19359 24.80114,8.541 38.10007,8.97012 11.27789,0.34308 22.66065,-1.57669 33.2247,-5.86394 10e-6,0 2e-5,-10e-6 2e-5,-10e-6 9.78566,-3.99454 18.69178,-9.95141 26.14969,-17.37318 10e-6,-10e-6 10e-6,-10e-6 2e-5,-2e-5 7.29598,-7.26322 13.19537,-15.85269 17.40055,-25.2109 4.18979,-9.31068 6.69706,-19.38083 7.27556,-29.62351 0.052,-0.92302 0.0879,-1.84699 0.10758,-2.77138 z" id="path5270" inkscape:connector-curvature="0" sodipodi:nodetypes="csc" inkscape:path-effect="#path-effect5317" inkscape:original-d="M 885.41611,775.62134 C 983.0818,817.91256 922.86549,955.47229 822.52051,911.8856 752.53913,881.4879 686.8459,802.09173 650.11211,718.5236" clip-path="url(#clipPath5351)" />
        <path id="path5375" style="fill:none;stroke:#155a9f;stroke-width:7;stroke-miterlimit:4;stroke-opacity:1;stroke-dasharray:none" d="m 835.18146,796.89079 -142.6636,-57.7912 m 118.6665,93.28975 -145.16795,-80.29265 m 122.6897,114.7506 -93.6955,-68.7564" inkscape:connector-curvature="0" sodipodi:nodetypes="cccccc" />
      </g>
      <g transform="matrix(1.0438466,-0.20360284,0.20360284,1.0438466,-128.45962,180.24655)" id="g5038">
        <path sodipodi:type="arc" style="fill:white;stroke:none" id="path4203" sodipodi:cx="994.83429" sodipodi:cy="426.55899" sodipodi:rx="63.455055" sodipodi:ry="85.751884" d="m 1058.2893,426.55899 a 63.455055,85.751884 0 1 1 -126.91007,0 63.455055,85.751884 0 1 1 126.91007,0 z" transform="matrix(0.86704419,-0.49823116,0.49823116,0.86704419,-84.751672,561.36518)" />
        <g id="g5024" clip-path="url(#clipPath5032)">
          <path sodipodi:type="arc" style="fill:url(#linearGradient5470);fill-opacity:1;stroke:none" id="path5002" sodipodi:cx="994.83429" sodipodi:cy="426.55899" sodipodi:rx="69.448402" sodipodi:ry="90.562637" d="m 1064.2827,426.55899 a 69.448402,90.562637 0 1 1 -138.89681,0 69.448402,90.562637 0 1 1 138.89681,0 z" transform="matrix(0.7240112,-0.23127443,0.23127443,0.7240112,191.06962,357.26578)" />
          <path transform="matrix(0.58089763,-0.1533871,0.1533871,0.58089763,372.59482,339.39455)" d="m 1070.7932,426.55899 a 75.958939,93.98642 0 1 1 -151.91785,0 75.958939,93.98642 0 1 1 151.91785,0 z" sodipodi:ry="93.98642" sodipodi:rx="75.958939" sodipodi:cy="426.55899" sodipodi:cx="994.83429" id="path5004" style="fill:black;stroke:none" sodipodi:type="arc" />
          <path transform="matrix(0.9429903,0.33282029,-0.33282029,0.9429903,188.10764,-301.08415)" d="m 1005.0319,405.40729 a 19.715857,29.100643 0 1 1 -39.43172,0 19.715857,29.100643 0 1 1 39.43172,0 z" sodipodi:ry="29.100643" sodipodi:rx="19.715857" sodipodi:cy="405.40729" sodipodi:cx="985.31604" id="path5016" style="fill:white;fill-opacity:1;fill-rule:nonzero;stroke:none" sodipodi:type="arc" />
          <path sodipodi:type="arc" style="fill:white;fill-opacity:1;fill-rule:nonzero;stroke:none" id="path5018" sodipodi:cx="985.31604" sodipodi:cy="405.40729" sodipodi:rx="21.098532" sodipodi:ry="29.267654" d="m 1006.4146,405.40729 a 21.098532,29.267654 0 1 1 -42.19709,0 21.098532,29.267654 0 1 1 42.19709,0 z" transform="matrix(0.3179745,0.13659672,-0.13659672,0.3179745,748.96865,173.55769)" />
        </g>
        <path style="fill:black;stroke:none" d="m 969.27056,503.77721 c -48.68998,-44.86666 -51.69635,-111.331 -22.92061,-134.53401 16.29774,-13.1415 45.74,-12.62654 71.55835,2.72361 -19.33301,-25.17098 -57.11313,-28.99875 -78.364,-12.59592 -37.38713,28.85787 -31.34094,111.18905 29.72626,144.40632 z" id="path5036" inkscape:connector-curvature="0" sodipodi:nodetypes="cscsc" />
      </g>
      <g id="g5074">
        <path sodipodi:nodetypes="cscc" inkscape:connector-curvature="0" id="path5072" d="m 844.36236,515.33146 c -123.38483,-108.57865 -93.2556,-256.149 -82.90168,-260.2809 10.72615,-4.28045 79.85112,45.59831 104.52808,111.16854 z" style="fill:#1b76d2;fill-opacity:1;stroke:none" />
        <path style="fill:#155a9f;fill-opacity:1;stroke:none" d="m 798.25954,475.81705 c 6.14726,8.20616 13.06468,15.68365 20.75122,22.3152 7.68654,6.63156 16.14459,12.41755 25.3516,17.19921 -6.08885,-8.84471 -11.83566,-16.93872 -17.57711,-24.75366 -5.74145,-7.81495 -11.47587,-15.35243 -17.32501,-23.15445 -9.67145,-12.90052 -18.17851,-26.64076 -25.28049,-41.07899 -12.54495,-25.46925 -20.83341,-53.05159 -24.47813,-81.21912 0,0 0,-1e-5 0,-1e-5 -2.65413,-20.65464 -3.06883,-41.5675 -0.0801,-61.92008 0.94091,-6.30484 2.07545,-12.38612 3.99735,-17.9905 0.61202,-1.72639 1.14182,-3.20027 1.79487,-4.29087 10e-6,0 10e-6,-1e-5 10e-6,-1e-5 0.22725,-0.35007 0.30033,-0.51221 0.26803,-0.43485 0.12894,0.0805 -0.42661,0.3897 -1.62664,1.06307 -1.09024,0.19602 -1.32246,0.38013 -0.8451,0.26042 0,0 0,0 0,0 0.56394,0.0436 1.36468,0.32049 2.40914,0.67215 3.11711,1.10655 6.26461,2.89587 9.58858,4.88844 10.15543,6.1612 19.5278,13.88197 28.52541,22.20035 9.78798,9.07983 18.86653,18.91648 27.05475,29.4274 1.46992,1.88689 2.93595,3.77154 4.3999,5.65617 5.20912,6.7182 10.39564,13.41586 15.53868,20.267 5.14303,6.85114 10.24323,13.855 15.26222,21.29518 -1.02942,-8.94163 -3.38136,-17.70666 -6.7537,-26.05091 -3.37234,-8.34425 -7.76582,-16.27002 -12.90686,-23.6617 -1.44055,-2.07493 -2.94058,-4.11173 -4.49664,-6.1091 -8.66802,-11.12639 -18.25448,-21.51694 -28.57844,-31.08909 -9.38596,-8.7307 -19.50478,-17.01578 -30.76474,-23.89327 -3.59838,-2.22208 -7.57251,-4.40913 -12.06848,-6.08165 -1.48037,-0.57 -3.26733,-1.08925 -5.36781,-1.39926 -10e-6,-1e-5 -10e-6,-1e-5 -2e-5,-1e-5 -1.30979,-0.35691 -3.42123,-0.24921 -6.18589,0.61502 -2.01207,0.99743 -3.22315,1.9316 -3.67329,2.66712 -0.89628,1.05467 -1.52898,1.99963 -1.94689,2.7833 -10e-6,0 -10e-6,1e-5 -10e-6,2e-5 -1.32231,2.38065 -2.21582,4.66442 -2.88601,6.72056 -2.29978,6.84968 -3.63237,13.75486 -4.59151,20.46217 -3.17814,21.88025 -2.77384,44.06622 0.0489,65.73943 0,10e-6 0,10e-6 0,2e-5 3.84186,29.69239 12.57189,58.73766 25.80284,85.60789 7.51494,15.24227 16.47496,29.71865 26.63934,43.28741 z" id="path4207" inkscape:connector-curvature="0" sodipodi:nodetypes="csc" inkscape:path-effect="#path-effect5064" inkscape:original-d="m 844.36236,515.33146 c -123.38483,-108.57865 -93.2556,-256.149 -82.90168,-260.2809 10.72615,-4.28045 79.85112,45.59831 104.52808,111.16854" />
        <path style="fill:#155a9f;fill-opacity:1;fill-rule:nonzero;stroke:none" d="m 786.8427,323.64752 c 3.61082,40.05255 16.48356,77.84252 40.71638,111.2808 -29.90011,-28.23338 -45.31392,-68.82282 -40.71638,-111.2808 z" id="path5047" inkscape:connector-curvature="0" sodipodi:nodetypes="ccc" />
      </g>
    </g>
  </g>
</svg>
