<?xml version="1.0" encoding="UTF-8" standalone="no"?>
<!-- Created with Inkscape (http://www.inkscape.org/) -->

<svg
   xmlns:dc="http://purl.org/dc/elements/1.1/"
   xmlns:cc="http://creativecommons.org/ns#"
   xmlns:rdf="http://www.w3.org/1999/02/22-rdf-syntax-ns#"
   xmlns:svg="http://www.w3.org/2000/svg"
   xmlns="http://www.w3.org/2000/svg"
   xmlns:xlink="http://www.w3.org/1999/xlink"
   xmlns:sodipodi="http://sodipodi.sourceforge.net/DTD/sodipodi-0.dtd"
   xmlns:inkscape="http://www.inkscape.org/namespaces/inkscape"
   id="svg2985"
   version="1.1"
   inkscape:version="0.48.4 r9939"
   width="221.43503"
   height="203.71855"
   sodipodi:docname="Selenium on Fire (Cyan Eyes).svg"
   inkscape:export-filename="C:\Users\tan jierui\Pictures\Selenium on Fire (Cyan Eyes).png"
   inkscape:export-xdpi="2827.4265"
   inkscape:export-ydpi="2827.4265">
  <metadata
     id="metadata2991">
    <rdf:RDF>
      <cc:Work
         rdf:about="">
        <dc:format>image/svg+xml</dc:format>
        <dc:type
           rdf:resource="http://purl.org/dc/dcmitype/StillImage" />
        <dc:title></dc:title>
      </cc:Work>
    </rdf:RDF>
  </metadata>
  <defs
     id="defs2989">
    <linearGradient
       id="linearGradient3268"
       inkscape:collect="always">
      <stop
         id="stop3270"
         offset="0"
         style="stop-color:#007a96;stop-opacity:1" />
      <stop
         id="stop3272"
         offset="1"
         style="stop-color:#00d2b5;stop-opacity:1" />
    </linearGradient>
    <linearGradient
       id="linearGradient3262"
       inkscape:collect="always">
      <stop
         id="stop3264"
         offset="0"
         style="stop-color:#007a96;stop-opacity:1" />
      <stop
         id="stop3266"
         offset="1"
         style="stop-color:#00d2b5;stop-opacity:1" />
    </linearGradient>
    <linearGradient
       inkscape:collect="always"
       id="linearGradient5877">
      <stop
         style="stop-color:#722121;stop-opacity:1"
         offset="0"
         id="stop5879" />
      <stop
         style="stop-color:#be3d3d;stop-opacity:1"
         offset="1"
         id="stop5881" />
    </linearGradient>
    <linearGradient
       inkscape:collect="always"
       id="linearGradient4855">
      <stop
         style="stop-color:#722121;stop-opacity:1"
         offset="0"
         id="stop4857" />
      <stop
         style="stop-color:#be3d3d;stop-opacity:1"
         offset="1"
         id="stop4859" />
    </linearGradient>
    <clipPath
       clipPathUnits="userSpaceOnUse"
       id="clipPath4851">
      <path
         sodipodi:type="arc"
         style="fill:none;stroke:#ffffff;stroke-width:0.1;stroke-linecap:butt;stroke-linejoin:round;stroke-miterlimit:4;stroke-opacity:1;stroke-dasharray:none;stroke-dashoffset:0"
         id="path4853"
         sodipodi:cx="187.23364"
         sodipodi:cy="109.38785"
         sodipodi:rx="9.4360456"
         sodipodi:ry="14.243578"
         d="m 196.66969,109.38785 a 9.4360456,14.243578 0 1 1 -18.87209,0 9.4360456,14.243578 0 1 1 18.87209,0 z"
         transform="matrix(0.98943454,0.14498022,-0.14498022,0.98943454,34.996163,-94.670355)" />
    </clipPath>
    <linearGradient
       inkscape:collect="always"
       xlink:href="#linearGradient4855"
       id="linearGradient4861"
       x1="194.03658"
       y1="102.49086"
       x2="191.39685"
       y2="120.35851"
       gradientUnits="userSpaceOnUse" />
    <clipPath
       clipPathUnits="userSpaceOnUse"
       id="clipPath3887">
      <path
         inkscape:export-ydpi="3069.8125"
         inkscape:export-xdpi="3069.8125"
         inkscape:export-filename="C:\Users\tan jierui\Pictures\And All This for One Eye.png"
         sodipodi:nodetypes="cccc"
         inkscape:connector-curvature="0"
         id="path3889"
         d="m 794.46326,386.32978 c 8.32843,31.0681 23.08247,45.35503 74.94174,42.43222 1.792,-22.82343 -6.87808,-33.13507 -15.75568,-40.51459 z"
         style="fill:none;stroke:#ffff00;stroke-width:0.1;stroke-linecap:butt;stroke-linejoin:miter;stroke-miterlimit:4;stroke-opacity:1;stroke-dasharray:none" />
    </clipPath>
    <clipPath
       clipPathUnits="userSpaceOnUse"
       id="clipPath3872">
      <path
         inkscape:export-ydpi="3069.8125"
         inkscape:export-xdpi="3069.8125"
         inkscape:export-filename="C:\Users\tan jierui\Pictures\And All This for One Eye.png"
         sodipodi:type="arc"
         style="fill:none;stroke:#000000"
         id="path3874"
         sodipodi:cx="863.70459"
         sodipodi:cy="415.10764"
         sodipodi:rx="12.770109"
         sodipodi:ry="25.110636"
         d="m 876.4747,415.10764 a 12.770109,25.110636 0 1 1 -25.54022,0 12.770109,25.110636 0 1 1 25.54022,0 z"
         transform="matrix(0.97973676,-0.20028943,0.20028943,0.97973676,-71.65916,177.86138)" />
    </clipPath>
    <clipPath
       clipPathUnits="userSpaceOnUse"
       id="clipPath4001">
      <path
         sodipodi:type="arc"
         style="fill:url(#linearGradient4005);fill-opacity:1;stroke:none"
         id="path4003"
         sodipodi:cx="198.31834"
         sodipodi:cy="557.04297"
         sodipodi:rx="43.910831"
         sodipodi:ry="67.368675"
         d="m 242.22918,557.04297 a 43.910831,67.368675 0 1 1 -87.82167,0 43.910831,67.368675 0 1 1 87.82167,0 z"
         transform="matrix(-0.99814006,-0.06096248,-0.06096248,0.99814006,650.56945,19.2445)" />
    </clipPath>
    <clipPath
       clipPathUnits="userSpaceOnUse"
       id="clipPath5842">
      <path
         style="fill:none;stroke:#ffff00;stroke-width:0.1;stroke-linecap:butt;stroke-linejoin:miter;stroke-miterlimit:4;stroke-opacity:1;stroke-dasharray:none"
         d="m 196.8467,54.689093 14.32672,-2.4045 c 6.12091,-5.27319 8.70554,-15.93588 8.26242,-23.66795 l -12.92333,3.99312 c -3.58864,3.01585 -6.3365,6.53044 -9.05161,10.06445 -0.59594,3.99701 -0.78626,8.38717 -0.6142,12.01488 z"
         id="path5844"
         inkscape:connector-curvature="0"
         sodipodi:nodetypes="cccccc" />
    </clipPath>
    <clipPath
       clipPathUnits="userSpaceOnUse"
       id="clipPath5891">
      <path
         sodipodi:type="arc"
         style="fill:none;stroke:#000000;stroke-width:0.1;stroke-miterlimit:4;stroke-dasharray:none"
         id="path5893"
         sodipodi:cx="144.79498"
         sodipodi:cy="110.56409"
         sodipodi:rx="8.5407553"
         sodipodi:ry="11.71536"
         d="m 153.33574,110.56409 a 8.5407553,11.71536 0 1 1 -17.08151,0 8.5407553,11.71536 0 1 1 17.08151,0 z"
         transform="matrix(0.97108975,-0.23871463,0.23871463,0.97108975,-5.1427969,-30.123528)" />
    </clipPath>
    <linearGradient
       inkscape:collect="always"
       xlink:href="#linearGradient5877"
       id="linearGradient5990"
       gradientUnits="userSpaceOnUse"
       x1="142.14452"
       y1="103.38052"
       x2="142.17607"
       y2="118.81882" />
    <linearGradient
       inkscape:collect="always"
       xlink:href="#linearGradient4855"
       id="linearGradient6976"
       gradientUnits="userSpaceOnUse"
       x1="194.03658"
       y1="102.49086"
       x2="191.39685"
       y2="120.35851" />
    <linearGradient
       inkscape:collect="always"
       xlink:href="#linearGradient5877"
       id="linearGradient6978"
       gradientUnits="userSpaceOnUse"
       x1="142.14452"
       y1="103.38052"
       x2="142.17607"
       y2="118.81882" />
    <linearGradient
       inkscape:collect="always"
       xlink:href="#linearGradient4855"
       id="linearGradient7087"
       gradientUnits="userSpaceOnUse"
       x1="194.03658"
       y1="102.49086"
       x2="191.39685"
       y2="120.35851" />
    <linearGradient
       inkscape:collect="always"
       xlink:href="#linearGradient5877"
       id="linearGradient7089"
       gradientUnits="userSpaceOnUse"
       x1="142.14452"
       y1="103.38052"
       x2="142.17607"
       y2="118.81882" />
    <clipPath
       clipPathUnits="userSpaceOnUse"
       id="clipPath7178">
      <path
         style="fill:none;stroke:#000000;stroke-width:0.1;stroke-linecap:butt;stroke-linejoin:miter;stroke-miterlimit:4;stroke-opacity:1;stroke-dasharray:none"
         d="m 142.42801,47.357423 25.00891,-24.947206 31,-49.75 34.75,44 -8.5,68.499996 -66.5,1.75 z"
         id="path7180"
         inkscape:connector-curvature="0" />
    </clipPath>
    <linearGradient
       inkscape:collect="always"
       xlink:href="#linearGradient4855"
       id="linearGradient7228"
       gradientUnits="userSpaceOnUse"
       x1="194.03658"
       y1="102.49086"
       x2="191.39685"
       y2="120.35851" />
    <linearGradient
       inkscape:collect="always"
       xlink:href="#linearGradient5877"
       id="linearGradient7230"
       gradientUnits="userSpaceOnUse"
       x1="142.14452"
       y1="103.38052"
       x2="142.17607"
       y2="118.81882" />
    <linearGradient
       inkscape:collect="always"
       xlink:href="#linearGradient3262"
       id="linearGradient7344"
       gradientUnits="userSpaceOnUse"
       x1="194.03658"
       y1="102.49086"
       x2="191.39685"
       y2="120.35851" />
    <linearGradient
       inkscape:collect="always"
       xlink:href="#linearGradient3268"
       id="linearGradient7346"
       gradientUnits="userSpaceOnUse"
       x1="142.14452"
       y1="103.38052"
       x2="142.17607"
       y2="118.81882" />
    <clipPath
       clipPathUnits="userSpaceOnUse"
       id="clipPath7350">
      <rect
         y="-68.601387"
         x="26.667814"
         height="211.07143"
         width="226.03053"
         id="rect7352"
         style="fill:none;stroke:#ffff00;stroke-width:1;stroke-linecap:butt;stroke-linejoin:round;stroke-miterlimit:4;stroke-opacity:1;stroke-dasharray:none;stroke-dashoffset:0;display:inline" />
    </clipPath>
    <clipPath
       clipPathUnits="userSpaceOnUse"
       id="clipPath3119">
      <path
         sodipodi:nodetypes="cccccc"
         inkscape:connector-curvature="0"
         id="path3121"
         d="M 168.96767,53.466623 156.31715,51.736854 C 149.69901,46.550277 146.63983,37.27913 147.19208,29.398623 L 159.815,31.82207 c 3.48835,2.931568 6.09866,6.044171 8.7379,9.479418 0.57928,3.885308 0.76428,8.760313 0.41477,12.165135 z"
         style="fill:none;stroke:#ffff00;stroke-width:0.09720536;stroke-miterlimit:4;stroke-dasharray:none" />
    </clipPath>
  </defs>
  <sodipodi:namedview
     pagecolor="#ffffff"
     bordercolor="#666666"
     borderopacity="1"
     objecttolerance="10"
     gridtolerance="10"
     guidetolerance="10"
     inkscape:pageopacity="0"
     inkscape:pageshadow="2"
     inkscape:window-width="1366"
     inkscape:window-height="706"
     id="namedview2987"
     showgrid="false"
     fit-margin-top="0"
     fit-margin-left="0"
     fit-margin-right="0"
     fit-margin-bottom="0"
     inkscape:zoom="2.6359897"
     inkscape:cx="110.71751"
     inkscape:cy="101.85928"
     inkscape:window-x="-8"
     inkscape:window-y="-8"
     inkscape:window-maximized="1"
     inkscape:current-layer="layer2"
     showguides="true" />
  <g
     inkscape:groupmode="layer"
     id="layer2"
     inkscape:label="Drawing"
     transform="translate(-30.001894,61.24851)"
     style="display:inline">
    <g
       id="g7232"
       clip-path="url(#clipPath7350)">
      <g
         id="g6511">
        <path
           style="fill:#4641d1;fill-opacity:0.50196078;stroke:#885de4;stroke-width:2;stroke-linecap:butt;stroke-linejoin:miter;stroke-miterlimit:4;stroke-opacity:1;stroke-dasharray:none"
           d="m 179.75,179.84579 c 24.4772,-0.77502 46,29.75 50.5,62.25 L 97,253.84579 c 35.25,-27.75 41.51629,-72.69443 82.75,-74 z"
           id="path6188"
           inkscape:connector-curvature="0"
           transform="translate(20.186916,-71.185577)"
           sodipodi:nodetypes="sccs" />
        <path
           style="fill:#1558ce;fill-opacity:1;stroke:none"
           d="m 106.25,261.09579 c 21.5,-17.5 47.98322,-75 72.75,-75 25.31605,0 36.75,24.5 38.75,63.75 z"
           id="path6190"
           inkscape:connector-curvature="0"
           transform="translate(20.186916,-71.185577)"
           sodipodi:nodetypes="cscc" />
        <g
           id="g6502">
          <path
             transform="matrix(-0.61796654,0,0,0.61796654,534.39642,-246.5361)"
             sodipodi:type="star"
             style="fill:#ffffff;fill-opacity:1;fill-rule:evenodd;stroke:none"
             id="path4796"
             sodipodi:sides="4"
             sodipodi:cx="476.08694"
             sodipodi:cy="665.41711"
             sodipodi:r1="4.8322148"
             sodipodi:r2="0.24161074"
             sodipodi:arg1="0.78539816"
             sodipodi:arg2="1.5707963"
             inkscape:flatsided="false"
             inkscape:rounded="0"
             inkscape:randomized="0"
             d="m 479.50384,668.83401 -3.4169,-3.17529 -3.41689,3.17529 3.17528,-3.4169 -3.17528,-3.41689 3.41689,3.17528 3.4169,-3.17528 -3.17528,3.41689 z" />
          <path
             transform="matrix(-0.61796654,0,0,0.61796654,532.45187,-217.54472)"
             sodipodi:type="star"
             style="fill:#ffffff;fill-opacity:1;fill-rule:evenodd;stroke:none"
             id="path4808"
             sodipodi:sides="4"
             sodipodi:cx="481.02243"
             sodipodi:cy="589.86584"
             sodipodi:r1="3.0608735"
             sodipodi:r2="0.15304367"
             sodipodi:arg1="1.5707963"
             sodipodi:arg2="2.3561945"
             inkscape:flatsided="false"
             inkscape:rounded="0"
             inkscape:randomized="0"
             d="m 481.02243,592.92672 -0.10822,-2.95266 -2.95265,-0.10822 2.95265,-0.10821 0.10822,-2.95266 0.10822,2.95266 2.95265,0.10821 -2.95265,0.10822 z" />
          <path
             transform="matrix(-0.61796654,0,0,0.61796654,486.66671,-241.23279)"
             sodipodi:type="star"
             style="fill:#ffffff;fill-opacity:1;fill-rule:evenodd;stroke:none"
             id="path4812"
             sodipodi:sides="4"
             sodipodi:cx="424.83356"
             sodipodi:cy="616.44165"
             sodipodi:r1="3.5002429"
             sodipodi:r2="0.17501213"
             sodipodi:arg1="0.78539816"
             sodipodi:arg2="1.5707963"
             inkscape:flatsided="false"
             inkscape:rounded="0"
             inkscape:randomized="0"
             d="m 427.3086,618.9167 -2.47504,-2.30004 -2.47505,2.30004 2.30004,-2.47505 -2.30004,-2.47505 2.47505,2.30004 2.47504,-2.30004 -2.30003,2.47505 z" />
          <path
             transform="matrix(-0.61796654,0,0,0.61796654,464.56962,-313.35768)"
             sodipodi:type="star"
             style="fill:#ffffff;fill-opacity:1;fill-rule:evenodd;stroke:none"
             id="path4820"
             sodipodi:sides="4"
             sodipodi:cx="380.0343"
             sodipodi:cy="726.5415"
             sodipodi:r1="3.2214766"
             sodipodi:r2="0.16107382"
             sodipodi:arg1="0.78539816"
             sodipodi:arg2="1.5707963"
             inkscape:flatsided="false"
             inkscape:rounded="0"
             inkscape:randomized="0"
             d="m 382.31223,728.81943 -2.27793,-2.11685 -2.27793,2.11685 2.11686,-2.27793 -2.11686,-2.27792 2.27793,2.11685 2.27793,-2.11685 -2.11685,2.27792 z" />
          <path
             transform="matrix(-0.61796654,0,0,0.61796654,575.76216,-156.02643)"
             sodipodi:type="star"
             style="fill:#ffffff;fill-opacity:1;fill-rule:evenodd;stroke:none"
             id="path4832"
             sodipodi:sides="4"
             sodipodi:cx="550.49927"
             sodipodi:cy="506.34183"
             sodipodi:r1="4.1762009"
             sodipodi:r2="0.20881005"
             sodipodi:arg1="0"
             sodipodi:arg2="0.78539816"
             inkscape:flatsided="false"
             inkscape:rounded="0"
             inkscape:randomized="0"
             d="m 554.67547,506.34183 -4.02855,0.14765 -0.14765,4.02855 -0.14765,-4.02855 -4.02855,-0.14765 4.02855,-0.14765 0.14765,-4.02855 0.14765,4.02855 z" />
          <path
             transform="matrix(-0.61796654,0,0,0.61796654,570.81241,-165.57237)"
             sodipodi:type="star"
             style="fill:#ffffff;fill-opacity:1;fill-rule:evenodd;stroke:none"
             id="path4834"
             sodipodi:sides="4"
             sodipodi:cx="560.74994"
             sodipodi:cy="531.01941"
             sodipodi:r1="2.9651976"
             sodipodi:r2="0.14825988"
             sodipodi:arg1="0.78539816"
             sodipodi:arg2="1.5707963"
             inkscape:flatsided="false"
             inkscape:rounded="0"
             inkscape:randomized="0"
             d="m 562.84665,533.11612 -2.09671,-1.94845 -2.09671,1.94845 1.94845,-2.09671 -1.94845,-2.09671 2.09671,1.94845 2.09671,-1.94845 -1.94845,2.09671 z" />
          <path
             transform="matrix(-0.61796654,0,0,0.61796654,454.49335,-210.47365)"
             sodipodi:type="star"
             style="fill:#ffffff;fill-opacity:1;fill-rule:evenodd;stroke:none"
             id="path4838"
             sodipodi:sides="4"
             sodipodi:cx="490.89346"
             sodipodi:cy="613.78412"
             sodipodi:r1="2.2779279"
             sodipodi:r2="0.11389639"
             sodipodi:arg1="1.5707963"
             sodipodi:arg2="2.3561945"
             inkscape:flatsided="false"
             inkscape:rounded="0"
             inkscape:randomized="0"
             d="m 490.89346,616.06205 -0.0805,-2.19739 -2.19739,-0.0805 2.19739,-0.0805 0.0805,-2.19739 0.0805,2.19739 2.19739,0.0805 -2.19739,0.0805 z" />
        </g>
      </g>
      <g
         transform="matrix(0.99971229,0.0239862,-0.0239862,0.99971229,1.1061884,-4.3790544)"
         inkscape:transform-center-y="54.791049"
         inkscape:transform-center-x="59.986565"
         id="g6841">
        <path
           style="fill:#4641d1;fill-opacity:0.50196078;stroke:#885de4;stroke-width:2;stroke-linecap:butt;stroke-linejoin:miter;stroke-miterlimit:4;stroke-opacity:1;stroke-dasharray:none"
           d="M 24.041631,211.08561 C -18.513382,181.96307 94.039125,161.19041 45.254834,134.71807 17.13499,119.4591 34.4196,86.613087 73.430685,79.409527 119.66506,70.872156 89.839109,44.517602 134.35029,38.551549 c 28.34384,-3.799065 54.09367,17.324116 59.39697,35.355339 l -30.06124,87.848412 -25.65376,43.14832 c -6.98223,17.60356 -19.29492,35.26901 -49.801291,39.59914 -53.977658,7.66169 -21.988688,52.4472 -45.738688,60.6972 4.199747,-16.86701 -28.066968,-24.43338 -28.066968,-37.89568 0,-25.84136 44.874974,-32.0894 9.616318,-56.21867 z"
           id="path6162"
           inkscape:connector-curvature="0"
           transform="translate(20.186916,-71.185577)"
           sodipodi:nodetypes="sssscccscss" />
        <path
           sodipodi:nodetypes="sssscccsss"
           inkscape:connector-curvature="0"
           id="path6164"
           d="M 62.803925,134.12921 C 28.059146,95.747603 122.53791,108.43538 85.94175,57.532493 69.325369,34.420185 84.856516,21.67751 108.6176,18.22395 c 37.22366,-5.410281 18.15843,-39.391926 43.91961,-44.857978 33.21154,-7.046882 54.59367,19.324116 62.89697,37.855339 l -27.75045,81.117927 -24.7176,44.214582 c -12.72791,0.35356 -15.3441,20.86163 -50.11542,25.65435 -25.463911,3.50983 -46.40232,43.24659 -55.513326,39.23931 -20.096099,-8.83884 27.1253,-43.39243 5.466541,-67.31827 z"
           style="fill:#1558ce;fill-opacity:1;stroke:none" />
        <g
           id="g6780"
           transform="matrix(0.99979947,-0.02002569,-0.02002569,-0.99979947,-988.67745,696.46458)">
          <path
             sodipodi:type="star"
             style="fill:#ffffff;fill-opacity:1;fill-rule:evenodd;stroke:none"
             id="path4692"
             sodipodi:sides="4"
             sodipodi:cx="935.83893"
             sodipodi:cy="608.05371"
             sodipodi:r1="5.3287067"
             sodipodi:r2="0.26643533"
             sodipodi:arg1="0.78539816"
             sodipodi:arg2="1.5707963"
             inkscape:flatsided="false"
             inkscape:rounded="0"
             inkscape:randomized="0"
             d="m 939.60689,611.82168 -3.76796,-3.50153 -3.76797,3.50153 3.50153,-3.76797 -3.50153,-3.76796 3.76797,3.50153 3.76796,-3.50153 -3.50153,3.76796 z"
             transform="translate(146.31708,-57.567267)" />
          <path
             sodipodi:type="star"
             style="fill:#ffffff;fill-opacity:1;fill-rule:evenodd;stroke:none"
             id="path4694"
             sodipodi:sides="4"
             sodipodi:cx="910.06714"
             sodipodi:cy="592.48322"
             sodipodi:r1="3.990891"
             sodipodi:r2="0.19954453"
             sodipodi:arg1="0.78539816"
             sodipodi:arg2="1.5707963"
             inkscape:flatsided="false"
             inkscape:rounded="0"
             inkscape:randomized="0"
             d="m 912.88912,595.3052 -2.82198,-2.62244 -2.82199,2.62244 2.62244,-2.82198 -2.62244,-2.82199 2.82199,2.62244 2.82198,-2.62244 -2.62244,2.82199 z"
             transform="translate(233.06558,52.45683)" />
          <path
             sodipodi:type="star"
             style="fill:#ffffff;fill-opacity:1;fill-rule:evenodd;stroke:none"
             id="path4700"
             sodipodi:sides="4"
             sodipodi:cx="1001.3423"
             sodipodi:cy="625.23492"
             sodipodi:r1="3.990891"
             sodipodi:r2="0.19954453"
             sodipodi:arg1="0.78539816"
             sodipodi:arg2="1.5707963"
             inkscape:flatsided="false"
             inkscape:rounded="0"
             inkscape:randomized="0"
             d="m 1004.1643,628.05691 -2.822,-2.62244 -2.822,2.62244 2.6224,-2.82199 -2.6224,-2.82198 2.822,2.62244 2.822,-2.62244 -2.6225,2.82198 z"
             transform="translate(90.180117,18.635652)" />
          <path
             sodipodi:type="star"
             style="fill:#ffffff;fill-opacity:1;fill-rule:evenodd;stroke:none"
             id="path4704"
             sodipodi:sides="4"
             sodipodi:cx="944.96643"
             sodipodi:cy="637.85236"
             sodipodi:r1="4.0357842"
             sodipodi:r2="0.20178922"
             sodipodi:arg1="0"
             sodipodi:arg2="0.78539816"
             inkscape:flatsided="false"
             inkscape:rounded="0"
             inkscape:randomized="0"
             d="m 949.00221,637.85236 -3.89309,0.14268 -0.14269,3.8931 -0.14269,-3.8931 -3.89309,-0.14268 3.89309,-0.14269 0.14269,-3.8931 0.14269,3.8931 z"
             transform="translate(203.41136,-37.783269)" />
          <path
             sodipodi:type="star"
             style="fill:#ffffff;fill-opacity:1;fill-rule:evenodd;stroke:none"
             id="path4706"
             sodipodi:sides="4"
             sodipodi:cx="963.75836"
             sodipodi:cy="642.68457"
             sodipodi:r1="2.6979532"
             sodipodi:r2="0.13489766"
             sodipodi:arg1="0"
             sodipodi:arg2="0.78539816"
             inkscape:flatsided="false"
             inkscape:rounded="0"
             inkscape:randomized="0"
             d="m 966.45632,642.68457 -2.60257,0.0954 -0.0954,2.60256 -0.0954,-2.60256 -2.60256,-0.0954 2.60256,-0.0954 0.0954,-2.60256 0.0954,2.60256 z"
             transform="translate(121.4397,-7.0118437)" />
          <path
             sodipodi:type="star"
             style="fill:#ffffff;fill-opacity:1;fill-rule:evenodd;stroke:none"
             id="path4708"
             sodipodi:sides="4"
             sodipodi:cx="985.77179"
             sodipodi:cy="645.36914"
             sodipodi:r1="2.1643646"
             sodipodi:r2="0.10821822"
             sodipodi:arg1="0"
             sodipodi:arg2="0.78539816"
             inkscape:flatsided="false"
             inkscape:rounded="0"
             inkscape:randomized="0"
             d="m 987.93615,645.36914 -2.08784,0.0765 -0.0765,2.08785 -0.0765,-2.08785 -2.08785,-0.0765 2.08785,-0.0765 0.0765,-2.08784 0.0765,2.08784 z"
             transform="translate(130.08976,-50.629023)" />
          <path
             sodipodi:type="star"
             style="fill:#ffffff;fill-opacity:1;fill-rule:evenodd;stroke:none"
             id="path4714"
             sodipodi:sides="4"
             sodipodi:cx="951.94629"
             sodipodi:cy="656.64429"
             sodipodi:r1="2.2779279"
             sodipodi:r2="0.11389639"
             sodipodi:arg1="0.78539816"
             sodipodi:arg2="1.5707963"
             inkscape:flatsided="false"
             inkscape:rounded="0"
             inkscape:randomized="0"
             d="m 953.55703,658.25503 -1.61074,-1.49685 -1.61074,1.49685 1.49684,-1.61074 -1.49684,-1.61074 1.61074,1.49684 1.61074,-1.49684 -1.49684,1.61074 z"
             transform="translate(189.3083,-89.759304)" />
          <path
             sodipodi:type="star"
             style="fill:#ffffff;fill-opacity:1;fill-rule:evenodd;stroke:none"
             id="path4716"
             sodipodi:sides="4"
             sodipodi:cx="1028.9933"
             sodipodi:cy="619.32886"
             sodipodi:r1="3.7583892"
             sodipodi:r2="0.18791945"
             sodipodi:arg1="0"
             sodipodi:arg2="0.78539816"
             inkscape:flatsided="false"
             inkscape:rounded="0"
             inkscape:randomized="0"
             d="m 1032.7517,619.32886 -3.6255,0.13288 -0.1329,3.62551 -0.1329,-3.62551 -3.6255,-0.13288 3.6255,-0.13288 0.1329,-3.62551 0.1329,3.62551 z"
             transform="translate(35.471923,-71.276736)" />
          <path
             sodipodi:type="star"
             style="fill:#ffffff;fill-opacity:1;fill-rule:evenodd;stroke:none"
             id="path4724"
             sodipodi:sides="4"
             sodipodi:cx="987.38257"
             sodipodi:cy="480.5369"
             sodipodi:r1="4.244668"
             sodipodi:r2="0.21223338"
             sodipodi:arg1="1.3089969"
             sodipodi:arg2="2.0943951"
             inkscape:flatsided="false"
             inkscape:rounded="0"
             inkscape:randomized="0"
             d="m 988.48117,484.63693 -1.20472,-3.91623 -3.99392,0.9148 3.91624,-1.20472 -0.9148,-3.99392 1.20472,3.91624 3.99391,-0.91481 -3.91623,1.20472 z"
             transform="translate(148.54002,66.278432)" />
          <path
             sodipodi:type="star"
             style="fill:#ffffff;fill-opacity:1;fill-rule:evenodd;stroke:none"
             id="path4728"
             sodipodi:sides="4"
             sodipodi:cx="1024.1611"
             sodipodi:cy="498.79196"
             sodipodi:r1="5.3691273"
             sodipodi:r2="0.26845634"
             sodipodi:arg1="1.5707963"
             sodipodi:arg2="2.3561945"
             inkscape:flatsided="false"
             inkscape:rounded="0"
             inkscape:randomized="0"
             d="m 1024.1611,504.16109 -0.1898,-5.1793 -5.1793,-0.18983 5.1793,-0.18983 0.1898,-5.1793 0.1899,5.1793 5.1793,0.18983 -5.1793,0.18983 z"
             transform="translate(117.74453,173.90173)" />
          <path
             sodipodi:type="star"
             style="fill:#ffffff;fill-opacity:1;fill-rule:evenodd;stroke:none"
             id="path4736"
             sodipodi:sides="4"
             sodipodi:cx="905.50336"
             sodipodi:cy="527.51678"
             sodipodi:r1="2.9651976"
             sodipodi:r2="0.14825986"
             sodipodi:arg1="1.5707963"
             sodipodi:arg2="2.3561945"
             inkscape:flatsided="false"
             inkscape:rounded="0"
             inkscape:randomized="0"
             d="m 905.50336,530.48198 -0.10484,-2.86036 -2.86036,-0.10484 2.86036,-0.10483 0.10484,-2.86036 0.10483,2.86036 2.86036,0.10483 -2.86036,0.10484 z"
             transform="translate(204.27333,36.236229)" />
          <path
             sodipodi:type="star"
             style="fill:#ffffff;fill-opacity:1;fill-rule:evenodd;stroke:none"
             id="path4746"
             sodipodi:sides="4"
             sodipodi:cx="965.36914"
             sodipodi:cy="506.57718"
             sodipodi:r1="2.6575825"
             sodipodi:r2="0.13287912"
             sodipodi:arg1="0.78539816"
             sodipodi:arg2="1.5707963"
             inkscape:flatsided="false"
             inkscape:rounded="0"
             inkscape:randomized="0"
             d="m 967.24834,508.45637 -1.8792,-1.74631 -1.87919,1.74631 1.74631,-1.87919 -1.74631,-1.8792 1.87919,1.74632 1.8792,-1.74632 -1.74632,1.8792 z"
             transform="translate(140.46999,81.864864)" />
          <path
             sodipodi:type="star"
             style="fill:#ffffff;fill-opacity:1;fill-rule:evenodd;stroke:none"
             id="path4752"
             sodipodi:sides="4"
             sodipodi:cx="957.10938"
             sodipodi:cy="467.04758"
             sodipodi:r1="2.1643646"
             sodipodi:r2="0.10821822"
             sodipodi:arg1="0.78539816"
             sodipodi:arg2="1.5707963"
             inkscape:flatsided="false"
             inkscape:rounded="0"
             inkscape:randomized="0"
             d="m 958.63981,468.57801 -1.53043,-1.42221 -1.53044,1.42221 1.42222,-1.53043 -1.42222,-1.53044 1.53043,1.42222 1.53044,-1.42222 -1.42222,1.53044 z"
             transform="translate(168.1828,132.61096)" />
          <path
             sodipodi:type="star"
             style="fill:#ffffff;fill-opacity:1;fill-rule:evenodd;stroke:none"
             id="path4756"
             sodipodi:sides="4"
             sodipodi:cx="964.32281"
             sodipodi:cy="677.94574"
             sodipodi:r1="2.7179136"
             sodipodi:r2="0.13589568"
             sodipodi:arg1="1.8325957"
             sodipodi:arg2="2.6179939"
             inkscape:flatsided="false"
             inkscape:rounded="0"
             inkscape:randomized="0"
             d="m 963.61937,680.57104 0.58576,-2.55735 -2.50762,-0.7714 2.55736,0.58576 0.77139,-2.50761 -0.58576,2.55735 2.50762,0.7714 -2.55736,-0.58576 z"
             transform="translate(150.69397,-17.144695)" />
        </g>
      </g>
      <g
         id="g6910">
        <path
           style="fill:#284282;fill-opacity:1;stroke:#071b42;stroke-width:2;stroke-linecap:butt;stroke-linejoin:miter;stroke-miterlimit:4;stroke-opacity:1;stroke-dasharray:none"
           d="m 132.05219,228.94005 c -9.72272,-17.67767 1.59099,-39.24443 13.43503,-43.84062 l 36.94633,0.17678 c 12.19759,10.25305 17.85444,25.45584 16.08668,44.0174 z"
           id="path6184"
           inkscape:connector-curvature="0"
           transform="translate(20.186916,-71.185577)"
           sodipodi:nodetypes="ccccc" />
        <path
           style="fill:#314b8f;fill-opacity:1;stroke:#071b42;stroke-width:2;stroke-linecap:butt;stroke-linejoin:miter;stroke-miterlimit:4;stroke-opacity:1;stroke-dasharray:none"
           d="m 187.56007,192.34727 c 2.12132,-13.08147 7.60141,-13.43503 12.1976,-3.35876 3.42995,2.45212 4.21794,8.16128 2.12131,12.55115 2.2981,7.95495 -1.59098,10.07627 -6.18718,9.72272 z"
           id="path6182"
           inkscape:connector-curvature="0"
           transform="translate(20.186916,-71.185577)"
           sodipodi:nodetypes="ccccc" />
        <path
           sodipodi:nodetypes="ccccc"
           inkscape:connector-curvature="0"
           id="path6186"
           d="m 164.00143,119.79652 c -2.64022,-11.3957 -8.83714,-12.76834 -12.49838,-1.81004 -3.32965,2.58668 -3.88982,8.32267 -1.62016,12.62563 -2.15649,7.86332 1.46037,10.5353 6.56919,9.4688 z"
           style="fill:#314b8f;fill-opacity:1;stroke:#071b42;stroke-width:2;stroke-linecap:butt;stroke-linejoin:miter;stroke-miterlimit:4;stroke-opacity:1;stroke-dasharray:none" />
        <path
           style="fill:#314b8f;fill-opacity:1;stroke:#071b42;stroke-width:2;stroke-linecap:butt;stroke-linejoin:miter;stroke-miterlimit:4;stroke-opacity:1;stroke-dasharray:none"
           d="m 147.25499,144.61756 c -0.0642,12.1976 -1.32601,29.34494 -3.35876,44.0174 -18.208,20.85966 -12.37437,50.73491 20.32932,50.73491 34.47145,0 41.89608,-33.58757 20.85965,-50.73491 -2.38625,-14.79625 -2.94674,-30.52335 -2.82843,-45.25483 z"
           id="path6180"
           inkscape:connector-curvature="0"
           transform="translate(20.186916,-71.185577)"
           sodipodi:nodetypes="ccsccc" />
        <g
           id="g6176">
          <path
             sodipodi:nodetypes="ccsccc"
             transform="translate(20.186916,-71.185577)"
             inkscape:connector-curvature="0"
             id="path6172"
             d="m 143.5,174.34579 -3.75,13.25 c 7.75,11 -6,46.5 24,46.5 32.75,0 16,-36.5 25.75,-46.75 l -5,-12.75 c 0.75,32.75 -38.5,40.75 -41,-0.25 z"
             style="fill:#020016;fill-opacity:1;stroke:#7070ca;stroke-width:2;stroke-linecap:butt;stroke-linejoin:miter;stroke-miterlimit:20;stroke-opacity:1;stroke-dasharray:none" />
          <path
             sodipodi:nodetypes="ccsc"
             transform="translate(20.186916,-71.185577)"
             inkscape:connector-curvature="0"
             id="path6174"
             d="m 164.875,209.34579 c -6.625,6.5 3.625,15.25 8.125,5.75 4.61133,14.00172 -11.01611,17.10075 -16.63135,9.86051 -6.02271,-7.76562 -1.54759,-16.58988 8.50635,-15.61051 z"
             style="fill:#ffffff;fill-opacity:1;stroke:none" />
        </g>
        <path
           sodipodi:nodetypes="cccc"
           transform="translate(20.186916,-71.185577)"
           inkscape:connector-curvature="0"
           id="path3118"
           d="m 179.75,144.34579 c -25.19039,39 -6.89324,67.61922 7.12011,37.35676 -10.25,1 -3.12011,-24.60676 2.12989,-43.85676 z"
           style="fill:#1558ce;stroke:#885de4;stroke-width:2;stroke-linecap:butt;stroke-linejoin:miter;stroke-miterlimit:4;stroke-opacity:1;stroke-dasharray:none;fill-opacity:1" />
        <path
           style="fill:#1558ce;fill-opacity:1;stroke:#885de4;stroke-width:2;stroke-linecap:butt;stroke-linejoin:miter;stroke-miterlimit:20;stroke-opacity:1;stroke-dasharray:none"
           d="m 186.25,140.59579 c -21.5,65.5 9,95 13.25,55.25 -11.82687,14.94164 -12.7691,-29.53851 -8.25,-60.75 z"
           id="path6168"
           inkscape:connector-curvature="0"
           transform="translate(20.186916,-71.185577)"
           sodipodi:nodetypes="cccc" />
      </g>
      <g
         transform="matrix(0.99971229,0.0239862,-0.0239862,0.99971229,1.1061884,-4.3790544)"
         inkscape:transform-center-y="-6.2785091"
         inkscape:transform-center-x="-2.0861457"
         clip-path="url(#clipPath7178)"
         id="g7134">
        <path
           sodipodi:type="arc"
           style="fill:#314b8f;fill-opacity:1;stroke:#071b42;stroke-width:2;stroke-linecap:butt;stroke-linejoin:round;stroke-miterlimit:4;stroke-opacity:1;stroke-dasharray:none;stroke-dashoffset:0"
           id="path6160"
           sodipodi:cx="150.125"
           sodipodi:cy="111.59579"
           sodipodi:rx="38.601295"
           sodipodi:ry="44.75"
           d="m 188.7263,111.59579 c 0,24.71474 -17.28239,44.75 -38.6013,44.75 -21.31891,0 -38.6013,-20.03526 -38.6013,-44.75 0,-24.714746 17.28239,-44.750003 38.6013,-44.750003 21.31891,0 38.6013,20.035257 38.6013,44.750003 z"
           transform="matrix(0.99966746,-0.02578717,0.02578717,0.99966746,30.3591,-70.027168)" />
        <g
           id="g5846"
           transform="translate(0.38974836,2.2663368)">
          <path
             sodipodi:nodetypes="cccc"
             inkscape:connector-curvature="0"
             id="path5292"
             d="m 218.91564,32.72399 c 2.5748,-0.564244 6.10023,-1.804992 8.0774,-3.221682 -2.0939,0.694729 -5.5997,1.535479 -8.09005,1.85763 z"
             style="fill:#000000;stroke:none" />
          <path
             style="fill:#000000;stroke:none"
             d="m 218.6836,35.337767 c 3.37767,-0.188217 6.84584,-1.180958 8.384,-2.67986 -2.21171,0.773453 -5.17287,1.331003 -8.21926,1.325734 z"
             id="path5349"
             inkscape:connector-curvature="0"
             sodipodi:nodetypes="cccc" />
          <path
             sodipodi:nodetypes="cccc"
             inkscape:connector-curvature="0"
             id="path5351"
             d="m 218.15142,36.948469 c 3.38242,0.05713 6.91343,-0.681589 8.5562,-2.065044 -2.26196,0.611089 -5.25574,0.952514 -8.29374,0.726423 z"
             style="fill:#000000;stroke:none" />
          <path
             style="fill:#000000;stroke:none"
             d="m 217.6455,38.668577 c 3.37111,0.282281 6.94347,-0.219622 8.67474,-1.490592 -2.29764,0.459079 -5.30751,0.600352 -8.32371,0.172429 z"
             id="path5353"
             inkscape:connector-curvature="0"
             sodipodi:nodetypes="cccc" />
          <path
             sodipodi:nodetypes="cccccc"
             transform="translate(20.186916,-71.185577)"
             inkscape:connector-curvature="0"
             id="path4089"
             d="m 176.65978,127.87467 14.32672,-2.4045 c 6.12091,-5.27319 8.70554,-15.93588 8.26242,-23.66795 l -12.92333,3.99312 c -3.58864,3.01585 -6.3365,6.53044 -9.05161,10.06445 -0.59594,3.99701 -0.78626,8.38717 -0.6142,12.01488 z"
             style="fill:#ffffff;stroke:none" />
          <g
             transform="translate(0,2)"
             clip-path="url(#clipPath5842)"
             id="g4863">
            <path
               transform="matrix(0.98943454,0.14498022,-0.14498022,0.98943454,34.996163,-94.670355)"
               d="m 196.66969,109.38785 c 0,7.86651 -4.22466,14.24358 -9.43605,14.24358 -5.21138,0 -9.43604,-6.37707 -9.43604,-14.24358 0,-7.86651 4.22466,-14.24358 9.43604,-14.24358 5.21139,0 9.43605,6.37707 9.43605,14.24358 z"
               sodipodi:ry="14.243578"
               sodipodi:rx="9.4360456"
               sodipodi:cy="109.38785"
               sodipodi:cx="187.23364"
               id="path4077"
               style="fill:url(#linearGradient7344);fill-opacity:1;stroke:none"
               sodipodi:type="arc" />
            <g
               id="g4845"
               clip-path="url(#clipPath4851)">
              <path
                 sodipodi:nodetypes="ccccc"
                 style="fill:#9cfff3;fill-opacity:1;stroke:none"
                 d="m 194.34244,49.336491 5.55953,-5.031454 1.35727,0.65913 -2.24233,10.466913 z"
                 id="path4081"
                 inkscape:connector-curvature="0" />
              <path
                 sodipodi:nodetypes="ccccc"
                 transform="translate(20.186916,-71.185577)"
                 inkscape:connector-curvature="0"
                 id="path4079"
                 d="m 171.94565,118.45928 7.59173,-4.65554 1.64019,2.14486 -7.16994,7.39166 z"
                 style="fill:#66f4d4;fill-opacity:1;stroke:none" />
            </g>
            <path
               sodipodi:type="arc"
               style="fill:#000000;stroke:#000000;stroke-width:0.1;stroke-linecap:butt;stroke-linejoin:round;stroke-miterlimit:4;stroke-opacity:1;stroke-dasharray:none;stroke-dashoffset:0"
               id="path4075"
               sodipodi:cx="187.23364"
               sodipodi:cy="109.38785"
               sodipodi:rx="6.5083218"
               sodipodi:ry="10.579735"
               d="m 193.74196,109.38785 c 0,5.84302 -2.91387,10.57973 -6.50832,10.57973 -3.59444,0 -6.50832,-4.73671 -6.50832,-10.57973 0,-5.84303 2.91388,-10.579737 6.50832,-10.579737 3.59445,0 6.50832,4.736707 6.50832,10.579737 z"
               transform="matrix(0.98200992,0.1888293,-0.1888293,0.98200992,41.561361,-103.18503)" />
            <path
               sodipodi:type="arc"
               style="fill:#ffffff;stroke:none"
               id="path3303"
               sodipodi:cx="181.72975"
               sodipodi:cy="107.88766"
               sodipodi:rx="3.5744545"
               sodipodi:ry="5.7994976"
               d="m 185.30421,107.88766 c 0,3.20297 -1.60034,5.79949 -3.57446,5.79949 -1.97412,0 -3.57445,-2.59652 -3.57445,-5.79949 0,-3.20298 1.60033,-5.7995 3.57445,-5.7995 1.97412,0 3.57446,2.59652 3.57446,5.7995 z"
               transform="matrix(0.92529016,0.37925997,-0.37925997,0.92529016,74.302883,-132.1743)" />
            <path
               transform="matrix(0.94397823,0.33000774,-0.33000774,0.94397823,70.350434,-120.31935)"
               d="m 183.23762,107.88766 c 0,1.55919 -0.6751,2.82317 -1.50787,2.82317 -0.83277,0 -1.50786,-1.26398 -1.50786,-2.82317 0,-1.5592 0.67509,-2.82318 1.50786,-2.82318 0.83277,0 1.50787,1.26398 1.50787,2.82318 z"
               sodipodi:ry="2.8231757"
               sodipodi:rx="1.5078648"
               sodipodi:cy="107.88766"
               sodipodi:cx="181.72975"
               id="path4073"
               style="fill:#ffffff;stroke:none"
               sodipodi:type="arc" />
          </g>
          <path
             sodipodi:nodetypes="cccc"
             transform="translate(20.186916,-71.185577)"
             inkscape:connector-curvature="0"
             id="path5290"
             d="m 177.32944,115.50701 c -0.003,-2.85595 0.66014,-5.66095 1.95561,-7.50701 l 7.1285,-2.27103 z"
             style="fill:#779ae1;fill-opacity:1;stroke:none" />
          <path
             sodipodi:nodetypes="ccc"
             inkscape:connector-curvature="0"
             id="path4091"
             d="m 193.85299,57.038286 c 5.89142,-1.84026 17.32463,-3.720098 23.08244,-3.818278 -5.32442,2.08626 -17.03533,4.040008 -23.08244,3.818278 z"
             style="fill:#071b42;fill-opacity:1;stroke:none" />
          <path
             sodipodi:nodetypes="cscsc"
             transform="translate(20.186916,-71.185577)"
             inkscape:connector-curvature="0"
             id="path4876"
             d="m 175.88484,103.42601 c -2.91849,2.99557 -1.35216,6.86414 3.06632,5.68021 7.2278,-1.93668 22.91297,-6.58187 27.42889,-10.134367 -5.33152,1.918667 -20.72429,6.123897 -27.23964,7.869677 -3.06339,0.82083 -3.87241,-1.14001 -3.25557,-3.41552 z"
             style="fill:#000000;stroke:none" />
          <path
             sodipodi:nodetypes="cccc"
             transform="translate(20.186916,-71.185577)"
             inkscape:connector-curvature="0"
             id="path4878"
             d="m 185.34113,106.17056 c -3.91123,2.33411 -9.70414,9.68565 -11.4705,15.93099 2.68649,-5.44689 10.44267,-13.68609 15.04465,-17.02639 z"
             style="fill:#000000;stroke:none" />
        </g>
        <g
           id="g5967"
           transform="translate(0.90426243,2.5917957)">
          <path
             style="fill:#000000;stroke:none"
             d="m 147.21652,34.03649 c -2.5748,-0.564244 -6.10023,-1.804992 -8.0774,-3.221682 2.0939,0.694729 5.5997,1.535479 8.09005,1.85763 z"
             id="path5906"
             inkscape:connector-curvature="0"
             sodipodi:nodetypes="cccc" />
          <path
             sodipodi:nodetypes="cccc"
             inkscape:connector-curvature="0"
             id="path5908"
             d="m 147.44856,36.650267 c -3.37767,-0.188217 -6.84584,-1.180958 -8.384,-2.67986 2.21171,0.773453 5.17287,1.331003 8.21926,1.325734 z"
             style="fill:#000000;stroke:none" />
          <path
             style="fill:#000000;stroke:none"
             d="m 147.98074,38.260969 c -3.38242,0.05713 -6.91343,-0.681589 -8.5562,-2.065044 2.26196,0.611089 5.25574,0.952514 8.29374,0.726423 z"
             id="path5910"
             inkscape:connector-curvature="0"
             sodipodi:nodetypes="cccc" />
          <path
             sodipodi:nodetypes="cccc"
             inkscape:connector-curvature="0"
             id="path5912"
             d="m 148.48666,39.981077 c -3.37111,0.282281 -6.94347,-0.219622 -8.67474,-1.490592 2.29764,0.459079 5.30751,0.600352 8.32371,0.172429 z"
             style="fill:#000000;stroke:none" />
          <path
             style="fill:#ffffff;stroke:none"
             d="m 168.97296,56.876593 -13.01422,-1.7795 c -6.80841,-5.33569 -9.95554,-14.87338 -9.38742,-22.98045 l 12.98583,2.49312 c 3.58864,3.01585 6.274,6.21794 8.98911,9.75195 0.59594,3.99701 0.78626,9.01217 0.4267,12.51488 z"
             id="path5914"
             inkscape:connector-curvature="0"
             sodipodi:nodetypes="cccccc" />
          <g
             clip-path="url(#clipPath3119)"
             transform="matrix(1.0287498,0,0,1.0287498,-4.8524992,1.8728152)"
             id="g5895">
            <path
               transform="matrix(0.97108975,-0.23871463,0.23871463,0.97108975,-5.1427969,-30.123528)"
               d="m 153.33574,110.56409 c 0,6.47021 -3.82383,11.71536 -8.54076,11.71536 -4.71693,0 -8.54075,-5.24515 -8.54075,-11.71536 0,-6.47022 3.82382,-11.715363 8.54075,-11.715363 4.71693,0 8.54076,5.245143 8.54076,11.715363 z"
               sodipodi:ry="11.71536"
               sodipodi:rx="8.5407553"
               sodipodi:cy="110.56409"
               sodipodi:cx="144.79498"
               id="path5871"
               style="fill:url(#linearGradient7346);fill-opacity:1;stroke:none"
               sodipodi:type="arc" />
            <g
               id="g5885"
               clip-path="url(#clipPath5891)">
              <path
                 transform="translate(20.186916,-71.185577)"
                 inkscape:connector-curvature="0"
                 id="path5875"
                 d="m 133.48598,119.9229 3.15421,5.48831 4.79439,-8.45327 -3.02804,-1.51402 z"
                 style="fill:#9cfff3;fill-opacity:1;stroke:none" />
              <path
                 sodipodi:nodetypes="ccccc"
                 transform="translate(20.186916,-71.185577)"
                 inkscape:connector-curvature="0"
                 id="path5873"
                 d="m 131.65654,117.27336 6.68692,-3.84813 1.26168,2.27104 -5.80374,6.37148 z"
                 style="fill:#66f4d4;fill-opacity:1;stroke:none" />
            </g>
            <path
               sodipodi:type="arc"
               style="fill:#000000;stroke:none"
               id="path5869"
               sodipodi:cx="144.79498"
               sodipodi:cy="110.56409"
               sodipodi:rx="6.1656375"
               sodipodi:ry="8.7245579"
               d="m 150.96062,110.56409 c 0,4.81844 -2.76045,8.72455 -6.16564,8.72455 -3.40518,0 -6.16563,-3.90611 -6.16563,-8.72455 0,-4.81844 2.76045,-8.72456 6.16563,-8.72456 3.40519,0 6.16564,3.90612 6.16564,8.72456 z"
               transform="matrix(0.9862124,-0.16548443,0.16548443,0.9862124,1.2102234,-44.093989)" />
            <path
               sodipodi:type="arc"
               style="fill:#ffffff;fill-opacity:1;fill-rule:evenodd;stroke:none"
               id="path5865"
               sodipodi:cx="139.16356"
               sodipodi:cy="107.93691"
               sodipodi:rx="3.217459"
               sodipodi:ry="5.2734694"
               d="m 142.38102,107.93691 c 0,2.91246 -1.44051,5.27347 -3.21746,5.27347 -1.77695,0 -3.21746,-2.36101 -3.21746,-5.27347 0,-2.91245 1.44051,-5.27347 3.21746,-5.27347 1.77695,0 3.21746,2.36102 3.21746,5.27347 z"
               transform="matrix(0.91398534,0.40574721,-0.40574721,0.91398534,75.158161,-118.59288)" />
            <path
               transform="matrix(0.97189349,0.23542098,-0.23542098,0.97189349,53.104727,-96.75034)"
               d="m 140.51365,107.93691 c 0,1.33579 -0.60446,2.41866 -1.35009,2.41866 -0.74563,0 -1.35009,-1.08287 -1.35009,-2.41866 0,-1.33578 0.60446,-2.41865 1.35009,-2.41865 0.74563,0 1.35009,1.08287 1.35009,2.41865 z"
               sodipodi:ry="2.4186568"
               sodipodi:rx="1.3500863"
               sodipodi:cy="107.93691"
               sodipodi:cx="139.16356"
               id="path5867"
               style="fill:#ffffff;fill-opacity:1;fill-rule:evenodd;stroke:none"
               sodipodi:type="arc" />
          </g>
          <path
             style="fill:#779ae1;fill-opacity:1;stroke:none"
             d="m 168.5533,44.321433 c 0.003,-2.85595 -0.66014,-5.66095 -1.95561,-7.50701 l -7.1285,-2.27103 z"
             id="path5932"
             inkscape:connector-curvature="0"
             sodipodi:nodetypes="cccc" />
          <path
             style="fill:#000000;stroke:none"
             d="m 160.22467,34.984983 c 3.28623,1.83411 9.58358,8.49815 11.78744,14.55599 -3.68649,-5.13439 -10.85872,-11.733425 -15.3982,-15.386225 z"
             id="path5938"
             inkscape:connector-curvature="0"
             sodipodi:nodetypes="cccc" />
          <path
             style="fill:#000000;stroke:none"
             d="m 169.9979,32.240433 c 2.91849,2.99557 1.53966,6.92664 -2.87882,5.74271 -7.2278,-1.93668 -23.10047,-5.20687 -27.61639,-8.946867 5.70652,1.668667 21.03679,5.061394 27.55214,6.807177 2.81451,0.754147 3.55991,-1.32751 2.94307,-3.60302 z"
             id="path5936"
             inkscape:connector-curvature="0"
             sodipodi:nodetypes="cscsc" />
          <path
             sodipodi:nodetypes="ccc"
             inkscape:connector-curvature="0"
             id="path4093"
             d="m 149.8622,54.109602 c 5.97049,-0.424224 16.21653,0.993078 23.30762,2.988983 -6.06787,0.282943 -17.55109,-1.127106 -23.30762,-2.988983 z"
             style="fill:#071b42;fill-opacity:1;stroke:none" />
        </g>
        <g
           id="g6921">
          <path
             sodipodi:nodetypes="ccc"
             inkscape:connector-curvature="0"
             id="path4083"
             d="m 179.70228,58.773331 c 2.17732,-2.49676 6.19404,-2.49158 8.38615,0 -2.45012,-1.04663 -5.86709,-1.14926 -8.38615,0 z"
             style="fill:#071b42;fill-opacity:1;stroke:none" />
          <path
             sodipodi:nodetypes="ccc"
             inkscape:connector-curvature="0"
             id="path4085"
             d="m 177.06281,63.081761 c -0.12617,1.03361 0.54611,1.95188 1.37517,2.05193 -1.40765,1.12283 -2.93325,-0.35686 -1.37517,-2.05193 z"
             style="fill:#071b42;fill-opacity:1;stroke:none" />
          <path
             style="fill:#071b42;fill-opacity:1;stroke:none"
             d="m 190.77257,63.081761 c 0.18925,0.970526 -0.35686,1.825712 -1.249,1.988846 1.72307,1.248998 2.80708,-0.987702 1.249,-1.988846 z"
             id="path4087"
             inkscape:connector-curvature="0"
             sodipodi:nodetypes="ccc" />
          <path
             sodipodi:nodetypes="ccc"
             inkscape:connector-curvature="0"
             id="path4095"
             d="m 171.94062,73.421433 c 8.32665,2.489481 23.10763,0.823765 29.61918,-4.741559 -5.22596,7.10108 -21.92195,9.586511 -29.61918,4.741559 z"
             style="fill:#071b42;fill-opacity:1;stroke:none" />
        </g>
      </g>
      <g
         transform="matrix(0.99971229,0.0239862,-0.0239862,0.99971229,1.1061884,-4.3790544)"
         inkscape:transform-center-y="-48.877923"
         inkscape:transform-center-x="2.0193269"
         id="g7204">
        <path
           style="fill:#885de4;fill-opacity:1;stroke:none"
           d="m 166.91158,18.27766 c -5.3033,8.485282 -20.85965,25.102293 -30.22882,34.117903 10.96016,-6.89429 26.5165,-24.218408 32.17336,-32.350136 z"
           id="path6860"
           inkscape:connector-curvature="0"
           sodipodi:nodetypes="cccc" />
        <path
           style="fill:#020016;fill-opacity:1;stroke:#7070ca;stroke-width:2;stroke-linecap:butt;stroke-linejoin:miter;stroke-miterlimit:4;stroke-opacity:1;stroke-dasharray:none"
           d="m 158.07507,1.0502445 c 0.91053,-6.4893175 2.60522,-13.9658925 5.31308,-14.0434095 2.33721,-0.06691 2.43201,3.8192116 4.75015,3.7528501 3.61736,-0.1035541 4.46654,-26.0815071 8.79172,-26.2053241 3.18509,-0.09118 7.66333,25.6005923 10.45728,25.52061 2.67127,-0.07647 2.68944,-4.675069 5.16961,-4.746069 2.00913,-0.05752 4.9182,7.2866577 6.2569,14.20613691 C 189.16217,3.2772498 168.18568,4.778549 158.07507,1.0502445 z"
           id="path5999"
           inkscape:connector-curvature="0"
           sodipodi:nodetypes="cssssscc" />
        <g
           transform="matrix(0.9995905,-0.02861529,0.02861529,0.9995905,0.14589721,5.092146)"
           id="g6156">
          <path
             sodipodi:nodetypes="cscc"
             transform="translate(20.186916,-71.185577)"
             inkscape:connector-curvature="0"
             id="path6001"
             d="m 151.85117,79.033411 c 2.56327,-35.355339 6.71718,-67.970639 9.67853,-67.970639 2.98761,0 4.72878,32.438524 6.93849,63.904776 z"
             style="fill:#314b8f;fill-opacity:1;stroke:#071b42;stroke-width:2;stroke-linecap:butt;stroke-linejoin:miter;stroke-miterlimit:4;stroke-opacity:1;stroke-dasharray:none" />
          <path
             sodipodi:nodetypes="cccccccccccc"
             transform="translate(20.186916,-71.185577)"
             inkscape:connector-curvature="0"
             id="path6154"
             d="m 152.61007,68.841024 c 4.06586,-10e-7 11.96903,-3.242641 14.79746,-6.601399 l -0.17678,-8.662057 c -3.70698,2.460141 -8.78686,4.464808 -13.78858,4.772971 l 1.25888,-9.701272 c 4.0722,-0.29685 8.4789,-2.161506 11.6976,-5.117641 l -0.81066,-8.515611 c -3.03257,2.202807 -6.56515,3.622129 -9.84772,3.910534 l 0.81066,-8.390612 c 2.43768,-0.183328 5.53376,-1.408586 8.38173,-3.267767 l -1.08211,-7.937184 c -1.51858,1.067509 -3.66045,1.766866 -5.88541,2.008883"
             style="fill:none;stroke:#071b42;stroke-width:1px;stroke-linecap:butt;stroke-linejoin:miter;stroke-opacity:1" />
        </g>
        <path
           style="fill:#1558ce;fill-opacity:1;stroke:#885de4;stroke-width:2;stroke-linecap:butt;stroke-linejoin:miter;stroke-miterlimit:4;stroke-opacity:1;stroke-dasharray:none"
           d="M 205.27897,0.17838759 C 196.69521,-1.8278484 209.83902,12.584835 190.8722,20.002457 c -12.71765,4.973672 -16.55851,16.944736 -1.50999,16.483206 -14.67246,14.49568 -34.27656,-1.01089 -24.04162,-18.738333 12.04185,-20.857104 21.2132,-23.864853 42.60318,-23.157747 z"
           id="path6152"
           inkscape:connector-curvature="0"
           sodipodi:nodetypes="cscscc" />
        <g
           id="g5994">
          <path
             style="fill:#314b8f;fill-opacity:1;stroke:none;stroke-width:0.10000000000000001;stroke-miterlimit:4;stroke-dasharray:none"
             d="m 183.16161,73.485959 14.18306,19.725952 c 14.50673,-23.822146 -1.60984,-38.143846 -3.68306,-38.143846 -2.07322,0 -9.22854,8.526205 -10.5,18.417894 z"
             id="path5992"
             inkscape:connector-curvature="0"
             transform="translate(20.186916,-71.185577)"
             sodipodi:nodetypes="cczc" />
          <path
             sodipodi:nodetypes="czczc"
             transform="translate(20.186916,-71.185577)"
             inkscape:connector-curvature="0"
             id="path5986"
             d="m 183.16161,73.485959 c 0.65324,-11.562911 8.35787,-19.45482 10.49416,-19.45482 2.13629,0 19.8489,15.463444 3.6889,39.180772 12.6092,-23.308918 -1.56771,-37.181141 -3.64093,-37.181141 -2.07322,0 -7.85646,8.358995 -10.54213,17.455189 z"
             style="fill:#071b42;fill-opacity:1;stroke:none" />
          <path
             sodipodi:nodetypes="ccc"
             inkscape:connector-curvature="0"
             id="path5988"
             d="m 214.75127,-4.9653258 c 1.80898,3.99465011 2.038,11.1099205 0.85963,15.1026198 2.55008,-3.1938038 2.39386,-11.9812626 -0.85963,-15.1026198 z"
             style="fill:#071b42;fill-opacity:1;stroke:none" />
        </g>
      </g>
    </g>
  </g>
</svg>
