<?xml version="1.0" encoding="UTF-8" standalone="no"?>
<!-- Created with Inkscape (http://www.inkscape.org/) -->

<svg xmlns:dc="http://purl.org/dc/elements/1.1/" xmlns:cc="http://creativecommons.org/ns#" xmlns:rdf="http://www.w3.org/1999/02/22-rdf-syntax-ns#" xmlns:svg="http://www.w3.org/2000/svg" xmlns="http://www.w3.org/2000/svg" xmlns:xlink="http://www.w3.org/1999/xlink" xmlns:sodipodi="http://sodipodi.sourceforge.net/DTD/sodipodi-0.dtd" xmlns:inkscape="http://www.inkscape.org/namespaces/inkscape" width="1052.3622" height="744.09448" id="svg2" version="1.1" inkscape:version="0.48.5 r" sodipodi:docname="Trenderjack Bouquet.svg" inkscape:export-filename="/home/parclytaxel/Pictures/Trenderjack Bouquet.png" inkscape:export-xdpi="678.16119" inkscape:export-ydpi="678.16119">
  <sodipodi:namedview id="base" pagecolor="#ffffff" bordercolor="#666666" borderopacity="1.0" inkscape:pageopacity="0.0" inkscape:pageshadow="2" inkscape:zoom="0.72437038" inkscape:cx="526.18109" inkscape:cy="372.04724" inkscape:document-units="px" inkscape:current-layer="layer1" showgrid="true" showguides="true" inkscape:window-width="1364" inkscape:window-height="698" inkscape:window-x="0" inkscape:window-y="0" inkscape:window-maximized="1" inkscape:guide-bbox="true" inkscape:object-paths="false" inkscape:object-nodes="false" inkscape:snap-nodes="true" />
  <defs id="defs4">
    <linearGradient id="linearGradient6895" inkscape:collect="always">
      <stop id="stop6897" offset="0" style="stop-color:#230f38;stop-opacity:1;" />
      <stop style="stop-color:#361b52;stop-opacity:1" offset="0.7017656" id="stop6899" />
      <stop id="stop6901" offset="1" style="stop-color:#230f38;stop-opacity:1" />
    </linearGradient>
    <inkscape:path-effect effect="skeletal" id="path-effect4249" is_visible="true" pattern="m 184.29527,755.1181 c -15.58935,0 -31.12043,1.46447 -46.5,5 15.37957,3.53553 30.91065,5 46.5,5 l 310,0 c 15.58935,0 32.00431,-1.81802 46.5,-5 -14.49569,-3.53553 -30.91065,-5 -46.5,-5 z" copytype="single_stretched" prop_scale="1" scale_y_rel="false" spacing="0" normal_offset="0" tang_offset="0" prop_units="false" vertical_pattern="false" fuse_tolerance="0" pattern-nodetypes="scsscss" />
    <inkscape:path-effect effect="skeletal" id="path-effect4316" is_visible="true" pattern="m 682.5,728.5 c -15.58935,0 -31.12043,1.46447 -46.5,5 15.37957,3.53553 30.91065,5 46.5,5 l 326.3536,0 3.6464,-10 z" copytype="single_stretched" prop_scale="1" scale_y_rel="false" spacing="0" normal_offset="0" tang_offset="0" prop_units="false" vertical_pattern="false" fuse_tolerance="0" pattern-nodetypes="scsccs" />
    <inkscape:path-effect effect="skeletal" id="path-effect4237" is_visible="true" pattern="m 408.53867,400.22244 c -15.58935,0 -31.12043,1.46447 -46.5,5 15.37957,3.53553 30.91065,5 46.5,5 l 610.00003,0 c 15.5893,0 32.0043,-1.81802 46.5,-5 -14.4957,-3.53553 -30.9107,-5 -46.5,-5 z" copytype="single_stretched" prop_scale="1" scale_y_rel="false" spacing="0" normal_offset="0" tang_offset="0" prop_units="false" vertical_pattern="false" fuse_tolerance="0" pattern-nodetypes="scsscss" />
    <inkscape:path-effect effect="skeletal" id="path-effect4198" is_visible="true" pattern="m 575.41587,774.98903 c -15.58935,0 -31.12043,1.46447 -46.5,5 15.37957,3.53553 30.91065,5 46.5,5 l 280,0 c 15.58935,0 32.00431,-1.81802 46.5,-5 -14.49569,-3.53553 -30.91065,-5 -46.5,-5 z" copytype="single_stretched" prop_scale="1" scale_y_rel="false" spacing="0" normal_offset="0" tang_offset="0" prop_units="false" vertical_pattern="false" fuse_tolerance="0" pattern-nodetypes="scsscss" />
    <inkscape:path-effect effect="skeletal" id="path-effect4160" is_visible="true" pattern="m 648.95498,804.68752 c -15.58935,0 -31.12043,1.46447 -46.5,5 15.37957,3.53553 30.91065,5 46.5,5 l 310,0 c 15.58935,0 32.00431,-1.81802 46.50002,-5 -14.49571,-3.53553 -30.91067,-5 -46.50002,-5 z" copytype="single_stretched" prop_scale="1" scale_y_rel="false" spacing="0" normal_offset="0" tang_offset="0" prop_units="false" vertical_pattern="false" fuse_tolerance="0" pattern-nodetypes="scsscss" />
    <inkscape:path-effect effect="skeletal" id="path-effect4100" is_visible="true" pattern="m 760,300 0,10 105,0 c 15.58935,0 32.00431,-1.81802 46.5,-5 -14.49569,-3.53553 -30.91065,-5 -46.5,-5 z" copytype="single_stretched" prop_scale="1" scale_y_rel="false" spacing="0" normal_offset="0" tang_offset="0" prop_units="false" vertical_pattern="false" fuse_tolerance="0" pattern-nodetypes="ccscsc" />
    <inkscape:path-effect effect="skeletal" id="path-effect4068" is_visible="true" pattern="m 827,292 0,10 85,0 c 15.58935,0 32.00431,-1.81802 46.5,-5 -14.49569,-3.53553 -30.91065,-5 -46.5,-5 z" copytype="single_stretched" prop_scale="1" scale_y_rel="false" spacing="0" normal_offset="0" tang_offset="0" prop_units="false" vertical_pattern="false" fuse_tolerance="0" pattern-nodetypes="ccscsc" />
    <linearGradient inkscape:collect="always" id="linearGradient3934">
      <stop style="stop-color:#4a019d;stop-opacity:1" offset="0" id="stop3936" />
      <stop style="stop-color:#b590d5;stop-opacity:1" offset="1" id="stop3938" />
    </linearGradient>
    <inkscape:path-effect pattern-nodetypes="ccscsc" fuse_tolerance="0" vertical_pattern="false" prop_units="false" tang_offset="0" normal_offset="0" spacing="0" scale_y_rel="false" prop_scale="1" copytype="single_stretched" pattern="m 496.11479,497.80317 0,10 124,0 c 15.58935,0 32.00431,-1.81802 46.5,-5 -14.49569,-3.53553 -30.91065,-5 -46.5,-5 z" is_visible="true" id="path-effect4286" effect="skeletal" />
    <inkscape:path-effect pattern-nodetypes="ccscsc" fuse_tolerance="0" vertical_pattern="false" prop_units="false" tang_offset="0" normal_offset="0" spacing="0" scale_y_rel="false" prop_scale="1" copytype="single_stretched" pattern="m 0,660 0,10 570,0 c 15.58935,0 32.00431,-1.81802 46.5,-5 -14.49569,-3.53553 -30.91065,-5 -46.5,-5 z" is_visible="true" id="path-effect4224" effect="skeletal" />
    <inkscape:path-effect pattern-nodetypes="ccscsc" fuse_tolerance="0" vertical_pattern="false" prop_units="false" tang_offset="0" normal_offset="0" spacing="0" scale_y_rel="false" prop_scale="1" copytype="single_stretched" pattern="m 207.61984,765.75736 2,10 348,0 c 15.58935,0 32.00431,-1.81802 46.5,-5 -14.49569,-3.53553 -30.91065,-5 -46.5,-5 z" is_visible="true" id="path-effect4186" effect="skeletal" />
    <inkscape:path-effect pattern-nodetypes="scsscss" fuse_tolerance="0" vertical_pattern="false" prop_units="false" tang_offset="0" normal_offset="0" spacing="0" scale_y_rel="false" prop_scale="1" copytype="single_stretched" pattern="m 191,435.5 c -15.58935,0 -31.12043,1.46447 -46.5,5 15.37957,3.53553 30.91065,5 46.5,5 l 170,0 c 15.58935,0 32.00431,-1.81802 46.5,-5 -14.49569,-3.53553 -30.91065,-5 -46.5,-5 z" is_visible="true" id="path-effect4104" effect="skeletal" />
    <clipPath id="clipPath4316" clipPathUnits="userSpaceOnUse">
      <path sodipodi:nodetypes="cc" inkscape:connector-curvature="0" id="path4318" d="m 649.03857,518.78041 c -6.63153,3.77597 -14.23738,6.15063 -22.10032,8.13684 L 468,622.86218 l 112,43.5 112.5,-129 z" style="fill:none;stroke:red" />
    </clipPath>
    <clipPath id="clipPath4320" clipPathUnits="userSpaceOnUse">
      <path sodipodi:nodetypes="cccccccc" inkscape:connector-curvature="0" id="path4322" d="m 625.38878,521.20107 c 11.14994,4.26849 22.01439,8.8907 30.13722,16.34138 L 692,517.36218 l -32,-173 -485,132 37,342 396,-73 z" style="fill:none;stroke:red" />
    </clipPath>
    <clipPath id="clipPath4326" clipPathUnits="userSpaceOnUse">
      <path inkscape:connector-curvature="0" id="path4328" d="m 549.06842,618.90572 -27.57717,2.2981 L 247,756.36218 l 14,59 311,-1 z" style="fill:none;stroke:yellow;stroke-width:1;stroke-linecap:butt;stroke-linejoin:miter;stroke-miterlimit:4;stroke-opacity:1;stroke-dasharray:none;stroke-dashoffset:7.8" />
    </clipPath>
    <linearGradient inkscape:collect="always" xlink:href="#linearGradient3934" id="linearGradient3940" x1="808.74469" y1="429.03943" x2="741.55554" y2="433.38739" gradientUnits="userSpaceOnUse" />
    <clipPath clipPathUnits="userSpaceOnUse" id="clipPath3952">
      <use x="0" y="0" xlink:href="#path3028" id="use3954" width="1" height="1" />
    </clipPath>
    <clipPath clipPathUnits="userSpaceOnUse" id="clipPath3967">
      <use x="0" y="0" xlink:href="#path3779" id="use3969" width="1" height="1" />
    </clipPath>
    <clipPath clipPathUnits="userSpaceOnUse" id="clipPath4122">
      <path style="fill:none;stroke:teal;stroke-width:10;stroke-linecap:butt;stroke-linejoin:miter;stroke-miterlimit:4;stroke-opacity:1;stroke-dashoffset:7.8" d="m 953.1685,212.42649 c -23.46237,19.56712 -45.69464,40.55227 -66.87378,62.50143 l -58.97979,120.53206 146.72466,-3.88909 z" id="path4124" inkscape:connector-curvature="0" sodipodi:nodetypes="cc" />
    </clipPath>
    <clipPath clipPathUnits="userSpaceOnUse" id="clipPath4126">
      <path style="fill:none;stroke:teal;stroke-width:10;stroke-linecap:butt;stroke-linejoin:miter;stroke-miterlimit:4;stroke-opacity:1;stroke-dashoffset:7.8" d="m 944.7306,273.30294 c 0.6577,-19.93647 -2.80451,-39.7073 -8.57872,-58.49952 l -136.41411,125.50223 35.00179,36.76956 z" id="path4128" inkscape:connector-curvature="0" sodipodi:nodetypes="cc" />
    </clipPath>
    <clipPath clipPathUnits="userSpaceOnUse" id="clipPath4210">
      <path style="fill:none;stroke:black;stroke-width:5;stroke-linecap:butt;stroke-linejoin:miter;stroke-miterlimit:4;stroke-opacity:1;stroke-dasharray:none;stroke-dashoffset:7.8" d="M 712.375,796.11218 742.65625,777.76843 804,642.86218 c 0,0 106.5,20 107,22 0.5,2 -15,159.5 -15,159.5 z" id="path4212" inkscape:connector-curvature="0" />
    </clipPath>
    <clipPath clipPathUnits="userSpaceOnUse" id="clipPath4284">
      <path style="fill:none;stroke:yellow;stroke-width:1;stroke-miterlimit:4;stroke-dasharray:none" d="m 639.21058,539.1197 c 18.61009,-7.54512 38.7476,-11.28677 58.97872,-11.96164 L 676.85474,415.33259 c -16.76488,15.70207 -36.96681,27.66999 -58.19102,37.33535 z" id="path4286" inkscape:connector-curvature="0" sodipodi:nodetypes="ccccc" />
    </clipPath>
    <clipPath clipPathUnits="userSpaceOnUse" id="clipPath4288">
      <path style="font-size:medium;font-style:normal;font-variant:normal;font-weight:normal;font-stretch:normal;text-indent:0;text-align:start;text-decoration:none;line-height:normal;letter-spacing:normal;word-spacing:normal;text-transform:none;direction:ltr;block-progression:tb;writing-mode:lr-tb;text-anchor:start;baseline-shift:baseline;color:black;fill:none;stroke:yellow;stroke-width:1;stroke-miterlimit:4;stroke-dasharray:none;marker:none;visibility:visible;display:inline;overflow:visible;enable-background:accumulate;font-family:Sans;-inkscape-font-specification:Sans" d="M 625.46875,441.84375 648.84375,542.4375 1032,799.36218 l 38,-518 -443,10 z" id="path4290" inkscape:connector-curvature="0" sodipodi:nodetypes="cc" />
    </clipPath>
    <clipPath clipPathUnits="userSpaceOnUse" id="clipPath4032">
      <path style="fill:none;stroke:black;stroke-width:1" d="m 768.54271,299.13535 c -18.04743,32.37693 -41.3721,60.70754 -71.0742,85.16423 -112.8077,-236.63908 -42.20457,-276.85257 71.0742,-85.16423 z" id="path4034" inkscape:connector-curvature="0" sodipodi:nodetypes="ccc" />
    </clipPath>
    <clipPath clipPathUnits="userSpaceOnUse" id="clipPath4165">
      <path style="fill:none;stroke:black;stroke-width:1;stroke-linecap:butt;stroke-linejoin:miter;stroke-miterlimit:4;stroke-opacity:1;stroke-dashoffset:7.8" clip-path="none" d="m 713.7099,367.34801 c -7.53278,13.01682 -16.0018,25.47955 -25.81984,36.61482 l 10.7265,80.10287 -50.80274,4.41763 2.20881,-117.38273 z" id="path4167" inkscape:connector-curvature="0" sodipodi:nodetypes="cc" />
    </clipPath>
    <linearGradient inkscape:collect="always" xlink:href="#linearGradient6895" id="linearGradient6903" gradientUnits="userSpaceOnUse" x1="772.06073" y1="494.43793" x2="808.70264" y2="485.87769" />
  </defs>
  <metadata id="metadata7">
    <rdf:RDF>
      <cc:Work rdf:about="">
        <dc:format>image/svg+xml</dc:format>
        <dc:type rdf:resource="http://purl.org/dc/dcmitype/StillImage" />
        <dc:title />
      </cc:Work>
    </rdf:RDF>
  </metadata>
  <g inkscape:label="Drawing" inkscape:groupmode="layer" id="layer1" transform="translate(0,-308.2677)">
    <g id="g4173">
      <g transform="translate(1.2621799,-3.2709977e-8)" id="g4124">
        <path style="fill:#fcf6a6;fill-opacity:1;stroke:none" d="m 996.27729,570.16238 c 29.38961,-44.01254 2.68448,-103.30874 54.17531,-139.09835 69.855,-48.55394 160.261,23.06214 132.1261,107.46644 -1.9359,-13.6725 -4.6547,-24.54941 -10.2586,-35.43794 -1.4887,37.13193 -8.4509,70.70412 -27.2735,102.84015 0.5814,-9.10543 0.1551,-18.63752 -0.4167,-27.79889 -6.4481,22.91439 -17.677,40.30101 -33.5828,57.32232 5.6467,-23.67135 7.0185,-51.92366 2.7862,-72.38937 -2.8914,12.1891 -5.8817,21.12151 -10.8667,32.92695 -4.8215,-56.97825 -52.5309,-63.67016 -93.7501,-11.13729 z" id="path4044-5" inkscape:connector-curvature="0" sodipodi:nodetypes="csccccccccc" />
        <path id="path4048-7" style="fill:white;fill-opacity:1;stroke:none" d="m 1143.6798,583.5613 c 7.8617,-51.63888 -36.9204,-116.22741 -86.2263,-80.18347 -31.3296,22.90294 -23.5957,50.71013 -53.5719,77.04941 l -4.19149,-6.20403 c 29.15579,-23.83671 25.23699,-76.71018 45.84189,-108.8466 24.2623,-37.84064 72.9852,-55.16292 120.2854,-18.54282 16.7505,21.6282 28.4285,49.67301 16.9401,89.05675 -3.1396,-13.03628 -6.1978,-23.48621 -10.1537,-30.80891 -2.0854,30.53744 -7.2166,65.4925 -26.8165,97.60766 z" inkscape:connector-curvature="0" sodipodi:nodetypes="csccsccccc" />
        <path sodipodi:nodetypes="csccccccccc" inkscape:connector-curvature="0" id="path4122" d="m 996.27729,570.16238 c 29.38961,-44.01254 2.68448,-103.30874 54.17531,-139.09835 69.855,-48.55394 160.261,23.06214 132.1261,107.46644 -1.9359,-13.6725 -4.6547,-24.54941 -10.2586,-35.43794 -1.4887,37.13193 -8.4509,70.70412 -27.2735,102.84015 0.5814,-9.10543 0.1551,-18.63752 -0.4167,-27.79889 -6.4481,22.91439 -17.677,40.30101 -33.5828,57.32232 5.6467,-23.67135 7.0185,-51.92366 2.7862,-72.38937 -2.8914,12.1891 -5.8817,21.12151 -10.8667,32.92695 -4.8215,-56.97825 -52.5309,-63.67016 -93.7501,-11.13729 z" style="fill:none;stroke:#e5c456;stroke-width:10;stroke-linecap:butt;stroke-linejoin:miter;stroke-miterlimit:20;stroke-opacity:1;stroke-dasharray:none;stroke-dashoffset:7.8" />
      </g>
      <path inkscape:transform-center-y="-51.922162" inkscape:transform-center-x="-30.331306" sodipodi:nodetypes="cccc" inkscape:connector-curvature="0" id="path3991-2" d="m 823.90646,366.15676 c 36.55901,-40.88016 72.56932,-74.03904 117.00337,-107.96523 11.87922,72.60983 -26.52051,123.16434 -97.4021,139.59761 z" style="fill:#8c6d3c;fill-opacity:1;stroke:#4f401d;stroke-width:10;stroke-linecap:butt;stroke-linejoin:miter;stroke-miterlimit:4;stroke-opacity:1;stroke-dasharray:none;stroke-dashoffset:7.8" />
      <g id="g4220">
        <path clip-path="none" sodipodi:nodetypes="sscsscs" inkscape:connector-curvature="0" id="path4216" d="m 867.5,695.36218 c -0.76182,-26.67091 -29.92241,-27.98197 -35.7071,-6.56066 -4.46318,16.52764 -9.29508,32.27566 -16.49355,51.01707 -63.04906,-32.08235 -123.03442,-22.88472 -218.70693,48.35945 -22.57069,16.80765 56.20503,81.96889 70.04179,60.40454 17.01146,-26.51206 37.47214,-47.56201 63.77535,-63.60277 C 801.72276,769.01 871.71978,843.09529 867.5,695.36218 z" style="fill:#8c6d3c;stroke:none;stroke-width:1;stroke-linecap:butt;stroke-linejoin:miter;stroke-miterlimit:4;stroke-opacity:1;stroke-dasharray:none;stroke-dashoffset:7.79999999999999982;fill-opacity:1" />
        <path sodipodi:nodetypes="cssc" inkscape:connector-curvature="0" id="path3851" d="m 773.51857,729.9014 c 1.13428,0.23541 2.26608,0.48105 3.39544,0.73692 8.69416,1.95286 17.26586,4.47238 25.85803,7.30402 8.59218,2.83163 17.20677,5.97491 25.901,9.19844 -7.00186,-6.07904 -14.69701,-11.48576 -22.9899,-15.94256 -8.29288,-4.4568 -17.18151,-7.96332 -26.478,-10.25986 -1.21406,-0.29764 -2.43359,-0.57312 -3.65767,-0.82648 -16.71424,-3.45959 -34.01754,-3.78624 -50.84629,-1.13629 -21.26956,3.37656 -41.50174,10.99265 -60.45609,20.46254 -25.09355,12.51464 -48.37087,28.13328 -70.63897,44.72967 -1.89272,1.38408 -3.49944,3.26393 -4.61911,5.55866 -1.02827,2.25851 -1.47349,4.58184 -1.43266,6.7885 0.0406,2.48157 0.49147,4.77944 1.16936,6.84019 0,0 10e-6,10e-6 10e-6,2e-5 0.78395,2.43803 1.81032,4.6923 2.95315,6.77434 2.75199,5.02063 6.15767,9.48016 9.76018,13.5403 10e-6,0 10e-6,10e-6 2e-5,10e-6 4.11791,4.66512 8.59616,8.95687 13.29908,12.92144 4.73821,4.00031 9.75514,7.71159 15.05367,11.02662 4.69809,2.95189 9.72165,5.64305 15.14612,7.67394 4.10801,1.61846 8.89423,2.84421 14.15211,2.56284 2.11162,-0.11902 4.35945,-0.67193 6.56632,-1.7908 2.13267,-1.14039 3.90569,-2.78379 5.18804,-4.78109 8.5584,-13.32634 18.40506,-25.80977 29.647,-36.81663 1.16027,-1.13601 2.33149,-2.27068 3.5136,-3.40207 6.38102,-6.11645 13.10109,-12.13323 19.95697,-17.87837 6.85588,-5.74514 13.84459,-11.21804 20.64618,-16.32994 -8.20077,2.37446 -16.60153,5.92733 -24.66275,10.50106 -8.06122,4.57372 -15.77545,10.16753 -22.69539,16.42985 -1.27942,1.15948 -2.53117,2.34003 -3.75382,3.53821 -11.84633,11.60922 -22.16672,24.67294 -31.06819,38.55751 -0.36032,0.56278 -0.88451,1.05877 -1.44157,1.33886 -0.61568,0.37178 -1.54811,0.54764 -2.62012,0.65964 -2.95221,0.31439 -6.33529,-0.71104 -9.94268,-1.9619 -4.56932,-1.68574 -8.98754,-4.07892 -13.3301,-6.78 -4.85651,-3.03476 -9.4911,-6.46737 -13.90665,-10.19062 -4.37848,-3.69792 -8.50638,-7.64692 -12.24803,-11.89316 0,0 -10e-6,-10e-6 -10e-6,-10e-6 -3.27824,-3.74142 -6.256,-7.58944 -8.47643,-11.70578 -0.91159,-1.69301 -1.68884,-3.36287 -2.2058,-5.0211 0,-10e-6 0,-10e-6 0,-2e-5 -0.42377,-1.40816 -0.71831,-2.71794 -0.70047,-3.87594 0.021,-0.96527 0.14655,-1.84327 0.47379,-2.45254 0.26351,-0.63161 0.84745,-1.26243 1.55078,-1.81154 22.02024,-16.38368 44.79301,-31.6922 69.12529,-43.79928 10e-6,0 10e-6,-10e-6 2e-5,-10e-6 18.36769,-9.12226 37.63178,-16.42916 57.55181,-19.53498 15.66591,-2.46403 31.77469,-2.167 47.26273,1.04739 z" style="fill:#4f401d;stroke:none;stroke-width:10;stroke-linecap:butt;stroke-linejoin:miter;stroke-miterlimit:4;stroke-opacity:1;stroke-dasharray:none;stroke-dashoffset:7.79999999999999982;fill-opacity:1" inkscape:path-effect="#path-effect4198" inkscape:original-d="m 828.67304,747.14078 c -68.15301,-40.39211 -129.6722,-35.22292 -232.08062,41.03726 -22.57069,16.80766 56.20502,81.96889 70.04179,60.40454 19.96881,-31.12104 44.69034,-54.71577 77.97195,-71.72682" />
        <path style="fill:none;stroke:#4f401d;stroke-width:10;stroke-linecap:butt;stroke-linejoin:miter;stroke-miterlimit:4;stroke-opacity:1;stroke-dasharray:none;stroke-dashoffset:7.79999999999999982" d="m 815.30136,739.86817 c 7.19646,-18.79099 12.02836,-34.53901 16.49154,-51.06665 5.78469,-21.42131 34.94528,-20.11025 35.7071,6.56066 4.46576,156.34474 -74.18993,64.25696 -149.51366,93.54404" id="path4206" inkscape:connector-curvature="0" sodipodi:nodetypes="cssc" clip-path="url(#clipPath4210)" />
      </g>
      <path style="fill:#8c6d3c;fill-opacity:1;stroke:#4f401d;stroke-width:10;stroke-linecap:butt;stroke-linejoin:miter;stroke-miterlimit:4;stroke-opacity:1;stroke-dasharray:none;stroke-dashoffset:7.8" d="m 927.41679,673.287 c 34.07261,93.70688 25.07137,199.91666 1.0736,317.1587 -3.14814,15.3804 88.17791,17.4169 88.81181,0.08 3.529,-96.51882 -2.3155,-179.63275 -14.4898,-258.12653 z" id="path3940" inkscape:connector-curvature="0" sodipodi:nodetypes="csscc" />
      <path sodipodi:nodetypes="ccsssscssscscc" inkscape:connector-curvature="0" id="path3845" d="m 650.77098,529.88824 -18.01926,-77.61739 c 34.78833,-16.67781 63.601,-44.8595 85.28833,-82.42288 34.65672,-60.02733 118.20061,-65.29223 142.70105,-6.37999 24.3626,58.58079 -8.23557,109.15593 2.04684,196.43495 2.75438,23.37974 88.56054,5.08493 131.49035,3.23844 41.79331,-1.7976 41.29311,109.77709 16.48481,179.89305 9.2819,-2.9845 17.5771,-2.14764 18.9647,3.36475 19.7584,78.49363 28.8062,167.60771 33.7382,261.12653 0.9149,17.3482 -90.89768,15.3336 -88.81648,-0.08 15.3335,-113.56175 17.81085,-209.34099 -10.05744,-288.41499 -44.46812,10.37599 -158.3151,18.23365 -182.09652,-16.20202 -16.89506,-24.46416 -19.67745,-116.12449 -7.70723,-178.95838 -33.97303,3.34951 -75.4998,-9.96703 -124.01735,6.01793 z" style="fill:#b48d50;stroke:none;stroke-width:1;stroke-linecap:butt;stroke-linejoin:miter;stroke-miterlimit:4;stroke-opacity:1;stroke-dasharray:none;stroke-dashoffset:7.79999999999999982;fill-opacity:1" />
      <g id="g5887">
        <path sodipodi:nodetypes="cccsssss" inkscape:connector-curvature="0" d="m 801.72791,483.31179 c -9.46379,-3.30364 -19.85613,0.80655 -25.07033,9.60816 8.35527,-0.61227 18.12818,-4.37628 25.07033,-9.60816 z m -33.27195,16.50816 c 0.47815,-29.83341 13.16438,-24.24163 16.45244,-25.1779 3.1908,-0.90856 8.34233,-11.70814 28.51974,8.78498 1.42189,1.44417 -8.62019,13.63096 -19.59386,17.78119 -11.29311,4.271 -25.41887,1.14503 -25.37832,-1.38827 z" style="fill:url(#linearGradient6903);fill-opacity:1;stroke:none" id="path5838-1" />
        <use height="744.09448" width="1052.3622" transform="matrix(-0.98778603,0.15581643,0.15581643,0.98778603,1534.6003,-156.77553)" id="use5879" xlink:href="#path5838-1" y="0" x="0" />
        <g id="g3971">
          <path transform="matrix(0.54965603,-0.95414253,0.95414253,0.54965603,-54.366058,932.23379)" sodipodi:type="arc" sodipodi:ry="28.284777" sodipodi:rx="44.936382" sodipodi:cy="419.05276" sodipodi:cx="773.6286" style="fill:white;stroke:none;stroke-width:1.14107883000000010;stroke-linecap:butt;stroke-linejoin:miter;stroke-miterlimit:4;stroke-opacity:1;stroke-dasharray:none;stroke-dashoffset:7.79999999999999982" d="m 818.56498,419.05276 c 0,15.62126 -20.1187,28.28478 -44.93638,28.28478 -24.81768,0 -44.93638,-12.66352 -44.93638,-28.28478 0,-15.62125 20.1187,-28.28477 44.93638,-28.28477 24.81768,0 44.93638,12.66352 44.93638,28.28477 z" id="path3779" inkscape:connector-curvature="0" sodipodi:nodetypes="ccccc" />
          <g clip-path="url(#clipPath3967)" id="g3958">
            <g id="g3944" clip-path="url(#clipPath3952)">
              <path sodipodi:nodetypes="ccccc" inkscape:connector-curvature="0" id="path3028" d="m 818.20155,419.05276 c 0,16.42413 -19.95599,29.73852 -44.57295,29.73852 -24.61696,0 -44.57295,-13.31439 -44.57295,-29.73852 0,-16.42412 19.95599,-29.73851 44.57295,-29.73851 24.61696,0 44.57295,13.31439 44.57295,29.73851 z" style="fill:url(#linearGradient3940);stroke:none;stroke-width:1.14107883000000010;stroke-linecap:butt;stroke-linejoin:miter;stroke-miterlimit:4;stroke-opacity:1;stroke-dasharray:none;stroke-dashoffset:7.79999999999999982;fill-opacity:1" sodipodi:cx="773.6286" sodipodi:cy="419.05276" sodipodi:rx="44.572948" sodipodi:ry="29.738512" sodipodi:type="arc" transform="matrix(0.37759687,-0.8104266,0.8104266,0.37759687,129.82192,892.90283)" />
              <path style="fill:#d5b5f4;fill-opacity:1;stroke:none" d="m 795.19639,447.88933 -11.99513,20.932 -29.59211,-38.01938 z" id="path3150" inkscape:connector-curvature="0" sodipodi:nodetypes="cccc" />
              <path sodipodi:nodetypes="cccc" inkscape:connector-curvature="0" id="path3148" d="m 799.04309,442.323 -7.73149,12.72321 -37.70245,-24.24426 z" style="fill:#ab54f4;fill-opacity:1;stroke:none" />
              <path transform="matrix(0.28337925,-0.66444493,0.66444493,0.28337925,260.50286,818.78167)" sodipodi:type="arc" sodipodi:ry="29.738512" sodipodi:rx="44.572948" sodipodi:cy="419.05276" sodipodi:cx="773.6286" style="fill:black;stroke:none;stroke-width:1.14107883000000010;stroke-linecap:butt;stroke-linejoin:miter;stroke-miterlimit:4;stroke-opacity:1;stroke-dasharray:none;stroke-dashoffset:7.79999999999999982" d="m 818.20155,419.05276 c 0,16.42413 -19.95599,29.73852 -44.57295,29.73852 -24.61696,0 -44.57295,-13.31439 -44.57295,-29.73852 0,-16.42412 19.95599,-29.73851 44.57295,-29.73851 24.61696,0 44.57295,13.31439 44.57295,29.73851 z" id="path3030" inkscape:connector-curvature="0" sodipodi:nodetypes="ccccc" />
              <path transform="matrix(0.86392828,-0.42704861,0.42704861,0.86392828,64.673847,649.2685)" d="m 784.2581,101.84448 c 0,8.36541 -4.03307,15.14692 -9.0081,15.14692 -4.97503,0 -9.0081,-6.78151 -9.0081,-15.14692 0,-8.365408 4.03307,-15.146913 9.0081,-15.146913 4.97503,0 9.0081,6.781505 9.0081,15.146913 z" sodipodi:ry="15.146915" sodipodi:rx="9.0080957" sodipodi:cy="101.84448" sodipodi:cx="775.25" id="path3144" style="fill:white;stroke:none;stroke-width:1;stroke-linecap:butt;stroke-linejoin:miter;stroke-miterlimit:4;stroke-opacity:1;stroke-dasharray:none;stroke-dashoffset:7.79999999999999982" sodipodi:type="arc" />
              <path sodipodi:type="arc" style="fill:white;stroke:none;stroke-width:1;stroke-linecap:butt;stroke-linejoin:miter;stroke-miterlimit:4;stroke-opacity:1;stroke-dasharray:none;stroke-dashoffset:7.79999999999999982" id="path3146" sodipodi:cx="775.25" sodipodi:cy="101.84448" sodipodi:rx="9.25" sodipodi:ry="15" d="m 784.5,101.84448 c 0,8.28427 -4.14137,15 -9.25,15 -5.10863,0 -9.25,-6.71573 -9.25,-15 0,-8.284269 4.14137,-14.999998 9.25,-14.999998 5.10863,0 9.25,6.715729 9.25,14.999998 z" transform="matrix(0.29570252,-0.19510559,0.19510559,0.29570252,521.23979,544.11824)" />
            </g>
          </g>
          <path style="fill:black;stroke:none" d="m 796.16718,71.257239 c 13.18806,7.61413 18.80131,28.541014 7.20386,48.261411 5.76381,-21.841717 1.59024,-37.518366 -9.38063,-43.8524 -14.51748,-8.381671 -41.83538,5.872389 -56.64972,39.09824 8.45037,-36.407832 42.04783,-53.194413 58.82649,-43.507251 z" id="path3142" inkscape:connector-curvature="0" transform="translate(0,308.2677)" sodipodi:nodetypes="scscs" />
        </g>
        <path id="path3999" style="fill:#7c632c;fill-opacity:1;stroke:none" d="m 644.16908,499.30113 c 15.72444,3.32453 30.88199,-0.0808 42.61077,-7.74357 14.77703,-9.65424 35.79345,-6.64138 47.00765,9.21539 -14.52593,-12.3128 -29.40588,-13.42684 -44.27881,-3.9189 -12.34357,7.89098 -27.93979,11.75204 -44.33707,9.14683 z m 9.88351,-38.90437 c 5.31203,10.71066 15.14947,9.34994 16.87871,-2.31886 1.36663,15.25061 -12.70874,17.35889 -16.87871,2.31886 z" />
      </g>
      <g id="g2989" transform="matrix(1.0069788,-0.08581012,0.10612879,1.0071559,954.15218,604.93074)">
        <path d="M 0,25 13.75,0 41.25,50 55,25 41.25,0 13.75,50" id="path4" inkscape:connector-curvature="0" style="fill:#d87313" />
        <path style="fill:none;stroke:#efd4a6;stroke-width:2;stroke-linecap:round;stroke-linejoin:round" d="M 0,0 27.5,51 55,0 M 0,50 27.5,-1 55,50" id="path6" inkscape:connector-curvature="0" />
      </g>
      <path clip-path="url(#clipPath4288)" inkscape:original-d="m 829.20382,490.84796 c -39.93571,65.3206 -105.76174,8.81289 -191.86787,43.63647 -24.93505,10.08439 -44.18551,-64.74065 -16.60505,-77.26383 50.70643,-23.02375 75.62182,-49.80925 97.30915,-87.37263 34.65672,-60.02733 118.20061,-65.29223 142.70105,-6.37999 24.3626,58.58079 -8.23557,109.15593 2.04684,196.43495 2.75438,23.37974 88.56054,5.08494 131.49035,3.23844 45.01971,-1.93638 40.96381,127.67996 10.34951,195.32496" inkscape:path-effect="#path-effect4237" sodipodi:nodetypes="cssssssc" inkscape:connector-curvature="0" id="path4231" d="m 764.53479,529.48314 c 3.13529,-0.013 6.28638,-0.1277 9.4449,-0.37843 7.36792,-0.57594 14.82068,-1.99433 21.87515,-4.72049 7.12283,-2.76821 13.62517,-6.92912 18.97824,-12.14297 6.33687,-6.19974 10.99183,-13.63361 14.37074,-21.39329 -5.36642,6.54456 -11.31228,12.47986 -17.98634,17.00841 -5.59016,3.8095 -11.73383,6.62692 -18.10179,8.41185 -6.34686,1.79678 -13.01084,2.61077 -19.79634,2.98338 -2.91995,0.15665 -5.86017,0.2235 -8.82184,0.23326 -4.51238,0.0149 -9.07109,-0.15036 -13.66429,-0.37606 -17.37088,-0.87416 -35.02137,-2.51726 -52.97178,-1.94537 -21.25325,0.68594 -42.53123,4.66894 -62.40012,12.68573 -10e-6,0 -2e-5,0 -3e-5,10e-6 -0.92659,0.36315 -1.8709,0.58028 -2.73351,0.567 -0.82506,0.0134 -1.71978,-0.1777 -2.59254,-0.50626 -2.08489,-0.70245 -4.04631,-2.54747 -5.96805,-4.70416 -5.06091,-5.86859 -7.93527,-13.79613 -9.96048,-22.02267 -1e-5,-1e-5 -1e-5,-3e-5 -1e-5,-4e-5 -2.02415,-8.78123 -2.80859,-17.80434 -1.11608,-26.22969 0,-10e-6 1e-5,-2e-5 1e-5,-2e-5 0.73758,-3.59058 1.82714,-6.97666 3.62345,-9.70786 1.57363,-2.40489 3.68629,-4.43735 6.084,-5.47221 21.91994,-9.92467 43.01902,-22.49167 60.88246,-39.13256 15.61674,-14.62311 28.16982,-32.0309 38.68964,-50.29273 7.70723,-13.3387 18.66961,-24.84497 31.75333,-32.84132 11.89026,-7.26701 25.52904,-11.76457 39.33268,-12.45762 12.90395,-0.63796 26.05359,2.04307 37.01733,8.44636 11.47986,6.60482 20.47996,17.50249 25.65091,29.89257 0,2e-5 1e-5,3e-5 2e-5,5e-5 5.43337,13.027 8.23708,27.16655 8.77189,41.39787 0,2e-5 0,4e-5 0,5e-5 0.54967,14.33293 -1.01581,28.86958 -2.81394,43.52394 0,2e-5 0,4e-5 0,5e-5 -2.04262,16.49402 -4.35289,33.11087 -5.51447,49.9751 -1.37551,20.01924 -1.09803,40.20219 1.25435,60.20292 0.2572,2.18869 1.03765,4.29393 2.30396,6.1565 1.34485,1.89098 2.95314,3.34426 4.63571,4.3904 4.2657,2.62919 8.77178,3.81626 12.86024,4.42668 10e-6,1e-5 3e-5,1e-5 5e-5,1e-5 5.62749,0.94218 11.20611,1.20385 16.6297,1.22713 6.57991,0.0392 13.10403,-0.2693 19.56101,-0.71863 14.382,-0.99894 28.6163,-2.68652 42.76239,-4.30005 12.75976,-1.44975 25.37813,-2.99992 37.91781,-3.53323 10e-6,0 3e-5,0 4e-5,0 2.07359,-0.0811 4.13894,0.18386 5.99301,0.85102 1.8353,0.63237 3.5973,1.70494 5.1938,3.03761 3.878,3.14735 6.6059,8.01479 8.9083,13.25402 2.8918,6.78382 4.6241,14.18845 5.8865,21.78473 1.4948,9.10204 2.1563,18.39315 2.3419,27.74353 0.3196,16.32642 -0.8173,32.69428 -3.1154,48.92437 -0.6809,4.80875 -1.4053,9.66344 -2.1692,14.53507 -1.6303,10.32429 -3.4055,20.71398 -5.5151,30.84072 -2.1095,10.12674 -4.5618,19.98939 -7.3892,29.35851 5.303,-8.24874 9.8776,-17.61187 13.6066,-27.54289 3.729,-9.93102 6.6173,-20.42243 8.7782,-30.91134 1.0261,-4.95475 1.8925,-9.92879 2.5933,-14.87761 2.3651,-16.70289 3.5333,-33.60279 3.209,-50.52048 -0.1834,-9.69935 -0.8881,-19.46441 -2.4715,-29.16539 -1.3017,-8.06678 -3.2536,-16.23157 -6.5452,-24.0652 -2.4926,-6.09575 -6.1409,-12.21226 -11.6698,-17.00123 -2.4076,-2.04553 -5.2099,-3.71377 -8.3148,-4.82459 -3.1764,-1.10785 -6.49418,-1.55971 -9.75011,-1.41161 -2e-5,0 -4e-5,0 -6e-5,0 -13.06448,0.56798 -25.917,2.1365 -38.62028,3.58829 -14.17747,1.61398 -28.26478,3.28811 -42.32144,4.25967 -6.31337,0.43552 -12.58613,0.73612 -18.80693,0.69491 -1e-5,0 -2e-5,0 -2e-5,0 -5.1655,-0.0432 -10.20768,-0.25805 -15.02039,-1.08654 -10e-6,0 -3e-5,0 -4e-5,0 -3.58334,-0.69074 -6.84281,-1.39439 -9.12042,-2.97644 -0.80827,-0.55695 -1.47345,-1.09523 -1.80634,-1.64542 -0.32528,-0.45326 -0.54239,-1.06051 -0.61397,-1.66254 -2.27904,-19.31164 -2.54143,-38.87656 -1.20909,-58.34883 1.11927,-16.3999 3.41214,-32.8356 5.46226,-49.43167 1e-5,-2e-5 1e-5,-4e-5 1e-5,-6e-5 1.8404,-14.76336 3.42881,-29.83239 2.88273,-45.12109 -0.55785,-15.30673 -3.61483,-30.60307 -9.53172,-44.86822 0,-2e-5 -10e-6,-4e-5 -2e-5,-5e-5 -5.93096,-14.3049 -16.33682,-26.80624 -29.86821,-34.70358 -12.90453,-7.43611 -27.89753,-10.56242 -42.54739,-9.78217 -15.60728,0.82073 -30.81538,5.80448 -44.04065,13.91617 -14.57464,8.93936 -26.6831,21.62171 -35.1916,36.36955 0,1e-5 -10e-6,3e-5 -2e-5,4e-5 -10.21865,17.65807 -22.16023,34.29648 -36.85516,47.98458 -16.76488,15.70207 -36.96681,27.66999 -58.19102,37.33535 -4.38633,2.04551 -7.92821,5.31588 -10.37167,9.18593 -2.62644,4.17741 -4.18012,8.72138 -5.01578,13.18154 0,2e-5 -10e-6,4e-5 -10e-6,6e-5 -1.95942,10.26269 -1.14792,20.68998 1.19726,30.4422 10e-6,2e-5 10e-6,3e-5 10e-6,5e-5 2.06167,9.1088 5.63125,18.41923 12.04615,26.17129 2.45298,3.03568 5.76149,5.84199 10.00935,7.58802 1.93229,0.75597 4.03543,1.1714 6.21777,1.17912 2.28478,-0.0193 4.4725,-0.47954 6.46371,-1.29642 2e-5,-10e-6 5e-5,-2e-5 7e-5,-3e-5 18.61009,-7.54512 38.7476,-11.28677 58.97872,-11.96164 17.10772,-0.57812 34.48263,1.06262 52.14506,1.93829 4.68611,0.23778 9.42353,0.40657 14.20043,0.38679 z" style="fill:#7c632c;stroke:none;stroke-width:9.44858836999999951;stroke-linecap:butt;stroke-linejoin:miter;stroke-miterlimit:4;stroke-opacity:1;stroke-dasharray:none;stroke-dashoffset:7.79999999999999982;fill-opacity:1" />
      <path clip-path="url(#clipPath4284)" sodipodi:nodetypes="cc" inkscape:connector-curvature="0" id="path4229" d="M 653.43855,541.37873 630.08415,440.78036" style="fill:none;stroke:#7c632c;stroke-width:10;stroke-linecap:butt;stroke-linejoin:miter;stroke-miterlimit:4;stroke-opacity:1;stroke-dasharray:none;stroke-dashoffset:7.79999999999999982" />
      <g clip-path="url(#clipPath4165)" id="g4138">
        <path sodipodi:nodetypes="ccc" inkscape:connector-curvature="0" id="path4136" d="m 662.26214,401.25468 c 6.52947,96.64057 25.87163,95.25602 20.69922,-1.80574 z" style="fill:#d8fbf6;fill-opacity:0.37254902;stroke:none" />
        <path style="fill:none;stroke:#f6feff;stroke-width:8;stroke-miterlimit:4;stroke-opacity:1;stroke-dasharray:none" d="m 703.29607,89.53998 -40.90942,3.455513 c 6.37255,96.602107 25.77412,95.052357 20.65683,-1.776259" id="path4134" inkscape:connector-curvature="0" transform="translate(0,308.2677)" sodipodi:nodetypes="ccc" />
      </g>
      <path inkscape:original-d="m 950.88034,687.287 c 42.01905,84.70688 41.21989,190.91666 23.76918,320.1587 -2.08121,15.4136 89.73138,17.4282 88.81648,0.08 -4.932,-93.51882 -13.9799,-182.63286 -33.7382,-261.12653 -1.5814,-6.28237 -12.135,-6.49182 -22.9394,-1.89929" inkscape:path-effect="#path-effect4316" sodipodi:nodetypes="csssc" inkscape:connector-curvature="0" id="path3889-9" d="m 983.00008,769.73475 c -1.0053,-5.35548 -2.16911,-10.68043 -3.50127,-15.96161 -2.98559,-11.83557 -6.83897,-23.44357 -11.60195,-34.60282 -4.76298,-11.15925 -10.43599,-21.86975 -17.01652,-31.88332 7.98229,22.59607 14.22395,45.45805 19.17098,68.68556 1.10448,5.18529 2.14382,10.3869 3.12356,15.60647 3.66858,19.54436 5.82,39.41471 6.89845,59.35561 3.17225,58.52894 -2.50178,117.38449 -10.37885,175.84206 -0.23122,2.3352 0.29369,4.4464 1.42896,6.128 1e-5,0 2e-5,0 3e-5,0 1.28862,1.8343 2.7261,3.0912 4.06361,3.8776 2e-5,0 3e-5,0 4e-5,0 3.8206,2.3879 7.78435,3.6308 11.37232,4.4674 10e-6,0 10e-6,0 2e-5,0 5.007,1.2513 10.03244,2.0143 14.98434,2.5405 5.6702,0.6087 11.3527,0.9161 17.0186,0.9808 5.6787,0.067 11.3836,-0.1094 17.0855,-0.6013 0,0 0,0 0,0 5.0114,-0.4263 10.1076,-1.1039 15.1913,-2.306 0,0 0,0 0,0 3.7176,-0.8177 7.8037,-2.0815 11.7162,-4.5384 1.4252,-0.862 2.904,-2.1663 4.2039,-4.0027 1.1548,-1.695 1.7654,-3.7762 1.6998,-6.0602 0,0 0,0 0,-10e-5 -4.6169,-87.89321 -12.3171,-176.31861 -33.8826,-262.08365 0,-2e-5 0,-4e-5 0,-6e-5 -0.8137,-2.90762 -2.6007,-5.22518 -5.0015,-6.65577 -2.627,-1.47161 -5.2472,-2.07679 -7.5441,-2.1415 -3.4552,-0.16922 -6.7839,0.23367 -9.9273,1.00634 -1.7378,3.86893 -2.7103,7.85579 -3.3593,11.71377 4.3539,-1.76181 8.6905,-3.07731 12.6582,-2.73987 1.3772,0.16661 2.4873,0.30064 3.014,0.72804 0.2475,0.16413 0.5216,0.4398 0.4626,0.53009 21.3482,84.71805 28.9521,172.50532 33.5938,260.16931 0,0 0,0 0,0 0.047,-0.1495 -0.01,-0.09 -0.039,-0.01 -0.1079,0.2796 -0.6304,0.6369 -1.335,1.1618 -2.1801,1.5103 -5.219,2.3246 -8.5743,3.19 0,0 -10e-5,0 -10e-5,0 -4.4124,1.0576 -9.0241,1.657 -13.7377,2.0715 -5.3326,0.4621 -10.7118,0.6264 -16.1081,0.5649 -5.3838,-0.063 -10.7487,-0.3518 -16.0657,-0.9243 -4.6692,-0.5081 -9.23876,-1.1898 -13.61666,-2.2963 -3.28297,-0.8896 -6.24643,-1.697 -8.37147,-3.1613 -10e-6,0 -10e-6,0 -2e-5,0 -0.65633,-0.5054 -1.11257,-0.7831 -1.11989,-0.9399 0,0 0,0 0,0 0.09,0.076 0.0747,0.2286 0.0999,0.6648 7.94307,-58.70823 13.64225,-118.18913 10.45429,-177.71801 -1.08963,-20.30287 -3.2945,-40.60867 -7.05877,-60.66194 z" style="fill:#7c632c;stroke:none;fill-opacity:1" />
      <path style="fill:none;stroke:#7c632c;stroke-width:10;stroke-linecap:butt;stroke-linejoin:miter;stroke-miterlimit:4;stroke-opacity:1;stroke-dasharray:none;stroke-dashoffset:7.79999999999999982" d="M 964.85403,718.99094 C 920.12396,729.4067 806.27698,737.26436 782.49556,702.82869 765.6005,678.36453 762.81811,586.7042 774.6046,523.34185" id="path3934" inkscape:connector-curvature="0" sodipodi:nodetypes="csc" />
      <g id="g4170">
        <path sodipodi:nodetypes="csscc" inkscape:connector-curvature="0" id="path4168" d="m 837.9007,695.25244 c -0.63603,102.76093 -22.2989,200.05592 -43.19839,309.85486 -3.34174,17.5564 92.57193,19.2782 93.4116,0.9143 5.31372,-116.21325 -0.20102,-210.75697 -11.7868,-310.76916 z" style="fill:#b48d50;stroke:none;fill-opacity:1" />
        <path style="fill:#7c632c;stroke:none;stroke-width:10;stroke-linecap:butt;stroke-linejoin:miter;stroke-miterlimit:4;stroke-opacity:1;stroke-dasharray:none;stroke-dashoffset:7.79999999999999982;fill-opacity:1" d="m 838.0254,779.52812 c 2.92482,-28.13134 3.2389,-56.48736 -0.1247,-84.27568 -3.70732,27.74455 -6.92184,55.37694 -9.82267,83.24077 -2.37486,22.81167 -5.50453,45.57523 -9.11546,68.2608 -8.37792,52.60378 -19.17474,104.89072 -29.17207,157.41839 -0.39146,2.2521 -0.0389,4.4603 0.99002,6.3946 10e-6,10e-5 2e-5,10e-5 3e-5,10e-5 1.1716,2.0221 2.5894,3.4655 3.98314,4.4041 10e-6,0 10e-6,0 2e-5,0 3.86543,2.725 7.97554,4.1514 11.6825,5.0896 5.18753,1.4159 10.40802,2.2709 15.54548,2.8597 5.92353,0.6867 11.86147,1.0324 17.77878,1.1136 5.97681,0.084 11.97767,-0.1011 17.97048,-0.6214 5.3264,-0.4567 10.72811,-1.1849 16.10629,-2.4526 4.02231,-0.8969 8.36553,-2.2345 12.51434,-4.7388 10e-6,0 2e-5,0 3e-5,0 1.52357,-0.8942 3.10338,-2.1872 4.5206,-3.9808 1.24622,-1.5846 2.05139,-3.6308 2.22648,-5.9905 2.46576,-53.91667 2.74687,-107.95308 0.44458,-161.90162 -0.93995,-22.0085 -2.31009,-43.99017 -4.04003,-65.93957 -1.10845,-14.06397 -2.85138,-28.45001 -5.09959,-42.51925 -2.2482,-14.06924 -5.0003,-27.82153 -8.08654,-40.63712 -0.25021,13.2021 0.0123,27.19096 0.60364,41.37736 0.59138,14.18641 1.51043,28.57073 2.61364,42.5648 1.72176,21.84031 3.08455,43.70221 4.01798,65.58026 2.28988,53.62944 2.00922,107.37144 -0.44324,161.01834 0.0689,-0.037 -0.0681,0.1551 -0.22181,0.4272 -0.27426,0.4501 -0.95218,0.9188 -1.81491,1.508 0,0 -10e-6,0 -10e-6,0 -2.54371,1.6558 -5.89591,2.5809 -9.54128,3.5012 -4.72605,1.127 -9.64783,1.7778 -14.66652,2.2207 -5.62026,0.4897 -11.28594,0.6628 -16.96491,0.5847 -5.62342,-0.079 -11.2233,-0.4032 -16.7646,-1.0478 -4.8351,-0.5691 -9.55753,-1.3274 -14.05131,-2.5696 -3.35471,-1.0007 -6.37501,-1.9 -8.41308,-3.508 0,0 -10e-6,0 -10e-6,0 -0.62259,-0.5414 -1.07211,-0.8673 -1.07833,-1.0516 0,0 0,0 0,0 0.022,0.048 0.003,0.033 0.0118,0.1842 9.97983,-52.42566 20.79393,-104.81149 29.22392,-157.71497 3.63922,-22.82544 6.79285,-45.76844 9.18736,-68.79911 z" id="path3885" inkscape:connector-curvature="0" sodipodi:nodetypes="cssc" inkscape:path-effect="#path-effect4160" inkscape:original-d="m 837.9007,695.25244 c -0.63603,102.76093 -22.2989,200.05592 -43.19839,309.85486 -3.34174,17.5564 92.57193,19.2782 93.4116,0.9143 5.31372,-116.21325 -0.20102,-210.75697 -11.7868,-310.76916" />
      </g>
      <g id="g4036">
        <path sodipodi:nodetypes="cccccccccccccc" inkscape:connector-curvature="0" id="path4010" d="m 860.31908,369.46082 c -28.38577,-14.42891 -60.44245,-15.62822 -93.3926,-2.3152 4.72601,-7.49903 10.81452,-13.93937 16.97099,-19.00442 -16.67608,4.85851 -29.42287,9.37276 -42.56628,16.66604 4.3036,-7.84049 6.33265,-13.98401 8.10417,-20.47254 -38.84226,27.32655 -68.57506,41.63653 -111.85841,54.65961 37.74297,-35.63129 21.91205,-64.57532 36.31524,-102.92699 -10.45149,10.55176 -16.11729,19.15743 -22.91913,32.37277 5.91665,-77.56122 54.08783,-111.90134 139.49027,-106.9549 -8.34945,-6.19645 -16.98688,-11.07654 -29.58283,-14.41698 22.10425,-0.82332 39.73729,2.18094 58.78632,11.59965 -3.294,-6.48768 -6.83497,-12.09844 -12.41502,-17.92235 41.45279,15.63161 67.26142,52.93966 82.72049,98.7397 z" style="fill:#fcf6a6;fill-opacity:1;stroke:none" />
        <path style="fill:white;fill-opacity:1;stroke:none" d="m 658.04151,368.04771 c 20.49982,-16.14901 34.04862,-32.19286 43.85491,-52.45303 -5.37543,2.95028 -10.13678,6.83417 -16.17701,13.39914 19.52805,-63.58567 63.47477,-88.81325 123.54501,-72.86057 -2.69706,-4.51955 -5.36154,-8.49274 -9.31558,-13.1378 39.26391,12.99725 63.74294,41.90839 80.20793,82.3161 l -7.85474,20.56773 c -24.6391,-57.24371 -76.98291,-66.13495 -108.65,-38.66419 0.90919,-5.76886 1.22696,-9.33635 0.89217,-13.97164 -18.04722,32.37705 -41.3717,60.70782 -71.07364,85.16471 l -51.39194,19.07765 z" id="path3214-7" inkscape:connector-curvature="0" sodipodi:nodetypes="cccccccccccc" />
        <path style="fill:none;stroke:#e5c456;stroke-width:10;stroke-miterlimit:20;stroke-opacity:1;stroke-dasharray:none" d="m 860.31908,369.46082 c -28.38577,-14.42891 -60.44245,-15.62822 -93.3926,-2.3152 4.72601,-7.49903 10.81452,-13.93937 16.97099,-19.00442 -16.67608,4.85851 -29.42287,9.37276 -42.56628,16.66604 4.3036,-7.84049 6.33265,-13.98401 8.10417,-20.47254 -38.84226,27.32655 -68.57506,41.63653 -111.85841,54.65961 37.74297,-35.63129 21.91205,-64.57532 36.31524,-102.92699 -10.45149,10.55176 -16.11729,19.15743 -22.91913,32.37277 5.91665,-77.56122 54.08783,-111.90134 139.49027,-106.9549 -8.34945,-6.19645 -16.98688,-11.07654 -29.58283,-14.41698 22.10425,-0.82332 39.73729,2.18094 58.78632,11.59965 -3.294,-6.48768 -6.83497,-12.09844 -12.41502,-17.92235 41.45279,15.63161 67.26142,52.93966 82.72049,98.7397 z" id="path3190-4" inkscape:connector-curvature="0" sodipodi:nodetypes="cccccccccccccc" />
        <g id="g3995" transform="matrix(1,-6.6452063e-6,6.6452063e-6,1,-4.0004999,-5.8867894)" clip-path="url(#clipPath4032)">
          <path sodipodi:nodetypes="ccc" transform="translate(0,308.2677)" inkscape:connector-curvature="0" id="path3950" d="M 738.87633,44.937449 C 642.39236,-156.31012 639.14116,-154.09328 773.11035,21.117643 z" style="fill:#b48d50;fill-opacity:1;stroke:#7c632c;stroke-width:10;stroke-linecap:butt;stroke-linejoin:miter;stroke-miterlimit:4;stroke-opacity:1;stroke-dasharray:none;stroke-dashoffset:7.8" />
          <path sodipodi:nodetypes="cccccccc" inkscape:connector-curvature="0" d="m 693.24447,224.86046 c -1.72077,6.53537 -4.21604,12.83928 -7.47307,18.8866 m 28.39238,8.63743 c -2.76327,8.25523 -6.75821,15.99292 -11.95187,23.16318 m 32.84705,4.86855 c -4.11151,9.82928 -9.96165,18.69424 -17.48077,26.51188 m 38.32736,-0.36403 c -5.53159,12.39678 -13.61075,22.97259 -24.08048,31.58324" style="fill:none;stroke:#7c632c;stroke-width:5;stroke-miterlimit:4;stroke-opacity:1;stroke-dasharray:none" id="path3991" />
        </g>
      </g>
      <g inkscape:transform-center-y="-75.087311" inkscape:transform-center-x="-31.413323" transform="matrix(0.97438256,-0.22489694,0.22489694,0.97438256,-59.495488,215.69945)" id="g4328">
        <path sodipodi:nodetypes="cccc" inkscape:connector-curvature="0" id="path3985" d="m 826.51752,352.40398 c 32.27739,-41.78056 66.93852,-78.68437 108.35321,-117.63747 18.90158,68.8745 -17.014,127.77803 -86.49706,147.75606 z" style="fill:#b48d50;fill-opacity:1;stroke:none" />
        <path style="fill:#7c632c;fill-opacity:1;stroke:none" d="m 959.57296,220.10653 -6.40446,-7.68004 c -23.46237,19.56712 -45.69464,40.55227 -66.87378,62.50143 -7.17353,7.43227 -14.23319,14.98466 -21.15201,22.669 -7.52408,8.35656 -14.73801,17.39998 -21.28244,26.69112 -6.54443,9.29113 -12.41684,18.829 -17.34275,28.11594 7.62074,-7.28216 15.39634,-15.1939 23.14725,-23.33762 7.7509,-8.14371 15.47646,-16.52113 22.91054,-24.77697 6.83606,-7.59172 13.8168,-15.06025 20.91525,-22.41741 20.96522,-21.72328 42.93369,-42.4631 66.0824,-61.76545 z" id="path4006" inkscape:connector-curvature="0" sodipodi:nodetypes="cc" inkscape:path-effect="#path-effect4068" inkscape:original-d="m 956.37073,216.26651 c -41.91469,34.9531 -92.07582,85.35691 -129.85321,136.13747" clip-path="url(#clipPath4126)" />
        <path style="fill:#7c632c;fill-opacity:1;stroke:none" d="m 936.15188,214.80342 -9.5623,2.92618 c 5.48947,18.01576 8.80774,36.69701 8.14689,55.23079 -0.55993,15.81976 -4.08094,31.56273 -11.12506,45.52507 0,0 0,0 0,0 -5.5226,11.02161 -13.25325,20.94265 -22.41072,29.34977 -2.2212,2.0392 -4.51769,4.03323 -6.88054,5.97006 -6.96665,5.71908 -14.51717,10.9581 -22.31407,15.72996 -7.7969,4.77185 -15.8302,9.07943 -23.63241,12.98732 8.67218,-1.17185 17.75035,-3.44607 26.62114,-6.9421 8.87079,-3.49603 17.52277,-8.21997 25.33873,-14.04731 2.65974,-1.98623 5.21206,-4.1029 7.63427,-6.32639 9.98623,-9.16691 18.43953,-20.04829 24.57866,-32.2308 0,0 0,0 0,0 7.7421,-15.45878 11.61614,-32.5844 12.18413,-49.67303 0,0 0,0 0,0 0.6577,-19.93647 -2.80451,-39.7073 -8.57872,-58.49952 z" id="path4002" inkscape:connector-curvature="0" sodipodi:nodetypes="cc" inkscape:path-effect="#path-effect4100" inkscape:original-d="m 931.37073,216.26651 c 24.90158,81.3745 -6.014,141.77803 -82.99706,166.25606" clip-path="url(#clipPath4122)" />
        <path style="fill:#7c632c;fill-opacity:1;fill-rule:nonzero;stroke:none" d="m 857.10355,48.405142 c 26.16117,-17.75 44.83274,-38.107864 57,-64.06066 -7.4038,29.047204 -27.20101,49.246952 -57,64.06066 z" id="path4130" inkscape:connector-curvature="0" transform="translate(0,308.2677)" sodipodi:nodetypes="ccc" />
      </g>
    </g>
    <g id="g8135">
      <path style="fill:#f2ab54;stroke:#e97135;stroke-width:10;stroke-linecap:butt;stroke-linejoin:miter;stroke-miterlimit:4;stroke-opacity:1;stroke-dasharray:none;stroke-dashoffset:7.79999999999999982;fill-opacity:1" d="m 251.17944,765.82666 c -51.23344,51.91562 -85.04278,127.29289 -95.57655,214.29289 -2.88741,23.84755 106.90779,26.89485 106.51458,2.00002 -2.68516,-170.00002 70.35224,-190.00002 80.03292,-290.00002 z" id="path4042" inkscape:connector-curvature="0" sodipodi:nodetypes="csscc" />
      <path style="fill:#f2ab54;stroke:#e97135;stroke-width:10;stroke-linecap:butt;stroke-linejoin:miter;stroke-miterlimit:4;stroke-opacity:1;stroke-dasharray:none;stroke-dashoffset:7.79999999999999982;fill-opacity:1" d="m 376.08188,746.78145 c -6.1334,79.31005 9.35705,156.50158 27.63259,236.90099 5.25357,23.11196 117.57511,20.83196 106.47375,-2.2145 -39.21407,-81.40846 -71.9821,-165.34 -86.48862,-246.61499 z" id="path4040" inkscape:connector-curvature="0" sodipodi:nodetypes="csscc" />
      <g style="display:inline" id="g4375" transform="matrix(-1.852142,0,0,1.852142,1459.1233,118.47533)">
        <path style="fill:#fffaab;fill-opacity:1;stroke:#f4dd6c;stroke-width:5.39915419;stroke-linecap:butt;stroke-linejoin:miter;stroke-miterlimit:20;stroke-opacity:1;stroke-dasharray:none;display:inline" d="m 711.50112,456.33378 c 3.04722,-0.26966 4.90001,-5.93149 5.98528,-13.86003 8.09119,24.66283 35.58629,23.16888 36.0169,16.8714 0.17522,-2.5626 -2.19438,-4.59468 -7.61217,-6.43254 13.15696,-3.14622 19.22989,-11.98071 17.85403,-24.54939 -3.18341,4.55497 -6.20503,6.74478 -10.75975,8.56316 3.90482,-17.22724 -5.93573,-19.48506 -25.79578,-16.52201 -28.41717,4.23975 -20.01156,36.31198 -15.68851,35.92941 z" id="path4285" inkscape:connector-curvature="0" sodipodi:nodetypes="scscccss" />
        <path style="fill:none;stroke:#f4dd6c;stroke-width:2.69957709;stroke-linecap:butt;stroke-linejoin:miter;stroke-miterlimit:4;stroke-opacity:1;stroke-dasharray:none;display:inline" d="m 758.34318,434.35383 c -4.27541,10.79931 -15.29811,15.36042 -25.78554,11.26079 11.49628,-9.22389 11.36985,-19.83952 -9.55632,-24.14448" id="path4287" inkscape:connector-curvature="0" sodipodi:nodetypes="ccc" />
        <path sodipodi:nodetypes="ccc" inkscape:connector-curvature="0" id="path4358" d="m 711.27304,416.57241 c 2.70045,17.20584 22.82397,14.8326 22.29364,-2.88603 z" style="fill:#ea403f;fill-opacity:1;stroke:none" />
        <path sodipodi:nodetypes="csscc" inkscape:connector-curvature="0" id="path3979" d="m 643.27033,283.3569 c 90.81816,-122.72523 183.90364,99.95534 88.37145,133.26437 -38.65556,13.47797 -57.8093,-25.70167 -32.79763,-69.04973 15.94211,-27.62948 -3.67671,-65.35923 -46.52954,-47.97604 z" style="fill:#fffaab;fill-opacity:1;stroke:#f4dd6c;stroke-width:5.39915419;stroke-linecap:butt;stroke-linejoin:miter;stroke-miterlimit:4;stroke-opacity:1;stroke-dasharray:none" />
        <path sodipodi:nodetypes="cccsc" inkscape:connector-curvature="0" d="M 740.58647,412.4668 C 787.90423,330.78331 720.87999,198.18364 645.76602,289.45379 m 4.32782,6.41874 c 52.39218,-40.29221 93.12337,-0.9596 64.74605,49.69374 -14.29259,25.51219 -22.40286,57.57368 2.39026,73.73706" style="fill:none;stroke:#f4dd6c;stroke-width:2.69957709;stroke-linecap:butt;stroke-linejoin:miter;stroke-miterlimit:20;stroke-opacity:1;stroke-dasharray:none" id="path3983" />
      </g>
      <path style="fill:#cb9b61;fill-opacity:1;stroke:#a4794c;stroke-width:10;stroke-linecap:butt;stroke-linejoin:miter;stroke-miterlimit:4;stroke-opacity:1;stroke-dasharray:none;display:inline" d="M 447.87351,610.70255 C 329.36338,583.7334 293.53637,357.50229 408.85441,240.73358 c 5.73829,80.33925 116.90299,44.21063 48.69043,-20.4293 97.93207,20.19774 125.4227,4.00526 94.14222,205.47286 -17.08812,110.0601 -48.59935,197.48989 -103.81355,184.92541 z" id="path4722" inkscape:connector-curvature="0" sodipodi:nodetypes="sccss" />
      <path style="fill:#faba61;stroke:none;fill-opacity:1" d="m 213.97791,782.57666 c -50.68812,48.91563 -85.07843,123.54289 -100.07843,212.54289 -4.4202,26.22655 106.7842,26.78975 106.41421,2.00002 -2.10563,-141.07806 41.39988,-180.18031 73.80532,-226.6451 207.84057,46.08283 164.76933,-95.42745 241.03719,-150.35052 64.14669,-6.75172 109.36233,-36.64791 129.75332,-73.24848 2.45132,-4.39996 -2.48917,-12.59888 -17.86864,-21.37702 21.64786,-10.0778 22.61354,-23.87217 17.83514,-38.1345 -2.87671,-8.58627 -33.41403,7.68995 -35.30133,-2.23978 -27.64911,-145.47152 -222.74005,-107.0903 -191.1246,46.02549 13.40662,64.92916 -32.57026,115.90883 -79.22506,102.35211 -79.42296,-23.07833 -116.78112,2.07138 -128.99584,55.14218 -8.97231,38.98312 7.92904,68.50306 4.61136,94.27866 -7.82852,-4.40097 -16.27782,-4.77044 -20.86264,-0.34595 z" id="path5934" inkscape:connector-curvature="0" sodipodi:nodetypes="sssccscssssscs" />
      <g id="g5955">
        <path sodipodi:nodetypes="ccc" inkscape:connector-curvature="0" id="path3865" d="m 645.47636,500.65714 c 2.86232,2.74094 6.27166,2.10118 7.78254,-1.75856 1.76461,7.20214 -5.65319,9.15462 -7.78254,1.75856 z" style="fill:#e97135;stroke:none;fill-opacity:1" />
        <path sodipodi:nodetypes="cccccccccscccsc" inkscape:connector-curvature="0" d="m 489.21241,504.89208 c -9.10622,2.72868 -18.67222,2.03857 -28.40199,-4.17294 7.78395,10.54398 19.79897,13.793 29.97791,10.98931 z m 2.07924,10.91759 c -7.20758,4.18093 -17.93903,4.98814 -29.16487,0.76384 9.56962,9.68162 21.9999,10.03668 32.35241,5.18395 z M 593.32709,502.86649 C 578.15498,453.23822 527.62756,442.06514 502.26,460.9107 c -17.22256,12.79464 -23.33478,37.59527 -8.48371,66.03006 -8.09807,4.97897 -18.04169,6.84047 -29.04169,3.34047 12.5,10 28.65431,7.50598 37.30076,-1.39047 -16.34456,-29.07451 -10.93611,-50.98988 4.40498,-62.18114 22.72609,-16.57858 64.33199,-7.19521 86.88675,36.15687 z" style="fill:black;stroke:none" id="path4084" />
        <path transform="matrix(-1.530976,2.1107339,2.1107339,1.530976,892.15972,-1067.815)" d="m 595.12275,243.25 c 0,1.66801 -0.86644,3.0202 -1.93525,3.0202 -1.06881,0 -1.93525,-1.35219 -1.93525,-3.0202 0,-1.66801 0.86644,-3.0202 1.93525,-3.0202 1.06881,0 1.93525,1.35219 1.93525,3.0202 z" sodipodi:ry="3.0202038" sodipodi:rx="1.9352531" sodipodi:cy="243.25" sodipodi:cx="593.1875" id="path5717" style="fill:white;stroke:none" sodipodi:type="arc" />
        <path sodipodi:type="arc" style="fill:white;stroke:none" id="path5719" sodipodi:cx="593.1875" sodipodi:cy="243.25" sodipodi:rx="1.9352531" sodipodi:ry="2.9974217" d="m 595.12275,243.25 c 0,1.65543 -0.86644,2.99742 -1.93525,2.99742 -1.06881,0 -1.93525,-1.34199 -1.93525,-2.99742 0,-1.65543 0.86644,-2.99742 1.93525,-2.99742 1.06881,0 1.93525,1.34199 1.93525,2.99742 z" transform="matrix(-1.1766614,2.3269192,2.3269192,1.1766614,650.32164,-1098.3206)" />
        <path transform="matrix(-1.1144616,1.9897374,1.9897374,1.1144616,678.65846,-875.33222)" d="m 595.12275,243.25 c 0,1.57134 -0.86644,2.84516 -1.93525,2.84516 -1.06881,0 -1.93525,-1.27382 -1.93525,-2.84516 0,-1.57134 0.86644,-2.84516 1.93525,-2.84516 1.06881,0 1.93525,1.27382 1.93525,2.84516 z" sodipodi:ry="2.8451574" sodipodi:rx="1.9352531" sodipodi:cy="243.25" sodipodi:cx="593.1875" id="path5721" style="fill:white;stroke:none" sodipodi:type="arc" />
      </g>
      <path style="fill:#e97135;stroke:none;fill-opacity:1" d="m 628.90054,511.83797 -3.51176,9.3631 c 11.14994,4.26849 22.01439,8.8907 30.13722,16.34138 2.09534,2.00694 3.92848,3.82304 4.64638,5.72205 0,0 0,0 0,0 0.159,0.99977 0.55338,1.65943 0.36926,1.17753 -11.82533,21.37405 -31.4481,38.10624 -53.4212,49.73459 0,0 0,0 0,1e-5 -10.43972,5.51318 -21.44505,9.88536 -32.8019,13.24984 -9.69174,2.87119 -19.78048,5.5046 -29.87732,7.84287 -10.09685,2.33828 -20.19506,4.38504 -29.79884,6.22939 9.69217,1.51324 20.22482,1.97077 30.88981,1.2261 10.66498,-0.74467 21.45141,-2.69781 31.62835,-5.72492 11.92542,-3.54718 23.53586,-8.16076 34.61722,-13.97403 23.39265,-12.24745 44.3749,-30.3071 57.49964,-53.71697 1.70438,-3.87164 1.45329,-7.48657 0.0606,-10.04333 0,-10e-6 -10e-6,-10e-6 -10e-6,-10e-6 -1.82743,-3.93491 -4.48337,-6.8934 -7.11476,-9.14924 -9.86575,-8.77229 -21.79202,-14.04017 -33.32269,-18.27836 z" id="path4198" inkscape:connector-curvature="0" sodipodi:nodetypes="csc" inkscape:path-effect="#path-effect4286" inkscape:original-d="m 627.14466,516.51952 c 30.95838,11.61138 41.06655,24.42962 37.76486,30.35595 -22.51405,40.4114 -75.29136,72.6496 -150.26714,74.62326" clip-path="url(#clipPath4316)" />
      <path style="fill:#e97135;stroke:none;stroke-width:10;stroke-linecap:butt;stroke-linejoin:miter;stroke-miterlimit:4;stroke-opacity:1;stroke-dasharray:none;stroke-dashoffset:7.79999999999999982;fill-opacity:1" d="m 626.93825,526.91725 2.41282,9.70454 c 8.2892,-2.02967 16.72699,-4.73506 24.59618,-9.12904 5.20551,-2.84917 10.23882,-6.82607 13.89123,-12.31592 2.84445,-4.45593 4.315,-9.60001 4.3806,-14.7628 0,-1e-5 0,-2e-5 0,-3e-5 0.0302,-5.22073 -1.05874,-10.14782 -2.60207,-14.63845 -1.1433,-2.74807 -3.06786,-4.55513 -5.33137,-5.27686 -2.40832,-0.75331 -4.50101,-0.86527 -6.12102,-0.70455 -4.55199,0.26272 -8.64251,1.24807 -12.3528,2.06361 -10e-6,0 -2e-5,0 -4e-5,0 -3.85283,0.78174 -7.27996,1.65804 -10.32229,1.59805 0,0 -1e-5,0 -2e-5,0 -1.07405,-0.11234 -1.71966,-0.0468 -1.69831,-0.18872 0,0 0,0 0,0 0.085,0.0175 0.2057,0.14465 0.42903,0.38422 0.18157,0.29629 0.27617,0.45118 0.26656,0.53926 -3.1568,-16.72637 -8.94501,-33.16953 -18.12866,-47.79971 -10e-6,0 -10e-6,-10e-6 -10e-6,-10e-6 -7.7013,-12.24707 -17.85793,-23.03074 -29.98213,-31.13723 -11.11265,-7.41046 -23.74544,-12.46418 -36.88988,-14.79048 -12.82766,-2.2658 -26.0615,-1.9586 -38.76543,0.81884 -12.80124,2.79799 -25.03492,8.09487 -35.82376,15.54751 -1e-5,0 -1e-5,1e-5 -2e-5,1e-5 -11.2387,7.77021 -20.82051,17.85205 -28.05029,29.42735 -8.01621,12.86577 -13.07435,27.38142 -15.33754,42.23022 -2.72236,17.92384 -1.59164,36.16669 2.04435,53.67368 2.93077,14.26406 3.11387,29.11808 -0.13797,43.15794 -2.81563,12.15304 -8.12559,23.75611 -15.92771,33.27686 -6.97412,8.49429 -15.92718,15.42545 -26.02874,19.06613 -9.79691,3.5839 -20.82867,3.96029 -30.83876,1.03869 -17.15429,-5.01228 -35.04594,-8.68011 -53.32,-8.78184 -13.48229,-0.10147 -27.35894,2.08485 -39.94955,8.09548 -10.9608,5.31298 -20.30144,13.57897 -27.11057,23.55944 0,10e-6 -1e-5,3e-5 -2e-5,4e-5 -7.44275,10.97247 -12.03757,23.42366 -14.88348,35.949 -2.58005,11.25945 -3.26683,22.84112 -2.44372,34.23624 0.31363,4.30692 0.82327,8.55805 1.4423,12.76071 0.80651,5.4755 1.91983,10.9193 3.13009,16.28882 1.85632,8.36017 3.97149,16.424 4.80985,24.46634 0.81416,7.76738 0.24136,15.677 -2.39562,22.94549 2.41553,-3.03213 4.37769,-6.61114 5.80755,-10.51988 1.42986,-3.90873 2.32729,-8.14578 2.67378,-12.46653 0.71441,-8.76731 -0.36328,-17.6819 -1.64775,-26.12993 -0.81034,-5.44486 -1.70935,-10.80574 -2.48716,-16.04657 -0.59699,-4.02255 -1.07871,-8.02413 -1.35853,-12.01207 -0.74521,-10.52589 -0.13486,-21.12204 2.21443,-31.27968 2.72699,-11.68792 6.82604,-23.00683 13.39614,-32.55213 0,-10e-6 1e-5,-2e-5 2e-5,-3e-5 5.87261,-8.58826 13.90954,-15.73223 23.19943,-20.19339 1e-5,0 3e-5,-10e-6 4e-5,-10e-6 10.73306,-5.2467 23.1477,-7.10167 35.5635,-7.10141 16.93639,0.0366 33.91102,3.57203 50.56893,8.38473 12.10825,3.50543 25.21198,3.05976 37.05468,-1.24654 12.03046,-4.42906 22.4236,-12.38362 30.34895,-22.13634 8.85639,-10.88052 14.83276,-23.84391 17.92694,-37.35782 3.57561,-15.61243 3.40863,-31.88843 0.18637,-47.4239 -3.40358,-16.58613 -4.5039,-33.65002 -1.95316,-50.1368 2.10026,-13.62567 6.69074,-26.88044 13.93456,-38.44758 6.50786,-10.42008 15.15742,-19.5254 25.25355,-26.4978 10e-6,-10e-6 2e-5,-10e-6 3e-5,-2e-5 9.69743,-6.7036 20.74784,-11.4863 32.27394,-14.005 11.4393,-2.49902 23.38079,-2.78032 34.88837,-0.74115 11.77754,2.08248 23.14108,6.62672 33.08212,13.26206 10.8607,7.22768 20.04668,17.01484 27.0702,28.14773 1e-5,1e-5 1e-5,2e-5 2e-5,3e-5 8.42077,13.322 13.75482,28.61116 16.7662,44.33773 0.20482,1.21624 0.73851,2.46565 1.61829,3.67364 0.8895,1.10945 1.89806,1.92361 2.95867,2.43978 3e-5,10e-6 6e-5,2e-5 8e-5,4e-5 2.43767,1.09321 4.59559,1.39293 6.23522,1.28455 4.63712,-0.0488 8.76415,-0.99833 12.42198,-1.81783 10e-6,0 3e-5,-1e-5 4e-5,-1e-5 3.94069,-0.81561 7.50107,-1.73177 10.76242,-1.85605 1.20679,0.0207 2.01792,-0.0558 2.27632,0.13898 -0.22514,0.003 -0.34458,-0.27175 -0.8006,-0.9685 -10e-6,-1e-5 -10e-6,-2e-5 -2e-5,-3e-5 1.26323,3.88623 2.17987,7.7072 2.08505,11.32009 0,10e-6 0,2e-5 0,3e-5 -0.0553,3.37739 -0.99303,6.76031 -2.78213,9.47932 -2.25252,3.65376 -6.12188,6.5349 -10.39938,9.02862 -6.63153,3.77597 -14.23738,6.15063 -22.10032,8.13684 z" id="path4194" inkscape:connector-curvature="0" sodipodi:nodetypes="csssssc" inkscape:path-effect="#path-effect4224" inkscape:original-d="m 628.14466,531.76952 c 39.77252,-9.88857 42.63317,-26.79014 36.73136,-44.40557 -2.87671,-8.58627 -33.41403,7.68995 -35.30133,-2.23978 -27.64911,-145.47152 -222.74005,-107.0903 -191.1246,46.02549 13.40662,64.92916 -32.57026,115.90883 -79.22506,102.35211 -79.42296,-23.07833 -116.78112,2.07138 -128.99584,55.14218 -10.79276,46.89264 15.8526,80.09244 -0.32971,109.57613" clip-path="url(#clipPath4320)" />
      <path sodipodi:nodetypes="csssc" inkscape:connector-curvature="0" id="path3964" d="m 234.11195,788.2989 c 0.96861,-3.33542 1.64942,-6.84126 1.93523,-10.44996 -3.49524,-1.78308 -7.3894,-3.00178 -11.53719,-3.35053 -4.63867,-0.50549 -9.81777,0.78317 -14.00415,4.48037 -1e-5,10e-6 -1e-5,10e-6 -2e-5,2e-5 -27.31833,26.39833 -48.49723,58.53638 -64.47832,92.71732 -1e-5,0 -1e-5,1e-5 -1e-5,1e-5 -18.18605,38.86758 -29.96773,80.45062 -37.05847,122.59244 -0.4108,2.42372 -0.16359,4.93177 0.75445,7.29383 1.00499,2.394 2.44406,4.3306 4.05756,5.8011 1.90015,1.7683 3.94383,3.1271 5.96452,4.1893 2.42585,1.2943 4.90098,2.3091 7.34927,3.1402 5.93236,2.0174 11.98028,3.2338 17.93914,4.0531 6.81833,0.9492 13.67079,1.4058 20.49491,1.4842 10e-6,0 2e-5,0 3e-5,0 6.87968,0.082 13.78678,-0.2188 20.66626,-0.9853 1e-5,0 2e-5,0 3e-5,0 6.12326,-0.6744 12.32161,-1.7302 18.43352,-3.5139 10e-6,0 2e-5,0 3e-5,0 4.65343,-1.2959 9.6016,-3.2084 14.08651,-6.5617 1e-5,0 2e-5,0 3e-5,0 1.72358,-1.2772 3.38358,-2.9874 4.72782,-5.1879 1e-5,-10e-5 2e-5,-10e-5 3e-5,-10e-5 1.21536,-2.048 1.8793,-4.43245 1.87,-6.95645 -0.32441,-21.97238 0.38197,-43.92767 2.86458,-65.6475 1.92872,-16.86172 4.92378,-33.56979 9.50826,-49.79467 0,-1e-5 0,-2e-5 1e-5,-3e-5 3.66676,-12.98417 8.36866,-25.66219 14.21124,-37.77223 4.94649,-10.26362 10.74577,-20.14723 17.1163,-29.68249 8.37468,-12.53783 17.90278,-24.5392 26.94577,-37.13601 3.12531,-4.35353 6.17137,-8.86137 9.04116,-13.53475 5.59624,-9.11563 10.39977,-18.87883 13.88164,-28.91592 4.11491,-11.88337 6.32843,-24.00905 7.01739,-35.4418 -3.58807,10.89797 -7.9367,22.03746 -13.34764,32.76677 -4.56469,9.06465 -9.91372,17.86787 -15.65003,26.35861 -2.95152,4.37066 -6.00036,8.67262 -9.063,12.93489 -8.86165,12.33273 -18.45421,24.42586 -27.13915,37.41126 -6.59263,9.85918 -12.62305,20.14718 -17.80973,30.89563 -6.11158,12.67806 -11.01904,25.89855 -14.82793,39.3996 -1e-5,10e-6 -1e-5,2e-5 -1e-5,3e-5 -4.75224,16.85385 -7.85113,34.08943 -9.81978,51.37719 0,1e-5 0,1e-5 0,2e-5 -2.53663,22.25981 -3.26414,44.64281 -2.92796,66.93064 0.0361,0.52018 -0.16959,1.16763 -0.49534,1.74532 -0.39084,0.75561 -1.20886,1.51129 -2.20188,2.32449 0,0 -1e-5,0 -1e-5,0 -2.79242,2.2463 -6.64633,3.6022 -10.80376,4.8916 -1e-5,0 -2e-5,0 -3e-5,0 -5.34969,1.5793 -10.97921,2.5208 -16.72706,3.1711 0,0 -1e-5,0 -1e-5,0 -6.42992,0.7188 -12.92809,0.9996 -19.43948,0.9243 -2e-5,0 -3e-5,0 -4e-5,0 -6.46033,-0.078 -12.89156,-0.5029 -19.23123,-1.389 -5.57126,-0.7889 -11.00023,-1.8576 -16.08232,-3.6101 -2.08457,-0.7204 -4.06265,-1.5184 -5.85814,-2.49 -1.49406,-0.8244 -2.82285,-1.6673 -3.81986,-2.6411 -0.78912,-0.8036 -1.42174,-1.55005 -1.63817,-2.2305 -0.23891,-0.55011 -0.29696,-1.27347 -0.18698,-1.93977 6.99222,-41.41706 18.50569,-82.14053 36.25386,-120.01374 1e-5,-10e-6 1e-5,-2e-5 2e-5,-3e-5 15.60788,-33.28017 36.08273,-64.43318 62.36614,-89.7622 0,0 1e-5,-1e-5 2e-5,-2e-5 1.06553,-1.37106 3.68499,-1.73398 6.32521,-1.70316 3.47616,0.1977 7.04192,1.72628 10.33676,3.82752 z" style="fill:#e97135;stroke:none;fill-opacity:1" inkscape:path-effect="#path-effect4186" inkscape:original-d="m 236.85659,784.11955 c -8.375,-5.5 -17.90278,-6.34479 -22.87868,-1.54289 -50.68813,48.91562 -85.07843,123.54289 -100.07843,212.54289 -4.4202,26.22655 106.7842,26.78975 106.41421,2.00002 -2.99998,-201.00002 86.58579,-195.00002 105.58579,-298.00002" />
      <path sodipodi:nodetypes="cc" inkscape:connector-curvature="0" id="path4015" d="M 293.828,770.40017 C 507.90508,817.87583 456.2226,666.80909 541.88642,615.60551" style="fill:none;stroke:#e97135;stroke-width:10;stroke-linecap:butt;stroke-linejoin:miter;stroke-miterlimit:4;stroke-opacity:1;stroke-dasharray:none;stroke-dashoffset:7.79999999999999982" clip-path="url(#clipPath4326)" />
      <g id="g4259">
        <path sodipodi:nodetypes="csscc" inkscape:connector-curvature="0" id="path4257" d="m 374.49609,753.31698 c -14.61868,77.18873 -15.71399,167.6229 -3.09533,245.1939 3.73555,22.96362 116.31006,21.39962 106.47375,-2.21451 -32.143,-77.16582 -61.68921,-166.21868 -62.7607,-248.90789 z" style="fill:#faba61;stroke:none;fill-opacity:1" />
        <path style="fill:#e97135;stroke:none;stroke-width:10;stroke-linecap:butt;stroke-linejoin:miter;stroke-miterlimit:4;stroke-opacity:1;stroke-dasharray:none;stroke-dashoffset:7.79999999999999982;fill-opacity:1" d="m 370.01798,825.18247 c 1.89382,-23.94502 3.51229,-47.76589 4.47811,-71.86549 -7.91338,22.78381 -12.52625,46.79836 -14.44825,71.07657 -1.352,17.07802 -2.10086,34.20013 -2.31303,51.3146 -0.51935,41.31418 2.08758,82.7471 8.73082,123.60554 0.47495,2.54881 1.55646,4.71991 2.99897,6.39951 0,0 0,0 10e-6,0 1.65992,1.9523 3.52112,3.4215 5.36094,4.5189 4.86732,2.943 10.04439,4.6187 14.9656,5.7938 10e-6,0 2e-5,0 2e-5,0 6.33716,1.5675 12.73416,2.4973 19.07055,3.0806 6.97599,0.6483 13.9744,0.8842 20.9516,0.763 6.7713,-0.1147 13.57475,-0.5656 20.35384,-1.4859 5.73294,-0.7667 11.58286,-1.8865 17.34185,-3.8113 2.28062,-0.7589 4.61234,-1.7033 6.90887,-2.9467 1.83246,-0.964 3.73055,-2.2753 5.48456,-4.0693 1.4789,-1.4665 2.6858,-3.498 3.32278,-6.0225 0.49413,-2.62517 0.18087,-5.09141 -0.73512,-7.16002 -16.58121,-39.81829 -31.50396,-80.31104 -42.82443,-121.77747 -4.90145,-17.97502 -9.16023,-36.14287 -12.44286,-54.43552 -2.11665,-11.79511 -4.31966,-23.87394 -6.38467,-35.81213 -2.06501,-11.93819 -3.98779,-23.73812 -5.72433,-34.96018 -1.62193,11.26558 -2.18321,23.40272 -1.74936,35.71658 0.43386,12.31386 1.85867,24.80057 4.01071,36.82083 3.33753,18.64182 7.66332,37.09957 12.64386,55.3052 11.482,42.01963 26.54325,82.91586 43.2399,122.98787 0.17665,0.55451 0.31067,1.02653 0.19741,1.17731 0.0321,0.23976 -0.33557,0.68843 -0.80521,1.27393 -0.67913,0.7682 -1.75786,1.4494 -3.02646,2.179 -1.59172,0.8801 -3.38972,1.591 -5.30769,2.2462 -4.87598,1.6574 -10.11126,2.6333 -15.49792,3.3795 -6.32006,0.8618 -12.73164,1.2828 -19.1782,1.3961 -6.63799,0.1137 -13.27014,-0.1084 -19.85281,-0.7215 -5.99844,-0.5642 -11.90069,-1.41 -17.58632,-2.8287 0,0 -1e-5,0 -2e-5,0 -4.50036,-1.165 -8.73014,-2.4422 -12.12373,-4.5982 -10e-6,0 -10e-6,0 -2e-5,0 -1.22634,-0.7952 -2.26795,-1.5502 -2.90219,-2.37633 0,-10e-6 0,-10e-6 -1e-5,-10e-6 -0.47056,-0.63735 -0.83237,-1.22131 -0.83986,-1.63819 -6.54399,-40.20775 -9.10792,-81.06385 -8.60186,-121.87507 0.21261,-16.90614 0.95178,-33.80688 2.28395,-50.65053 z" id="path3974" inkscape:connector-curvature="0" sodipodi:nodetypes="cssc" inkscape:path-effect="#path-effect4249" inkscape:original-d="m 374.49609,753.31698 c -14.61868,77.18873 -15.71399,167.6229 -3.09533,245.1939 3.73555,22.96362 116.31006,21.39962 106.47375,-2.21451 -32.143,-77.16582 -61.68921,-166.21868 -62.7607,-248.90789" />
      </g>
      <g style="opacity:1;display:inline" id="g3946" transform="matrix(-1.7725267,0.56593765,0.56593765,1.7725267,1400.3207,-207.97816)">
        <path sodipodi:nodetypes="cccccccscc" inkscape:connector-curvature="0" id="path3939" d="m 596.82991,175.67276 c -12.95124,0.91379 -22.34552,6.54905 -30.71378,18.53832 -0.77626,-4.09009 -1.17034,-8.04528 -0.71183,-12.33309 -6.38555,7.83978 -12.00597,13.27801 -19.39074,18.38612 1.5529,-2.97691 2.76235,-6.07143 3.3835,-8.86664 -32.10704,23.19261 -69.30721,16.27997 -79.94171,-16.97056 34.11373,14.02426 32.74067,-9.87169 43.89814,-24.60703 -6.05538,2.10163 -12.28733,7.69588 -14.12852,5.07864 -4.46241,-6.34326 48.8388,-77.031958 113.41291,-2.53007 z" style="fill:#fffaab;fill-opacity:1;stroke:#f4dd6c;stroke-width:5.3743744;stroke-miterlimit:20;stroke-opacity:1;stroke-dasharray:none" />
        <path sodipodi:nodetypes="cccc" inkscape:connector-curvature="0" d="m 612.04058,151.52053 c -63.55094,-22.99199 -67.47426,32.82604 -103.65327,53.47333 M 479.0434,191.3853 c 65.55635,9.00056 21.8046,-69.05229 116.53286,-55.65689" style="fill:none;stroke:#f4dd6c;stroke-width:2.6871872;stroke-linecap:butt;stroke-linejoin:miter;stroke-miterlimit:20;stroke-opacity:1;stroke-dasharray:none" id="path3943" />
      </g>
      <g style="display:inline" id="g3966" transform="matrix(-1.9655422,0.6275641,0.6275641,1.9655422,1499.3734,-286.14782)">
        <path sodipodi:nodetypes="csscc" inkscape:connector-curvature="0" id="path3953" d="m 611.07461,207.73405 c 11.11374,60.37463 -44.49488,58.26171 -18.6364,102.0637 11.2758,19.10022 49.31989,16.09824 34.63185,-34.01007 -7.02492,-23.96556 0.0724,-52.35699 -8.2758,-78.66365 z" style="fill:#fffaab;fill-opacity:1;stroke:#f4dd6c;stroke-width:4.84661293;stroke-linecap:butt;stroke-linejoin:miter;stroke-miterlimit:20;stroke-opacity:1;stroke-dasharray:none" />
        <path sodipodi:nodetypes="cccc" inkscape:connector-curvature="0" d="m 628.79231,281.62245 c -3.08145,28.79446 -16.69334,29.72505 -37.65798,26.86169 m 32.54859,-56.58266 c -8.08165,21.86875 0.61647,43.4676 -32.87221,55.6566" style="fill:none;stroke:#f4dd6c;stroke-width:2.42330647;stroke-linecap:butt;stroke-linejoin:miter;stroke-miterlimit:20;stroke-opacity:1;stroke-dasharray:none" id="path3961" />
        <path sodipodi:nodetypes="ccc" inkscape:connector-curvature="0" id="path3964-2" d="m 589.34832,304.85393 c 8.85256,-12.55987 20.27621,0.62267 10.92135,10.51686 z" style="fill:#ea403f;fill-opacity:1;stroke:none" />
        <path sodipodi:nodetypes="ccccccc" inkscape:connector-curvature="0" id="path3955" d="m 558.12177,325.63653 c 2.72435,-41.57986 57.06629,-28.96504 41.108,13.67314 3.34946,-0.60477 6.83559,-1.69654 9.80394,-3.4445 -5.53418,20.01518 -27.24652,24.11369 -34.65168,4.85393 -1.17854,4.20459 -1.31287,9.40145 -0.46068,13.42697 -10.82843,-10.07319 -13.23432,-21.07878 -8.8427,-34.73034 -2.60551,1.54076 -5.04078,3.57791 -6.95688,6.2208 z" style="fill:#fffaab;fill-opacity:1;stroke:#f4dd6c;stroke-width:4.84661293;stroke-linecap:butt;stroke-linejoin:miter;stroke-miterlimit:20;stroke-opacity:1;stroke-dasharray:none" />
        <path sodipodi:nodetypes="ccc" inkscape:connector-curvature="0" id="path3957" d="m 602.02248,325.48314 c -2.68941,7.86399 -11.58378,10.83049 -19.82023,8.35956 1.01671,9.61412 7.34197,15.20357 18.12327,15.77561" style="fill:none;stroke:#f4dd6c;stroke-width:2.42330647;stroke-linecap:butt;stroke-linejoin:miter;stroke-miterlimit:20;stroke-opacity:1;stroke-dasharray:none" />
      </g>
      <g id="g4133" transform="translate(1,-1)">
        <path sodipodi:nodetypes="cscc" inkscape:connector-curvature="0" id="path4131" d="M 455.84165,553.59321 C 371.4723,512.26126 378.92341,403.2313 387.51287,396.35026 c 7.1142,-5.69921 60.86523,17.88513 83.65283,65.76699 -18.16281,25.0264 -21.42281,58.72324 -15.32405,91.47596 z" style="fill:#faba61;fill-opacity:1;stroke:none" />
        <path inkscape:original-d="M 455.84165,553.59321 C 371.4723,512.26126 378.92341,403.2313 387.51287,396.35026 c 7.1142,-5.69921 60.86523,17.88513 83.65283,65.76699" inkscape:path-effect="#path-effect4104" style="fill:#e97135;fill-opacity:1;stroke:none" d="m 411.10286,524.4993 c 5.83059,7.06032 12.69799,13.23427 20.28128,18.18514 7.58329,4.95086 15.88319,8.67677 24.45751,10.90877 -7.01891,-5.40701 -13.5609,-11.02918 -19.72155,-16.91519 -6.16065,-5.886 -11.93864,-12.03726 -17.30958,-18.54297 -2.23216,-2.70378 -4.342,-5.50732 -6.31844,-8.40158 -9.99675,-14.59557 -16.80381,-31.38355 -20.80014,-48.79522 -3.19771,-14.02468 -4.71229,-28.42475 -3.99698,-42.67997 0.24929,-4.76003 0.67669,-9.3866 1.6986,-13.74384 0.3446,-1.42946 0.67935,-2.70569 1.14384,-3.7578 0,0 0,0 0,-1e-5 0.49994,-0.74919 0.43666,-1.0361 0.10157,-0.50413 0,0 -10e-6,10e-6 -10e-6,10e-6 -0.58094,0.30163 -0.68367,0.44841 -0.46105,0.30611 0.32482,-0.0795 0.86896,-0.0424 1.59946,-0.002 2.1645,0.16093 4.49752,0.85159 7.00469,1.66947 7.63924,2.55564 14.91524,6.55394 21.95393,11.10628 5.3061,3.45093 10.37708,7.26562 15.16113,11.40838 3.43956,2.97849 6.8644,6.07132 10.22624,9.2673 4.58706,4.36558 9.05129,8.92859 13.2591,13.63694 4.2078,4.70836 8.157,9.5631 11.78324,14.4721 -1.40585,-5.96571 -3.73424,-12.04185 -6.84787,-17.89036 -3.11363,-5.8485 -7.00987,-11.46616 -11.43694,-16.59424 -3.23454,-3.75137 -6.74815,-7.25654 -10.43711,-10.45137 -5.13095,-4.44366 -10.56696,-8.53292 -16.25625,-12.2321 -7.44744,-4.86774 -15.47505,-9.23002 -24.20875,-12.19821 -2.80192,-0.97328 -5.90861,-1.82604 -9.32569,-2.15578 -1.16111,-0.12575 -2.53286,-0.13231 -4.08228,0.0934 -10e-6,0 -10e-6,0 -2e-5,0 -1.10649,0.0741 -2.55211,0.61585 -4.18402,1.75942 -1.86217,1.75532 -2.78121,3.33666 -3.04852,4.38744 0,0 0,10e-6 0,10e-6 -0.79295,1.89787 -1.30882,3.72962 -1.68722,5.42439 -1.1957,5.22555 -1.70481,10.43818 -1.94374,15.50207 -0.75284,15.28683 0.84149,30.59528 4.23618,45.4051 4.20977,18.48096 11.5143,36.40686 22.29258,52.20896 2.15099,3.14492 4.44361,6.18904 6.86681,9.12331 z" id="path3976" inkscape:connector-curvature="0" sodipodi:nodetypes="csc" />
        <path sodipodi:nodetypes="ccc" inkscape:connector-curvature="0" id="path4087" d="m 407.83851,434.65507 c 6.60445,28.98828 18.60825,52.68214 39.17653,76.20711 -24.51182,-18.51315 -37.09585,-46.77928 -39.17653,-76.20711 z" style="fill:#e97135;fill-opacity:1;fill-rule:nonzero;stroke:none" />
      </g>
      <g id="AJ" transform="matrix(-0.16187328,-0.01208646,-0.0322929,0.18098242,430.3271,557.68088)">
        <path id="path4490" d="m 812.05251,628.20393 c 63.85516,-50.68604 98.59506,0.84962 72.77626,58.34123 -15.49751,34.50904 -59.54338,71.66117 -102.84904,43.9064 -56.61397,22.72521 -90.57319,-45.19125 -84.20389,-92.62431 9.18941,-68.43516 71.31967,-65.30874 114.27667,-9.62332 z M 613.57195,815.8584 c 41.35978,-57.86219 83.51044,-49.42301 96.83442,10.8262 9.08284,41.0708 -2.64478,111.5818 -58.34123,107.6606 -53.14758,25.7544 -100.69419,-14.5887 -115.47967,-69.7689 -16.09146,-60.05419 17.69433,-85.08835 76.98648,-48.7179 z m 386.73645,110.0665 c -14.97897,55.9023 -77.012,85.6148 -120.29124,51.7252 -53.45984,3.2029 -82.36837,-53.0664 -77.58788,-98.6388 6.6958,-63.8328 60.4876,-67.4797 95.03012,-9.6233 68.60887,-40.688 119.2606,-4.7119 102.849,56.5369 z" inkscape:connector-curvature="0" style="fill:#ea403f" />
        <path id="path4492" d="m 813.85691,599.33396 c -28.10673,1.92239 -36.12992,-33.02424 -33.08008,-55.33393 30.74208,9.75149 35.76504,28.10909 33.08008,55.33393 z M 553.42631,745.4879 c 23.45232,6.08855 44.74498,28.94333 52.92812,51.72531 -14.19963,0.0915 -41.5351,2.07432 -52.92812,-51.72531 z m 58.34123,64.9573 c -3.45187,-33.32297 2.02754,-56.30451 13.23204,-77.58783 9.62332,0.8019 15.03643,5.41311 16.23933,13.83343 -22.22094,19.93255 -29.47137,63.7544 -29.47137,63.7544 z m 235.77094,-260.43065 12.63054,16.23934 c -17.41197,11.56079 -38.80847,26.65258 -43.90631,47.5151 3.18197,-21.47552 13.43933,-52.05992 31.27577,-63.75444 z M 901.66951,854.953 c 2.20993,-35.8934 1.03588,-62.09778 -11.42763,-89.61696 5.21262,-7.61851 12.63063,-10.02432 22.25386,-7.21751 3.6088,35.28547 0,67.56367 -10.82623,96.83447 z m 6.01461,2.4059 c 4.27604,-30.9672 14.29762,-44.448 34.28298,-64.3559 10.76945,34.8994 -5.16036,52.8342 -34.28298,64.3559 z" inkscape:connector-curvature="0" style="fill:#60bd50" />
      </g>
      <g id="g8112">
        <g transform="matrix(0.22032345,-0.70282096,0.70282096,0.22032345,76.572982,891.18421)" id="g8003">
          <path id="path8005" d="M 57.613417,174.94953 C 14.292567,175.37684 13.230437,57.87211 60.933077,0 c 32.0593,29.04591 27.67931,54.86466 38.78432,79.99099 23.625583,53.45561 17.219913,94.37336 -42.10398,94.95854 z" inkscape:connector-curvature="0" style="fill:#f0586b" />
          <path id="path8007" d="m 78.312897,6.50861 c 11.25805,28.28308 8.14733,48.96022 8.14358,64.55529 -0.0105,43.89868 23.700033,45.79427 25.490543,67.24463 C 119.78227,88.25756 105.6433,13.8108 78.312897,6.50861 z M 57.613417,174.94953 C 1.324427,174.45546 8.150177,72.1435 43.172857,1.12094 c 24.59081,29.91949 18.59744,56.78238 29.40009,86.73363 14.89106,41.2867 0.9738,87.23481 -14.95953,87.09496 z" inkscape:connector-curvature="0" style="fill:#f698a4" />
          <path id="path8009" d="M 57.613417,174.94953 C -25.979247,175.77408 -2.366493,62.78537 27.688907,3.78208 c 23.52825,39.08232 6.85079,46.04638 8.42957,96.06219 1.60939,50.98589 8.15165,63.79778 21.49494,75.10526 z" inkscape:connector-curvature="0" style="fill:#f0586b" />
        </g>
        <g id="g8019" transform="matrix(0.27537173,-0.68313259,0.68313259,0.27537173,115.30855,848.09886)">
          <path style="fill:#c5c5c5;fill-opacity:1" inkscape:connector-curvature="0" d="M 57.613417,174.94953 C 14.292567,175.37684 13.230437,57.87211 60.933077,0 c 32.0593,29.04591 27.67931,54.86466 38.78432,79.99099 23.625583,53.45561 17.219913,94.37336 -42.10398,94.95854 z" id="path8021" />
          <path style="fill:#e8e8e8;fill-opacity:1" inkscape:connector-curvature="0" d="m 78.312897,6.50861 c 11.25805,28.28308 8.14733,48.96022 8.14358,64.55529 -0.0105,43.89868 23.700033,45.79427 25.490543,67.24463 C 119.78227,88.25756 105.6433,13.8108 78.312897,6.50861 z M 57.613417,174.94953 C 1.324427,174.45546 8.150177,72.1435 43.172857,1.12094 c 24.59081,29.91949 18.59744,56.78238 29.40009,86.73363 14.89106,41.2867 0.9738,87.23481 -14.95953,87.09496 z" id="path8023" />
          <path style="fill:#c5c5c5;fill-opacity:1" inkscape:connector-curvature="0" d="M 57.613417,174.94953 C -25.979247,175.77408 -2.366493,62.78537 27.688907,3.78208 c 23.52825,39.08232 6.85079,46.04638 8.42957,96.06219 1.60939,50.98589 8.15165,63.79778 21.49494,75.10526 z" id="path8025" />
        </g>
        <g id="Zuid-Holland" transform="matrix(-0.01821487,0.73632056,0.73632056,0.01821487,79.494919,926.91886)">
          <path style="fill:#b4f058;fill-opacity:1" inkscape:connector-curvature="0" d="M 57.613417,174.94953 C 14.292567,175.37684 13.230437,57.87211 60.933077,0 c 32.0593,29.04591 27.67931,54.86466 38.78432,79.99099 23.625583,53.45561 17.219913,94.37336 -42.10398,94.95854 z" id="path7942" />
          <path style="fill:#d2f698;fill-opacity:1" inkscape:connector-curvature="0" d="m 78.312897,6.50861 c 11.25805,28.28308 8.14733,48.96022 8.14358,64.55529 -0.0105,43.89868 23.700033,45.79427 25.490543,67.24463 C 119.78227,88.25756 105.6433,13.8108 78.312897,6.50861 z M 57.613417,174.94953 C 1.324427,174.45546 8.150177,72.1435 43.172857,1.12094 c 24.59081,29.91949 18.59744,56.78238 29.40009,86.73363 14.89106,41.2867 0.9738,87.23481 -14.95953,87.09496 z" id="path7944" />
          <path style="fill:#b4f058;fill-opacity:1" inkscape:connector-curvature="0" d="M 57.613417,174.94953 C -25.979247,175.77408 -2.366493,62.78537 27.688907,3.78208 c 23.52825,39.08232 6.85079,46.04638 8.42957,96.06219 1.60939,50.98589 8.15165,63.79778 21.49494,75.10526 z" id="path7946" />
        </g>
        <g transform="matrix(0.10789134,-0.72860086,0.72860086,0.10789134,87.838043,945.26661)" id="g8027">
          <path id="path8029" d="M 57.613417,174.94953 C 14.292567,175.37684 13.230437,57.87211 60.933077,0 c 32.0593,29.04591 27.67931,54.86466 38.78432,79.99099 23.625583,53.45561 17.219913,94.37336 -42.10398,94.95854 z" inkscape:connector-curvature="0" style="fill:#3e3e3e;fill-opacity:1" />
          <path id="path8031" d="m 78.312897,6.50861 c 11.25805,28.28308 8.14733,48.96022 8.14358,64.55529 -0.0105,43.89868 23.700033,45.79427 25.490543,67.24463 C 119.78227,88.25756 105.6433,13.8108 78.312897,6.50861 z M 57.613417,174.94953 C 1.324427,174.45546 8.150177,72.1435 43.172857,1.12094 c 24.59081,29.91949 18.59744,56.78238 29.40009,86.73363 14.89106,41.2867 0.9738,87.23481 -14.95953,87.09496 z" inkscape:connector-curvature="0" style="fill:#616161;fill-opacity:1" />
          <path id="path8033" d="M 57.613417,174.94953 C -25.979247,175.77408 -2.366493,62.78537 27.688907,3.78208 c 23.52825,39.08232 6.85079,46.04638 8.42957,96.06219 1.60939,50.98589 8.15165,63.79778 21.49494,75.10526 z" inkscape:connector-curvature="0" style="fill:#3e3e3e;fill-opacity:1" />
        </g>
        <g transform="matrix(-0.35789878,0.64374543,0.64374543,0.35789878,173.11974,714.53609)" id="g8011">
          <path id="path8013" d="M 57.613417,174.94953 C 14.292567,175.37684 13.230437,57.87211 60.933077,0 c 32.0593,29.04591 27.67931,54.86466 38.78432,79.99099 23.625583,53.45561 17.219913,94.37336 -42.10398,94.95854 z" inkscape:connector-curvature="0" style="fill:#b558f0;fill-opacity:1" />
          <path id="path8015" d="m 78.312897,6.50861 c 11.25805,28.28308 8.14733,48.96022 8.14358,64.55529 -0.0105,43.89868 23.700033,45.79427 25.490543,67.24463 C 119.78227,88.25756 105.6433,13.8108 78.312897,6.50861 z M 57.613417,174.94953 C 1.324427,174.45546 8.150177,72.1435 43.172857,1.12094 c 24.59081,29.91949 18.59744,56.78238 29.40009,86.73363 14.89106,41.2867 0.9738,87.23481 -14.95953,87.09496 z" inkscape:connector-curvature="0" style="fill:#d298f6;fill-opacity:1" />
          <path id="path8017" d="M 57.613417,174.94953 C -25.979247,175.77408 -2.366493,62.78537 27.688907,3.78208 c 23.52825,39.08232 6.85079,46.04638 8.42957,96.06219 1.60939,50.98589 8.15165,63.79778 21.49494,75.10526 z" inkscape:connector-curvature="0" style="fill:#b558f0;fill-opacity:1" />
        </g>
        <path style="fill:#f6f8df;fill-opacity:1;stroke:#ecf1be;stroke-width:10;stroke-miterlimit:4;stroke-opacity:1;stroke-dasharray:none" d="M 518.56762,1002.7559 C 442.19264,892.87777 365.86905,812.75748 259.12667,755.74801 c -52.0971,79.74917 -78.01191,162.56224 -79.96063,263.50389 120.74645,21.5745 230.62443,17.7569 339.40158,-16.496 z" id="path6905" inkscape:connector-curvature="0" sodipodi:nodetypes="cccc" />
      </g>
    </g>
  </g>
</svg>
