<svg xmlns="http://www.w3.org/2000/svg" viewBox="-16 -36 32 72">
  <path d="m-5.6-14.8c0-3.7-8.8-3.2-8.8-8.2s6.7-8.4 11.9-4.4h5c5.2-4 11.9-.6 11.9 4.4s-8.8 4.5-8.8 8.2z" fill="#d2fff9"/>
  <path d="m6.3-14.6c-4.9 6.6-6.7 15.7-3.8 24.4 11.5 5.9 4.6 23.3-2.5 23.3s-14-17.4-2.5-23.3c2.9-8.7 1.1-17.8-3.8-24.4l3.9-4.7c-1.7-18.8 6.5-18.8 4.8 0z" fill="#d2fff9" stroke="#9ad7ea"/>
  <path d="m-5.3 16.4c2.8-4.5 7.8-4.5 10.6 0-3.8-3.3-6.8-3.3-10.6 0z" fill="#9ad7ea"/>
  <path d="m0-23.4c-1.6-2.3-6.2-2.1-6.2 1.7s4.3 4.3 6.2 10.1c1.9-5.8 6.2-6.3 6.2-10.1s-4.6-4-6.2-1.7z" fill="#ea77d4"/>
  <path d="m8.8-21.7a1 .6 0 0 1-2 0 1 .6 0 0 1 2 0zM13.8-19.1a1 .6 0 0 1-2 0 1 .6 0 0 1 2 0z" transform="rotate(-28)" fill="#ffe9ff"/>
  <g>
    <path d="m-7.1-23.7 2.8-1.6c.7 1.6-1.3 3.4-2.8 1.6zm2.1 5.5c1.4.9 2.3 1.9 2.3 3.5 0 4.4-6 4-7.3 1.8s1.3-4.6 3.9-3.5z" fill="#d2fff9"/>
    <path d="m -5.8,-23.8 c 0,0 0.143871,-0.137489 0.205094,-0.448562 0.02194,-0.111474 0.027356,-0.256886 -0.037379,-0.401107 -0.049019,-0.109206 -0.1364746,-0.211708 -0.2686242,-0.282273 -0.1067752,-0.05701 -0.2359187,-0.08917 -0.379079,-0.08913 -0.2254384,5.9e-5 -0.510642,0.08354 -0.7483267,0.296877 -0.042,0.0377 -0.082673,0.07975 -0.1207329,0.126298 -0.050663,0.06196 -0.1021683,0.137929 -0.1453752,0.228541 -0.060185,0.126218 -0.1055766,0.283908 -0.1055767,0.469356 0,0.189994 0.065933,0.370795 0.1812802,0.530747 0.1035287,0.143563 0.2461716,0.269605 0.4146975,0.373238 0.3049423,0.187522 0.7210548,0.316025 1.159194,0.30847 0.2078977,-0.0036 0.4239642,-0.03819 0.6322325,-0.115994 0.204627,-0.07644 0.4010359,-0.194428 0.5709906,-0.363406 0.1684212,-0.167453 0.3051496,-0.379346 0.3989486,-0.637409 C -3.9493333,-24.061107 -3.9,-24.359225 -3.9,-24.7 c 0,-0.379342 -0.1174348,-0.714516 -0.3178241,-0.995624 -0.2019104,-0.283242 -0.4821454,-0.504021 -0.7970782,-0.667511 -0.6610088,-0.343147 -1.4954127,-0.448716 -2.2692995,-0.359909 -0.8887409,0.101987 -1.6868904,0.452027 -2.2662072,0.987024 -0.3394143,0.313448 -0.591467,0.677488 -0.762731,1.072557 -0.208939,0.48198 -0.28686,0.984079 -0.28686,1.463463 0,0.444192 0.07597,0.96251 0.347784,1.506395 0.20675,0.413697 0.5070157,0.803918 0.91182,1.184291 0.7200924,0.676633 1.6454126,1.211423 2.6451638,1.795933 1.0144696,0.593116 1.8556814,1.10536 2.4891004,1.738054 0.3472152,0.346818 0.5847558,0.686304 0.7421601,1.026812 0.2054887,0.444526 0.2639716,0.870731 0.2639717,1.248514 0,0.428281 -0.062245,0.853693 -0.2198082,1.243474 -0.127006,0.314188 -0.3131474,0.598214 -0.5685229,0.841098 -0.4368403,0.415474 -1.0780698,0.707167 -1.8894034,0.793218 -0.7170515,0.07605 -1.5095864,-0.01857 -2.2171675,-0.280968 -0.3359007,-0.124563 -0.6409103,-0.282977 -0.8970804,-0.467649 -0.2537131,-0.182902 -0.4512108,-0.385504 -0.5861868,-0.59761 -0.2777137,-0.436407 -0.3291711,-0.892055 -0.2304892,-1.310561 0.1056094,-0.447886 0.3835627,-0.855612 0.7585059,-1.155567 0.4230594,-0.338447 0.9338899,-0.515367 1.4454372,-0.534535 0.6829855,-0.02559 1.3054996,0.225294 1.8208488,0.580707 l 0.567733,-0.823212 c -0.6380096,-0.440007 -1.4694654,-0.792636 -2.4260262,-0.756793 -0.7161044,0.02683 -1.4350108,0.274823 -2.0326871,0.752964 -0.5251102,0.420088 -0.9434652,1.012881 -1.1071202,1.706934 -0.15743,0.667655 -0.06949,1.401809 0.360136,2.076939 0.21595,0.339349 0.5098472,0.630265 0.8450634,0.871922 0.3393637,0.244647 0.7265917,0.442925 1.1341696,0.594069 0.852653,0.316192 1.8003286,0.430055 2.6703325,0.337782 0.988593,-0.10485 1.8486379,-0.469118 2.4730972,-1.063033 0.3650392,-0.347184 0.6293731,-0.752812 0.8064764,-1.190932 C -2.2752408,-13.619687 -2.2,-14.178864 -2.2,-14.7 c -10e-8,-0.49464 -0.089952,-1.074913 -0.3891531,-1.672187 -0.2273011,-0.453746 -0.5522528,-0.872565 -0.9797151,-1.268111 -0.7539994,-0.697702 -1.7183827,-1.227565 -2.7358996,-1.771321 -1.038137,-0.554777 -1.9066084,-1.016146 -2.5798362,-1.600942 -0.3699127,-0.321323 -0.6320603,-0.64126 -0.8100548,-0.970007 -0.2328757,-0.430109 -0.3053411,-0.847935 -0.3053412,-1.217431 0,-0.415288 0.067543,-0.833089 0.2373588,-1.22482 0.1387187,-0.319994 0.3424776,-0.614766 0.6192996,-0.870411 0.4743442,-0.438055 1.1489499,-0.742379 1.9275434,-0.831726 0.6841027,-0.0785 1.3925922,0.02024 1.9244508,0.296341 0.2502987,0.129937 0.4497398,0.293592 0.5849528,0.483271 C -4.5753181,-25.163469 -4.5,-24.949191 -4.5,-24.7 c 0,0.283431 -0.041062,0.510477 -0.1065621,0.690682 -0.065265,0.179559 -0.1555552,0.31495 -0.2580827,0.416888 -0.1039318,0.103334 -0.2255954,0.177398 -0.3579163,0.226828 -0.1358082,0.05073 -0.2831499,0.07557 -0.4326105,0.07815 -0.3210935,0.0055 -0.624901,-0.09073 -0.8345561,-0.219655 -0.1142855,-0.07028 -0.193408,-0.145245 -0.2423339,-0.21309 C -6.7847824,-23.793308 -6.8,-23.853752 -6.8,-23.9 c 0,-0.0852 0.02045,-0.155103 0.047158,-0.211112 0.019554,-0.04101 0.043477,-0.07664 0.06829,-0.106991 0.018578,-0.02272 0.038631,-0.04405 0.059742,-0.06395 0.1232002,-0.116128 0.2706682,-0.174919 0.3797983,-0.196873 0.06651,-0.01338 0.1216705,-0.01424 0.162718,-0.01022 0.049277,0.0048 0.092279,0.0176 0.1302038,0.04507 0.05516,0.03996 0.096373,0.108498 0.1223863,0.198112 C -5.7581509,-23.999478 -5.8,-23.8 -5.8,-23.8 Z" fill="#9ad7ea"/><!--inkscape:original-d="m-5.8-23.8c.5-1.4-1.3-1.1-1.3-.1s2.9 1.7 2.9-.8-6.1-2.6-6.1 1.5 7.6 4.1 7.6 8.5-5.9 4-7.3 1.8 1.6-5.1 4.5-3.1" powerstroke CubicBezierSmooth ".8,.3|3,.3|4,.5|6,.5" start_linecap_type="zerowidth"-->
    <path d="m-5.7-15.4-1.5-1.8h2.6z" fill="#d2fff9"/>
    <path d="m -7,-14.1 c 0,0 0.1634544,-0.138079 0.2460307,-0.478299 0.02889,-0.11903 0.043279,-0.27729 -0.015584,-0.43564 -0.044516,-0.119756 -0.1317898,-0.238208 -0.2734432,-0.316061 -0.1143433,-0.06284 -0.2521139,-0.09192 -0.400218,-0.0794 -0.052707,0.0045 -0.1064487,0.01416 -0.1604845,0.02933 -0.1571165,0.0441 -0.3740199,0.147639 -0.5643877,0.365482 C -8.3450238,-14.81212 -8.5,-14.504717 -8.5,-14.1 c 10e-8,0.201878 0.053997,0.393676 0.1490222,0.565975 0.091978,0.166774 0.2205724,0.312155 0.3705546,0.431372 0.3009201,0.239193 0.6927899,0.377653 1.0804232,0.377653 0.2048285,0 0.4068848,-0.0385 0.5948357,-0.118496 0.2032399,-0.08651 0.3802733,-0.217316 0.525621,-0.385025 0.1643654,-0.189652 0.2788142,-0.415247 0.3541511,-0.656159 0.095596,-0.305697 0.1253921,-0.626383 0.1253922,-0.915319 -1e-7,-0.417254 -0.093333,-0.897073 -0.4193339,-1.387391 -0.2462626,-0.370388 -0.5991612,-0.708899 -1.066983,-1.033895 -0.8370831,-0.581523 -1.8933764,-1.025855 -3.0533548,-1.557678 -1.1677163,-0.53537 -2.1522953,-1.041304 -2.8839503,-1.698925 -0.403413,-0.362594 -0.680957,-0.730276 -0.865254,-1.106689 C -13.830001,-22.07706 -13.9,-22.563391 -13.9,-22.999999 c 0,-0.805829 0.195702,-1.933568 1.030158,-3.062106 0.619622,-0.837991 1.525223,-1.574579 2.663205,-2.051798 1.1399121,-0.478027 2.3817744,-0.640472 3.5930397,-0.492892 1.6384658,0.199629 2.9216846,0.920755 3.8087419,1.603107 l 0.6097108,-0.792624 c -0.9828944,-0.756073 -2.4310319,-1.575733 -4.2975081,-1.803143 -1.3795749,-0.168086 -2.7967434,0.01653 -4.1007093,0.563357 -1.300763,0.545481 -2.351747,1.393808 -3.080547,2.379454 -0.987807,1.335934 -1.226091,2.685254 -1.226091,3.656643 0,0.554423 0.101873,1.203126 0.445125,1.856843 0.260927,0.49693 0.63514,0.948126 1.128497,1.361671 0.868633,0.728114 1.987136,1.243698 3.16605,1.73545 1.2140013,0.506387 2.20609,0.883218 2.9966449,1.389197 0.4295424,0.27492 0.7272123,0.546638 0.9267673,0.825089 0.2583769,0.36053 0.3369157,0.71402 0.3369158,1.03175 0,0.251642 -0.026448,0.50729 -0.098045,0.736244 -0.055837,0.178554 -0.1347806,0.326742 -0.2349115,0.442278 -0.087568,0.10104 -0.1906525,0.176308 -0.3071917,0.225912 -0.1086959,0.04627 -0.230221,0.07057 -0.3598516,0.07057 -0.2507706,0 -0.5112667,-0.0917 -0.7070768,-0.247347 -0.095648,-0.07603 -0.1693261,-0.162264 -0.2185079,-0.25144 C -7.8756214,-13.914513 -7.9,-14.007345 -7.9,-14.1 c 0,-0.243321 0.09109,-0.41379 0.1837115,-0.51978 0.1023509,-0.117123 0.2120182,-0.165029 0.2747123,-0.182618 0.022065,-0.0062 0.042065,-0.01037 0.059791,-0.0132 0.045673,-0.0073 0.084848,-0.0066 0.1048602,-0.0056 0.027997,0.0014 0.058285,0.005 0.093354,0.03198 0.050653,0.03892 0.092365,0.112058 0.1215255,0.20772 C -6.9809428,-14.3154 -7,-14.1 -7,-14.1 Z" fill="#9ad7ea"/><!--inkscape:original-d="m-7-14.1c.5-1.5-1.2-1.2-1.2 0s2.6 1.9 2.6-.7c0-3.7-8.8-3.2-8.8-8.2s6.7-8.4 11.9-4.4" powerstroke CubicBezierSmooth ".55,.3|2,.3|3,.5|4,.5" start_linecap_type="zerowidth"-->
  </g>
  <g transform="scale(-1 1)">
    <path d="m-7.1-23.7 2.8-1.6c.7 1.6-1.3 3.4-2.8 1.6zm2.1 5.5c1.4.9 2.3 1.9 2.3 3.5 0 4.4-6 4-7.3 1.8s1.3-4.6 3.9-3.5z" fill="#d2fff9"/>
    <path d="m -5.8,-23.8 c 0,0 0.143871,-0.137489 0.205094,-0.448562 0.02194,-0.111474 0.027356,-0.256886 -0.037379,-0.401107 -0.049019,-0.109206 -0.1364746,-0.211708 -0.2686242,-0.282273 -0.1067752,-0.05701 -0.2359187,-0.08917 -0.379079,-0.08913 -0.2254384,5.9e-5 -0.510642,0.08354 -0.7483267,0.296877 -0.042,0.0377 -0.082673,0.07975 -0.1207329,0.126298 -0.050663,0.06196 -0.1021683,0.137929 -0.1453752,0.228541 -0.060185,0.126218 -0.1055766,0.283908 -0.1055767,0.469356 0,0.189994 0.065933,0.370795 0.1812802,0.530747 0.1035287,0.143563 0.2461716,0.269605 0.4146975,0.373238 0.3049423,0.187522 0.7210548,0.316025 1.159194,0.30847 0.2078977,-0.0036 0.4239642,-0.03819 0.6322325,-0.115994 0.204627,-0.07644 0.4010359,-0.194428 0.5709906,-0.363406 0.1684212,-0.167453 0.3051496,-0.379346 0.3989486,-0.637409 C -3.9493333,-24.061107 -3.9,-24.359225 -3.9,-24.7 c 0,-0.379342 -0.1174348,-0.714516 -0.3178241,-0.995624 -0.2019104,-0.283242 -0.4821454,-0.504021 -0.7970782,-0.667511 -0.6610088,-0.343147 -1.4954127,-0.448716 -2.2692995,-0.359909 -0.8887409,0.101987 -1.6868904,0.452027 -2.2662072,0.987024 -0.3394143,0.313448 -0.591467,0.677488 -0.762731,1.072557 -0.208939,0.48198 -0.28686,0.984079 -0.28686,1.463463 0,0.444192 0.07597,0.96251 0.347784,1.506395 0.20675,0.413697 0.5070157,0.803918 0.91182,1.184291 0.7200924,0.676633 1.6454126,1.211423 2.6451638,1.795933 1.0144696,0.593116 1.8556814,1.10536 2.4891004,1.738054 0.3472152,0.346818 0.5847558,0.686304 0.7421601,1.026812 0.2054887,0.444526 0.2639716,0.870731 0.2639717,1.248514 0,0.428281 -0.062245,0.853693 -0.2198082,1.243474 -0.127006,0.314188 -0.3131474,0.598214 -0.5685229,0.841098 -0.4368403,0.415474 -1.0780698,0.707167 -1.8894034,0.793218 -0.7170515,0.07605 -1.5095864,-0.01857 -2.2171675,-0.280968 -0.3359007,-0.124563 -0.6409103,-0.282977 -0.8970804,-0.467649 -0.2537131,-0.182902 -0.4512108,-0.385504 -0.5861868,-0.59761 -0.2777137,-0.436407 -0.3291711,-0.892055 -0.2304892,-1.310561 0.1056094,-0.447886 0.3835627,-0.855612 0.7585059,-1.155567 0.4230594,-0.338447 0.9338899,-0.515367 1.4454372,-0.534535 0.6829855,-0.02559 1.3054996,0.225294 1.8208488,0.580707 l 0.567733,-0.823212 c -0.6380096,-0.440007 -1.4694654,-0.792636 -2.4260262,-0.756793 -0.7161044,0.02683 -1.4350108,0.274823 -2.0326871,0.752964 -0.5251102,0.420088 -0.9434652,1.012881 -1.1071202,1.706934 -0.15743,0.667655 -0.06949,1.401809 0.360136,2.076939 0.21595,0.339349 0.5098472,0.630265 0.8450634,0.871922 0.3393637,0.244647 0.7265917,0.442925 1.1341696,0.594069 0.852653,0.316192 1.8003286,0.430055 2.6703325,0.337782 0.988593,-0.10485 1.8486379,-0.469118 2.4730972,-1.063033 0.3650392,-0.347184 0.6293731,-0.752812 0.8064764,-1.190932 C -2.2752408,-13.619687 -2.2,-14.178864 -2.2,-14.7 c -10e-8,-0.49464 -0.089952,-1.074913 -0.3891531,-1.672187 -0.2273011,-0.453746 -0.5522528,-0.872565 -0.9797151,-1.268111 -0.7539994,-0.697702 -1.7183827,-1.227565 -2.7358996,-1.771321 -1.038137,-0.554777 -1.9066084,-1.016146 -2.5798362,-1.600942 -0.3699127,-0.321323 -0.6320603,-0.64126 -0.8100548,-0.970007 -0.2328757,-0.430109 -0.3053411,-0.847935 -0.3053412,-1.217431 0,-0.415288 0.067543,-0.833089 0.2373588,-1.22482 0.1387187,-0.319994 0.3424776,-0.614766 0.6192996,-0.870411 0.4743442,-0.438055 1.1489499,-0.742379 1.9275434,-0.831726 0.6841027,-0.0785 1.3925922,0.02024 1.9244508,0.296341 0.2502987,0.129937 0.4497398,0.293592 0.5849528,0.483271 C -4.5753181,-25.163469 -4.5,-24.949191 -4.5,-24.7 c 0,0.283431 -0.041062,0.510477 -0.1065621,0.690682 -0.065265,0.179559 -0.1555552,0.31495 -0.2580827,0.416888 -0.1039318,0.103334 -0.2255954,0.177398 -0.3579163,0.226828 -0.1358082,0.05073 -0.2831499,0.07557 -0.4326105,0.07815 -0.3210935,0.0055 -0.624901,-0.09073 -0.8345561,-0.219655 -0.1142855,-0.07028 -0.193408,-0.145245 -0.2423339,-0.21309 C -6.7847824,-23.793308 -6.8,-23.853752 -6.8,-23.9 c 0,-0.0852 0.02045,-0.155103 0.047158,-0.211112 0.019554,-0.04101 0.043477,-0.07664 0.06829,-0.106991 0.018578,-0.02272 0.038631,-0.04405 0.059742,-0.06395 0.1232002,-0.116128 0.2706682,-0.174919 0.3797983,-0.196873 0.06651,-0.01338 0.1216705,-0.01424 0.162718,-0.01022 0.049277,0.0048 0.092279,0.0176 0.1302038,0.04507 0.05516,0.03996 0.096373,0.108498 0.1223863,0.198112 C -5.7581509,-23.999478 -5.8,-23.8 -5.8,-23.8 Z" fill="#9ad7ea"/>
    <path d="m-5.7-15.4-1.5-1.8h2.6z" fill="#d2fff9"/>
    <path d="m -7,-14.1 c 0,0 0.1634544,-0.138079 0.2460307,-0.478299 0.02889,-0.11903 0.043279,-0.27729 -0.015584,-0.43564 -0.044516,-0.119756 -0.1317898,-0.238208 -0.2734432,-0.316061 -0.1143433,-0.06284 -0.2521139,-0.09192 -0.400218,-0.0794 -0.052707,0.0045 -0.1064487,0.01416 -0.1604845,0.02933 -0.1571165,0.0441 -0.3740199,0.147639 -0.5643877,0.365482 C -8.3450238,-14.81212 -8.5,-14.504717 -8.5,-14.1 c 10e-8,0.201878 0.053997,0.393676 0.1490222,0.565975 0.091978,0.166774 0.2205724,0.312155 0.3705546,0.431372 0.3009201,0.239193 0.6927899,0.377653 1.0804232,0.377653 0.2048285,0 0.4068848,-0.0385 0.5948357,-0.118496 0.2032399,-0.08651 0.3802733,-0.217316 0.525621,-0.385025 0.1643654,-0.189652 0.2788142,-0.415247 0.3541511,-0.656159 0.095596,-0.305697 0.1253921,-0.626383 0.1253922,-0.915319 -1e-7,-0.417254 -0.093333,-0.897073 -0.4193339,-1.387391 -0.2462626,-0.370388 -0.5991612,-0.708899 -1.066983,-1.033895 -0.8370831,-0.581523 -1.8933764,-1.025855 -3.0533548,-1.557678 -1.1677163,-0.53537 -2.1522953,-1.041304 -2.8839503,-1.698925 -0.403413,-0.362594 -0.680957,-0.730276 -0.865254,-1.106689 C -13.830001,-22.07706 -13.9,-22.563391 -13.9,-22.999999 c 0,-0.805829 0.195702,-1.933568 1.030158,-3.062106 0.619622,-0.837991 1.525223,-1.574579 2.663205,-2.051798 1.1399121,-0.478027 2.3817744,-0.640472 3.5930397,-0.492892 1.6384658,0.199629 2.9216846,0.920755 3.8087419,1.603107 l 0.6097108,-0.792624 c -0.9828944,-0.756073 -2.4310319,-1.575733 -4.2975081,-1.803143 -1.3795749,-0.168086 -2.7967434,0.01653 -4.1007093,0.563357 -1.300763,0.545481 -2.351747,1.393808 -3.080547,2.379454 -0.987807,1.335934 -1.226091,2.685254 -1.226091,3.656643 0,0.554423 0.101873,1.203126 0.445125,1.856843 0.260927,0.49693 0.63514,0.948126 1.128497,1.361671 0.868633,0.728114 1.987136,1.243698 3.16605,1.73545 1.2140013,0.506387 2.20609,0.883218 2.9966449,1.389197 0.4295424,0.27492 0.7272123,0.546638 0.9267673,0.825089 0.2583769,0.36053 0.3369157,0.71402 0.3369158,1.03175 0,0.251642 -0.026448,0.50729 -0.098045,0.736244 -0.055837,0.178554 -0.1347806,0.326742 -0.2349115,0.442278 -0.087568,0.10104 -0.1906525,0.176308 -0.3071917,0.225912 -0.1086959,0.04627 -0.230221,0.07057 -0.3598516,0.07057 -0.2507706,0 -0.5112667,-0.0917 -0.7070768,-0.247347 -0.095648,-0.07603 -0.1693261,-0.162264 -0.2185079,-0.25144 C -7.8756214,-13.914513 -7.9,-14.007345 -7.9,-14.1 c 0,-0.243321 0.09109,-0.41379 0.1837115,-0.51978 0.1023509,-0.117123 0.2120182,-0.165029 0.2747123,-0.182618 0.022065,-0.0062 0.042065,-0.01037 0.059791,-0.0132 0.045673,-0.0073 0.084848,-0.0066 0.1048602,-0.0056 0.027997,0.0014 0.058285,0.005 0.093354,0.03198 0.050653,0.03892 0.092365,0.112058 0.1215255,0.20772 C -6.9809428,-14.3154 -7,-14.1 -7,-14.1 Z" fill="#9ad7ea"/>
  </g>
</svg>
