<svg xmlns="http://www.w3.org/2000/svg" viewBox="0 0 100 116">
  <path d="M23.4 11.4c1.1 1 1.8 2.6 2.5 4.3.7-3 .8-5.3.6-8.6 5 4.6 10 9.8 15 15.4-1.4-3.7-2.9-7-5.6-9.7 4.5 1.6 9.4 4.9 12.9 8.2l-3.9-6.4c8 6.4 18.6 11.2 25.4 20.9-.6-2-1.5-4.2-2.7-6.4 9.1 8.5 12.1 20 10.7 30.6 1.9-2.8 2.5-5.6 3.4-8.7 6.9 26.7-16.3 27.9-20 47.8C47 90.2 26 101.6 9.5 59.9c2.1 1.9 3.8 3.6 5.9 5.2-5.7-8.1-4.2-28.5 5-44.5-.1 4.2.3 7.9.8 12.4 1.3-8 4.6-12.4 2.2-21.6z" fill="red"/>
  <path d="M51.7 34.4c-1.2-2.3-1.8-5 .1-4.1 1.9.9.9 3.1-.1 4.1zM39.1 23.3c3.2 4.4 6.1 9.3 4.8 14.7-5.2-4.3-3.5-6.9-4.8-14.7zm-3.6 14.2c2.3-5.4 1.1-10.5-2.5-13.8.6 5.2-.9 9.8 2.5 13.8zM23 49.6c-4-5-3.4-10.1 1.8-12.8-.3 4.7-1.6 8.3-1.8 12.8zm56.6 7.8c1-2.2 1.5-4.2 2.1-6.4 6.9 26.7-16.3 27.9-20 47.8C47 90.2 26 101.6 9.5 59.9c2.1 1.9 3.8 3.6 5.9 5.2-.9-1.4-1.6-2.9-2.1-4.6-.3-13.8 2.7-17.7 4.4-26.1 1.4 7.1.6 14.5 1.4 19.7l8.8 7.4c-4.2-12.8 1-20.5 2-30.6 6.4 10.6 5 27.1 13.8 33.1-4-6.8-4-18.7-4.2-27.6 2.7 4.4 6.5 9.6 7.8 15 1.6-13.4-3.2-17.2-2-27.8C48 36.3 53.9 38.4 58 50c-.2-8.1-.9-18-6.2-23.6 11.9 5.5 7.5 17.8 14 32.9 4.5-3.6 5.4-9.4 5.6-16 4.8 9.5 2.4 19.2-.1 29 4.8-4.6 7.4-9.4 8.3-14.9z" fill="#ff7200"/>
  <path d="M24.5 77c-2.9-1.4-5.8-3.9-6.9-8.2 3.8 1.6 6.5 3.8 6.9 8.2zm30.8-16c-3.5-3.1-4-8.4-3.3-13 4.7 5.6 2.7 9.3 3.3 13zm18 19c-4.9 5.2-10 10.3-11.6 18.8-7.5-4.3-16.2-3.7-25.2-6.9-7.4-7.8-11-12.1-10.7-20-6.9-6.7-9.7-12.1-7.5-19.8 1.1 8.3 7.1 12.7 14.1 16l-1.2-22.9c3.6 12.7 6 25 13.7 30.6-.7-4-2.3-7.8-4.6-11.1 7.8 4.2 5.8 11.3 11.4 15.4-4-10.6-4-17.5-8.1-29.7 4.8 7.3 12.5 12.5 14 20.7l6.4-5.8c1.7 4.5 2.6 8.5 2.3 13.7 2.4-3.3 6.4-4.7 8.8-7.6-.4 3.1-.9 5.5-1.8 8.6z" fill="#fff047"/>
  <path d="M36.5 84.8c-2.8.4-5.6-3.2-6.9-6.7 3.3 1.1 5 3.6 6.9 6.7zm35.2-3.1c-4.4 4.6-8.6 9.7-10 17.1-5.7-3.2-11.4-3.6-18-5-6.2-5.1-5.8-14.9-7.2-22.4 5.9 6.4 12.1 12.1 17.6 19 .3-7.3 0-13.9.1-20.9 2.3 5.9 5.8 11 6.5 17.3 1.1-4.1 2.3-7.4 3.6-11.3.4 3.7.5 6.9.6 10.6 2.5-2.5 4.7-4 6.8-4.4z" fill="#fff"/>
  <path d="M23.4 11.4c1.1 1 1.8 2.6 2.5 4.3.7-3 .8-5.3.6-8.6 5 4.6 10 9.8 15 15.4-1.4-3.7-2.9-7-5.6-9.7 4.5 1.6 9.4 4.9 12.9 8.2l-3.9-6.4c8 6.4 18.6 11.2 25.4 20.9-.6-2-1.5-4.2-2.7-6.4 9.1 8.5 12.1 20 10.7 30.6 1.9-2.8 2.5-5.6 3.4-8.7 6.9 26.7-16.3 27.9-20 47.8C47 90.2 26 101.6 9.5 59.9c2.1 1.9 3.8 3.6 5.9 5.2-5.7-8.1-4.2-28.5 5-44.5-.1 4.2.3 7.9.8 12.4 1.3-8 4.6-12.4 2.2-21.6z" fill="none" stroke="#662626" stroke-miterlimit="20"/>
  <path d="M57.2 81.2c1.9.5 5-1.1 6.2-5.7 6.8-3.9 5.9-6 4.3-6.2 10.3-9.6 5.1-19.9 2.5-20.4-.1-10.3-5-15-5.7-14.5-.7.5.9 6.1-.7 13.1-.3-7.7-3.5-15.5-7.3-17.9 4 23 2.6 34.7.7 51.6zm-7.7 2.6c-1.2 1.5-4.6 1.9-8.5-1.7-8.2.3-8.6-2.2-7.2-3.1-15-3.4-15.3-14.7-13.4-16.5-5.8-10.2-3.6-15.6-2.8-15.5.8.1 2.8 6.2 7.9 11.2-4-6.8-5.4-15.9-3.5-19.8 9.1 21.8 16.8 32.1 27.5 45.4z" fill="#f5f4c0" stroke="#c7c68c" stroke-width=".6" stroke-miterlimit="20"/>
  <path d="M25.9 51.7l3.4.7c-.2 25 16.6 28.8 25.3 24.3s16.1-15.7.7-35.1l1.7-2c-.6-1.4-1.7-2.9-3.6-3.3l-3.6 4c7.6 9.7 11.6 22.5 2.1 27.3-9.5 4.8-20.7-2.7-19.2-19-1.5-2-4-2.5-6.8-2.4-.5 1.9-.6 3.7 0 5.5z" fill="#fffc00" stroke="#a4a200" stroke-width=".8"/>
  <path d="M54 43.3a.6.6 0 0 0 1.2 0 .6.6 0 0 0-1.2 0zm3.3 5.5a.6.6 0 0 0 1.2 0 .6.6 0 0 0-1.2 0zm2.8 9a.6.6 0 0 0 1.2 0 .6.6 0 0 0-1.2 0zm0 7.2a.6.6 0 0 0 1.2 0 .6.6 0 0 0-1.2 0zm-4.9 5.8a.6.6 0 0 0 1.2 0 .6.6 0 0 0-1.2 0zm-16.9-.6a.6.6 0 0 0 1.2 0 .6.6 0 0 0-1.2 0zm-6.4-8.5a.6.6 0 0 0 1.2 0 .6.6 0 0 0-1.2 0zm-1.3-9.2a.6.6 0 0 0 1.2 0 .6.6 0 0 0-1.2 0zm15.1 20.3a.6.6 0 0 0 1.2 0 .6.6 0 0 0-1.2 0z" fill="#a4a200"/>
  <path d="M61.2 16.3l-5.9-2.2 5-3.8.2-6.3 5.2 3.6 6-1.7-1.8 6 3.5 5.2-6.2.2-3.9 4.8zM15.7 94.8l.9 4.5 3.3-3.1 4.6.6-1.9-4.2 2-4.2-4.6.5-3.4-3.1-.9 4.5-4 2.2zm14.7-55.2l-1.7-5.2-5.1-2 4.4-3.2.4-5.5 4.4 3.2 5.3-1.3-1.7 5.2 2.9 4.6h-5.4zm6.7 4.8l1.3-3.9-2.3-3.4h4.1l2.6-3.2 1.3 3.9 3.8 1.4-3.3 2.5-.3 3.9-3.2-2.3zm.6 7.2l3.1.9 1.2 2.9 1.8-2.6 3.1-.3-1.9-2.4.7-3.1-3 1-2.8-1.6.2 3.2zm9.4 7.7l.4-2.2-1.3-1.8 2.2-.2 1.3-1.9.9 2 2.2.7-1.7 1.6v2.1l-1.9-1.1z" fill="#790000" stroke="#ba0000" stroke-width=".8"/>
  <path d="M72.4 28.5l5.1 1.8 1.9 5.1 3.4-4.3 5.4-.2-3.1-4.5 1.5-5.3-5.3 1.6-4.5-3-.1 5.5zm-34.1 84.6l-.9-6.1-5.4-3.2 5.6-2.8 1.4-6 4.4 4.4 6.2-.5-2.8 5.5 2.4 5.7-6.1-1z" fill="#ff9907" stroke="#ffb54c" stroke-width=".8"/>
  <path d="M81.3 43.2l3.6 1.7 1.1 3.8 2.7-2.9 4 .2-2-3.5 1.4-3.7-3.8.7-3.2-2.4-.5 3.9z" fill="#fff007" stroke="#fff889" stroke-width=".8"/>
</svg>
