<svg xmlns="http://www.w3.org/2000/svg" viewBox="-14 -25 22 50">
  <path d="M-.8-22.1C3.5-5.3-5.7.3-4.1 17.9-13.5 2.4 0-6.8-4-19.7-7.4-9.4-12.5-1.9-12.5 8c0 9.9 6.3 18.7 19.2 15C-7.7 12.9 15.2-3.9-.8-22.1z" fill="#e1a696"/>
  <path d="M-.8-22.1C17.9-5.9-5.1 10.3 6.7 23c-17.2-5.9 4-21.7-7.5-45.1z" fill="#c5d459"/>
  <path d="M-10.3-16.7c4.4-.8 6.1-3.1 6.8-7.6.7 4.6 2.5 6.9 6.6 7.6-4.1.8-5.8 3.3-6.5 7.7-.7-4.4-2.5-6.9-6.9-7.7z" fill="#fff"/>
</svg>
