<svg xmlns="http://www.w3.org/2000/svg" viewBox="-30 -30 60 100">
  <path fill="#d2e4f1" d="M9 13 22 42 2 41 15 70-22 31-2 32-15 3Z"/>
  <path fill="#f4eb50" d="M-14 6-27 0-14-6-30-30-6-14 0-27 6-14 30-30 14-6 27 0 14 6 30 30 6 14 0 27-6 14-30 30Z"/>
</svg>
