<svg xmlns="http://www.w3.org/2000/svg" xmlns:inkscape="http://www.inkscape.org/namespaces/inkscape" viewBox="-32 -38 64 76">
  <path d="M26.5-1.1l-7.4 11.9 4.6.3-5.4 10.4 4.1.9L14 32.5l3.3-8.2-3.4-.1L18.6 14l-4.5-.1 4.1-17.2zm-53.7-2.2l8 12.4-4.9.2 5.4 10.4-4.1.9 8.4 10.2-3.2-8.2 3.4-.1-4.8-10.3 4.5.1-3.6-15.6z" fill="#cbd803"/>
  <inkscape:path-effect effect="powerstroke" id="A" offset_points="0.28,0.5 | 3,0.5" interpolator_type="CubicBezierSmooth" start_linecap_type="zerowidth"/>
  <inkscape:path-effect effect="powerstroke" id="B" offset_points="0.28,0.5 | 5,0.5" interpolator_type="CubicBezierSmooth" start_linecap_type="zerowidth"/>
  <path d="M -16.7,-25.1 C -34.4,-25.1 -38.5,2.9 -12.8,5 L 15.9,1.6 C 31.2,12.2 39.8,-25.2 17.4,-21.8 V -23 C 17.5,-38 -6,-41.7 -11.7,-24.5 Z" fill="#5c6387"/>
  <path d="M -13.5,-18.2 C -13.5,-18.2 -13.739286,-18.982155 -15.097201,-19.439278 -15.578407,-19.601269 -16.205133,-19.67509 -16.896663,-19.476371 -17.028754,-19.438414 -17.162207,-19.390674 -17.295822,-19.332176 -18.129613,-18.967129 -18.942619,-18.236613 -19.419284,-17.165843 -19.8592,-16.177627 -20.014735,-14.847322 -19.394613,-13.529323 -18.84794,-12.367434 -17.701125,-11.243405 -15.665744,-10.52827 -14.661569,-10.175452 -13.616156,-10.140672 -12.59109,-10.371599 -11.605476,-10.593639 -10.648582,-11.059178 -9.7786148,-11.704719 -8.1236129,-12.932778 -6.741227,-14.853063 -6.2031778,-16.950775 -5.9432569,-17.964137 -5.8800343,-19.028029 -6.1020348,-20.058428 -6.3206569,-21.07314 -6.8143463,-22.045436 -7.6505903,-22.884259 -8.4717988,-23.707999 -9.610341,-24.390156 -11.112589,-24.864313 -12.594067,-25.331914 -14.437528,-25.599999 -16.699985,-25.6 -21.229388,-25.6 -24.947926,-23.817608 -27.538003,-21.032702 -30.086812,-18.292168 -31.512019,-14.609362 -31.524997,-10.839221 -31.53793,-7.0822286 -30.146579,-3.253983 -27.092198,-0.2335395 -24.025771,2.7988158 -19.335096,4.9676699 -12.840722,5.4983389 L -12.790858,5.5024134 -12.741178,5.4965279 C -2.767909,4.3150257 6.967532,3.1616982 15.772673,2.1185804 17.723109,3.4331921 19.57509,4.0000429 21.276448,3.9984373 23.08553,3.99673 24.689637,3.3530061 26.039712,2.3370117 27.442857,1.2810782 28.583401,-0.18333755 29.446078,-1.8076616 30.353707,-3.516627 30.965721,-5.4217045 31.280741,-7.3180636 31.615518,-9.3333543 31.616984,-11.341008 31.295878,-13.181259 30.949909,-15.163999 30.234056,-16.936535 29.170016,-18.383691 27.998674,-19.976785 26.44103,-21.130313 24.563753,-21.806361 22.44048,-22.570996 19.988913,-22.698687 17.324967,-22.294338 L 17.475033,-21.305662 C 20.023891,-21.692542 22.299179,-21.559014 24.224932,-20.86551 25.918826,-20.255502 27.312658,-19.221683 28.364353,-17.791317 29.323954,-16.486204 29.987309,-14.863072 30.310762,-13.009366 30.61107,-11.288308 30.611971,-9.3944955 30.294259,-7.4819364 29.995216,-5.6817553 29.415084,-3.881269 28.562906,-2.2767127 27.751481,-0.74888841 26.69816,0.58996771 25.438419,1.5379837 24.233258,2.4449227 22.835173,2.9969658 21.275505,2.9984377 19.768034,2.9998604 18.057336,2.4863513 16.184745,1.1890006 L 16.029151,1.0812035 15.841178,1.1034721 C 7.001841,2.1506409 -2.7827792,3.3097945 -12.808963,4.4975654 -19.095158,3.9748354 -23.531411,1.8813045 -26.389052,-0.9445855 -29.242246,-3.7660768 -30.537063,-7.3322271 -30.525003,-10.835779 -30.512868,-14.360853 -29.178953,-17.799951 -26.805747,-20.351673 -24.404264,-22.933798 -20.950877,-24.6 -16.700001,-24.6 -14.513031,-24.599999 -12.775206,-24.340458 -11.413584,-23.910687 -10.035356,-23.475675 -9.0460621,-22.867638 -8.3587847,-22.178241 -7.6625144,-21.479824 -7.2591954,-20.681369 -7.0796044,-19.847815 -6.895777,-18.994594 -6.9433833,-18.089848 -7.1718222,-17.199226 -7.6484131,-15.341124 -8.888472,-13.610464 -10.37451,-12.507781 -11.149799,-11.932494 -11.980828,-11.534141 -12.810863,-11.347151 -13.668961,-11.153838 -14.522196,-11.186411 -15.334257,-11.47173 -17.162408,-12.114054 -18.076252,-13.076186 -18.489763,-13.955055 -18.964691,-14.964458 -18.849449,-15.987002 -18.505716,-16.759157 -18.131888,-17.598916 -17.503435,-18.149635 -16.894758,-18.416125 -16.797166,-18.458853 -16.700893,-18.495489 -16.606461,-18.526754 -16.120703,-18.687582 -15.66381,-18.71323 -15.26569,-18.679862 -14.131997,-18.584843 -13.5,-18.2 -13.5,-18.2 Z" fill="#38426d" inkscape:original-d="M -13.5,-18.2 C -18,-21.9 -22.9,-13.6 -15.5,-11 -8.1,-8.4 1,-25.1 -16.7,-25.1 -34.4,-25.1 -38.5,2.9 -12.8,5 L 15.9,1.6 C 31.2,12.2 39.8,-25.2 17.4,-21.8" inkscape:path-effect="#B"/>
  <path d="M 10.7,-20.1 C 10.7,-20.1 10.88294,-20.38081 10.98189,-21.082052 11.071876,-21.719772 11.075583,-22.94195 10.206946,-24.044647 10.117402,-24.15832 10.018908,-24.269753 9.9109906,-24.377435 9.27692,-25.010122 8.3146964,-25.561971 7.0852065,-25.648759 6.0136508,-25.724398 4.7319702,-25.428608 3.6467552,-24.468175 2.6998796,-23.630174 1.9245703,-22.293468 1.7032337,-20.356774 1.5936008,-19.397483 1.7639305,-18.458535 2.1597878,-17.584694 2.5436123,-16.737416 3.1357294,-15.959533 3.8730806,-15.289367 5.3050634,-13.987861 7.3078339,-13.075813 9.3832108,-12.901749 10.408077,-12.815793 11.452376,-12.910353 12.446034,-13.232587 13.440772,-13.55517 14.376347,-14.103376 15.182414,-14.912809 15.992548,-15.726325 16.658582,-16.790226 17.128261,-18.124179 17.602915,-19.472262 17.874558,-21.088515 17.899956,-22.993334 17.953088,-26.978303 16.386453,-30.127804 14.085741,-32.341548 11.614054,-34.719803 8.3339934,-36.004624 5.1115974,-36.322584 1.4153318,-36.687299 -2.1224865,-35.802393 -4.9807776,-34.05805 -8.7032979,-31.786288 -10.965436,-28.306043 -12.174617,-24.657286 L -11.225383,-24.342714 C -10.073053,-27.81992 -7.9372468,-31.08228 -4.4598474,-33.20445 -1.7850101,-34.836837 1.5358263,-35.670554 5.0133973,-35.327417 8.0500604,-35.027784 11.10804,-33.818948 13.392384,-31.620952 15.505247,-29.587957 16.949288,-26.699933 16.900044,-23.006666 16.875785,-21.18718 16.616592,-19.682012 16.18502,-18.45629 15.758954,-17.246203 15.167199,-16.314699 14.473836,-15.618441 13.784607,-14.926335 12.988012,-14.459613 12.137559,-14.183819 11.285025,-13.907351 10.37563,-13.822025 9.4667884,-13.898251 7.6147364,-14.053584 5.8180458,-14.872941 4.5456695,-16.029383 3.8942469,-16.621451 3.3904254,-17.291512 3.070681,-17.997337 2.7427053,-18.721331 2.6094414,-19.479131 2.6967662,-20.243226 2.8929283,-21.959642 3.5655883,-23.060955 4.3094964,-23.719326 5.1695113,-24.480454 6.1772369,-24.710363 7.0147935,-24.651241 7.9768707,-24.58333 8.7203201,-24.15283 9.2046574,-23.669554 9.2874424,-23.586951 9.3647027,-23.502796 9.4368039,-23.417853 10.849055,-21.754059 10.7,-20.1 10.7,-20.1 Z" fill="#38426d" inkscape:original-d="M 10.7,-20.1 C 11.5,-26.3 3,-27.3 2.2,-20.3 1.4,-13.3 17.2,-8 17.4,-23 17.6,-38 -6,-41.7 -11.7,-24.5" inkscape:path-effect="#A"/>
  <path d="M-18.1-4.9c8 0 13.1-2.6 18.1-8 5 5.4 10.1 8 18.1 8-.9 17.4-6.9 30.5-18.1 40.7-11.2-10.2-17.2-23.3-18.1-40.7z" fill="#ccae18" stroke="#695903" stroke-width="2.4"/>
  <path d="M7.4.7l1-1.2-2.5-2.7L2.3.1C11.5 8.6 7.8 18.3 0 18.3S-11.5 8.6-2.3.1l-3.6-3.3-2.5 2.7 1 1.2c-7.9 10.9-3.2 21.5 7.4 21.5 10.6 0 15.3-10.6 7.4-21.5z" fill="#9ca1be"/>
  <path d="M-7 2.6a.5.5 0 1 1 0 1 .5.5 0 1 1 0-1zm-2.2 5.3a.5.5 0 1 1 0 1 .5.5 0 1 1 0-1zm.2 5.6a.5.5 0 1 1 0 1 .5.5 0 1 1 0-1zm3.3 4.6a.5.5 0 1 1 0 1 .5.5 0 1 1 0-1zM7 2.6a.5.5 0 1 0 0 1 .5.5 0 1 0 0-1zm2.2 5.3a.5.5 0 1 0 0 1 .5.5 0 1 0 0-1zM9 13.5a.5.5 0 1 0 0 1 .5.5 0 1 0 0-1zm-3.3 4.6a.5.5 0 1 0 0 1 .5.5 0 1 0 0-1z"/>
</svg>
