<svg xmlns="http://www.w3.org/2000/svg" xmlns:inkscape="http://www.inkscape.org/namespaces/inkscape" xmlns:sodipodi="http://sodipodi.sourceforge.net/DTD/sodipodi-0.dtd" xmlns:xlink="http://www.w3.org/1999/xlink" height="1080" viewBox="0 0 1920 1080" width="1920">
  <defs>
    <inkscape:path-effect effect="powerstroke" id="path-effect1263" interpolator_type="CubicBezierSmooth" offset_points="0.43,3" start_linecap_type="zerowidth" />
    <inkscape:path-effect effect="powerstroke" id="path-effect1261" interpolator_type="CubicBezierSmooth" offset_points="0.27,3 | 6,3" start_linecap_type="zerowidth" />
    <inkscape:path-effect effect="powerstroke" end_linecap_type="zerowidth" id="path-effect56" interpolator_type="CubicBezierSmooth" offset_points="0.22,3 | 5.78,3" start_linecap_type="zerowidth" />
    <inkscape:path-effect effect="powerstroke" end_linecap_type="zerowidth" id="path-effect37" interpolator_type="CubicBezierSmooth" offset_points="0.21,3 | 3.72,3" start_linecap_type="zerowidth" />
    <inkscape:path-effect effect="powerstroke" end_linecap_type="zerowidth" id="path-effect25" interpolator_type="CubicBezierSmooth" offset_points="0.34,3 | 3.66,3" start_linecap_type="zerowidth" />
    <inkscape:path-effect effect="powerstroke" end_linecap_type="zerowidth" id="path-effect897" interpolator_type="CubicBezierSmooth" offset_points="0.4,3 | 1.8,3" start_linecap_type="zerowidth" />
    <clipPath id="clipPath5611">
      <use xlink:href="#path5570" />
    </clipPath>
    <clipPath id="clipPath5599">
      <use xlink:href="#path5544" />
    </clipPath>
    <clipPath id="clipPath5424">
      <use xlink:href="#path5414" />
    </clipPath>
    <clipPath id="clipPath5410">
      <use xlink:href="#path5400" />
    </clipPath>
    <clipPath id="clipPath6029-3">
      <use xlink:href="#path5983-2" />
    </clipPath>
    <clipPath id="clipPath5979-7">
      <use xlink:href="#path1456" />
    </clipPath>
    <clipPath id="clipPath6156-3">
      <use xlink:href="#path1390" />
    </clipPath>
    <clipPath id="clipPath6146-6">
      <use xlink:href="#path1396" />
    </clipPath>
    <clipPath id="clipPath5738">
      <use xlink:href="#path5726" />
    </clipPath>
    <clipPath id="clipPath5934">
      <use xlink:href="#path5827" />
    </clipPath>
    <clipPath id="clipPath6031">
      <use xlink:href="#path5956" />
    </clipPath>
    <clipPath id="clipPath5378">
      <path d="m 718.29258,1414.7084 -381.33374,-2130.12487 597.46527,-78.806 630.81979,2154.76497 z" />
    </clipPath>
  </defs>
  <g inkscape:groupmode="layer" inkscape:label="Drawing">
    <g>
      <path d="m 496.60811,847.66113 c -17.89551,6.65716 -32.7864,5.96481 -54.26988,-5.86797 23.738,62.23233 135.1233,21.27608 92.26321,-9.93409 94.49829,8.22556 161.02535,-69.30882 102.16203,-129.96746 69.68031,-29.65659 67.35193,-76.5149 21.36881,-122.77823 38.88395,10.06612 67.43538,35.48566 87.79994,73.66306 l 32.08621,-19.60547 c -109.22296,-211.22376 -285.9993,-165.62214 -255.86795,-54.21278 -75.12668,-56.85301 -161.86428,50.09073 -50.65317,128.88751 -49.87642,21.35531 -46.95209,71.0981 -8.06038,89.44974 -9.44278,21.67051 -4.67546,39.3101 33.17118,50.36569 z" style="fill:#eb458b;stroke-width:6;stroke-miterlimit:20;stroke:#bb1c76" />
      <path d="m 571.30078,669.34766 c -8.7974,-0.17914 -15.94524,1.853 -20.5,5.24609 -4.55476,3.39309 -6.58971,8.01952 -5.40625,13.58789 2.08896,9.82892 13.33854,17.91772 29.94727,21.07031 16.25345,3.08516 37.48284,1.37385 59.58593,-7.72265 -22.68443,-22.88149 -46.31584,-31.82914 -63.62695,-32.18164 z m -64.57617,101.13086 c -14.76912,0.35898 -34.27071,10.19324 -41.87109,26.31445 13.44743,5.99495 29.41872,6.0637 41.50781,2.49023 6.19093,-1.83 11.34681,-4.60646 14.60547,-7.89062 3.25865,-3.28416 4.64117,-6.94834 3.58398,-10.97852 -0.92265,-3.51732 -3.08173,-5.99002 -6.17383,-7.63476 -3.09209,-1.64474 -7.13588,-2.41057 -11.65234,-2.30078 z" style="fill:#eb458b;stroke-width:4;stroke-miterlimit:20;stroke:#bb1c76" sodipodi:type="inkscape:offset" inkscape:original="M 571.32031 668.34766 C 553.39831 667.98272 541.89991 676.54999 544.41602 688.38867 C 548.84686 709.23654 591.17399 721.29597 636.76367 701.89258 C 613.58776 678.0098 589.24231 668.7126 571.32031 668.34766 z M 506.70117 769.47852 C 491.22497 769.85469 470.91284 780.13955 463.4375 797.29492 C 491.27369 810.42985 530.12632 797.72947 525.51758 780.16016 C 523.53277 772.59371 515.98689 769.25281 506.70117 769.47852 z " inkscape:radius="-1" />
      <path d="m 769.71018,637.6938 c -119.30324,-211.05497 -276.23705,-99.88749 -196.29236,-2.149 -109.71154,-54.49556 -144.98038,93.95329 1.55352,117.4877 -38.38525,17.05982 -33.67917,59.59512 9.29468,75.08856" style="fill:none;stroke-width:3;stroke-miterlimit:20;stroke:#bb1c76" />
    </g>
    <path d="m 1021.4702,407.77939 c -11.7749,-31.98223 -42.96387,-62.80334 -50.74342,-60.38561 -8.51814,2.64724 -50.82978,72.24983 12.3574,137.87344 z" fill="#f5b7d0" stroke="#e880b0" stroke-width="6" />
    <path d="m 912.86195,733.21458 c -37.93076,84.60288 -71.86909,182.35687 -51.54825,239.0573 8.16597,22.78517 104.69129,19.50598 93.59463,-1.96031 -28.96387,-56.0301 -20.45605,-162.32008 1.56847,-248.41905 z m -178.62589,49.6368 c -15.14413,-5.5912 -30.7772,-7.369 -39.51731,4.01001 -26.97861,35.12423 -60.48513,93.40142 -74.14099,142.26806 -10.68411,38.23241 79.02628,66.42451 82.2125,26.73879 4.59208,-57.1964 29.0609,-141.55236 77.55429,-201.28077 z" style="fill:#e89cbf;stroke-width:6;stroke-miterlimit:20;stroke:#dd6fa4" />
    <path d="m 709.9093,701.63564 c 0,-79.89684 104.27415,-103.56641 150.66686,-52.01645 5.67853,-59.64789 -16.82906,-100.9722 -15.03873,-161.85599 3.72131,-126.5505 223.13017,-144.32287 226.28157,17.67229 l -105.91823,101.67745 c 27.29773,124.8482 -29.55485,190.98699 -162.86808,176.14822 -3.75253,6.01205 -8.14558,12.11388 -13.23237,18.9447 -39.90165,53.58216 -30.8472,137.30803 -6.11993,183.78106 13.26418,24.92898 -85.68086,27.68028 -89.61974,1.68106 -7.40128,-48.85339 -2.76856,-129.44055 25.19671,-182.46928 3.04827,-5.78024 10.31332,-6.28989 19.12018,-6.0267 -4.45792,-27.80254 -28.46824,-50.2144 -28.46824,-97.53636 z" fill="#f5b7d0" />
    <g transform="rotate(171.79149 358.44466 382.51681)scale(1.2266653-1.2266653)">
      <path d="m -2.8,-18.3 c -4.7,10.8 -3.3,14.2 1.9,20 5.2,5.8 3.1,13.5 -1.6,12.8 -4.7,-0.7 -2.4,-8.5 1.5,-5" fill="none" stroke="#7ed0f2" />
      <path d="m -6,-16.9 1.7,-4 a 8.5,12.8 -6 1 1 3.8,-0.7 l 2.3,6.4 z" fill="#faf5ab" />
      <path d="m -14.1,12.3 c 5.2,2.9 5.8,7.4 4.5,13.1 -1.3,5.7 0.5,14.8 7.1,12.3 6.6,-2.5 3.3,-11.7 -1.5,-11.8 m 18.3,-17.5 c -5.3,5.8 -7.8,12.7 -3.5,20.8 4.3,8.1 4.4,16.6 -0.7,16.6 -5.1,0 -6.3,-6 -4.8,-9.2" fill="none" stroke="#faf5ab" />
      <path d="m -17.9,14.8 1.4,-6.9 a 8.5,12.8 -14 1 1 3.5,-1.4 l 2.8,4.8 m 18.7,-0.2 4.5,-4.5 a 8.5,12.8 18 1 1 3.7,0.8 l 0.2,6.4 z" fill="#7ed0f2" />
    </g>
    <path fill="#e880b0" inkscape:original-d="m 738.94845,809.90547 c 1.36503,-33.31075 -29.03915,-55.01851 -29.03915,-108.26983 0,-79.89684 104.27415,-103.56641 150.66686,-52.01645 5.67853,-59.64789 -16.82906,-100.9722 -15.03873,-161.85599 3.72131,-126.5505 223.13017,-144.32287 226.28157,17.67229 l -105.91823,101.67745 c 27.29773,124.8482 -29.55485,190.98699 -162.92063,176.18188" inkscape:path-effect="#path-effect1261" />
    <path fill="#e880b0" inkscape:original-d="m 822.71934,725.23904 c -5.26086,37.19359 -14.58298,52.34416 -32.91902,76.96682 -39.90165,53.58216 -30.8472,137.30803 -6.11993,183.78106 13.26418,24.92898 -85.68086,27.68028 -89.61974,1.68106 -7.40128,-48.85339 -2.76856,-129.44055 25.19671,-182.46928 3.04827,-5.78024 10.31332,-6.28989 19.18909,-6.00505" inkscape:path-effect="#path-effect1263" />
    <g>
      <ellipse cx="566.0249" cy="910.46448" fill="#f5b7d0" rx="37.015717" ry="52.123852" transform="rotate(328.59758)" />
      <path d="m 914.00732,461.38753 c -8.16259,1.47682 -13.82039,0.38246 -20.00083,-4.58583 3.01532,7.93298 10.1309,9.79408 20.18225,8.32657 m -0.1091,3.55182 c -9.08992,3.93146 -16.68831,3.71026 -24.66159,0.19447 5.72319,7.20639 15.75099,8.03143 24.88778,3.77792 m -1.2262,5.69455 c -6.84047,3.21628 -13.93565,3.99262 -21.02706,2.41179 7.50204,4.99209 14.62733,5.33616 25.38974,0.28098 -6.92583,-35.21354 13.69901,-50.3039 36.41191,-43.76085 24.25877,6.98837 39.07633,29.11224 45.2301,56.19598 0.23421,-26.9063 -18.77522,-52.85197 -44.01337,-60.12248 -25.62118,-7.38085 -47.68533,10.12157 -41.99132,44.99458 z" />
      <ellipse cx="929.66492" cy="693.96533" fill="#f5b7d0" rx="13.206223" ry="43.735226" transform="rotate(347.75895)" />
      <path d="m 1070.8078,491.63434 c -6.2246,-32.60735 -17.7185,-52.57071 -24.5025,-51.05586 -5.3179,1.18748 -7.6463,21.35553 -2.4979,47.77726 -9.3984,-28.42173 -5.2693,-50.21859 1.3053,-51.98025 9.6799,-2.59373 24.9695,25.58596 25.6951,55.25885 z m -3.5203,-19.19228 c 6.3892,1.25564 12.4281,1.31481 18.2605,-0.93767 -4.3214,4.33093 -10.5909,5.46265 -17.5976,4.56081 m 1.8266,8.52027 c 4.8327,3.9608 9.6634,6.34651 16.0532,7.37114 -6.0095,1.31826 -10.8892,0.0867 -15.3663,-3.17649 m -1.8766,-10.24694 c 6.0383,2.97787 12.4117,3.4497 20.0038,2.27391 -5.2586,3.62079 -13.2742,4.45329 -19.3104,1.34394" />
    </g>
    <g>
      <path d="m 1076.9795,540.19009 -11.8925,28.18636 -30.9902,-16.52395 16.691,0.56104 -15.9015,-6.98524 z" style="fill:#fff;stroke-width:4;stroke-miterlimit:20;stroke:#b0d8e7" />
      <path d="m 1046.9367,498.99451 c 20.2548,15.08977 39.1168,-4.01236 40.2747,16.05509 2.1392,37.07508 -26.551,40.33487 -39.4361,22.03076 -1.9185,17.43407 8.0691,25.95013 21.9372,27.51105 -26.2732,25.22717 -59.7418,41.95199 -112.75767,43.34245 z" fill="#f5b7d0" />
      <path d="m 1064.6407,516.18344 c 2.6405,3.82805 6.2004,4.55829 10.1108,1.07335 -2.7273,7.94259 -9.3891,7.39469 -10.1108,-1.07335 z" fill="#e880b0" />
      <path fill="#e880b0" inkscape:original-d="m 1046.9367,498.99451 c 20.2548,15.08977 39.1168,-4.01236 40.2747,16.05509 2.1392,37.07508 -26.551,40.33487 -39.4361,22.03076 -1.9185,17.43407 8.0691,25.95013 21.9372,27.51105 -26.2732,25.22717 -59.7418,41.95199 -112.75767,43.34245" inkscape:path-effect="#path-effect25" />
    </g>
    <g clip-path="url(#clipPath5378)" transform="matrix(-.31201954.05550153.05575113.28690449 1011.3512 204.97173)">
      <g>
        <path d="m 1416.9977,1155.6988 c -14.6359,-42.8657 -43.7968,-65.4729 -87.165,-44.1488 -6.19,-24.0137 -53.8477,-30.7689 -113.0762,-11.811 z m -1016.70965,71.0949 c 8.52774,-44.4854 34.25853,-70.9311 80.17248,-55.8501 2.78765,-24.6415 49.04133,-37.9637 110.33195,-27.4333 z" fill="#cbcbcb" />
        <ellipse cx="823.58661" cy="1280.5184" fill="#cbcbcb" rx="528.06476" ry="128.96687" transform="rotate(356.01034)" />
        <path d="m 1373.3122,1251.7581 -145.6071,-156.2265 -53.679,-5.1583 175.0586,173.1703 z m -103.49,-150.6087 -31.3041,-3.9581 142.5134,150.3878 13.3521,-8.0164 z m -812.90496,214.6889 122.44766,-174.9707 52.43865,-12.5788 -149.25429,195.8485 z m 81.5222,-163.5459 30.44866,-8.2763 -120.19651,168.7583 -14.33785,-6.0802 z" fill="#f2f2f2" />
        <ellipse cx="823.58661" cy="1280.5184" rx="528.06476" ry="128.96687" style="fill:none;stroke-width:8;stroke:#949494;stroke-linecap:round" transform="rotate(356.01034)" />
        <g id="g5645">
          <path d="m 669.19062,1364.6445 c -0.13699,26.7219 -76.74546,35.1623 -77.4855,3.5258 l 18.5679,-17.1459 c -67.44405,-24.5231 -120.31249,12.2324 -152.67166,-36.551 -37.08417,13.3706 -96.85419,1.1689 -99.68095,-63.883 82.78966,50.6441 206.77118,69.109 311.27021,114.0541 z" fill="#949494" />
          <path d="m 408.7336,1258.8946 c 38.34184,-88.9024 -53.45674,-69.1399 -50.81319,-8.3042 12.85999,29.6848 42.85352,54.5419 99.96002,52.6616 57.76893,53.7225 108.83644,0.6432 138.91474,50.3197 l -5.09005,14.5986 c 31.01682,4.1432 64.51424,6.4232 77.4855,-3.5258 0.0943,-18.394 -26.60025,-38.7 -42.90685,-43.1325 -27.00813,-7.3414 -58.17596,1.4484 -79.02801,-4.1389 -24.43973,-6.5486 -14.21994,-42.9671 -84.17494,-27.1032 -11.94182,-19.0069 -29.95371,-29.6092 -54.34722,-31.3753 z" fill="#d5d5d5" />
          <path d="m 450.5655,1291.8792 c -90.41171,2.411 -87.74705,-84.1709 -50.4537,-84.4701 -0.0331,17.1775 -4.72708,32.2592 -14.89891,45.7428 17.07446,18.6416 39.83131,30.7356 65.35261,38.7273 z m 136.39367,34.0613 c 45.40905,-13.5879 98.98103,37.7083 59.84712,37.1637 11.47228,-5.0444 0.26141,-30.6059 -59.84712,-37.1637 z m -129.55156,-31.3917 c 13.09023,20.3674 56.73091,29.9286 76.23539,25.8597 -24.47257,-4.5259 -55.52573,-13.9801 -76.23539,-25.8597 z" fill="#fff" />
          <path d="m 590.56875,1340.0899 c 39.15113,-7.7606 52.77946,5.901 50.24636,15.2002 -2.81945,10.3504 -27.50033,9.6428 -29.91683,1.5535 -2.05395,-6.8757 8.67435,-11.1379 17.89617,-3.712 -8.6109,-2.4918 -13.50233,-1.0875 -13.0519,1.6319 0.88427,5.3385 18.74709,6.4569 19.83615,-0.2216 1.63479,-10.025 -18.92224,-15.3005 -45.00995,-14.452 z" fill="#616161" />
        </g>
        <use transform="rotate(171.81053 822.20955 1.2238918)scale(1-1)" xlink:href="#g5645" />
      </g>
      <g>
        <path d="m 1197.5491,1082.6654 c 22.6544,-0.78 25.3169,-91.58647 8.9714,-165.5499 -44.2103,-2.89727 -43.8436,81.97479 -8.9714,165.5499 z m -593.14078,14.2958 c -58.06908,-12.6486 -26.80666,-103.71699 -35.18843,-145.55534 51.53177,-2.21514 35.18843,145.55534 35.18843,145.55534 z" fill="#cbcbfd" />
        <g clip-path="url(#clipPath5611)">
          <path d="m 584.46905,904.36842 c -5.3005,45.08281 -1.41854,95.61833 8.53405,135.63628 21.5211,86.5333 -3.19308,154.7855 16.11091,177.3437 58.60508,68.4844 566.03409,25.1859 597.00549,-41.5001 13.2768,-28.587 -15.6098,-71.0241 -10.0009,-196.23171 0.7126,-15.90809 14.977,-41.96731 -4.3559,-102.66037 z" fill="#c094ce" id="path5570" />
          <path d="m 584.84317,1020.9199 c 17.62438,-86.82076 70.20101,-72.25917 60.21064,-10.7977 -17.92945,110.3033 50.94855,105.1499 34.4978,32.4393 -6.53669,-28.8914 -3.36491,-57.82061 5.28154,-57.9022 12.62652,-0.11915 26.84004,41.6802 20.27747,137.0017 -4.55063,66.098 6.0843,98.0783 38.95557,89.9243 31.93137,-7.9208 18.39106,-33.3545 4.38088,-100.7246 -40.34901,-194.02441 82.48396,-211.64023 77.38077,-42.3306 -1.78767,59.31 4.06659,102.7961 25.89194,101.1704 28.07839,-2.0916 23.47528,-61.7166 10.57064,-97.4248 -23.77477,-65.7866 10.95952,-90.70081 31.17663,-78.31573 38.41156,23.53103 13.68912,-35.7701 26.20196,-40.44825 23.51662,-8.79211 15.89285,42.16584 39.53625,49.74698 21.93874,7.0345 28.77815,-54.12744 55.18314,-8.39265 21.1341,36.60535 -6.0959,124.01685 24.4156,122.75675 27.2427,-1.1251 -11.8101,-117.73555 -6.4531,-144.41522 7.8836,-39.26317 53.9779,-46.0338 51.0839,28.93482 -3.4357,89.0024 37.7824,76.0793 23.3442,3.6635 -11.0909,-55.62699 26.1326,-2.7667 28.0054,-41.64146 2.3309,-48.38181 26.8628,-42.26559 17.5586,8.06559 -22.1636,119.89457 42.0614,111.27047 28.8207,11.24649 -5.4357,-41.06231 17.738,-48.20399 34.675,-21.53504 l -1.2711,-104.04234 -651.18317,30.04414 z" opacity=".2" />
        </g>
        <g clip-path="url(#clipPath5599)">
          <path d="m 1170.4489,812.51003 c -169.9901,-15.12002 -370.97393,2.81054 -581.18163,42.23756 -50.66531,9.5029 -30.82548,42.85846 -20.04738,96.65827 11.75135,25.4763 6.65082,65.47644 23.78321,88.59884 -2.06287,-16.1497 -1.3464,-32.5651 5.07365,-56.52508 16.69558,-62.30876 55.32891,-47.5874 46.41917,12.40457 -15.60794,105.09291 38.03234,105.31511 39.00676,55.79191 0.68879,-35.0092 -20.9606,-78.17243 0.61209,-78.37599 14.06315,-0.1327 25.63599,40.60259 18.35504,137.36089 -4.97153,66.0677 6.13527,91.8095 30.23719,90.4323 35.83422,-2.0476 43.97732,-46.0652 16.74007,-140.2326 -41.52675,-143.57043 78.12477,-189.1629 73.73996,-3.3306 -1.39969,59.3204 4.92137,101.57 28.53275,99.8112 28.07839,-2.0915 35.00972,-45.5955 14.06267,-103.5576 -20.39691,-56.43973 2.89449,-95.9724 25.66866,-82.82373 22.39983,12.93255 8.02654,-20.46304 19.70993,-26.94028 34.18398,-18.9515 22.89285,33.16584 46.53625,40.74696 21.93874,7.03452 33.82171,-56.68946 55.18311,-8.39263 8.5216,19.2667 -9.8982,133.58628 24.5644,130.17118 23.5764,-2.3364 -9.3028,-125.10361 -1.0939,-162.77437 8.2428,-37.82643 41.9915,-31.00948 44.0839,49.37155 1.9521,74.99402 43.1891,73.82762 28.985,2.58592 -11.0908,-55.62697 20.6282,1.2942 22.7238,-42.20467 2.3308,-48.38181 30.233,-39.73281 23.6795,19.50248 -8.0368,72.64219 37.91,77.92329 28.263,-0.54959 -5.0538,-41.11003 4.9583,-52.26087 10.3213,-46.86402 4.024,4.04938 2.3566,27.70632 1.7112,54.00409 9.1074,-11.43205 7.0626,-35.88508 10.4019,-62.50109 -15.9841,-72.32776 45.1802,-97.37841 -36.0716,-104.60547 z" fill="#cbcbfd" id="path5544" />
          <ellipse cx="818.59393" cy="915.5769" fill="#e4e4fd" rx="319.58734" ry="45.365482" transform="rotate(355.70067)" />
        </g>
      </g>
      <g>
        <use transform="rotate(94.922528 894.97982 1039.8194)" xlink:href="#path5510" />
        <ellipse cx="1035.3944" cy="140.65251" fill="#d9dbf3" id="path5510" rx="18.794865" ry="14.353871" transform="rotate(45)" />
        <path d="m 613.21426,870.72972 c 7.93062,16.96109 21.9134,23.85512 46.86835,8.43597 16.7705,13.03243 30.67118,14.5429 48.88064,2.27116 13.2677,14.07026 29.02743,12.62461 42.29513,5.85551 6.42776,13.40115 22.05095,10.96575 40.59243,3.50439 15.71367,0.0587 32.28742,2.05264 45.46579,-3.59305 7.17309,0.57493 13.74954,-0.0434 20.25541,-0.80291 14.38088,5.29235 27.06443,1.24941 38.74023,-8.33616 19.23902,12.22252 35.10042,9.0581 48.24546,-6.48087 13.67732,14.08429 32.31376,10.91941 51.3213,-2.15022 11.5191,7.65316 27.0764,4.9192 37.3395,-1.66383 7.8908,3.42082 18.0431,0.67406 24.1545,-4.64713 15.5413,1.03587 30.2823,-5.03477 36.667,-15.34529 26.2609,12.32863 45.2789,-0.80947 49.6167,-15.5541 z" opacity=".2" />
        <g clip-path="url(#clipPath5424)">
          <path d="m 613.19591,726.63363 22.0205,133.6202 c 161.24893,15.53949 331.17075,3.78242 496.98639,-32.44081 l 4.3014,-159.75199 z" fill="#a8cafa" id="path5414" />
          <path d="m 1145.9278,721.47727 c -16.4162,13.71828 -39.0823,21.92266 -63.1148,11.56802 -13.5636,22.24011 -38.6363,26.96879 -60.2868,10.56047 -23.96714,27.06441 -57.29118,35.17499 -88.7342,9.86854 -16.4879,18.57645 -56.68161,22.78285 -77.25331,12.79596 -23.15516,24.92267 -67.94631,28.25333 -90.69031,4.4407 -26.03986,15.27474 -57.8087,18.83908 -84.2237,-1.6136 -21.14951,15.13237 -41.43836,13.33813 -54.86027,-3.66851 -6.97279,7.9108 -14.37549,11.47027 -24.21244,12.88442 l -5.20054,-62.70169 556.13657,-66.93601 z" opacity=".2" />
        </g>
        <g clip-path="url(#clipPath5410)">
          <path d="m 1132.1991,587.67107 c 14.896,42.66698 30.1704,140.47762 0.5077,122.9723 -11.3861,26.23292 -38.7774,26.38391 -51.9685,2.82391 -11.8325,23.74663 -36.1914,24.52949 -59.3334,8.82253 -21.3566,29.35875 -52.76627,41.34016 -89.15571,10.65573 -12.77593,24.7776 -47.08673,46.9376 -76.79331,17.17528 -21.6349,33.68154 -65.37072,29.61982 -86.02633,3.22801 -20.81678,27.401 -63.48045,28.15222 -87.27842,-2.02404 -19.6235,19.88133 -46.9642,17.68273 -64.17092,4.89814 -29.95941,18.50118 -35.15143,-40.77537 -15.71642,-112.33977 z" fill="#c8e6ff" id="path5400" />
          <path d="m 1155.4017,617.58768 c -11.624,11.35078 -27.5216,11.8282 -39.5596,1.77367 -4.8832,15.06746 -16.5808,25.33682 -35.2119,27.5758 -28.0062,21.12896 -61.5605,11.10504 -83.15421,-9.15231 -20.02861,31.32711 -43.65779,36.7405 -73.91565,4.53697 -17.53278,17.92451 -58.86065,35.86489 -82.1469,18.0699 -27.91751,26.3999 -59.58982,25.43861 -100.84754,0.48212 -30.52193,33.68639 -74.26832,33.78902 -96.03684,-2.26137 -12.30816,18.27204 -38.11341,22.54356 -66.4893,11.40873 l 15.30159,-54.60745 558.35675,-45.91578 z" opacity=".2" />
        </g>
        <path d="m 644.79998,641.95491 c 17.23329,43.28552 59.34623,49.73432 95.37108,5.80369 29.89711,29.21618 64.69945,35.84233 88.22307,-4.09872 25.77546,28.05601 54.36966,18.19748 92.79287,-8.63098 26.2905,22.64858 50.36555,23.34217 73.7453,-2.80899 23.1506,12.71652 52.9964,16.01741 76.6259,6.58398 22.7533,-0.0581 37.3824,-9.05043 41.2403,-30.09889 20.0925,19.50843 47.9279,8.79151 40.7941,-24.57718 -4.5171,-21.12891 3.1164,-61.47396 -21.0613,-63.88849 -151.21882,-15.10163 -418.88608,0.39849 -532.43149,36.48191 -39.88356,12.67454 -14.12158,44.54373 -19.71044,69.64624 -10.46265,46.99324 44.7831,62.6331 64.41061,15.58743 z" fill="#cbfdfd" />
        <ellipse cx="818.91785" cy="608.69171" fill="#ebf1fa" rx="272.61899" ry="34.127831" transform="rotate(356.01521)" />
        <path d="m 1126.1353,576.233 c 10.6471,-29.02457 47.2985,-18.37066 33.0786,11.93481 -13.7098,29.21861 -43.1142,15.42279 -33.0786,-11.93481 z m -48.746,26.74602 c 2.3683,-30.92727 35.3533,-28.68993 31.3326,0.18879 -4.4719,32.11902 -33.3489,26.14147 -31.3326,-0.18879 z m -55.5262,25.59897 c -24.43712,-23.62642 7.1065,-45.81306 24.9378,-26.78086 20.2562,21.62047 -7.2409,43.89063 -24.9378,26.78086 z m -75.65799,6.0567 c -17.79276,-28.28635 17.58741,-42.48893 30.65017,-20.42596 16.45746,27.79664 -19.17686,38.66587 -30.65017,20.42596 z m -96.96775,-2.02452 c -5.25886,-28.84868 33.82755,-29.36512 33.82755,-2.36825 0,29.31731 -29.53222,25.93131 -33.82755,2.36825 z m -76.08914,5.09508 c 1.54647,-30.05329 42.76004,-20.49255 34.98495,5.75796 -8.54426,28.8474 -36.24808,18.789 -34.98495,-5.75796 z m -105.76324,11.31447 c -9.47586,-31.17712 29.22573,-38.4438 37.14796,-13.40241 10.67705,33.74912 -30.46931,35.37628 -37.14796,13.40241 z m -81.03015,-15.79207 c 3.36813,-28.16778 42.06485,-19.4877 31.76396,7.89569 -9.32593,24.79159 -34.76624,17.21245 -31.76396,-7.89569 z" fill="#7c6c5b" />
        <path d="m 1158.6924,577.44307 c -9.0907,24.89682 -28.2836,27.03641 -31.0596,1.31001 -4.7928,32.40334 28.1525,27.72315 31.0596,-1.31001 z m -53,27.92243 c -6.7891,19.23336 -20.9489,19.3425 -26.2392,-2.43283 -0.5287,25.01278 24.0505,27.51492 26.2392,2.43283 z m -56.2991,4.54353 c -1.1183,19.28184 -14.5258,23.36785 -32.7495,8.30179 13.7944,23.68636 39.7259,13.00684 32.7495,-8.30179 z m -70.7336,21.10895 c -11.85837,11.47812 -24.92644,8.32622 -34.16968,-10.6744 1.94683,23.89536 25.2707,27.59479 34.16968,10.6744 z m -99.24727,-6.23294 c -2.8449,23.33183 -14.7313,24.95805 -28.07877,11.34633 11.31362,21.75218 31.86207,14.80009 28.07877,-11.34633 z m -72.56382,15.62649 c -11.00139,21.62651 -25.68822,16.62258 -31.8414,-2.64743 1.21312,25.19552 25.81909,29.98387 31.8414,2.64743 z m -102.35918,8.35918 c -12.07896,13.90396 -24.65958,11.59394 -35.66181,-2.46784 3.76337,16.93419 27.84356,23.15929 35.66181,2.46784 z m -87.1796,-10.1796 c -13.15653,14.80193 -24.14944,14.52055 -30.12303,-4.92906 0.35108,24.11796 21.22721,25.9797 30.12303,4.92906 z" fill="#b1a69b" />
        <ellipse cx="983.81354" cy="711.82916" fill="#fff" id="ellipse5457" rx="28.68911" ry="31.086687" transform="rotate(8.8246)" />
        <use transform="rotate(39.437045 822.53033 946.39604)scale(.96482439)" xlink:href="#ellipse5457" />
        <use transform="rotate(357.67372 2311.6008-2894.5516)scale(.93047299)" xlink:href="#ellipse5457" />
        <use transform="rotate(42.673724 848.47754 1063.4593)scale(.94226386)" xlink:href="#ellipse5457" />
        <use transform="rotate(35.001396 877.7955 1183.6825)scale(.94226387)" xlink:href="#ellipse5457" />
        <use transform="rotate(50.001396 928.29365 1118.4591)scale(.94226387)" xlink:href="#ellipse5457" />
        <use transform="rotate(23.657408 692.10456 1745.3996)scale(.83762555)" xlink:href="#ellipse5457" />
        <use transform="rotate(60 807.9161 823.2848)scale(.97688236)" xlink:href="#ellipse5457" />
        <use transform="rotate(75 749.46376 804.14067)scale(.94250428)" xlink:href="#ellipse5457" />
        <use transform="rotate(182.10269 767.53037 834.90237)scale(.94256013)" xlink:href="#ellipse5457" />
        <use transform="rotate(197.10269 747.92423 844.21936)scale(.94256013)" xlink:href="#ellipse5457" />
        <use transform="rotate(168.54873 752.74201 845.637)scale(1.0112836)" xlink:href="#ellipse5457" />
        <path d="m 1136.1936,815.29768 c 17.6742,-6.69311 -5.4694,-22.85198 -9.381,-5.52169 -4.8318,21.40666 15.9255,23.28662 18.8225,8.42099 m -51.4415,10.1007 c 22.4999,-4.91522 -4.7074,-25.39183 -10.143,-5.52169 -6.8152,24.91389 29.4355,28.54153 28.84,-2.18654 m -70.0428,15.36043 c 24.1692,-8.92549 -6.4702,-23.2512 -11.7082,-3.70243 -3.5283,13.16756 16.8355,28.54128 27.747,6.87741 m -64.42073,11.30441 c 13.13243,0.32401 13.10813,-13.12433 -0.15821,-14.29187 -21.48151,-1.89054 -12.02804,44.25954 14.78644,23.1852 m -58.5794,-9.26086 c 4.21458,9.60506 15.89002,4.23522 11.79919,-7.03238 -4.6559,-12.82399 -24.96267,-10.37549 -22.74476,10.2725 2.21792,20.64799 23.70119,24.15997 29.63422,6.48853 m -63.56384,1.4172 c 14.98509,3.30179 13.60879,-20.5161 -3.22632,-13.95102 -16.78298,6.54475 -3.86306,42.31196 16.80115,20.12383 m -55.38134,-11.65145 c 10.68078,4.06748 7.28985,-24.37593 -8.21239,-14.78058 -15.50225,9.59534 4.44194,48.23049 19.72176,22.46876 m -59.09666,-4.58657 c 16.76299,-3.04782 3.28795,-20.88066 -8.56034,-11.46424 -14.09608,11.20284 9.8106,42.23591 23.25578,14.76928 m -68.4175,5.41295 c 15.97069,0.63364 4.14558,-23.02231 -7.56076,-14.27271 -18.97949,14.18573 16.52792,48.12276 28.16692,13.80877 m -65.34113,-8.17485 c 0.76195,9.9054 13.62589,8.92937 12.96915,-2.79383 -0.87088,-15.54574 -24.93756,-16.24189 -23.7295,5.78896 1.30896,23.87088 23.47186,21.6276 28.04617,9.65425 m -62.78381,-7.88645 c 14.28521,3.2852 14.63282,-17.48476 -0.63897,-14.9972 -19.51824,3.17925 -12.45503,45.36574 12.61948,22.10285 m -55.13157,-18.79241 c 17.90375,-1.13327 9.41162,-21.41222 -4.69597,-15.05679 -14.1076,6.35543 -7.5575,43.46926 17.0521,25.67589" style="fill:none;stroke-width:5;stroke:#d9dbf3;stroke-linecap:round" />
      </g>
      <g>
        <use transform="rotate(180 865.49855-17.679594)scale(1-1)" xlink:href="#path5344" />
        <ellipse cx="537.1131" cy="671.80884" fill="#d9dbf3" id="path5344" rx="14.272779" ry="12.739206" transform="rotate(348.39751)" />
        <path d="m 653.4435,567.93481 c 5.38783,8.62052 26.20454,2.99785 29.43724,1.20191 5.97886,16.76205 28.81476,8.97728 40.30879,2.51189 8.8506,14.73756 27.88759,4.68028 38.30406,-0.70755 8.09446,18.19705 45.35847,0.27733 45.35847,0.27733 5.48265,10.39638 12.65789,13.48964 29.0237,-0.003 11.69696,18.07825 35.17463,7.0682 43.02059,-2.606 7.76211,11.92773 20.80812,-3.59459 20.80812,-3.59459 12.78991,5.65871 24.51887,3.72855 28.34508,-2.16659 4.89883,7.86507 10.42241,7.0204 19.04294,1.45298 6.56985,4.43021 13.3999,6.49287 16.46363,-6.53737 14.39213,1.72852 25.49779,0.36795 30.29053,-6.3651 6.69305,9.41608 14.87085,7.40047 21.33625,2.37183 10.0043,5.48797 17.403,-2.43863 19.1989,-8.54484 8.9856,13.94186 18.0248,4.91452 21.1785,-3.29206 12.3097,7.9048 23.3784,3.62836 26.7742,-7.17032 z" opacity=".2" />
        <g clip-path="url(#clipPath6029-3)">
          <path d="m 615.15328,304.84486 49.29297,254.63264 c 130.75783,17.11783 277.5526,1.58398 412.12235,-30.72806 v -251.90048 z" fill="#a0dd88" id="path5983-2" />
          <path d="m 1039.3497,527.35919 c 12.8498,-31.74159 -6.0607,-48.19116 2.3317,-79.51189 5.0372,-18.7988 -1.9144,-26.15436 5.1966,-52.69304 11.5509,-43.10863 -9.5461,-51.37148 -4.6732,-92.92165 l 11.8818,1.19897 c 28.1308,86.51105 -24.5281,127.76289 14.7641,222.87581 z m -392.95879,-197.43254 c 17.864,33.21651 -2.48005,45.83471 11.45767,80.93998 8.6743,21.84818 -6.13888,33.45324 10.25712,66.34842 12.12282,24.32194 8.85131,56.47592 3.46391,82.25306 l 17.53872,0.32479 c 6.58891,-30.66158 3.38507,-57.86554 -7.03441,-78.47027 -22.67453,-44.8393 -1.95428,-112.50897 -22.50175,-153.72831 z m 109.99415,233.00954 c -10.86541,-14.13468 -15.72807,-32.47074 -13.72002,-53.26109 3.81989,-39.54918 -21.26618,-53.36541 -14.27361,-105.17962 4.6721,-34.6198 -3.76326,-46.67569 -5.47761,-88.77274 l -15.09757,0.41058 c 16.49281,29.29288 -4.35197,59.72083 6.12871,87.53826 6.33597,16.8167 -3.32714,33.06619 12.199,69.58212 7.41955,17.45005 -10.65739,52.6052 18.20625,90.26839 z m 29.2925,-245.98991 c 17.07447,40.11119 -0.29698,77.36066 12.30809,131.00387 12.6022,53.63099 1.81311,81.01617 16.7251,115.86511 l -25.62197,0.70737 c 15.02403,-38.87556 -5.57408,-34.59859 -2.02368,-66.81732 8.88021,-80.58507 -18.6645,-64.85703 -10.48359,-108.81768 4.29307,-23.06913 0.92522,-51.82284 -6.52824,-71.63717 z m 126.638,233.2633 c 5.36768,-28.47381 -7.24217,-36.12186 -3.41879,-70.32173 6.26819,-56.06859 -23.35477,-59.78347 -11.30626,-99.66959 3.91429,-12.95813 -3.32048,-71.29748 -3.32048,-71.29748 h 14.29081 c 8.81807,38.8219 1.65492,106.90526 9.9277,133.0034 9.38026,29.59192 3.35853,72.57247 13.66862,108.25148 z m 87.43044,-13.28865 c -5.7157,-68.32701 1.7524,-153.87535 -7.1586,-216.51225 l 16.5235,-2.58752 c 16.4361,46.69337 -8.635,67.60033 1.7975,100.44275 10.024,31.55646 -6.0445,48.25241 -1.4989,116.23107 z m -38.66474,-209.32774 c -21.46836,78.70323 13.38524,126.1119 8.28978,210.44943 l 17.50186,-0.44541 c 3.7603,-62.41334 -20.56527,-103.15518 -14.4388,-209.61372 z m -121.34866,3.28316 c -18.15607,107.47855 21.35995,131.06598 6.35502,229.28758 l 18.87337,-1.99928 c 6.05342,-106.60873 -16.18809,-139.32631 -13.03115,-229.02148 z" fill="#fdbed0" />
          <path d="m 616.86246,372.66605 c 43.53988,-74.77656 40.28765,39.96222 82.60316,-12.78733 33.51694,-41.78145 45.31423,2.77048 69.02418,-15.68827 26.89073,-20.93506 33.88152,35.02307 69.80903,1.65196 23.45414,-21.78528 34.00483,7.37058 52.08987,-10.59971 19.12132,-19 38.88595,32.27976 63.01575,6.72899 16.40712,-17.3733 42.23751,26.83189 62.57645,-15.03819 15.974,-32.88442 33.0371,16.97456 65.8518,-10.38635 l 6.0275,-56.58519 -491.6631,27.23047 z" opacity=".2" />
        </g>
        <g clip-path="url(#clipPath5979-7)">
          <path d="m 1087.0863,290.35436 c -1.1815,-18.59183 3.047,-36.93799 -19.0726,-39.31484 -128.19028,-13.77461 -340.75204,2.72055 -453.02027,36.36942 -23.79756,7.13257 -2.69675,28.88332 -5.82312,45.95722 -3.56762,19.48376 9.14179,26.63988 25.01959,2.44262 12.07422,-18.40072 27.69305,71.89207 67.0161,11.16989 32.65043,-50.4184 34.13976,16.90996 65.91065,-14.86093 34.8844,-34.88439 39.89827,54.28404 74.44006,20.02598 26.9319,-26.71067 28.01914,-9.52066 48.11305,-29.338 32.08354,-31.6417 40.68195,56.26733 71.23761,21.36441 20.37081,-23.26904 37.73782,2.54442 55.56693,-24.19511 18.8552,-28.27842 37.3471,15.1466 52.7805,-5.53291 7.7113,-10.33255 20.2299,13.65124 17.8315,-24.08775 z" fill="#d3f980" id="path1456" />
          <ellipse cx="823.94244" cy="336.81393" fill="#e5feb2" rx="232.08789" ry="25.87995" transform="rotate(355.76014)" />
        </g>
        <path d="m 1040.6114,543.59228 c -4.6812,8.13609 -16.5245,10.4551 -28.3832,6.15027 -10.4655,13.10812 -19.92971,2.3713 -31.90637,1.88932 -6.02767,8.20404 -14.5851,13.86832 -29.81805,7.72418 -9.71769,7.62012 -21.93054,8.60562 -33.67983,1.77234 -8.8802,8.14473 -15.5771,8.95135 -31.69791,5.81205 -4.69495,4.36143 -9.69968,5.0749 -17.71343,4.01283 -7.30314,9.67883 -27.95706,13.85842 -37.02826,1.84834 -19.26665,9.29501 -30.60971,12.94015 -41.438,-1.97784 -16.71009,8.1462 -29.79953,14.48764 -41.75099,-1.0453 -11.8261,14.61873 -28.31865,15.85801 -41.30792,1.29132 -11.17095,10.00185 -25.27796,6.96379 -33.44612,-4.58128 -8.76251,9.08045 -31.62664,10.55419 -30.12074,-7.40745 1.69599,-20.2289 34.26554,-19.13374 49.01302,-5.74557 15.36567,-11.87508 25.4554,-8.14986 34.51108,4.09801 13.36592,-11.98894 28.60214,-16.4332 40.57519,-0.37395 14.20757,-6.52324 26.51057,-18.34334 41.68672,0.80572 15.53019,-6.86681 25.35884,-13.40681 38.91388,-0.81919 23.63606,-9.29681 23.85183,-21.65063 52.84647,-9.73583 6.99198,-12.42328 23.14338,-11.85543 32.87252,-4.57539 6.24695,-12.44128 20.33236,-9.69791 28.59277,-4.9589 9.51492,-12.96872 20.90733,-13.1079 33.28932,-6.48497 9.10585,-9.72307 19.64845,-8.22941 27.31755,-2.35688 10.0096,-12.4907 21.4516,-12.26882 33.3654,-8.09835 19.6478,-15.30723 32.5135,-13.89638 35.6199,1.30502 2.6942,13.18431 -6.444,18.69854 -20.6825,16.81735 -5.0336,8.3688 -15.7491,11.10097 -29.6305,4.63415 z" fill="#fff" />
        <path d="m 651.69069,565.13201 c 23.82732,-16.3999 27.05011,9.30977 47.00985,0.96766 22.17478,-9.26789 21.51183,13.11561 38.66047,2.5672 21.48208,-13.21399 11.93862,8.60539 46.76552,-1.65755 20.58835,-6.06706 16.46573,12.8966 37.06595,3.42151 16.87673,-7.76246 21.83249,9.9556 41.46279,-4.15482 18.68624,-13.43183 23.75812,2.1863 39.4983,-6.9013 18.92751,-10.92781 25.06196,5.42347 37.91502,-6.12356 11.14488,-10.01242 21.33217,7.52579 33.14939,-3.89887 13.4117,-12.96618 18.72275,3.55493 29.75842,-5.5223 11.204,-9.21565 18.7647,7.4708 30.7638,-3.54195 11.7135,-10.75059 12.8831,7.16796 26.2881,-3.75266 13.4112,-10.92575 15.6253,0.59457 22.9909,-7.02497 m -431.07453,25.36763 c 23.82732,-16.3999 27.02124,14.29207 45.75587,3.47562 25.73057,-14.85555 19.24642,15.27903 40.91445,1.31322 23.25998,-14.99188 15.70705,10.74211 39.6859,1.15642 29.96827,-11.97999 22.29137,13.87646 43.14557,1.35356 12.80798,-7.69116 26.62435,12.39588 41.70084,-3.40881 17.41632,-18.25754 23.26609,1.94825 39.00627,-7.13935 18.92751,-10.92781 24.55399,1.88363 37.91502,-7.88551 12.09395,-8.84269 17.01443,5.7479 26.2918,-1.86699 18.15524,-14.90187 25.07237,1.77704 36.10801,-7.30019 11.204,-9.21565 18.5296,6.8901 30.8754,-3.51837 12.7147,-10.7195 18.5151,6.32867 25.9376,-3.82112 7.4225,-10.14979 14.7934,4.80382 22.4129,-7.13346" style="fill:none;stroke-width:4;stroke-linecap:round;stroke-miterlimit:20;stroke:#d9dbf3" />
      </g>
      <g>
        <use transform="rotate(105 836.17001 122.83761)" xlink:href="#path5823" />
        <ellipse cx="988.91913" cy="-303.16031" fill="#d9dbf3" id="path5823" rx="10.98286" ry="13.574263" transform="rotate(30)" />
        <g clip-path="url(#clipPath6156-3)">
          <path d="m 1011.3114,239.827 9.7502,-223.884876 -377.40319,36.497778 44.7379,221.182238 c 107.70737,5.6061 215.34067,-6.89565 322.91509,-33.79514 z" fill="#fdd878" id="path1390" />
          <path d="m 1027.6319,161.89557 c -17.1486,22.02392 -38.3722,-34.79441 -104.98839,-74.621054 -26.34915,47.289974 -32.00003,116.770594 -84.24679,118.718484 -52.3547,1.95192 -61.26963,-53.0159 -93.52937,-96.58911 -38.50434,55.19151 -45.42454,114.21993 -80.32024,105.25993 l 21.77561,-144.784708 286.08577,-27.579129 z" fill="#deb149" />
        </g>
        <g>
          <path d="m 1020.1039,251.79355 c 9.9578,9.92989 -3.0764,23.81225 -18.1916,13.54011 -9.3361,6.31385 -21.73962,9.95694 -33.06909,2.65439 -11.55117,16.45845 -31.50763,20.10917 -41.6497,8.97127 -12.23055,14.53001 -25.69219,17.30911 -36.39184,6.19524 -4.09267,8.27167 -10.28777,15.44866 -24.15156,11.03295 -5.94469,3.62146 -12.00116,6.71198 -20.3473,-1.07343 -7.19305,6.15584 -16.20164,5.77916 -20.61472,-2.90705 -18.82706,9.29575 -26.47791,4.44301 -35.49298,-4.55848 -7.93926,12.48558 -27.39016,20.97863 -38.34162,3.72427 -16.02694,10.12077 -31.48123,13.73418 -34.69686,-1.09179 -12.10461,10.98215 -21.40412,11.94606 -29.23143,7.65215 -16.56518,4.10713 -21.94918,-4.65143 -7.14719,-10.66048 z" opacity=".2" />
          <use transform="rotate(316.30803 851.41132 316.86037)" xlink:href="#ellipse5679" />
          <ellipse cx="829.3587" cy="366.98566" fill="#fff" id="ellipse5679" rx="22.675797" ry="19.670071" transform="rotate(353.57905)" />
          <use transform="rotate(330.92052 878.75883 144.4282)scale(.96832184)" xlink:href="#ellipse5679" />
          <use transform="rotate(306.32293 886.31183 174.11614)scale(.97872078)" xlink:href="#ellipse5679" />
          <use transform="rotate(316.56836 893.53414 130.24663)scale(.99999392)" xlink:href="#ellipse5679" />
          <use transform="rotate(322.67263 900.21342 69.477272)scale(1.0107233)" xlink:href="#ellipse5679" />
          <use transform="rotate(331.30803 831.40369 444.36708)scale(1.0210279)" xlink:href="#ellipse5679" />
          <use transform="rotate(304.05455 808.91739 331.7286)scale(.95924748)" xlink:href="#ellipse5679" />
          <use transform="rotate(344.05576 824.552 676.92073)scale(.96950716)" xlink:href="#ellipse5679" />
          <use transform="rotate(17.608593 800.81687-342.57798)scale(1.0200898)" xlink:href="#ellipse5679" />
          <path d="m 999.69251,249.29261 c 9.85389,-7.25851 -1.3728,-16.26362 -6.22324,-6.93372 -7.3548,14.14704 12.45983,30.95034 18.89903,3.13041 m -42.6116,6.65213 c 9.77716,-8.00228 -1.13437,-15.64468 -6.29999,-5.07916 -5.92308,12.11478 11.46846,25.8398 16.19059,5.3174 m -44.00475,10.93681 c 10.71062,-8.78027 -2.02848,-18.51619 -7.40308,-7.26359 -6.12041,12.81411 14.21884,28.06512 19.35111,5.86244 m -48.46083,7.40115 c 11.5226,-6.99392 0.1344,-17.97369 -6.5911,-6.7764 -8.03932,13.38468 15.518,22.21888 19.35111,4.07609 m -45.94802,6.02511 c 10.71062,-6.50674 -0.5455,-17.46537 -8.05266,-6.7764 -10.31286,14.68384 13.73165,28.55231 18.37673,2.45213 m -50.05314,6.19032 c 11.01409,-4.37516 0.31712,-18.01656 -5.60102,-6.37234 -8.12993,15.99605 12.95127,29.1231 17.68995,5.36054 m -42.08893,-0.9882 c 11.50128,-6.81109 -0.006,-14.99587 -5.43862,-6.04755 -7.24435,11.93265 6.10502,27.71279 16.20276,7.03575 m -46.98201,2.30519 c 12.74732,-2.11625 2.79775,-18.29387 -4.65957,-8.53256 -11.33957,14.843 11.14493,31.98656 16.85197,8.96406 m -35.75142,1.05132 c -9.94846,14.32033 -26.48116,3.94701 -19.31444,-7.31153 7.13497,-11.20869 20.03318,0.33954 6.43793,6.01686 m -21.90678,-4.79705 c -9.46128,22.9273 -28.52163,8.82317 -20.18074,-3.707 8.43414,-12.67025 22.9563,2.28829 6.92512,6.50405" style="fill:none;stroke-width:4;stroke-linecap:round;stroke-miterlimit:20;stroke:#d9dbf3" />
        </g>
        <g clip-path="url(#clipPath6146-6)">
          <path d="m 1020.5434,152.88037 c -12.5217,11.29392 -5.7865,-18.39427 -100.23837,-82.663943 -75.41797,171.794773 -86.58532,157.906103 -176.77617,21.215167 -42.03987,58.373496 -51.05252,123.223706 -81.32024,108.967036 -11.32333,-5.3335 -6.07273,-39.3579 -7.35018,-73.10767 -2.03182,-53.680209 -37.42721,-95.435856 -20.41206,-111.741747 20.42005,-19.5688649 341.74038,-48.108596 387.05072,-25.5465827 12.0394,5.9949137 2.8393,45.2503987 1.5036,79.2553807 -1.2873,32.772199 9.6299,72.720329 -2.4573,83.622359 z" fill="#fdf29a" id="path1396" />
          <path d="m 664.34247,113.37333 c 9.7098,31.61022 6.01014,56.51274 -17.16672,46.10686 -0.22934,-19.07012 4.7236,-34.98931 17.16672,-46.10686 z m 177.46203,-2.38826 c 1.11458,47.83304 -27.28619,46.86518 -25.52202,1.22108 z m 168.4587,-32.299595 c -7.3156,26.119625 4.6299,39.624025 19.842,37.981235 1.3645,-19.12563 -5.12,-30.261026 -19.842,-37.981235 z" fill="#eadd74" />
          <ellipse cx="60.416885" cy="-824.15393" fill="#fefad9" rx="18.514811" ry="187.26692" transform="rotate(85.923487)" />
        </g>
        <path d="m 669.56105,125.10517 c 1.65346,-36.614889 -31.29073,-34.886051 -29.54168,-0.20189 1.64268,32.57475 27.93878,35.69715 29.54168,0.20189 z m 361.43555,-50.56997 c -0.2551,-29.751184 -31.14484,-26.604494 -24.9393,2.088901 7.2497,33.521419 25.1939,27.598269 24.9393,-2.088901 z m -186.66992,33.71124 c 0.25798,-30.137535 -33.87869,-26.585586 -29.48899,2.85596 4.80986,32.25954 29.21102,29.61761 29.48899,-2.85596 z" fill="#ee7677" />
      </g>
      <g>
        <path d="m 692.46362,10.227171 c 11.22746,16.658115 21.26289,10.071641 31.17833,1.145386 8.58691,7.994478 17.29527,15.442419 31.09934,-0.04036 9.35435,7.896032 19.26632,11.470534 31.26614,-1.135788 11.85542,5.389806 23.90349,8.254458 37.07039,-3.5450443 12.12183,10.5844713 22.10958,7.1837143 30.83258,-4.5052948 10.64957,7.7421307 21.29915,10.5967881 31.94872,-3.5017395 14.17795,18.8677196 22.55368,3.647377 31.59965,-7.6352616 19.31532,18.0443813 34.44887,19.4972252 36.38736,-0.6596678 20.17649,16.1592365 25.07145,3.6402567 18.09644,-12.879817 z" opacity=".2" />
        <ellipse cx="669.31384" cy="-228.83243" fill="#d9dbf3" id="path5761" rx="17.855185" ry="15.328396" transform="rotate(18)" />
        <use transform="rotate(156.43988 834.62245 16.828554)scale(1-1)" xlink:href="#path5761" />
        <g clip-path="url(#clipPath5738)">
          <path d="m 705.36542,2.2177116 -29.06247,-176.2870016 288.3587,-25.2867 -6.85742,180.099764 z" fill="#feaf7d" id="path5726" />
          <path d="m 670.09475,-93.387102 c 34.21485,-1.64026 58.18444,-12.564998 68.72257,-28.713438 20.03354,5.87118 40.45989,8.20698 62.36397,-2.75674 33.59121,11.81635 61.60748,1.33294 86.73335,-20.71207 35.31934,1.79604 54.87385,26.99221 93.20413,5.2853 l 0.68937,-67.71179 -329.77995,17.49928 z" fill="#d98651" />
        </g>
        <path d="m 710.84873,12.431227 c 9.51961,12.041841 19.03921,7.984787 28.55882,0.909302 8.92804,6.94373 18.1116,8.01033 27.70547,-0.360046 12.47672,7.289741 24.95344,8.17567 37.43016,-2.5 10.65216,3.752042 21.30431,4.290146 31.95647,-1.9282232 12.93624,2.7524102 25.66689,4.9394502 33.37827,-6.6764984 10.0281,9.3094256 20.0562,6.3721984 30.0843,-0.207077 12.73214,5.8003111 25.27809,6.7594057 37.34659,-4.6949158 9.68882,0.6644116 20.73936,5.414008 26.69888,-5.1094665 26.66239,-13.0636611 0.7065,-42.8620161 -11.53653,-20.0671691 -10.21936,-1.151033 -20.39025,-2.156672 -26.70074,8.418899 -11.35291,-6.828663 -29.83224,-9.651358 -41.04909,0.09149 -12.94322,-7.466566 -24.85483,-6.967522 -35.96881,4.352768 -9.64815,-5.377195 -24.31547,-8.744501 -32.36665,2.625015 -9.47782,-6.571397 -19.4409,-7.495436 -30.29104,1.903794 -8.67524,-9.376831 -18.64941,-8.673932 -31.66067,1.1526333 -7.34673,-5.4215383 -18.36465,-6.1880963 -28.30394,0.6965485 -3.78969,-8.1907348 -14.15495,-12.6779968 -22.32877,-5.5907138 -32.88337,-8.78177 -26.83761,45.460978 7.04728,26.98366 z" fill="#fff" />
        <path d="m 967.83131,-19.728532 c -9.42337,19.1327282 -20.75422,-1.206162 -34.20204,12.491684 -13.44781,13.697845 -18.97232,-8.71287 -37.86228,3.1186981 -12.14078,7.6042705 -24.66272,-6.3271841 -36.31876,3.2184439 -13.92441,11.40329 -22.45621,-6.676483 -32.97629,2.3305211 -11.83468,10.1325299 -20.41147,-2.1827511 -30.28058,5.1128388 -13.97863,10.3334881 -22.45372,-9.2197859 -35.11687,0.6852417 -12.0399,9.4175204 -14.17472,-7.47746065 -27.79183,-0.4667207 -9.32237,4.7995991 -11.96906,-4.621216 -21.3533,-0.11557 -6.28647,3.0183161 -13.54489,1.2327904 -20.35265,-4.6902695 m 274.5046,-29.6848674 c -11.67337,19.6327282 -19.00422,-1.706162 -32.45204,11.991684 -13.44781,13.697845 -25.67635,-8.103266 -37.81631,2.978302 -10.58045,9.6580196 -25.18149,-9.337903 -36.36473,2.10884 -11.62352,11.8974004 -21.70621,-7.176483 -32.97629,3.5805211 -11.27008,10.7570038 -20.41147,-4.6827511 -30.28058,2.6128388 -13.97863,10.3334878 -22.45372,-6.7197859 -35.11687,3.1852417 -12.0399,9.4175201 -13.37089,-10.8921966 -28.79183,-1.2167207 -11.35087,7.1218131 -11.87656,-8.7720909 -23.77104,-2.0378417 -6.13649,3.4742704 -10.43491,1.7320022 -14.93491,-4.7679978" style="fill:none;stroke-width:3.5;stroke:#d9dbf3;stroke-linecap:round" />
        <path d="m 797.46378,-147.58793 c -14.9214,13.63418 -47.02139,20.14925 -67.5904,5.20498 -36.8313,21.41341 -74.80709,17.56777 -84.96874,-22.29849 -48.82984,8.61002 -59.08349,-62.30321 4.90644,-72.57606 21.27682,-19.71685 78.65623,-21.66313 161.57394,-20.53466 112.95739,1.5373 150.58063,-26.38372 175.04988,-1.99345 58.6132,-6.42637 53.5917,78.75937 -3.18288,75.19419 -2.63592,23.31832 -33.84572,43.29837 -94.83191,18.08821 -18.01765,27.0712 -53.03327,38.92531 -90.95633,18.91528 z" fill="#fdd37c" />
        <ellipse cx="828.32581" cy="-185.41476" fill="#ffe9ac" rx="148.26024" ry="11.212728" transform="rotate(355.91781)" />
        <path d="m 675.30247,-197.09872 c 8.48528,9.89949 2.45517,26.62441 -30.39783,32.41728 -9.01786,-35.37894 21.91255,-42.31678 30.39783,-32.41728 z m 60.68128,-0.87341 c 20.82078,1.45593 31.09772,33.95672 -6.11037,55.58918 -30.16334,-21.91495 -17.41117,-57.23397 6.11037,-55.58918 z m 136.4376,-20.59868 c 24.15796,-5.20917 34.01641,24.99639 15.99876,52.0676 -39.06425,-16.14817 -43.15625,-46.21164 -15.99876,-52.0676 z m 77.39459,-1.29917 c 12.88019,-15.35 36.88613,4.75824 33.43608,35.27856 -31.95001,-2.00632 -43.6359,-23.12288 -33.43608,-35.27856 z" fill="#f1a735" />
      </g>
      <g>
        <ellipse cx="482.01334" cy="-584.28607" fill="#d9dbf3" id="path5856" rx="19.342606" ry="16.485565" transform="rotate(30)" />
        <use transform="rotate(155.59824 865.70244 14.956808)scale(1-1)" xlink:href="#path5856" />
        <g clip-path="url(#clipPath5934)">
          <path d="m 704.8815,-255.02971 -28.38813,-189.46984 234.60992,-15.65771 -6.44146,190.73807 z" fill="#ffc6c6" id="path5827" />
          <path d="m 677.79945,-352.45373 c 35.57036,-17.94799 57.9268,-59.70715 56.18833,-106.2583 l -67.15782,5.90505 z m 127.47301,100.99331 c 70.99218,-27.0734 13.23841,-126.25625 122.12853,-172.45312 l -7.7843,69.14337 c -30.70103,24.52213 -41.15399,51.84662 -28.22713,98.71884 z m -112.90925,-47.56962 c 34.57401,-12.86449 57.60496,-38.51574 52.71621,-68.91727 -4.16248,-25.88516 36.14088,-57.65191 10.17757,-96.30433 l 70.83568,-4.08301 c 13.74194,101.61009 -39.94163,94.27076 -44.18427,125.73701 -1.99317,14.78267 5.70003,64.8731 -84.22504,80.08714 z" fill="#f69898" />
          <path d="m 671.28328,-399.16829 c 16.97517,-4.55144 26.69041,-13.70343 36.70608,-23.90625 28.02088,18.42159 52.44302,13.43617 74.38787,-7.66214 18.24558,10.53362 34.25604,7.65644 49.17757,-1.75424 9.86299,4.11013 19.55647,5.67753 28.75656,-0.15589 13.39561,6.22773 24.22794,3.48395 33.63108,-4.26199 6.40434,10.81057 18.12047,14.55935 33.02115,12.37358 l -2.38414,-45.18474 -257.25031,12.20912 z" opacity=".2" />
        </g>
        <path d="m 703.05407,-244.21965 c 7.48672,10.70426 16.68786,16.10939 31.45922,4.29751 11.6317,2.79891 23.69823,7.98943 32.77643,-3.25589 9.12304,7.50638 18.95074,11.64767 32.39108,-1.46337 l 33.25,-2.75 c 5.90951,6.79479 11.66148,14.66185 20.80788,-0.57554 9.88815,11.88939 15.98269,5.89457 21.25,-4 15.06686,9.04959 26.48545,9.64052 31.28574,-1.13148 14.34397,9.03412 27.65953,4.95471 10.72213,-12.79353 z" opacity=".2" />
        <use transform="rotate(80.82764 804.00888-162.0325)scale(.89123916)" xlink:href="#ellipse5781" />
        <use transform="rotate(158.10893 775.37071-275.97848)scale(1.0493085)" xlink:href="#ellipse5781" />
        <use transform="rotate(92.855271 771.05653-285.10023)scale(1.0004066)" xlink:href="#ellipse5781" />
        <use transform="rotate(90 778.03806-254.50854)scale(.96739508)" xlink:href="#ellipse5781" />
        <ellipse cx="-500.21637" cy="-678.52081" fill="#fff" id="ellipse5781" rx="19.257158" ry="21.583601" transform="rotate(108.7269)" />
        <use transform="rotate(335.82764 809.85499-317.79852)scale(1.0000085)" xlink:href="#ellipse5781" />
        <use transform="rotate(113.9534 840.91093-232.52371)scale(.9939188)" xlink:href="#ellipse5781" />
        <use transform="rotate(102.45646 844.62877-195.21945)scale(.94365371)" xlink:href="#ellipse5781" />
        <path d="m 910.92349,-269.98193 c 9.2998,0.86558 10.31414,-9.38569 -0.0277,-8.86877 -16.40362,0.81991 -14.38005,29.81882 7.61679,15.11255 m -41.04399,1.21015 c 11.13693,2.82843 11.16943,-9.88161 2.00555,-9.85993 -16.54335,0.0391 -15.3665,27.40648 7.15609,17.64934 m -33.31307,-6.09517 c 4.51276,8.70164 13.67101,-4.1867 4.88651,-7.43025 -13.46288,-4.97098 -19.59396,18.83942 -0.43016,17.14172 m -30.26975,-7.90231 c 15.32821,2.47152 11.21619,-11.53268 0.56377,-10.17083 -17.1381,2.191 -11.83164,31.89119 13.23416,15.7147 m -41.68282,-2.93713 c 15.01592,5.61503 10.68317,-12.71577 0.10215,-9.46055 -15.82137,4.86738 -8.5195,27.37312 12.43799,16.63584 m -44.63301,-6.71094 c 15.87902,6.42891 18.00987,-8.80406 4.44867,-10.57594 -18.54281,-2.42277 -18.70568,27.92586 7.50474,19.44918 m -39.93442,-4.98492 c 9.34069,-1.63324 7.11922,-18.07364 -4.09915,-12.79523 -13.04608,6.13838 -4.61594,31.58212 12.96633,17.10527 m -25.87292,-1.50141 c -27.20534,12.88826 -32.53582,-13.74068 -16.57766,-17.83587 12.83243,-3.29306 12.82035,9.59132 3.09763,11.88942" style="fill:none;stroke-width:3.5;stroke:#d9dbf3;stroke-linecap:round" />
      </g>
      <g>
        <g clip-path="url(#clipPath6031)">
          <path d="m 715.85825,-446.07409 -27.00021,-212.70233 c 59.07728,-20.53477 118.96171,-27.75166 179.92372,-17.18848 l 1.64032,221.37346 z" fill="#f1c8e1" id="path5956" />
          <path d="m 926.18979,-600.55732 c 45.89608,0.40101 54.09212,8.86065 6.90338,31.91792 12.29569,58.46427 -4.11051,75.51169 -33.83461,27.06461 -40.96774,33.81137 -60.559,24.2504 -15.17368,-27.95904 -48.94606,-24.4469 -41.79587,-39.96681 3.97822,-33.36184 20.55233,-60.02196 30.95751,-61.81928 38.12669,2.33835 z m -192.66422,14.31376 c 44.78594,-10.04148 54.6903,-3.66618 13.97749,29.51337 25.26252,54.13928 13.29767,65.72419 -26.66022,25.30133 -32.2103,42.23819 -42.03111,28.00126 -26.57062,-18.32832 -47.43709,-9.67526 -44.48416,-26.12536 1.59311,-30.09752 6.37166,-63.12237 16.09597,-67.2377 37.66024,-6.38886 z" fill="#a897b5" />
          <path d="m 683.54604,-631.98198 c 10.57729,2.02833 22.5371,-2.3952 26.3619,-9.8629 7.74756,2.90818 17.95685,0.94885 22.08436,-4.82476 13.19265,4.29558 25.04597,0.83094 32.49149,-6.48953 12.61564,1.51464 21.14857,-2.6865 29.11463,-7.68128 10.17595,3.18591 23.05635,2.64343 32.38961,-1.17657 8.97571,7.22839 16.16402,8.75324 25.69311,7.16008 8.25397,6.73596 16.166,8.49894 27.46776,6.3109 l -2.87394,-59.22566 -196.3509,17.77801 z" opacity=".2" />
        </g>
        <use transform="rotate(346.75562 538.78684-1704.0994)scale(.91311447)" xlink:href="#path5877" />
        <path d="m 686.47663,-458.61193 c 11.73339,-9.61201 36.18189,-11.08373 47.22848,2.37776 20.99452,-8.10178 53.97022,-9.84676 72.02124,-2.68431 18.07295,-4.94315 42.2362,-8.01462 60.16217,-4.36953 12.38309,-4.76815 23.88309,-5.8717 35.63309,-5.8717 4.18099,7.90611 4.13131,15.418 1.4956,21.17272 -12.64376,6.26557 -24.05646,5.40533 -35.39825,3.76073 -16.76934,7.93797 -36.79473,9.97459 -56.47632,5.10614 -20.01348,6.01144 -45.54125,6.67999 -67.46799,-0.23551 -16.95343,6.88685 -36.69771,15.05294 -54.0748,5.1258 z" fill="#ededed" />
        <ellipse cx="582.14337" cy="-566.74762" fill="#c26667" id="path5877" rx="25.163025" ry="28.607998" transform="rotate(10.712018)" />
        <use transform="rotate(5.8231121 642.82211 40.801713)scale(1.0248432)" xlink:href="#path5877" />
        <use transform="rotate(354.45889 681.07378-1800.8144)scale(1.0002005)" xlink:href="#path5877" />
        <use transform="rotate(8.4134461 785.22556 768.25416)scale(1.0251353)" xlink:href="#path5877" />
        <path d="m 663.44555,-437.103 c 37.31003,1.52793 18.86982,-40.20168 2.03713,-27.88388 -12.47229,9.12695 -0.96657,26.22396 8.62408,17.43926 8.02108,-7.34702 -0.62076,-17.7085 -6.63117,-7.98578 m 121.3789,8.60154 c 15.48602,11.68596 34.10503,-3.60181 23.16208,-21.15668 -9.99796,-16.03889 -27.88754,2.82105 -18.06629,13.32749 8.99626,9.62389 18.64533,-0.0371 12.36739,-9.27341 -5.78165,-8.50615 -11.85033,1.09207 -7.78447,6.04182 m 116.83926,-27.05436 c -16.23997,8.05392 -2.91051,39.4974 11.7167,30.50522 10.91727,-6.71147 -0.0791,-27.82848 -7.65313,-22.76916 -5.25207,3.50828 -1.9665,11.88613 3.16002,11.3558 m -66.40749,-5.71841 c -8.84416,33.67479 25.41695,37.43238 30.01438,11.30402 4.39274,-24.96506 -23.98015,-24.4516 -22.78572,-4.12967 0.96724,16.45659 13.1323,13.75267 15.25362,3.54409 1.45157,-6.9855 -6.51105,-10.70383 -8.98593,-2.57211 m -142.10101,20.08317 c 34.38918,15.97335 32.63562,-28.32969 17.87121,-29.44771 -18.71863,-1.41746 -15.2142,24.06551 -4.74445,24.93964 8.74345,0.73 9.52881,-12.64895 4.13626,-13.96536 -6.19994,-1.51351 -6.96443,5.13281 -3.4289,7.07735" style="fill:none;stroke-width:3;stroke:#b14849;stroke-linecap:round" />
        <ellipse cx="742.17603" cy="-673.81091" fill="#fff" id="path5974" rx="16.535999" ry="19.090847" />
        <use transform="rotate(352.33202-275.56152-1831.6914)scale(.81429326)" xlink:href="#path5974" />
        <use transform="rotate(173.643 711.11166-620.37785)scale(.84009015)" xlink:href="#path5974" />
        <use transform="rotate(180.66532 724.517-629.18084)scale(.85221019)" xlink:href="#path5974" />
        <use transform="rotate(210.08213 747.32524-667.90922)scale(.90244108)" xlink:href="#path5974" />
        <use transform="rotate(210.08213 733.68008-654.86004)scale(.84912905)" xlink:href="#path5974" />
        <use transform="rotate(180.08213 716.4318-659.00766)scale(.96533705)" xlink:href="#path5974" />
        <use transform="rotate(180.08213 665.5785-619.3502)scale(.86204107)" xlink:href="#path5974" />
        <path d="m 865.41528,-674.57945 c 7.07106,6.89429 10.105,-5.05416 4.24264,-6.71752 -9.27782,-2.63245 -15.47784,11.00199 -3.04975,15.36394 m -175.23114,8.92453 c 7.95495,0.35355 4.20948,-12.76753 -2.82843,-7.24785 -9.26847,7.26907 -2.31054,20.02926 10.15334,11.87669 m 143.05864,-26.43457 c 7.24785,2.65166 11.4589,-5.40533 5.83364,-8.66206 -10.07628,-5.83363 -21.24264,14.75524 -1.01829,16.03162 m -28.05139,-10.70877 c 9.08506,0.40077 8.12852,-11.33037 -1.49011,-7.70861 -9.61859,3.62173 -7.30541,17.71291 5.62594,14.24822 m -30.21857,-6.13118 c 7.41549,6.25121 11.44606,-6.45119 1.8329,-8.83194 -8.15715,-2.02016 -15.8199,14.54245 1.92408,17.06272 m -26.6048,-4.46151 c 6.25,2.25 7.25,-11 -2,-8 -9.25,3 -7.16869,20.03735 6.375,14.5 m -31.99559,-1.16952 c 8.10709,0.26415 8.35076,-12.21947 -0.19724,-10.18103 -11.99702,2.86093 -8.13305,25.39049 9.11955,16.33925 m -34.48013,-0.61385 c 7.81072,-1.36589 5.9533,-15.11384 -3.42793,-10.6998 -10.90923,5.13298 -3.85983,26.4098 10.84277,14.30376" style="fill:none;stroke-width:3;stroke:#d9dbf3;stroke-linecap:round" />
      </g>
    </g>
    <g>
      <path d="m 977.76759,321.5543 c 21.42173,-102.85536 -140.68562,-60.17656 -108.9774,54.60978 -89.32644,-65.71228 -156.78334,74.60553 -86.36156,159.11702 l 87.34735,-104.25708 c 32.87364,-33.45954 76.18554,-43.99541 115.92183,-23.43856 13.27197,-60.0371 98.97439,-91.69775 109.85039,-19.54797 7.2128,47.84919 68.0493,15.47054 43.2653,-30.9156 -4.7227,14.77207 -11.1551,25.03676 -23.2191,30.6858 42.2625,-93.46628 -22.1731,-134.86703 -90.5342,-85.97499 -6.0584,-13.31822 -26.23186,-11.11106 -47.29261,19.7216 z" style="fill:#eb458b;stroke-width:6;stroke-miterlimit:20;stroke:#bb1c76" />
      <path d="m 1024.6191,303.50977 c -8.1108,6.15845 -14.5683,15.04952 -17.7304,22.9082 -1.6503,4.10127 -2.4047,7.90098 -2.1426,10.75 0.2621,2.84902 1.3692,4.64636 3.6582,5.42578 2.0298,0.69116 4.5397,-0.0618 7.1465,-2.13867 2.6068,-2.07692 5.2026,-5.42555 7.2187,-9.49805 3.8579,-7.79281 5.5271,-18.16587 1.8496,-27.44726 z" style="fill:#eb458b;stroke-width:4;stroke-miterlimit:20;stroke:#bb1c76" sodipodi:type="inkscape:offset" inkscape:original="M 1025.0605 301.83203 C 1007.4513 314.4262 997.39653 339.90253 1008.082 343.54102 C 1017.9586 346.9041 1034.1018 321.70759 1025.0605 301.83203 z " inkscape:radius="-1" />
      <path d="m 755.0188,430.04558 c 2.64662,25.38423 22.93023,32.55978 38.84171,23.16225 -7.50676,24.8432 14.7765,34.65204 37.15653,24.14849 m 50.14209,-182.21744 c -9.31612,34.07883 4.6309,51.44427 28.1417,63.23318 -26.92649,7.04556 -15.53074,30.4476 18.09362,39.56115 m 43.96262,-121.31029 c -45.56601,-7.13267 -57.77374,45.12956 -20.97113,76.19604 -32.50747,1.50154 -23.14805,31.29655 -2.09794,44.51071" style="fill:none;stroke-width:3;stroke-miterlimit:20;stroke:#bb1c76" />
      <path d="m 880.8453,432.99907 c -18.15053,-28.84576 -55.05214,-52.53031 -62.16133,-48.55208 -7.78409,4.3559 -34.74468,81.21889 40.67591,132.31503 z" fill="#f5b7d0" />
      <path fill="#e880b0" inkscape:original-d="m 880.8453,432.99907 c -18.15053,-28.84576 -55.05214,-52.53031 -62.16133,-48.55208 -7.78409,4.3559 -34.74468,81.21889 40.67591,132.31503" inkscape:path-effect="#path-effect897" />
      <path d="m 829.36314,425.57146 c 1.70231,23.4807 10.29731,41.24481 28.55066,54.86888 -15.2779,-17.54735 -22.56223,-32.7062 -28.55066,-54.86888 z" fill="#e880b0" />
      <path d="m 815.17159,486.22063 c 57.08408,-37.11065 118.73889,1.37211 72.63066,59.97111 52.63084,22.44713 72.61017,89.00782 -3.91875,123.79821 50.84915,9.63247 -18.28345,72.93732 -55.65886,27.36607 21.42104,3.09358 35.90664,-3.17361 43.61651,-14.34156 -61.26714,2.54702 -78.55417,-34.70302 -56.68013,-62.05119 -86.67437,13.70001 -78.11404,-111.95995 -27.60773,-134.51678 z" fill="#eb458b" />
      <path fill="#bb1c76" inkscape:original-d="m 815.17159,486.22063 c 57.08408,-37.11065 118.73889,1.37211 72.63066,59.97111 52.63084,22.44713 72.61017,89.00782 -3.91875,123.79821 50.84915,9.63247 -18.28345,72.93732 -55.65886,27.36607 21.42104,3.09358 35.90664,-3.17361 43.61651,-14.34156 -61.26714,2.54702 -78.55417,-34.70302 -56.68013,-62.05119 -86.67437,13.70001 -78.11404,-111.95995 -27.60773,-134.51678" inkscape:path-effect="#path-effect56" />
      <path d="m 776.65278,493.29406 c -13.15982,41.95757 6.36745,64.99885 39.71093,65.84462 -22.02428,21.90603 -4.87466,47.9263 40.10205,44.55385 -32.27914,28.60043 -10.07242,60.9682 43.07929,57.4539" style="fill:none;stroke-width:3;stroke-miterlimit:20;stroke:#bb1c76" />
      <path d="m 871.24609,544.16797 c -8.07531,0.19714 -15.73055,2.62445 -21.01757,5.85742 -2.64352,1.61648 -4.68933,3.43632 -5.90625,5.20703 -1.21693,1.77072 -1.60289,3.41608 -1.16407,4.92188 0.5775,1.98165 2.35587,3.38247 5.25391,4.08789 2.89804,0.70541 6.82467,0.61932 11.19922,-0.41797 8.39623,-1.99091 18.37985,-7.56493 26.36133,-17.13477 -4.79826,-1.80248 -9.82558,-2.64113 -14.72657,-2.52148 z" style="fill:#eb458b;stroke-width:4;stroke-miterlimit:20;stroke:#bb1c76" sodipodi:type="inkscape:offset" inkscape:original="M 871.22266 543.16797 C 854.70531 543.5712 840.03778 553.0234 842.19727 560.43359 C 844.99252 570.02537 871.25077 567.22731 887.80273 546.19141 C 882.44036 543.90435 876.72844 543.03356 871.22266 543.16797 z " inkscape:radius="-1" />
    </g>
    <g>
      <path d="m 882.3995,752.06745 c -8.87181,59.16155 28.42639,82.25715 0.37559,148.59438 -15.71221,37.15775 27.21518,92.76673 54.6001,67.6135 33.71162,-30.96434 36.17865,-107.391 24.54805,-140.81728 -11.9683,-34.39684 -29.43701,-39.84626 -31.60163,-85.56 z" fill="#f5b7d0" />
      <path fill="#e880b0" inkscape:original-d="m 882.3995,752.06745 c -8.87181,59.16155 28.42639,82.25715 0.37559,148.59438 -15.71221,37.15775 27.21518,92.76673 54.6001,67.6135 33.71162,-30.96434 36.17865,-107.391 24.54805,-140.81728 -11.9683,-34.39684 -29.43701,-39.84626 -31.60163,-85.56" inkscape:path-effect="#path-effect37" />
    </g>
  </g>
</svg>
