<svg xmlns="http://www.w3.org/2000/svg" xmlns:inkscape="http://www.inkscape.org/namespaces/inkscape" xmlns:xlink="http://www.w3.org/1999/xlink" height="1000" viewBox="0 0 1000 1000" width="1000">
  <defs>
    <inkscape:path-effect effect="powerstroke" id="path-effect2548" interpolator_type="CubicBezierSmooth" offset_points="0.14,3" start_linecap_type="zerowidth" />
    <inkscape:path-effect effect="powerstroke" end_linecap_type="zerowidth" id="path-effect2546" interpolator_type="CubicBezierSmooth" offset_points="0.29,3 | 5.71,3" start_linecap_type="zerowidth" />
    <inkscape:path-effect effect="powerstroke" end_linecap_type="zerowidth" id="path-effect2310" interpolator_type="CubicBezierSmooth" miter_limit="20" offset_points="0.19,3 | 3.5,3 | 6.79,3" start_linecap_type="zerowidth" />
    <inkscape:path-effect effect="powerstroke" end_linecap_type="zerowidth" id="path-effect869" interpolator_type="CubicBezierSmooth" offset_points="0.19,3 | 3.67,3" start_linecap_type="zerowidth" />
    <inkscape:path-effect effect="powerstroke" end_linecap_type="zerowidth" id="path-effect877" interpolator_type="CubicBezierSmooth" offset_points="0.47,2.5 | 1.36,2.5" start_linecap_type="zerowidth" />
    <linearGradient id="linearGradient851">
      <stop offset="0" stop-color="#766360" />
      <stop offset="1" stop-color="#2f1d1b" />
    </linearGradient>
    <inkscape:path-effect effect="powerstroke" end_linecap_type="zerowidth" id="path-effect821" interpolator_type="CubicBezierSmooth" offset_points="0.2,3 | 1.59,3" start_linecap_type="zerowidth" />
    <clipPath id="clipPath869">
      <use xlink:href="#ellipse833" />
    </clipPath>
    <clipPath id="clipPath891">
      <use xlink:href="#path8" />
    </clipPath>
    <clipPath id="clipPath2403">
      <path d="M 710.85385,364.49177 C 714.9268,357.42872 715.48027,348.65628 712.8636,338.41852 L 705.35314,334.03238 C 708.4312,347.25145 708.33503,355.55881 704.02416,361.78053 Z M 719.2001,366.95819 C 716.64081,378.04194 717.95164,388.13882 724.29612,400.39021 L 730.35585,395.61588 C 725.55388,385.11707 723.97766,376.48197 725.67752,366.55234 Z M 710.17095,372.11703 C 706.65003,365.5609 698.1765,362.34119 684.48606,362.84987 L 681.7632,368.08615 C 692.99781,367.13906 700.38353,370.32922 703.9629,375.41981 Z M 716.869,361.88489 C 727.04056,364.03915 737.53447,362.64121 747.65353,358.27788 L 755.03555,349.52607 C 738.85547,356.02208 726.93181,358.32689 717.78723,357.22827 Z M 714.76218,373.80744 C 709.19379,376.01581 703.91467,379.11107 698.99882,382.9774 L 700.31182,391.953 C 704.66955,387.09648 709.59515,383.20633 714.94391,380.41733 Z" />
    </clipPath>
    <filter color-interpolation-filters="sRGB" height="1.0621857" id="filter2515" width="1.0626157" x="-0.031307874" y="-0.031092867">
      <feGaussianBlur stdDeviation="0.47393756" />
    </filter>
    <linearGradient gradientUnits="userSpaceOnUse" id="linearGradient2529" x1="414.56735" x2="408.47131" y1="396.66986" y2="462.71423" xlink:href="#linearGradient851" />
    <clipPath id="clipPath2568">
      <path d="M 649.49461,222.97619 C 642.06959,212.94265 636.12059,200.43572 632.56892,186.77797 L 658.94791,32.952535 370.10459,42.195522 372.03021,650.30701 H 478.70968 L 487.56754,363.3893 684.36613,360.30831 709.20665,228.59575 Z" />
    </clipPath>
  </defs>
  <path d="M 514.74323,451.96741 C 538.5125,499.24137 579.23568,534.84351 606.37711,536.05815 679.17986,539.31623 716.40063,381.03121 646.44125,370.94433 590.21193,362.83707 579.86117,464.0125 624.5273,468.74614" style="fill:#9e2224;fill-rule:evenodd;stroke:#7d171b;stroke-width:6" />
  <path d="M 651.49796,387.86322 C 659.06912,410.04193 653.50291,439.61303 640.78866,456.63336 658.74824,444.67227 663.84047,403.09916 651.49796,387.86322 Z" fill="#7d171b" fill-rule="evenodd" />
  <g>
    <use xlink:href="#path2313" />
    <path d="M 646.50438,896.25587 C 611.82325,922.15208 619.87529,953.36468 663.92678,953.99632 702.55636,954.55022 715.83117,918.42093 678.80614,896.1982" fill="#b9292c" />
    <path d="M 679.97393,893.6816 C 717.12597,920.37295 712.21101,956.33241 662.69055,956.33241 613.17009,956.33241 608.25513,920.37295 645.40717,893.6816" fill="#2bac4c" id="path2313" opacity=".1" />
  </g>
  <use xlink:href="#path2297" />
  <path d="m 467.85361,481.32067 c -93.89096,46.86341 -143.2718,-6.57087 -87.03409,-24.67229 -186.10113,-15.78245 -166.29781,-79.54748 -60.39787,-55.16026 -104.6604,-45.0741 -137.30291,-93.0371 -129.6394,-106.70454 7.60126,-13.55633 56.6211,8.21023 153.14233,64.44165 -99.96789,-85.66081 -122.25033,-111.547 -113.15757,-120.91841 8.92781,-9.20135 49.28087,-0.86028 90.31106,36.33145 60.00247,54.38959 81.59862,115.54637 156.16447,172.98584" style="fill:#9e2224;stroke:#7d171b;stroke-width:6;stroke-miterlimit:20" />
  <path d="m 435.67308,114.10232 c -29.60716,44.54481 -46.5216,104.16185 -41.27094,163.9319 4.07272,-18.90909 8.50695,-30.32513 14.61604,-41.96149 -2.03636,43.92727 8.5091,80.18181 32.07273,112.18182" style="fill:#1b130e;fill-rule:evenodd;stroke:#000;stroke-width:6;stroke-miterlimit:20" />
  <path d="M 666.76244,888.62195 C 673.5535,759.93619 818.83687,726.03505 709.5292,546.87159 648.17032,446.29978 693.71983,360.04147 750,377.66588 799.08794,393.03801 802.81924,330.34178 755.03555,349.52607 727.83159,360.44797 712.65991,359.52196 702.49886,350.49226 639.26326,294.29741 621.27963,373.18495 681.7632,368.08615 704.02077,366.20982 711.17144,380.57216 703.54612,393.7796 671.76913,448.81897 757.36458,454.66655 730.35585,395.61588 721.39969,376.03454 723.66464,362.9363 737.47719,335.83069 765.7854,280.27895 691.76858,275.69207 705.35314,334.03238 710.96641,358.13916 706.02327,365.9113 684.21361,374.48831 589.01618,411.92628 566.88027,528.21331 617.55937,600.09359 665.35563,667.88502 659.24422,714.1948 628.14931,724.4639 590.21507,736.99169 534.86278,677.15076 549.60462,584.92079 568.80653,464.78712 532.37587,412.62365 545.19198,335.38774 580.3897,334.07323 611.4886,322.1553 650.16383,328.09148 L 674.32221,247.27648 C 653.98826,239.05672 636.90412,215.3688 629.66549,187.533 603.05721,85.212262 441.96135,82.010656 425.87712,210.79637 415.46249,294.18581 449.01599,360.93455 432.9535,429.2093 416.40117,499.56616 415.19196,567.61603 430.63683,627.80647 461.18166,746.84316 545.65641,819.55117 624.51163,793 707.01449,765.22065 719.57659,667.01326 662.00718,600.46514 596.1036,524.28302 607.30037,417.71827 695.59752,377.39869 712.31224,369.76616 717.44329,356.33663 712.8636,338.41852 700.82326,291.31053 754.19905,294.76528 729.39535,342.0449 717.18014,365.32893 713.64567,379.82384 724.29612,400.39021 741.72164,434.03947 690.424,435.77881 706.79691,399.99713 718.13336,375.22222 711.36298,361.85124 684.48606,362.84987 636.87045,364.61907 654.6314,317.21931 694.95862,350.91116 711.19507,364.47609 729.99506,365.8922 747.65353,358.27788 786.29311,341.61651 788.30729,383.17297 751.99246,372.39786 681.24759,351.40689 627.09571,465.94858 687.51712,562.70989 788.83043,724.95716 644.97504,770.68212 659.24586,888.65453 659.68101,892.25179 651.32652,888.91835 635.93042,886.81451 566.43145,877.31768 502.55767,927.62301 513.73432,943.32741 528.9743,964.74124 606.54859,939.99049 639.5414,910.21677 652.53411,898.49175 674.07046,900.3169 685.2422,909.25933 741.98928,954.68256 791.6627,956.30402 808.48667,949.2779 832.05147,939.43664 781.74399,879.03887 686.4316,886.3617 674.60014,887.27071 666.58103,892.05958 666.76244,888.62195 Z" fill="#b9292c" />
  <g>
    <g clip-path="url(#clipPath891)" transform="translate(1.4142135 2.2928932)">
      <ellipse cx="363.38498" cy="460.96848" fill="#fff" fill-rule="evenodd" id="path8" rx="46.755222" ry="56.991497" transform="rotate(-29.180768)" />
      <g clip-path="url(#clipPath869)">
        <ellipse cx="425.64954" cy="429.91055" fill="url(#linearGradient2529)" fill-rule="evenodd" id="ellipse833" rx="36.882267" ry="44.957088" transform="rotate(-23.014207)" />
        <path d="M 566.75,231.75 544.5,283.125 520.05546,258.93109 Z" fill="#8f7f7d" fill-rule="evenodd" />
        <path d="M 566.75,231.75 514.25,251.625 526.25,270.75 Z" fill="#685552" fill-rule="evenodd" />
        <ellipse cx="422.25479" cy="439.21964" fill-rule="evenodd" rx="30.126091" ry="36.24044" transform="rotate(-23.957576)" />
        <ellipse cx="583.6676" cy="23.995993" fill="#fff" fill-rule="evenodd" rx="12.422626" ry="18.155058" transform="rotate(19.072257)" />
        <ellipse cx="604.2287" cy="15.748953" fill="#fff" fill-rule="evenodd" rx="4.4073544" ry="6.4411364" transform="rotate(21.545692)" />
      </g>
    </g>
    <path inkscape:original-d="M 520.91939,271.43591 C 484.85209,243.081 487.15112,193.94315 515.64616,177.82506 531.52618,168.84259 552.56795,172.65468 568.17549,185.47161" inkscape:path-effect="#path-effect877" />
  </g>
  <path fill="#8e1b1f" inkscape:original-d="M 549.60462,584.92079 C 568.80653,464.78712 532.37587,412.62365 545.33433,335.39499" inkscape:path-effect="#path-effect2548" />
  <g clip-path="url(#clipPath2568)">
    <path fill="#8e1b1f" inkscape:original-d="m 477.39088,321.58719 c 69.64155,32.17642 111.78826,-2.85613 172.77295,6.50429 l 24.15838,-80.815 C 653.98826,239.05672 636.90412,215.3688 629.66549,187.533 603.05721,85.212262 441.96135,82.010656 425.87712,210.79637 c -10.41463,83.38944 23.13887,150.13818 7.07638,218.41293 -16.55233,70.35686 -17.76154,138.40673 -2.31667,198.59717" inkscape:path-effect="#path-effect2546" />
    <path d="M 597.2981,236.26843 C 613.86536,227.25201 632.4591,221.34611 649.97904,219.37805 M 508.286,271.6242 C 538.98377,272.31638 569.70893,268.85498 599.14787,261.95297 L 595.61383,211.27286 C 564.46225,210.25965 529.36233,213.74728 501.29207,221.28437 Z" fill="none" stroke="#121212" stroke-width="3.29999995" />
  </g>
  <g>
    <path d="m 464.285,431.59777 c -26.16291,77.58031 28.93038,124.73448 56.14326,96.49165 30.38283,-31.53275 69.31356,-49.77709 100.04131,-52.6089 26.29205,-2.42302 22.5657,-104.24764 -7.73417,-103.39925 -28.62231,0.80142 -103.91349,40.63809 -125.25645,97.97141 z" fill="#b9292c" />
    <path fill="#8e1b1f" inkscape:original-d="m 464.285,431.59777 c -26.16291,77.58031 28.93038,124.73448 56.14326,96.49165 30.38283,-31.53275 69.31356,-49.77709 100.04131,-52.6089 26.29205,-2.42302 22.5657,-104.24764 -7.73417,-103.39925 -28.62231,0.80142 -103.91349,40.63809 -125.25645,97.97141" inkscape:path-effect="#path-effect869" />
  </g>
  <path d="M 600.49793,290.54117 C 611.39752,306.75409 628.13145,312.85414 655.17572,310.85756 L 657.1456,304.5237 C 632.29074,307.74552 615.35442,303.27248 600.49793,290.54117 Z M 634.9281,253.31037 C 634.948,258.4144 637.40569,260.4137 642.51522,259.96088 636.19406,265.13825 630.71049,260.49289 634.9281,253.31037 Z" fill="#8e1b1f" fill-rule="evenodd" />
  <g>
    <path d="m 467.96353,139.20952 c 30.54444,7.13826 53.28435,20.88766 68.55522,49.18249 2.91804,-19.77761 1.20639,-38.33276 -12.26046,-55.19218 14.71096,3.01631 24.74979,11.61744 33.40566,25.63485 3.28519,-10.9789 3.33973,-20.01956 -0.70182,-30.90007 40.76388,20.82506 66.33051,14.22157 95.20333,46.41622 0.25554,-27.41465 -8.06704,-44.16636 -31.21377,-60.867 15.38249,-1.37855 28.72513,2.22134 41.45559,10.54095 -3.09124,-13.4029 -9.04623,-22.38092 -22.11187,-28.818324 18.09045,-9.738973 22.63247,-22.762555 20.44724,-43.99081 -42.67521,51.184494 -83.88145,-4.006587 -136.82908,20.887605 4.8563,-9.869223 11.04187,-18.274791 19.81452,-26.264159 -39.82938,7.406491 -70.85498,23.865021 -95.88871,56.598618 z" style="fill:#1b130e;fill-rule:evenodd;stroke:#000;stroke-width:6;stroke-miterlimit:20" />
    <path d="m 439.79063,220.64593 c -42.81558,-76.2471 -4.20043,-144.123939 5.41442,-144.839999 12.10637,-0.901615 36.49297,35.528809 36.11573,75.243459 z" fill="#b9292c" />
    <path fill="#8e1b1f" inkscape:original-d="m 439.79063,220.64593 c -42.81558,-76.2471 -4.20043,-144.123939 5.41442,-144.839999 12.10637,-0.901615 36.49297,35.528809 36.11573,75.243459" inkscape:path-effect="#path-effect821" />
    <path d="m 444.37323,118.71065 c -7.46225,19.33868 -7.16417,43.355 1.7755,61.773 -4.58358,-20.05611 -5.31253,-42.92044 -1.7755,-61.773 z" fill="#8e1b1f" fill-rule="evenodd" />
  </g>
  <g>
    <path d="m 443.33087,487.40347 c -88.8742,65.67455 -150.91306,23.64 -95.7274,-5.92101 C 150.157,505.08182 158.34669,438.38857 273.7208,440.06857 155.5886,417.84049 112.1022,377.65692 117.42809,362.644 c 5.28261,-14.89094 60.74067,-3.83743 172.5585,31.04184 -121.18278,-63.01723 -149.5246,-83.72517 -141.86451,-94.82514 7.52118,-10.89848 51.29784,-11.19192 101.43382,16.66721 73.31865,40.74108 107.85355,96.18335 196.97896,136.85751 z" fill="#b9292c" />
    <path fill="#8e1b1f" inkscape:original-d="m 443.33087,487.40347 c -88.8742,65.67455 -150.91306,23.64 -95.7274,-5.92101 C 150.157,505.08182 158.34669,438.38857 273.7208,440.06857 155.5886,417.84049 112.1022,377.65692 117.42809,362.644 c 5.28261,-14.89094 60.74067,-3.83743 172.5585,31.04184 -121.18278,-63.01723 -149.5246,-83.72517 -141.86451,-94.82514 7.52118,-10.89848 51.29784,-11.19192 101.43382,16.66721 73.31865,40.74108 107.85355,96.18335 196.97896,136.85751" inkscape:path-effect="#path-effect2310" />
    <path d="M 387.80222,475.99895 C 280.93301,487.37647 248.01748,412.10226 351.74521,434.93307 254.10084,375.86786 278.29925,342.47559 331.26657,374.94254 l -8.2266,4.012 z" fill="#b9292c" />
    <path d="m 401.97196,511.63959 c -25.4289,-4.57596 -28.69679,-21.69822 -14.16974,-35.64064 -106.86921,11.37752 -139.78474,-63.89669 -36.05701,-41.06588 -97.64437,-59.06521 -73.44596,-92.45748 -20.47864,-59.99053" style="fill:none;stroke:#8e1b1f;stroke-width:6;stroke-miterlimit:20" />
  </g>
  <path d="M 672.10332,960.32981 C 669.94807,943.96377 668.43476,922.63457 667.9578,905.53951 674.09762,907.03649 678.63441,909.21786 683.56126,913.32101 730.53453,952.44104 794.49122,966.02285 814.8421,949.32117 837.28234,930.90478 768.39408,865.69995 669.44299,887.02186 665.07348,884.91872 660.3125,885.5 655.93811,887.02186 556.98702,865.69995 488.09876,930.90478 510.539,949.32117 530.88988,966.02285 594.84657,952.44104 641.81984,913.32101 646.74669,909.21786 651.28348,907.03649 657.4233,905.53951 656.94634,922.63457 655.43303,943.96377 653.27778,960.32981 Z" fill="#2bac4c" id="path2297" opacity=".1" />
  <path d="M 805.16062,939.42678 C 784.34582,912.63988 742.96645,888.12778 678.93023,891.4316 743.38397,884.00965 791.18055,913.53769 805.16062,939.42678 Z M 645.40717,893.6816 C 592.90338,888.47333 547.2363,906.19247 518.92678,939.17678 540.58572,907.09265 593.40242,883.26635 645.40717,893.6816 Z" opacity=".4" fill="#fff" />
  <path clip-path="url(#clipPath2403)" d="M 704.49497,377.88804 C 706.6409,376.25387 709.09965,375.01047 711.71505,373.92624 712.70309,376.88653 713.03338,380.22307 712.52962,383.40492 L 705.01303,389.03347 C 706.10001,385.11306 705.89846,380.94918 704.49497,377.88804 Z M 717.05129,372.30794 C 720.08877,371.14351 723.0202,370.50664 726.26629,369.92743 726.01036,372.22551 726.09292,374.5612 726.46526,376.92908 723.28179,377.79357 720.14884,378.84798 717.07,380.10587 716.74978,377.51529 716.74405,374.89852 717.05129,372.30794 Z M 721.71209,356.37589 C 720.78139,358.66646 720.12788,361.04908 719.49053,363.633 722.15989,364.18208 724.68185,364.21526 727.15492,364.07731 727.5234,361.25426 728.39642,358.65668 729.45054,355.93158 726.65841,356.38925 724.28397,356.40717 721.71209,356.37589 Z M 704.60604,358.26422 C 707.43016,359.85061 710.37225,361.08308 713.4923,361.78169 L 715.15847,355.9686 C 711.96789,355.29647 709.16766,354.19382 706.08709,352.45112 Z M 693.11942,369.58934 C 696.70573,367.83349 699.09122,366.2356 701.02371,363.80093 704.45282,365.13003 706.76009,366.28803 709.04574,368.5994 707.19256,371.00016 704.92641,372.97218 702.05965,374.64698 699.86609,371.96275 697.00901,370.30697 693.11942,369.58934 Z" fill="#9e2224" filter="url(#filter2515)" />
  <path d="M 695.59752,377.39869 C 702.76205,374.12711 707.79833,369.79046 710.85385,364.49177 L 704.02416,361.78053 C 700.47357,366.90496 694.06383,370.61455 684.21361,374.48831 Z M 717.78723,357.22827 C 711.5568,356.47976 706.61643,354.15137 702.49886,350.49226 L 694.95862,350.91116 C 701.89089,356.7028 709.29047,360.27981 716.869,361.88489 Z M 714.94391,380.41733 C 725.3772,374.97711 737.42056,373.72657 750,377.66588 L 751.99246,372.39786 C 738.79255,368.48127 726.1703,369.28309 714.76218,373.80744 Z M 703.9629,375.41981 C 707.47485,380.41449 707.32253,387.23868 703.54612,393.7796 L 706.79691,399.99713 C 712.35885,387.84195 713.56225,378.43183 710.17095,372.11703 Z M 725.67752,366.55234 C 727.14807,357.96221 731.07043,348.40325 737.47719,335.83069 L 729.39535,342.0449 C 724.45674,351.45863 720.93708,359.4357 719.2001,366.95819 Z" fill="#b9292c" />
</svg>
