<svg xmlns="http://www.w3.org/2000/svg" xmlns:inkscape="http://www.inkscape.org/namespaces/inkscape" xmlns:xlink="http://www.w3.org/1999/xlink" height="1329" viewBox="0 0 843 1329" width="843">
  <defs>
    <linearGradient id="linearGradient908">
      <stop offset="0" stop-color="#06c1bf" />
      <stop offset="1" stop-color="#0965aa" />
    </linearGradient>
    <inkscape:path-effect effect="powerstroke" id="path-effect926" interpolator_type="CubicBezierSmooth" offset_points="0.36,3 | 1,3" start_linecap_type="zerowidth" />
    <inkscape:path-effect effect="powerstroke" end_linecap_type="zerowidth" id="path-effect924" interpolator_type="CubicBezierSmooth" offset_points="0.27,3 | 3.72,3" start_linecap_type="zerowidth" />
    <inkscape:path-effect effect="powerstroke" end_linecap_type="zerowidth" id="path-effect836" interpolator_type="CubicBezierSmooth" offset_points="0.24,2.4 | 0.84,2.4" start_linecap_type="zerowidth" />
    <linearGradient id="linearGradient1031">
      <stop offset="0" stop-color="#086bba" />
      <stop offset="1" stop-color="#1f96f6" />
    </linearGradient>
    <inkscape:path-effect effect="powerstroke" end_linecap_type="zerowidth" id="path-effect1019" interpolator_type="CubicBezierSmooth" offset_points="0.49,3 | 2.74,3" start_linecap_type="zerowidth" />
    <linearGradient gradientUnits="userSpaceOnUse" id="linearGradient1033" x1="504.70859" x2="504.61145" y1="393.36664" y2="428.50409" xlink:href="#linearGradient1031" />
    <clipPath id="clipPath880">
      <use transform="rotate(8.124805)" xlink:href="#path842" />
    </clipPath>
    <radialGradient cx="649.78925" cy="1184.1644" fx="649.78925" fy="1184.1644" gradientTransform="matrix(0.9563477,0,0,0.9563477,29.562486,51.691526)" gradientUnits="userSpaceOnUse" id="radialGradient910" r="72.017954" xlink:href="#linearGradient908" />
  </defs>
  <path d="M 579.51214,467.90046 C 510.58915,409.47144 479.99578,354.23662 471.43036,256.8195 440.09373,312.11873 441.31514,376.52742 467.04097,433.09452 382.18519,371.45513 351.27604,305.09515 366.53426,168.37182 261.82629,333.56107 293.17764,477.60886 450.72216,539.2817 397.97941,545.62508 354.53074,537.35883 307.62733,505.23088 333.80473,609.98353 422.05626,655.42726 526.49649,615.13637 Z" style="fill:#e5ecf2;stroke:#abc5dc;stroke-width:6;stroke-miterlimit:20" />
  <path d="M 510.5311,452.65206 C 434.09502,400.37031 396.26659,348.07637 374.76659,252.07637 350.91126,309.57742 360.70162,373.41804 393.85848,427.43885 301.12341,373.29315 261.49957,309.98092 258.49957,172.98092 176.18229,345.6693 226.58788,486.06984 391.73716,534.21198 340.0412,544.88965 295.65895,540.29167 244.65895,512.29167 284.67976,614.11147 378.6417,651.89679 477.31789,603.22417 Z" style="fill:#edf2f6;stroke:#c0d4e3;stroke-width:6;stroke-miterlimit:20" />
  <path d="M 633.56768,1073.0273 C 633.92123,1047.9251 614.24803,1033.0435 565.09964,1051.2284 494.38897,1077.3913 479.04528,1059.228 499.21738,1023.8835 521.41395,984.99176 488.66103,952.79838 314.71277,1030.5801 147.6537,1105.2813 154.81249,904.17462 270.8219,933.0202 363.57227,956.08245 457.82414,935.14152 462.77388,805.03388 L 394.5,706.82322 C 334,727.82322 307.19314,642.38132 182.5,658.5 -70.474079,691.20115 -15.5,1243 289.5,1068 397.3922,1006.0946 437,1028.5 423,1061.5 411.61361,1088.3393 454.43003,1128.8469 529,1087.5 591.48688,1052.8528 617.14645,1056.6213 616.02513,1074.1464" fill="#4697d8" opacity=".75" />
  <g>
    <path d="M 582.65348,569.70826 C 657.58274,621.47643 706.67646,696.45087 733.88145,783.49275 752.3347,842.53355 844.74667,815.4506 829.45454,768.1849 793.03958,655.63164 718.54936,575.88424 607.17974,531.16229 Z" style="fill:#edf2f6;stroke:#c0d4e3;stroke-width:6;stroke-miterlimit:20" />
    <path d="M 798.37634,783.63438 C 790.6518,769.40361 821.30055,760.63469 824.2464,777.36661 828.19154,799.77431 829.12508,819.07356 823.77153,841.72069 815.27063,817.04948 808.36831,802.0424 798.37634,783.63438 Z" fill="#106091" stroke="#064065" stroke-width="4.5" />
    <path d="M 771.4266,787.03676 C 765.31042,772.04426 795.09142,766.60604 797.67533,783.39768 801.8873,810.76937 800.87821,826.56948 795.10413,850.21837 786.8442,827.59981 780.26971,808.71375 771.4266,787.03676 Z" fill="#106091" stroke="#064065" stroke-width="4.5" />
    <path d="M 744.62634,791.38438 C 738.61116,776.35105 768.4535,770.31872 770.9964,787.11661 774.15075,807.95356 772.80559,825.555 764.27153,848.47069 757.44775,825.48982 752.78736,811.78065 744.62634,791.38438 Z" fill="#106091" stroke="#064065" stroke-width="4.5" />
    <path d="M 716.20711,740.04549 C 744.95711,719.29549 773.2474,711.25 809.2474,713.25 812.66504,720.2007 815.84499,727.31444 818.7929,734.5 779.7929,731 754.28033,738.58838 724.03033,759.83838 721.5367,753.01252 718.93639,746.40005 716.20711,740.04549 Z" fill="#f6e030" />
    <path d="M 773.625,715 780.25,735.125 796.25,733.625 787.875,713.25 Z" fill="#fff06b" />
    <path d="M 716.20711,740.04549 C 744.95711,719.29549 773.2474,711.25 809.2474,713.25 812.66504,720.2007 815.84499,727.31444 818.7929,734.5 779.7929,731 754.28033,738.58838 724.03033,759.83838 721.5367,753.01252 718.93639,746.40005 716.20711,740.04549 Z" fill="none" stroke="#fac42d" stroke-width="3" />
  </g>
  <path d="M 603.95778,409.1515 C 600.36897,483.61497 660.42887,486.29613 656.78059,568.07817 652.41393,665.9636 592.46329,764.13306 477.18063,807.84212 L 429.04722,808.58207 C 428.53321,773.0982 420.14664,734.89804 396.40158,700.47673 464.697,614.15133 505.06602,516.8349 496.3242,366.03863" fill="#edf2f6" stroke="#c0d4e3" stroke-width="6" />
  <g>
    <path d="M 486.87957,547.79174 C 501.41212,606.83093 496.38869,678.44312 508.349,698.67132 517.8529,714.74507 560.97433,732.75608 612.33889,802.42171 639.89986,839.8026 715.35832,783.62931 688.95874,749.61362 657.23132,708.73304 613.61586,680.81031 564.38712,664.33032 562.99911,621.75039 549.43181,579.01187 529.94214,537.94898 Z" fill="#edf2f6" />
    <path fill="#c0d4e3" inkscape:original-d="M 486.87957,547.79174 C 501.41212,606.83093 496.38869,678.44312 508.349,698.67132 517.8529,714.74507 560.97433,732.75608 612.33889,802.42171 639.89986,839.8026 715.35832,783.62931 688.95874,749.61362 653.64382,704.11057 603.60045,674.66139 547.39249,659.11722" inkscape:path-effect="#path-effect924" />
    <path fill="#c0d4e3" inkscape:original-d="M 529.94214,537.94898 C 549.43181,579.01187 562.99911,621.75039 564.45177,664.37348" inkscape:path-effect="#path-effect926" />
    <path d="M 679.04225,788.55903 C 692.46187,792.35935 706.05347,803.61425 713.05432,822.38294 720.62967,796.76077 707.39977,773.12106 688.3697,762.86351 675.9823,756.18648 666.96401,785.13857 679.04225,788.55903 Z" style="fill:#106091;stroke:#064065;stroke-width:4.5;stroke-miterlimit:20" />
    <path d="M 665.59659,770.66365 C 653.10244,763.1788 641.23116,793.98581 651.98181,798.32028 668.27305,804.88861 678.78313,819.23213 685.27163,843.15735 700.2671,813.63044 688.42347,784.33852 665.59659,770.66365 Z" style="fill:#106091;stroke:#064065;stroke-width:4.5;stroke-miterlimit:20" />
    <path d="M 640.37593,779.75379 C 631.0585,771.69846 612.55533,795.53102 623.30536,803.45872 637.62687,814.02024 645.6261,830.30518 647.30396,851.06707 665.6039,825.5385 661.27891,797.82535 640.37593,779.75379 Z" style="fill:#106091;stroke:#064065;stroke-width:4.5;stroke-miterlimit:20" />
    <path d="M 657.42678,713.94822 C 622.48923,720.18889 599.49125,736.62871 579.43306,765.60355 584.48968,770.79262 589.43893,776.45787 594.30806,782.47855 612.85884,751.25309 636.8692,736.62568 673.64645,729.17677 668.49085,723.72368 662.91571,718.73466 657.42678,713.94822 Z" fill="#f6e030" />
    <path d="M 624,724.625 642.5,738.625 658.125,732.875 636.75,719.125 Z" fill="#fff06b" />
    <path d="M 657.42678,713.94822 C 622.48923,720.18889 599.49125,736.62871 579.43306,765.60355 584.48968,770.79262 589.43893,776.45787 594.30806,782.47855 612.85884,751.25309 636.8692,736.62568 673.64645,729.17677 668.49085,723.72368 662.91571,718.73466 657.42678,713.94822 Z" fill="none" stroke="#fac42d" stroke-width="3" />
  </g>
  <g>
    <path d="M 574.22785,464.67321 C 526.69424,544.44226 568.21785,589.77043 557.29059,673.36402 600.85873,625.43906 618.01137,596.17723 617.77378,541.19387 620.83014,600.37763 629.49327,643.31403 666.64598,659.70493 651.34781,614.90314 650.80145,577.75044 662.27508,538.95864" fill="#e5ecf2" stroke="#abc5dc" stroke-width="6" />
    <path d="M 608.21597,457.04829 C 660.24558,426.2284 698.5142,465.46188 680.33983,532.75901 669.19801,574.0156 688.64705,600.80456 721.29157,611.95814 621.77659,629.13309 652.61729,513.00756 604.78913,477.86225 Z" style="fill:#e5ecf2;stroke:#abc5dc;stroke-width:6;stroke-miterlimit:20" />
    <path d="M 582.50762,458.07411 C 529.52256,511.88758 608.31948,533.86011 582.91968,610.08583 636.46328,591.50948 650.6924,525.94985 622.33325,463.58593 664.40323,463.03957 694.03688,481.57049 721.35505,512.16684 722.99414,446.60324 678.03688,420.39779 627.77146,440.06688" fill="#e5ecf2" stroke="#abc5dc" stroke-width="6" />
    <path d="M 594.9593,446.60581 C 515.60291,472.90891 478.83183,547.97872 494.51163,644.41047 514.61725,554.27269 582.59651,554.00756 612.73081,469.78605" style="fill:#e5ecf2;stroke:#abc5dc;stroke-width:6;stroke-miterlimit:20" />
    <path d="M 588.87694,443.07687 C 527.13788,418.49053 516.86969,492.81869 463.32609,496.09687 524.51878,537.62048 549.53878,487.87867 592.70148,463.29232" fill="#e5ecf2" stroke="#abc5dc" stroke-width="6" />
    <path d="M 555.00558,437.07194 C 562.97758,412.49032 633.24123,408.9641 646.38789,430.75949 655.51832,445.89651 636.12818,472.1134 608.50095,491.49309 574.35914,480.67161 549.41023,454.32502 555.00558,437.07194 Z" fill="#f6e030" stroke="#d2bc06" stroke-width="3" />
    <circle cx="605.63873" cy="451.6282" fill="none" r="18.615913" stroke="#8eacd7" stroke-width="4" />
    <circle cx="605.63873" cy="451.6282" fill="#bacde9" r="18.615913" />
    <path d="M 587.02959,451.12605 C 598.32328,454.87916 612.3658,430.90399 624.23464,452.491 613.09428,450.732 600.5,475.625 587.02959,451.12605 Z" fill="#004c95" />
    <path d="M 587.02959,451.12605 C 602.44828,458.75416 611.3658,434.15399 624.23464,452.491 611.0425,435.84812 607.05806,469.11091 587.02959,451.12605 Z" fill="#84a3ce" />
    <path d="M 587.02959,451.12605 C 605.71865,465.82523 610.74708,434.8611 624.23464,452.491 611.21928,436.732 607.5,473 587.02959,451.12605 Z" fill="#fff" />
    <ellipse cx="308.85043" cy="675.76318" fill="#fff" rx="6.5270338" ry="3.1545289" transform="rotate(-29.045864)" />
  </g>
  <path d="M 616.29783,436.24233 C 566.57876,422.58325 523.03516,399.27508 486.97518,370.31782 476.04791,327.70148 477.14064,299.12513 481.51155,246.12789 553.63151,193.13064 630.39055,189.21337 701.96415,232.92244 708.94665,270.67431 711.06132,307.45262 710.77869,343.75147 687.83143,381.9969 656.18235,413.29508 616.29783,436.24233 Z" fill="#106091" stroke="#064065" stroke-width="6" />
  <g>
    <path d="M 461.85111,250.62097 C 429.74022,298.2388 436.48529,331.59437 462.92521,355.78698 478.26639,369.82422 476.80202,386.83299 462.17407,396.18825 444.72533,407.34752 447.99998,427.69145 466.37596,444.29297 488.06662,463.88909 453.73448,472.49567 426.86288,453.32176 455.3975,502.25987 512.64405,481.29137 493.02866,444.91997 482.76889,425.89604 484.36453,413.22499 501.17715,398.24484 521.57354,380.07152 509.52573,356.2212 492.81626,339.06023 475.20055,320.96853 477.83996,287.15081 492.39896,257.91944 Z" style="fill:#edf2f6;stroke:#c0d4e3;stroke-width:6;stroke-miterlimit:20" />
    <path d="M 497.76235,271.20872 C 478.44549,271.98139 450.88298,295.85867 460.28764,324.91162 354.86974,273.8394 507.72345,163.41377 433.33372,22.952906 518.13571,66.599588 539.69765,136.81023 538.03111,227.37122" fill="#106091" />
    <path fill="#064065" inkscape:original-d="M 497.76235,271.20872 C 478.44549,271.98139 450.88298,295.85867 460.28764,324.91162 354.86974,273.8394 507.72345,163.41377 433.33372,22.952906 518.13571,66.599588 539.69765,136.81023 538.03111,227.37122" inkscape:path-effect="#path-effect1019" />
  </g>
  <path d="M 660.25029,237.59738 C 643.70407,205.97264 640.27724,152.70535 653.52254,114.74114 668.57831,151.38825 712.74862,163.82306 700.04302,239.91541 Z" fill="#106091" stroke="#064065" stroke-width="6" />
  <g>
    <path d="M 594.82268,390.81424 C 614.77741,403.55931 638.75297,403.19808 653.84157,389.10988 635.13333,398.20947 615.84669,397.79026 594.82268,390.81424 Z M 618.34669,362.07351 C 622.63189,365.01223 625.84237,366.32298 630.43013,367.09565 634.53496,365.30884 637.84604,363.52085 641.02077,360.84419 638.19521,365.61374 635.08274,368.6739 630.63986,371.08851 625.23114,369.20512 621.97664,367.09281 618.34669,362.07351 Z" fill="#064065" />
    <path d="M 510.32146,287.59536 C 558.58793,286.26363 592.76089,304.01906 595.58777,356.94115 534.55511,367.67882 507.58081,334.38959 510.32146,287.59536 Z" fill="#fff" id="path842" />
    <ellipse cx="517.74554" cy="412.21811" rx="32.570194" ry="38.862137" style="clip-path:url(#clipPath880);fill:url(#linearGradient1033);stroke:#0a5897;stroke-width:3" transform="rotate(-8.124805)" />
    <ellipse cx="518.74799" cy="413.10144" fill="#fff" rx="9.5440588" ry="19.263016" transform="rotate(-8.0424493)" />
    <path inkscape:original-d="M 499.6076,288.20517 C 556.04186,283.67595 596.22496,301.79374 595.84513,365.2253" inkscape:path-effect="#path-effect836" />
    <path d="M 595.5261,356.99797 C 534.55511,367.67882 507.58081,334.38959 510.35145,287.57248" fill="none" stroke="#000" stroke-width="4.8" />
  </g>
  <path d="M 605.82151,327.22762 C 497.44278,314.004 448.0807,209.13235 578.0064,174.67035 704.725,141.05901 844.47321,300.14778 758.3564,446.24419 723.08517,506.08151 714.31395,583.00756 764.53779,638.64012 686.23254,605.22763 662.5782,533.9144 681.86162,470.65174 707.1553,387.67139 667.85512,334.79653 605.82151,327.22762 Z" style="fill:#edf2f6;stroke:#c0d4e3;stroke-width:6;stroke-miterlimit:20" />
  <path d="M 616.55738,292.59468 C 633.84857,290.96002 678.36546,242.66384 666.88845,226.4668 650.36414,203.14649 560.43501,211.45791 551.91344,237.32117 543.85899,261.76714 598.90035,294.26389 616.55738,292.59468 Z" fill="#106091" stroke="#064065" stroke-width="6" />
  <g>
    <path d="M 386.33709,709.48353 C 397.11958,753.46576 422.35355,783.7071 412.35355,818.7071 429.38634,815.95748 445.99464,815.55133 462.09242,815.61122 474.41338,811.1264 487.12536,805.97846 496.69679,801.55667 479.90585,797.35736 459.94579,795.42409 438.82843,796.87652 439.75736,753.56408 413.35099,729.89195 404.2487,687.47595 398.83269,694.91361 393.0823,702.37817 386.33709,709.48353 Z" fill="#f6e030" />
    <path d="M 413.83424,716.8223 394.65398,735.8258 404.19992,760.0442 422.31952,735.20708 Z" fill="#fff06b" />
    <path d="M 386.33709,709.48353 C 397.11958,753.46576 422.35355,783.7071 412.35355,818.7071 429.38634,815.95748 445.99464,815.55133 462.09242,815.61122 474.41338,811.1264 487.12536,805.97846 496.69679,801.55667 479.90585,797.35736 459.94579,795.42409 438.82843,796.87652 439.75736,753.56408 413.35099,729.89195 404.2487,687.47595 398.83269,694.91361 393.0823,702.37817 386.33709,709.48353 Z" fill="none" stroke="#fac42d" stroke-width="3" />
  </g>
  <path d="M 390,1009 C 440.25,985.75 483.5,986.25 490.25,1004 475.25,994.5 446.75,991.75 390,1009 Z M 52.068542,799.3623 C 92.020075,687.99299 175.10513,654.4912 270.56454,674.29019 174.00462,672.68969 112.11449,698.49656 52.068542,799.3623 Z" fill="#fff" />
  <g>
    <path d="M 647.97144,1275.25 C 632.24907,1290.0081 631.43974,1298.3527 649.97144,1308 632.26258,1310.9688 613.6803,1310.9688 595.97144,1308 614.50314,1298.3527 613.69381,1290.0081 597.97144,1275.25" fill="#0965aa" />
    <path d="M 602.0715,1067.1205 C 609.75652,1075.5341 613.24244,1081.6961 613.86744,1089.8211 H 632.07544 C 632.70044,1081.6961 636.18636,1075.5341 643.87138,1067.1205 Z" fill="#f0e78a" />
    <circle cx="622.97144" cy="1184.1644" fill="#f8f199" r="99.840446" />
    <circle cx="650.98688" cy="1184.1644" fill="url(#radialGradient910)" r="71.824982" />
    <circle cx="610" cy="1147.5" fill="#fff" id="path918" r="2.75" />
    <use transform="translate(30.5 60.25)" xlink:href="#path918" />
    <use transform="translate(60 26.5)" xlink:href="#path918" />
    <use transform="translate(-5.5 21)" xlink:href="#path918" />
    <use transform="translate(100.75 23.5)" xlink:href="#path918" />
    <use transform="translate(80 81)" xlink:href="#path918" />
    <circle cx="601" cy="1208" fill="#f8f199" id="circle930" r="2.75" />
    <use transform="translate(27.25 27)" xlink:href="#circle930" />
    <use transform="translate(69-6.25)" xlink:href="#circle930" />
    <use transform="translate(24.5-49)" xlink:href="#circle930" />
    <use transform="translate(55.75-77.25)" xlink:href="#circle930" />
    <use transform="translate(89.5-60.5)" xlink:href="#circle930" />
  </g>
</svg>
