<svg xmlns="http://www.w3.org/2000/svg" xmlns:inkscape="http://www.inkscape.org/namespaces/inkscape" xmlns:xlink="http://www.w3.org/1999/xlink" height="1062.0001" viewBox="0 0 1256.0002 1062.0001" width="1256.0002">
  <defs>
    <inkscape:path-effect effect="powerstroke" end_linecap_type="zerowidth" id="path-effect1224" interpolator_type="CubicBezierSmooth" offset_points="0.14,3.5 | 7.34,3.5" start_linecap_type="zerowidth" />
    <inkscape:path-effect effect="powerstroke" id="path-effect356" interpolator_type="CubicBezierSmooth" offset_points="0.75,3.5 | 11,3.5" start_linecap_type="zerowidth" />
    <inkscape:path-effect effect="powerstroke" end_linecap_type="zerowidth" id="path-effect354" interpolator_type="CubicBezierSmooth" offset_points="0.25,3.5 | 3.75,3.5" start_linecap_type="zerowidth" />
    <inkscape:path-effect effect="powerstroke" id="path-effect326" interpolator_type="CubicBezierSmooth" offset_points="0.61,3.5 | 5.5,3.5 | 10.8,3.5" start_linecap_type="zerowidth" />
    <inkscape:path-effect effect="powerstroke" id="path-effect181" interpolator_type="CubicBezierSmooth" offset_points="0.56,3.5" start_linecap_type="zerowidth" />
    <inkscape:path-effect effect="powerstroke" end_linecap_type="zerowidth" id="path-effect4686" interpolator_type="CubicBezierSmooth" offset_points="0.29,3.5 | 0.7,3.5" start_linecap_type="zerowidth" />
    <inkscape:path-effect effect="powerstroke" id="path-effect4684" interpolator_type="CubicBezierSmooth" offset_points="0.25,3.5 | 0.5,3.5 | 3,3.5" start_linecap_type="zerowidth" />
    <inkscape:path-effect effect="powerstroke" id="path-effect4584" interpolator_type="CubicBezierSmooth" offset_points="0.38,3.5 | 11,3.5 | 2,3.5" start_linecap_type="zerowidth" />
    <inkscape:path-effect effect="powerstroke" id="path-effect4572" interpolator_type="CubicBezierSmooth" offset_points="0.25,3.5 | 3,3.5" start_linecap_type="zerowidth" />
    <inkscape:path-effect effect="powerstroke" id="path-effect4524" interpolator_type="CubicBezierSmooth" offset_points="0.27,3.5" start_linecap_type="zerowidth" />
    <inkscape:path-effect effect="powerstroke" end_linecap_type="zerowidth" id="path-effect5608" interpolator_type="CubicBezierSmooth" offset_points="0.44,3.5 | 1.76,3.5" start_linecap_type="zerowidth" />
    <linearGradient id="linearGradient14234">
      <stop offset="0" stop-color="#4d0a57" />
      <stop offset="1" stop-color="#a6128c" />
    </linearGradient>
    <inkscape:path-effect effect="powerstroke" end_linecap_type="zerowidth" id="path-effect8265-6" interpolator_type="CubicBezierSmooth" offset_points="0.37,3.5 | 1.8,3.5" start_linecap_type="zerowidth" />
    <linearGradient gradientUnits="userSpaceOnUse" id="linearGradient2554" x1="669.84027" x2="737.99744" y1="-1113.7637" y2="-1112.4678" xlink:href="#linearGradient14234" />
    <clipPath id="clipPath2566">
      <use xlink:href="#path2546" />
    </clipPath>
    <clipPath id="clipPath2582">
      <use xlink:href="#path12893" />
    </clipPath>
    <clipPath id="clipPath4546">
      <path d="m 673.68443,1275.2417 c -44.44792,11.607 -93.08891,-9.4245 -115.60932,-42.0401 l 23.48787,-150.7265 191.16827,-70.5929 z" />
    </clipPath>
    <clipPath id="clipPath4550">
      <path d="m 562.13184,1238.6089 105.93535,37.9235 -10.54793,102.4485 -156.56322,-76.165 z" />
    </clipPath>
    <clipPath id="clipPath4777">
      <path d="m 465.85178,1115.8039 c -13.67035,52.0422 21.36496,103.1962 64.9057,115.8339 l -70.67412,72.3427 -101.87729,-134.0201 z" />
    </clipPath>
    <clipPath id="clipPath4781">
      <path d="m 520.40616,1227.8466 c -53.09313,10.0512 -97.4583,-35.7491 -57.01486,-98.7637 l 96.39476,-117.5953 95.7015,57.705 -101.53778,160.4055 z" />
    </clipPath>
    <clipPath id="clipPath4793">
      <path d="m 717.0137,896.23024 c 24.48408,23.63176 36.61715,76.52842 -2.08496,106.70576 -41.64692,32.4735 -75.69117,8.4072 -116.40509,16.959 22.18785,-74.35023 65.98826,-113.94188 118.49005,-123.66476 z" />
    </clipPath>
    <clipPath id="clipPath4797">
      <path d="m 722.06683,901.73493 -115.31519,116.83877 -13.71657,-12.3309 -51.71985,61.3579 213.10037,63.1058 442.63351,-199.26726 21.4527,-489.56518 -417.68112,-56.99683 z" />
    </clipPath>
    <clipPath id="clipPath205">
      <path d="m 1067.5055,1063.1483 -11.5265,-59.1546 101.1136,-144.16595 124.199,89.92361 -118.3681,193.51744 z" />
    </clipPath>
    <clipPath id="clipPath1192">
      <path d="m 978.1953,1172.8689 52.1993,-28.8324 231.1252,53.3754 -117.705,181.6242 -241.34103,-91.9989 z" />
    </clipPath>
  </defs>
  <g transform="translate(0-353.99985)" inkscape:groupmode="layer" inkscape:label="Drawing">
    <g>
      <path d="m 756.95441,602.84435 c -72.71916,-73.44396 -170.12637,-140.33615 -277.35146,-179.12461 31.25979,52.45934 76.25791,93.93401 127.50419,132.62686 -44.91094,-14.15759 -87.34581,-21.7399 -134.59851,-24.30244 51.99598,50.45264 91.68758,73.24006 149.32108,96.30115 -41.41252,-1.35919 -83.09221,-1.05731 -116.84041,6.75147 45.82433,31.51388 88.84119,47.30069 133.67907,57.28149 -37.12152,3.19561 -62.2057,12.5466 -90.89069,30.06808 42.34073,22.03239 74.75145,28.12196 113.96981,25.7674 -56.93808,27.95708 -35.43203,68.9263 32.4981,61.91174 -34.66513,25.98579 -7.41286,59.63437 42.70092,48.07607 -23.66973,31.49579 22.28072,64.87213 87.30508,17.09619 -72.64158,-70.39185 -12.86066,-217.4743 -67.29718,-272.4534 z" style="stroke-miterlimit:20;stroke-width:7;fill:#f8f8f8;stroke:#e6d2c2" />
      <path d="m 831.65891,876.79587 c -80.62203,-77.56953 -14.96714,-234.22505 -73.81357,-272.72564 -53.93961,-35.29027 -130.88255,-52.12361 -202.85202,-44.09006 54.02799,46.57629 106.11702,72.40364 160.23852,87.52424 -49.47324,7.07763 -90.72693,16.47183 -125.79984,38.52742 43.74305,20.21713 85.04196,28.34764 132.21497,23.9219 -57.53685,30.74544 -46.51793,69.80485 16.77563,62.54759 -30.94205,29.72489 -12.8572,67.33721 25.49599,59.37042 -2.25591,35.84656 15.95323,55.55494 46.95831,61.78221 z" style="stroke-miterlimit:20;stroke-width:7;fill:#eebc90;stroke:#d8955a" />
    </g>
    <g>
      <g clip-path="url(#clipPath205)">
        <path d="m 1128.7995,995.30447 c -1.4435,-18.09135 -1.9617,-35.99992 0.861,-51.32076 11.6782,-14.94967 28.0431,-28.76136 46.6431,-39.66021 26.6625,7.20751 45.8024,19.93498 55.7762,39.001 -15.2637,-7.56825 -34.3804,-10.95161 -51.9003,-10.77371 -9.8111,5.03275 -18.9623,12.89544 -26.4507,22.36121 -6.2453,23.56318 3.5976,47.9778 -5.4494,67.6074 z" style="stroke-miterlimit:20;stroke-width:7;fill:#fff;stroke:#ecdacc" />
        <path d="m 1127.9855,987.71302 c 8.6862,3.2083 17.2623,3.72868 25.6274,1.39933 m 26.5666,-56.56156 c -3.6837,-9.41014 -5.5122,-18.33566 -3.8759,-28.22729 m -46.6431,39.66021 c 7.2552,5.55388 15.015,9.04386 24.0683,10.92829" fill="#fff" stroke="#ecdacc" stroke-width="3.5" />
        <path d="m 976.99887,1060.1731 -7.69489,-38.8293 157.18202,-25.03754 c -4.2404,-15.01859 -7.0231,-32.08221 -7.0108,-49.52041 13.0383,-19.15442 29.0853,-36.31793 47.6263,-51.83108 28.878,2.32178 44.2344,11.25421 57.8768,30.97011 -17.7896,-6.70767 -33.123,-8.35903 -49.3215,-4.39944 -12.6368,9.84997 -21.6013,20.77825 -27.6421,33.54767 -9.297,19.6518 13.6678,47.78529 5.4703,67.78479" style="stroke-miterlimit:20;stroke-width:7;fill:#fff;stroke:#ecdacc" />
        <path d="m 1123.8901,986.09194 c 8.2221,3.73756 15.9785,3.52911 24.7234,-1.97552 m 27.0433,-62.59097 c -5.3216,-8.0239 -7.6097,-17.31207 -8.5553,-26.57068 m -47.6263,51.83107 c 9.5963,5.57352 18.2433,8.5616 28.5394,8.28766" fill="none" stroke="#ecdacc" stroke-width="3.5" />
        <path d="m 979.75896,1087.1912 150.99204,-47.6888 c 11.5027,13.6546 23.3904,23.4433 40.9012,31.1928 18.0307,-0.6066 32.8205,-12.8236 40.6329,-29.1762 -11.5531,6.0439 -22.0276,8.3908 -36.7946,7.7903 -8.6849,-6.7941 -13.8057,-12.0827 -20.1037,-22.3771 7.7557,-17.7111 -1.8745,-35.29745 15.2441,-58.06121 12.7829,2.14372 23.1394,6.04325 32.495,12.79742 9.3218,12.28224 13.5504,25.67679 11.8476,45.99739 14.8806,-21.9281 16.5507,-39.20648 8.2091,-60.61051 -17.6627,-12.66414 -40.2359,-21.6997 -63.2791,-24.51824 -14.0496,16.41368 -22.429,31.72612 -25.8269,57.03695 l 0.1269,15.367 -110.0285,25.8215 z" fill="#fff" />
        <path fill="#ecdacc" inkscape:original-d="m 1134.0766,999.574 c 3.3979,-25.31083 11.7773,-40.62327 25.8269,-57.03695 23.0432,2.81854 45.6164,11.8541 63.2791,24.51824 8.3416,21.40403 6.6715,38.68241 -8.2091,60.61051 1.7028,-20.3206 -2.5258,-33.71515 -11.8476,-45.99739 -9.3556,-6.75417 -19.7121,-10.6537 -32.495,-12.79742 -17.1186,22.76376 -7.4884,40.35011 -15.2441,58.06121 6.298,10.2944 11.4188,15.583 20.1037,22.3771 14.767,0.6005 25.2415,-1.7464 36.7946,-7.7903 -7.8124,16.3526 -22.6022,28.5696 -40.6329,29.1762 -17.5108,-7.7495 -29.3985,-17.5382 -40.9012,-31.1928 l -150.99204,47.6888" inkscape:path-effect="#path-effect326" />
        <path d="m 1171.6522,1070.6952 c 3.0205,-6.6096 4.8553,-13.5909 3.8383,-21.3859 m -32.7589,3.7987 c 7.2745,-3.5444 13.1753,-9.9434 18.0014,-17.7156 m -67.2244,-34.3984 c -5.5825,17.4876 -1.7247,33.0751 5.7696,48.1935 m 12.629,-50.91598 c -4.5981,16.95668 -1.964,31.13038 5.5676,45.93478 m 42.4287,-101.66925 c 1.0694,10.42617 5.3317,18.82493 10.7274,26.33394 m 32.495,12.79742 c 5.4629,-7.26343 12.9202,-12.84051 20.0567,-14.61312 m -86.791,19.92345 c 7.0204,4.96187 15.6154,7.50185 23.642,7.15809" fill="none" stroke="#ecdacc" stroke-width="3.5" />
      </g>
      <path d="m 931.43737,941.4314 c 17.84268,27.38152 36.07569,53.68456 56.77449,76.9179 l 68.04354,-10.856 c 26.8716,0.01 28.7671,12.9555 6.8322,25.9322 16.2392,3.1474 21.6287,18.0176 3.1593,26.4496 l -86.48794,27.3161 c -21.59458,6.8204 -38.64074,-0.7364 -104.63188,-102.42087" fill="#f2cba9" />
      <path fill="#dea068" inkscape:original-d="m 969.30398,1021.3438 86.95142,-13.8505 c 26.8716,0.01 28.7671,12.9555 6.8322,25.9322 16.2392,3.1474 21.6287,18.0176 3.1593,26.4496 l -86.48794,27.3161 c -21.59458,6.8204 -38.64074,-0.7364 -104.63188,-102.42087 l 56.31029,-43.33893 c 17.84268,27.38152 36.07569,53.68456 56.71483,76.9447" inkscape:path-effect="#path-effect181" />
    </g>
    <g>
      <path d="m 699.95785,921.58748 c -32.60127,-19.1255 -54.27311,-45.39466 -67.04333,-82.89702 -3.2145,16.50549 -3.67794,30.63626 1.00426,47.61601 -81.28666,-51.34569 -158.44553,-61.74433 -246.26836,-1.18858 27.74079,-7.76336 48.25214,-7.23312 67.96009,-3.13595 -83.45361,22.44553 -112.09559,101.97549 -246.99275,78.1247 17.14836,21.05224 34.51842,27.91618 57.08948,27.0375 -67.45571,53.62496 -160.25105,29.11656 -155.02765,-12.0562 2.32008,-18.28775 22.94452,-22.46829 43.72269,-5.55408 -23.89683,-54.96044 -72.8086,-36.33006 -76.525257,10.5861 -7.485106,94.48604 132.051157,166.90634 328.693227,85.52624 -10.07697,15.1261 -21.20151,27.6933 -41.15081,40.618 192.22778,-35.579 195.82436,-164.56175 315.32008,-155.39544 z" fill="#4b2e1a" />
      <path d="m 694.48567,929.19827 c -206.28206,-81.58029 -269.0437,90.93013 -466.92831,114.54313 -58.71986,7.0069 -112.19295,-13.5382 -150.298184,-50.52148 1.366354,13.32688 5.55067,27.91558 12.039896,39.63388 36.977648,26.1516 90.408368,37.0601 140.556578,31.2385 192.48043,-22.345 264.07965,-196.68682 460.76007,-127.50242 z" fill="#ffd8b6" />
      <path d="m 699.95785,921.58748 c -32.60127,-19.1255 -54.27311,-45.39466 -67.04333,-82.89702 -3.2145,16.50549 -3.67794,30.63626 1.00426,47.61601 -81.28666,-51.34569 -158.44553,-61.74433 -246.26836,-1.18858 27.74079,-7.76336 48.25214,-7.23312 67.96009,-3.13595 -83.45361,22.44553 -112.09559,101.97549 -246.99275,78.1247 17.14836,21.05224 34.51842,27.91618 57.08948,27.0375 -67.45571,53.62496 -160.25105,29.11656 -155.02765,-12.0562 2.32008,-18.28775 22.94452,-22.46829 43.72269,-5.55408 -23.89683,-54.96044 -72.8086,-36.33006 -76.525257,10.5861 -7.485106,94.48604 132.051157,166.90634 328.693227,85.52624 -10.07697,15.1261 -21.20151,27.6933 -41.15081,40.618 192.22778,-35.579 195.82436,-164.56175 315.32008,-155.39544 z" style="stroke-miterlimit:20;stroke-width:7;fill:none;stroke:#25170a" />
    </g>
    <g>
      <path d="m 596.70869,1105.6257 c -0.9143,58.8179 -15.77606,112.8696 -47.60931,163.3731 -29.94787,47.5118 82.91693,102.6681 102.62814,47.3521 24.46763,-68.6639 32.92214,-125.1098 22.41566,-190.7275 z" style="clip-path:url(#clipPath4550);stroke-width:7;fill:#f8f8f8;stroke:#e6d2c2" />
      <g clip-path="url(#clipPath4546)">
        <path d="m 741.21181,1039.967 -115.71762,47.1196 c -16.33726,-3.2964 -28.62506,8.2203 -28.7855,18.5391 -0.9143,58.8179 -15.77606,112.8696 -47.60931,163.3731 -29.94787,47.5118 82.91693,102.6681 102.62814,47.3521 24.46763,-68.6639 32.92214,-125.1098 22.5005,-190.8976 37.52402,-16.8738 59.34357,-49.6091 66.98379,-85.4863 z" fill="#eebc90" />
        <path fill="#d8955a" inkscape:original-d="m 655.65178,1131.8794 c 48.94987,-13.1661 76.72832,-50.4401 85.56003,-91.9124 l -115.71762,47.1196 c -16.33726,-3.2964 -28.62506,8.2203 -28.7855,18.5391 -0.9143,58.8179 -15.77606,112.8696 -47.60931,163.3731 -29.94787,47.5118 82.91693,102.6681 102.62814,47.3521 24.46763,-68.6639 32.92214,-125.1098 22.41566,-190.7275" inkscape:path-effect="#path-effect4524" />
      </g>
    </g>
    <path d="m 1155.2399,842.54807 c 79.5982,-92.6659 50.1129,-209.85314 -24.0414,-274.84739 35.2754,7.77797 61.9712,22.94937 85.9359,55.23381 -22.1651,-139.77869 -136.0625,-185.36725 -247.23662,-132.18497 11.52006,-18.43755 15.49492,-32.82847 16.22981,-54.83253 -31.77303,51.30898 -82.85406,56.70777 -104.34865,106.83862 l 156.08926,235.89558 c 4.6347,35.92671 3.1377,59.15869 -10.307,93.20974 39.9395,-30.95392 57.5511,-63.51985 67.6263,-104.5667 5.1585,43.62067 6.8957,81.13214 -9.1046,123.22981 47.4512,-42.53417 66.4571,-94.38819 74.5725,-150.03428 6.0036,29.77663 5.2178,62.08532 -5.4155,102.05831 z" fill="#4b2e1a" />
    <path fill="#25170a" inkscape:original-d="m 1150.1926,705.13681 c 15.4817,40.1626 19.997,81.21219 5.0473,137.41126 79.5982,-92.6659 50.1129,-209.85314 -24.0414,-274.84739 35.2754,7.77797 61.9712,22.94937 85.9359,55.23381 -22.1651,-139.77869 -136.0625,-185.36725 -247.23662,-132.18497 11.52006,-18.43755 15.49492,-32.82847 16.22981,-54.83253 -31.77303,51.30898 -82.85406,56.70777 -104.34865,106.83862 l 156.08926,235.89558 c 4.6347,35.92671 3.1377,59.15869 -10.307,93.20974 39.9395,-30.95392 57.5511,-63.51985 67.6263,-104.5667 5.1585,43.62067 6.8957,81.13214 -9.1046,123.22981 47.4512,-42.53417 66.4689,-94.38695 74.5843,-150.03304" inkscape:path-effect="#path-effect4584" />
    <path d="m 1139.5114,766.36251 c -4.3983,34.15638 -70.9385,81.17344 -163.739,48.873 0.0203,135.23145 -104.43783,264.03059 -269.37655,261.80509 -24.15514,19.8846 -55.33669,31.6434 -95.95666,32.7318 -32.8677,63.1457 -69.11884,100.4931 -126.09097,141.3539 -50.5874,36.2817 -105.59357,-77.8346 -52.11103,-102.2644 54.49332,-24.8914 98.11212,-57.372 131.26601,-103.6714 5.36438,-7.4913 18.3322,-9.3747 27.24847,1.6854 34.31174,-31.5904 44.18085,-127.05179 142.60327,-143.90053 95.06573,-16.27412 138.48341,-114.53177 138.48341,-207.17431 0,-219.4361 321.95615,-178.05697 258.41865,55.94957 6.792,2.16735 10.6677,3.63615 9.2544,14.61188 z" fill="#f2cba9" />
    <path d="m 1052.8191,654.67979 c 12.7565,-10.1271 29.0395,-12.78185 43.4525,-6.2154 -6.1306,27.00034 -3.6729,59.80491 5.2963,88.30176 -7.3509,-1.26314 -14.3512,-0.10038 -21.9455,3.78682 -1.1906,-32.21456 -9.9717,-61.464 -26.8033,-85.87318 z" fill="#fff" />
    <ellipse cx="1131.5404" cy="-466.12241" fill="#f2cba9" rx="67.279945" ry="56.679272" transform="rotate(57.54876)" />
    <path fill="#dea068" inkscape:original-d="m 593.84275,1109.5164 c 84.56493,3.705 131.68243,-35.2853 160.15562,-97.0327" inkscape:path-effect="#path-effect4686" />
    <path clip-path="url(#clipPath4797)" fill="#dea068" inkscape:original-d="m 577.75197,1054.876 c 46.21201,-16.8597 45.98681,-133.13565 155.60297,-151.90063 95.06573,-16.27412 138.48341,-114.53177 138.48341,-207.17431 0,-219.4361 321.95615,-178.05697 258.24205,55.39841" inkscape:path-effect="#path-effect4684" />
    <path d="m 1081.7325,778.11291 c 6.8066,16.57115 18.2351,23.77039 34.6869,23.89155 l 7.493,-6.46725 c -19.5674,1.32343 -30.2663,-3.98213 -42.1799,-17.4243 z m 31.7197,-16.78542 c 1.374,5.5128 5.2545,6.68936 9.31,3.11069 -3.0661,8.32856 -11.3911,5.80005 -9.31,-3.11069 z" fill="#dea068" />
    <path d="m 975.79865,815.22111 c -0.006,135.24585 -104.46408,264.04499 -269.5142,261.80299" fill="none" stroke="#dea068" stroke-width="7" />
    <g>
      <path d="m 1125.1684,646.51852 2.2991,5.17613 c 11.3481,-3.03631 18.306,-9.68554 21.4159,-21.82548 -6.841,9.90952 -13.3303,14.6402 -23.715,16.64935 z m 5.5052,12.4242 1.2449,5.26258 c 10.1103,0.64581 19.4584,-3.73206 23.9718,-13.97457 -7.7831,7.70041 -15.5615,9.62669 -25.2167,8.71199 z" />
      <g clip-path="url(#clipPath2582)">
        <path d="m 1104.5679,736.92844 c -12.3181,-38.50203 -4.4314,-76.8201 22.8353,-101.88594 13.949,32.75966 15.3302,71.72774 2.8007,116.61491 -9.9885,-1.76362 -21.4882,-6.95422 -25.636,-14.72897 z" fill="#fff" id="path12893" />
        <g clip-path="url(#clipPath2566)">
          <ellipse cx="702.22577" cy="-1107.6631" fill="url(#linearGradient2554)" id="path2546" rx="44.742622" ry="17.363712" transform="rotate(89.651204)" />
          <path d="m 1109.6518,703.30998 20.1887,43.45604 10.0296,-28.14851 z" fill="#f89cf0" />
          <path d="m 1109.6518,703.30998 33.8316,3.96025 -4.5355,22.74369 z" fill="#c50eb0" />
          <ellipse cx="1110.3871" cy="696.46973" rx="35.919266" ry="13.939542" transform="rotate(89.651204 1110.3871 696.46974)" />
          <ellipse cx="-478.33701" cy="1215.9812" fill="#fff" rx="16.441408" ry="5.2288084" transform="rotate(279.88099)" />
          <ellipse cx="-455.87067" cy="1240.7457" fill="#fff" rx="5.308558" ry="1.7796613" transform="rotate(281.85456)" />
        </g>
      </g>
      <path d="m 1104.5679,736.92844 c -17.2252,-44.07751 -2.508,-80.39168 18.8987,-101.85489 6.3982,-6.41506 10.3913,-12.3653 12.9202,-22.38217 0.9673,11.51476 -2.3049,18.56054 -10.4956,26.84849 -19.3153,19.5448 -32.7699,50.2004 -21.3233,97.38857 z" />
    </g>
    <path fill="#dea068" inkscape:original-d="m 1104.5679,736.92844 c 19.2158,23.75673 37.7874,7.34848 34.9435,29.43407 -5.073,39.3959 -92.815,95.90071 -208.20981,28.09864" inkscape:path-effect="#path-effect5608" />
    <path d="m 962.83814,689.17008 c -8.09945,-4.46249 -13.2329,-12.14438 -16.97388,-21.6354 -0.34319,8.26286 2.49053,16.46133 7.77598,21.44355 m -2.15189,0.1976 c -10.57743,-3.43484 -17.79249,-10.72166 -22.38117,-21.22064 0.4084,8.18376 4.16577,16.47307 10.88457,21.61422 m 124.14345,20.10779 c -35.9993,-19.16172 -73.06605,-25.77307 -120.46056,-22.12102 -11.08827,0.85441 -20.67137,-3.05733 -28.91418,-11.01599 4.9114,10.41201 15.0574,17.29343 28.38579,16.12244 44.84978,-3.94036 85.97675,2.86894 124.40775,24.46366 2.4275,-9.52276 0.7949,-20.19594 -5.4276,-29.0041 2.1998,8.27038 2.6971,14.83853 2.0088,21.55501 z" />
    <path d="m 590.88052,1046.9412 c -9.04512,-11.1254 -22.01294,-9.242 -27.37732,-1.7507 -33.15389,46.2994 -76.77269,78.78 -131.26601,103.6714 -53.48254,24.4298 1.52363,138.5461 52.11103,102.2644 56.97213,-40.8608 93.22327,-78.2082 126.06148,-141.2705" style="clip-path:url(#clipPath4781);stroke-width:7;fill:none;stroke:#dea068" />
    <path d="m 563.5032,1045.1905 c -33.15389,46.2994 -76.77269,78.78 -131.26601,103.6714 -53.48254,24.4298 1.52363,138.5461 52.11103,102.2644 56.97213,-40.8608 93.22327,-78.2082 126.06148,-141.2705" style="clip-path:url(#clipPath4777);stroke-width:7;fill:#fff;stroke:#ecdacc" />
    <path d="m 577.75197,1054.876 c 46.21201,-16.8597 45.98681,-133.13565 155.60297,-151.90063 77.60651,56.11444 -4.16091,250.46523 -155.60297,151.90063 z" style="clip-path:url(#clipPath4793);stroke-width:7;fill:#fff;stroke:#ecdacc" />
    <g>
      <g clip-path="url(#clipPath1192)">
        <path d="m 1060.1495,1213.1991 c 17.4777,-4.8899 34.9535,-8.8365 50.531,-9.0079 16.9139,8.591 33.6106,21.9999 47.8777,38.1615 -1.9586,27.5497 -10.7711,48.7775 -27.5675,62.2262 4.4971,-16.4327 4.1475,-35.8433 0.6091,-53.0033 -6.8226,-8.6624 -16.2959,-16.134 -27.0233,-21.6659 -24.3244,-1.6018 -46.3947,12.7422 -67.3964,7.632 z" style="stroke-miterlimit:20;stroke-width:7;fill:#fff;stroke:#ecdacc" />
        <path d="m 1069.3823,1210.7147 c -1.8024,9.2043 -1.5415,16.3298 0.7122,24.8308 m 61.5053,16.0301 c 8.5279,-5.4218 16.9363,-8.9296 26.9584,-9.2229 m -47.8777,-38.1615 c -4.0574,8.1865 -5.9927,16.4721 -6.104,25.7185" fill="none" stroke="#ecdacc" stroke-width="3.5" />
        <path d="m 918.37531,951.11738 143.81109,256.86882 c 14.0194,-6.5575 28.2343,-10.3878 43.7889,-13.2526 21.3013,9.1183 41.2262,21.5719 60.0104,36.7895 3.2655,28.7863 -2.5521,45.5722 -19.2824,62.746 3.1675,-18.7467 1.8442,-34.112 -5.1517,-49.2488 -12.0926,-10.5106 -24.5384,-17.2104 -38.2301,-20.6874 -21.0715,-5.351 -46.5246,22.8275 -67.7258,18.6221 l -82.90251,-154.9993 z" style="stroke-miterlimit:20;stroke-width:7;fill:#fff;stroke:#ecdacc" />
        <path d="m 1068.1159,1205.9367 c -2.0895,8.7865 -0.2638,17.0346 6.8173,24.56 m 66.6184,14.5236 c 6.8532,-6.7632 12.7598,-10.0038 21.6647,-12.7096 m -57.241,-37.5771 c -3.6275,10.4876 -4.8998,19.5476 -2.6538,29.5993" fill="none" stroke="#ecdacc" stroke-width="3.5" />
        <path d="m 1056.5245,1221.3504 c 17.2521,-5.6342 34.5426,-10.3263 50.0984,-11.1655 17.3276,9.7611 34.618,21.5783 49.2623,35.8751 -3.9928,26.6277 -15.6892,41.9657 -34.8395,53.3587 7.3531,-16.0674 10.0794,-28.9706 7.4402,-44.242 -7.1878,-8.362 -17.3395,-14.6784 -26.859,-19.0354 -24.3706,-0.5575 -46.1231,14.0398 -67.3242,9.8345 -13.5947,-2.6966 -27.4001,-3.1019 -39.37493,-0.3768 -11.29939,9.5264 -17.2604,19.12 -21.70321,31.3781 -5.27603,-17.338 -2.61305,-36.3353 10.27933,-48.9553 9.01741,-4.3921 19.51881,-7.7 30.11021,-9.4028 l -59.40673,-87.5295 14.78798,-17.611 z" fill="#fff" />
        <path fill="#ecdacc" inkscape:original-d="m 1056.5245,1221.3504 c 17.2521,-5.6342 34.5426,-10.3263 50.0984,-11.1655 17.3276,9.7611 34.618,21.5783 49.2623,35.8751 -3.9928,26.6277 -15.6892,41.9657 -34.8395,53.3587 7.3531,-16.0674 10.0794,-28.9706 7.4402,-44.242 -7.1878,-8.362 -17.3395,-14.6784 -26.859,-19.0354 -24.3706,-0.5575 -46.1231,14.0398 -67.3242,9.8345 -13.5947,-2.6966 -27.4001,-3.1019 -39.37493,-0.3768 -11.29939,9.5264 -17.2604,19.12 -21.70321,31.3781 -5.27603,-17.338 -2.61305,-36.3353 10.27933,-48.9553 9.01741,-4.3921 19.51881,-7.7 30.11021,-9.4028 l -155.20486,-228.67781" inkscape:path-effect="#path-effect356" />
        <path d="m 1069.4444,1217.3169 c -1.9895,8.0843 -1.2068,16.3809 1.9422,23.4952 m -61.9104,-20.9653 c -0.6187,7.7747 2.2622,16.4955 6.3511,24.3078 m 112.6586,11.0221 c 8.0645,-6.4545 17.3999,-8.3926 27.3993,-9.1167 m -49.2623,-35.8751 c -3.7027,8.3529 -5.2811,16.7139 -4.996,25.9564 m -118.12301,-8.1195 c 2.38862,6.8627 5.72763,11.7037 11.42388,17.5772 m 57.55923,-54.5424 c -17.485,1.7168 -31.5905,10.265 -43.3814,21.5677 m 35.4549,-36.0798 c -18.3305,0.9853 -33.7944,9.3758 -45.18865,20.9625" fill="none" stroke="#ecdacc" stroke-width="3.5" />
      </g>
      <path d="m 918.37531,951.11738 108.76309,194.26772 c 6.3959,22.6733 -4.1843,29.1628 -21.2682,15.3642 4.5744,19.5967 -9.12732,27.2149 -24.92053,9.9452 l -122.54043,-180.75331 z" fill="#f2cba9" />
      <path fill="#dea068" inkscape:original-d="m 918.37531,951.11738 108.76309,194.26772 c 6.3959,22.6733 -4.1843,29.1628 -21.2682,15.3642 4.5744,19.5967 -9.12732,27.2149 -24.92053,9.9452 l -122.54043,-180.75331" inkscape:path-effect="#path-effect354" />
    </g>
    <g>
      <path d="m 720.34551,615.9708 c -77.43044,-68.45887 -179.06001,-128.74288 -288.62175,-160.33384 34.6705,50.2704 82.32048,88.66908 136.02035,123.87763 -45.75109,-11.14753 -88.59544,-15.89851 -135.91405,-15.3212 55.22792,46.89272 96.34357,66.99727 155.37976,86.18483 -41.41147,1.39064 -82.97936,4.4564 -116.13529,14.48646 47.81368,28.40502 91.78293,41.30382 137.18408,48.28861 -36.82781,5.65079 -61.23652,16.64498 -88.69616,36.03051 43.70886,19.17547 76.45212,23.10188 115.42794,18.15121 -54.95834,31.67213 -30.78223,71.12467 36.53305,59.61985 -32.8652,28.22785 -3.44108,59.99473 45.79569,45.13791 -21.52853,32.99641 26.53453,63.25143 88.24679,11.26773 -77.1506,-65.41863 -27.25708,-216.14236 -85.22041,-267.3897 z" style="stroke-miterlimit:20;stroke-width:7;fill:#fff;stroke:#ecdacc" />
      <path d="m 813.0563,884.364 c -85.58956,-72.05117 -30.46998,-232.7165 -91.74051,-267.22911 -56.16157,-31.63482 -134.0516,-43.32758 -205.32973,-30.5381 56.99835,42.89013 110.68576,65.20562 165.691,76.70312 -48.89484,10.34353 -89.43458,22.45334 -122.96734,46.78669 44.98769,17.2712 86.73494,22.64451 133.51051,15.0996 -55.37084,34.49407 -41.78544,72.73659 20.88738,61.29715 -28.90231,31.71177 -8.36251,68.04172 29.37779,57.54857 0.32091,38.55664 21.82668,54.68603 50.95282,58.53148 z" fill="#f2cba9" />
      <path fill="#dea068" inkscape:original-d="m 813.0563,884.364 c -85.58956,-72.05117 -30.46998,-232.7165 -91.74051,-267.22911 -56.16157,-31.63482 -134.0516,-43.32758 -205.32973,-30.5381 56.99835,42.89013 110.68576,65.20562 165.691,76.70312 -48.89484,10.34353 -89.43458,22.45334 -122.96734,46.78669 44.98769,17.2712 86.73494,22.64451 133.51051,15.0996 -55.37084,34.49407 -41.78544,72.73659 20.88738,61.29715 -28.90231,31.71177 -8.36251,68.04172 29.37779,57.54857 0.12671,35.91725 19.60297,54.37444 50.95282,58.53148" inkscape:path-effect="#path-effect1224" />
    </g>
    <g>
      <path d="m 877.0139,665.99566 c -2.12422,38.56119 8.94907,76.79057 37.32591,109.66652 -13.63193,-1.41085 -25.64715,-6.73576 -36.42306,-17.48856 9.87394,67.70113 -4.77894,122.58407 -72.21053,156.45008 31.82145,-92.81274 -40.40635,-134.04939 7.10565,-222.93117 -12.25336,7.51241 -22.12582,16.12485 -34.9317,31.44246 11.55146,-73.49692 34.40205,-120.01232 82.89748,-161.71124 z" fill="#4b2e1a" />
      <path d="m 868.67275,605.06161 c -41.86352,104.55286 3.61172,199.67041 -50.25209,302.13319 l -10.03847,6.5408 5.36635,-51.54508 c 33.71833,-86.00467 3.69588,-174.73975 52.39484,-267.47748 z" fill="#ffd8b6" />
      <path d="m 877.0139,665.99566 c -2.12422,38.56119 8.94907,76.79057 37.32591,109.66652 -13.63193,-1.41085 -25.64715,-6.73576 -36.42306,-17.48856 9.87394,67.70113 -4.77894,122.58407 -72.21053,156.45008 31.82145,-92.81274 -40.40635,-134.04939 7.10565,-222.93117 -12.25336,7.51241 -22.12582,16.12485 -34.9317,31.44246 11.55146,-73.49692 34.40205,-120.01232 82.89748,-161.71124 z" style="stroke-miterlimit:20;stroke-width:7;fill:none;stroke:#25170a" />
      <path d="m 1172.2259,654.84557 c -44.1086,-68.89355 -108.7103,-43.97593 -185.66383,-73.23762 7.17288,17.21898 19.26183,30.43569 35.20573,39.11894 -34.99322,0.083 -76.0683,-13.35935 -108.35565,-46.11983 l -10.43775,-24.93591 187.7887,-10.94103 z" fill="#4b2e1a" />
      <path fill="#25170a" inkscape:original-d="m 1172.2259,654.84557 c -44.1086,-68.89355 -108.7103,-43.97593 -185.66383,-73.23762 7.17288,17.21898 19.26183,30.43569 35.20573,39.11894 -34.99322,0.083 -76.0683,-13.35935 -108.35565,-46.11983" inkscape:path-effect="#path-effect4572" />
      <path d="m 932.59371,601.17943 c -9.32822,-43.50708 -48.11688,-80.94944 -59.95846,-78.93165 -13.56687,2.31177 -65.80478,98.39996 13.55259,180.43478 z" fill="#f2cba9" />
      <path fill="#dea068" inkscape:original-d="m 932.59371,601.17943 c -9.32822,-43.50708 -48.11688,-80.94944 -59.95846,-78.93165 -13.56687,2.31177 -65.80478,98.39996 13.55259,180.43478" inkscape:path-effect="#path-effect8265-6" />
      <path d="m 877.15733,573.87061 c -5.33301,28.69649 -0.96056,54.61761 12.25619,79.22386 -18.16994,-22.02431 -24.38297,-49.37495 -12.25619,-79.22386 z" fill="#dea068" />
      <path d="m 849.36013,648.65002 c 11.41382,-1.78196 21.82324,-5.72623 31.57544,-12.16072 -1.52678,-4.43354 -3.16996,-8.64742 -4.4916,-13.58096 -10.10045,5.58801 -19.97022,8.47009 -31.60684,10.40022 1.27639,5.06489 2.58716,10.6063 4.523,15.34146 z m 24.31451,-57.55048 c -11.50854,3.14537 -20.50232,3.5729 -32.38533,1.88627 -0.28149,5.77381 -0.22063,11.08027 -0.0453,16.5223 13.07098,1.43256 22.24321,0.36744 32.69144,-3.11767 -0.49769,-5.30234 -0.54591,-9.69245 -0.26081,-15.2909 z" fill="#a44e7b" stroke="#792f54" stroke-width="3.5" />
    </g>
  </g>
</svg>