<svg xmlns="http://www.w3.org/2000/svg" xmlns:xlink="http://www.w3.org/1999/xlink" viewBox="-42 -47 84 94">
  <clipPath id="V"><use xlink:href="#U"/></clipPath>
  <g clip-path="url(#V)">
    <path d="m-39.7-6.7v45a39.7 8.6 0 0 0 79.4 0v-45z" fill="#249fd7" id="U"/>
    <path d="m-39.7 28.9v14c30 3.9 67.7-7.4 81.3-49.6h-10.3z" fill="#69cb4b"/>
    <path d="m-39.7 15.4v13.5c19.6 5.3 54.7-2.5 71-35.6h-10.8z" fill="#fbf9b1"/>
    <path d="m20.5-6.7c-18.7 20.5-43.7 25.8-60.2 22.1v-22.1z" fill="#e66536"/>
    <path d="m-5.3 48.2c24.4-1.1 40.1-16.4 47.7-35.6v35.6z" fill="#622185"/>
    <path d="m-40-8c-1.1 24.6 17.5 26 24.4 12.3 2.7 20 28.5 20 31.2 0 6.9 13.7 25.5 12.3 24.4-12.3z" fill="#5f472b"/>
  </g>
  <ellipse cy="-6.7" rx="39.7" ry="8.6" fill="#8f6d4c"/>
  <path d="m-15.3-45c-13.6 37.1 6 50.2 34.5 34.5l-1.4-1.4-18.5-12.6-13.2-19.1z" fill="#6ff453"/>
  <path d="m-13.9-43.6c-11.6 33.1 4 46.4 31.7 31.7z" fill="#7eff63"/>
  <path d="m-.7-24.5c-8.3 7-10.1 2.9 0 0zm.9.5c-.1 10-4.8 8.5 0 0zm-2.7-1.4c-7.8-4.7-9 .6 0 0z" fill="#fff"/>
</svg>
