<svg xmlns="http://www.w3.org/2000/svg" xmlns:inkscape="http://www.inkscape.org/namespaces/inkscape" xmlns:xlink="http://www.w3.org/1999/xlink" height="938" viewBox="0 0 1275 938" width="1275">
  <defs>
    <inkscape:path-effect effect="powerstroke" id="path-effect1533" interpolator_type="CubicBezierSmooth" offset_points="0.29,3 | 10,3" start_linecap_type="zerowidth" />
    <inkscape:path-effect effect="powerstroke" end_linecap_type="zerowidth" id="path-effect1449" interpolator_type="CubicBezierSmooth" offset_points="0.32,3 | 1,3 | 1.42,2.5" start_linecap_type="zerowidth" />
    <inkscape:path-effect effect="powerstroke" id="path-effect1427" interpolator_type="CubicBezierSmooth" offset_points="0.32,3 | 3,3" start_linecap_type="zerowidth" />
    <inkscape:path-effect effect="powerstroke" id="path-effect1251" interpolator_type="CubicBezierSmooth" offset_points="0.47,3" start_linecap_type="zerowidth" />
    <inkscape:path-effect effect="powerstroke" id="path-effect1232" interpolator_type="CubicBezierSmooth" offset_points="0.58,3" start_linecap_type="zerowidth" />
    <linearGradient id="linearGradient1200">
      <stop offset="0" stop-color="#fff2fb" />
      <stop offset="1" stop-color="#fac9e6" />
    </linearGradient>
    <linearGradient id="linearGradient1149">
      <stop offset="0" stop-color="#ffb8da" />
      <stop offset="1" stop-color="#e38ec8" />
    </linearGradient>
    <linearGradient id="linearGradient1141">
      <stop offset="0" stop-color="#fbe2f1" />
      <stop offset="1" stop-color="#fac9e6" />
    </linearGradient>
    <inkscape:path-effect effect="powerstroke" end_linecap_type="zerowidth" id="path-effect1088" interpolator_type="CubicBezierSmooth" offset_points="0.29,3 | 2.71,3" start_linecap_type="zerowidth" />
    <inkscape:path-effect effect="powerstroke" id="path-effect239" interpolator_type="CubicBezierSmooth" offset_points="0.62,3 | 7,3" start_linecap_type="zerowidth" />
    <inkscape:path-effect bendpath1="M -12.5,-24.3 H 6.8495435" bendpath2="M 8.7508331,-22.603453 C 1.8452301,-8.3915742 0.85651636,8.522979 5.1788361,24.853133" bendpath3="M -12.5,23.862699 H 6.8495435" bendpath4="M -7.6116177,-24.743259 C -14.686803,-10.446359 -16.992289,8.2647952 -11.977671,23.132399" effect="envelope" id="path-effect231" yy="false" />
    <inkscape:path-effect effect="powerstroke" id="path-effect1001" interpolator_type="CubicBezierSmooth" offset_points="0.42,3 | 7,3" start_linecap_type="zerowidth" />
    <inkscape:path-effect effect="powerstroke" id="path-effect989" interpolator_type="CubicBezierSmooth" offset_points="0.8,3 | 9,3" start_linecap_type="zerowidth" />
    <inkscape:path-effect effect="powerstroke" id="path-effect124" interpolator_type="CubicBezierSmooth" offset_points="0.66,3 | 7,3" start_linecap_type="zerowidth" />
    <inkscape:path-effect effect="powerstroke" end_linecap_type="zerowidth" id="path-effect1542" interpolator_type="CubicBezierSmooth" offset_points="0.13,3 | 7.66,3" start_linecap_type="zerowidth" />
    <inkscape:path-effect effect="powerstroke" id="path-effect1525" interpolator_type="CubicBezierSmooth" offset_points="0.34,3 | 2,3" start_linecap_type="zerowidth" />
    <inkscape:path-effect effect="powerstroke" id="path-effect1523" interpolator_type="CubicBezierSmooth" offset_points="0.36,3" start_linecap_type="zerowidth" />
    <inkscape:path-effect effect="powerstroke" end_linecap_type="zerowidth" id="path-effect1521" interpolator_type="CubicBezierSmooth" offset_points="0.28,3 | 4.7,3" start_linecap_type="zerowidth" />
    <inkscape:path-effect effect="powerstroke" id="path-effect1496" interpolator_type="CubicBezierSmooth" offset_points="0.53,3 | 5,3" start_linecap_type="zerowidth" />
    <inkscape:path-effect effect="powerstroke" end_linecap_type="zerowidth" id="path-effect936" interpolator_type="CubicBezierSmooth" offset_points="0.23,3 | 2.78,3" start_linecap_type="zerowidth" />
    <inkscape:path-effect effect="powerstroke" end_linecap_type="zerowidth" id="path-effect925" interpolator_type="CubicBezierSmooth" offset_points="0.35,3 | 1.8,3" start_linecap_type="zerowidth" />
    <inkscape:path-effect effect="powerstroke" id="path-effect1624" interpolator_type="CubicBezierSmooth" offset_points="0.5,3 | 7,3" start_linecap_type="zerowidth" />
    <inkscape:path-effect effect="powerstroke" id="path-effect1579" interpolator_type="CubicBezierSmooth" offset_points="0.55,3" start_linecap_type="zerowidth" />
    <linearGradient id="linearGradient1528">
      <stop offset="0" stop-color="#f592c9" />
      <stop offset="1" stop-color="#8a76c5" />
    </linearGradient>
    <inkscape:path-effect effect="powerstroke" id="path-effect705" interpolator_type="CubicBezierSmooth" offset_points="0.45,3 | 6,3" start_linecap_type="zerowidth" />
    <linearGradient id="linearGradient4618">
      <stop offset="0" stop-color="#2ba8b7" />
      <stop offset="1" stop-color="#8ae9e9" />
    </linearGradient>
    <inkscape:path-effect effect="powerstroke" end_linecap_type="zerowidth" id="path-effect2632" interpolator_type="CubicBezierSmooth" offset_points="0.19,3 | 2.81,3" start_linecap_type="zerowidth" />
    <inkscape:path-effect effect="powerstroke" end_linecap_type="zerowidth" id="path-effect2613" interpolator_type="CubicBezierSmooth" offset_points="0.26,3 | 1.64,3" start_linecap_type="zerowidth" />
    <clipPath id="clipPath4630">
      <use xlink:href="#path974" />
    </clipPath>
    <clipPath id="clipPath4648">
      <use xlink:href="#path2578" />
    </clipPath>
    <linearGradient gradientTransform="matrix(0.87746116,-0.0045808,0.0045808,0.87746116,71.299076,28.995149)" gradientUnits="userSpaceOnUse" id="linearGradient1551" x1="586.81128" x2="786.04553" y1="210.42401" y2="232.75606" xlink:href="#linearGradient1528" />
    <linearGradient gradientTransform="matrix(0.87746116,-0.0045808,0.0045808,0.87746116,71.299076,28.995149)" gradientUnits="userSpaceOnUse" id="linearGradient1559" x1="586.81128" x2="786.04553" y1="210.42401" y2="232.75606" xlink:href="#linearGradient1528" />
    <linearGradient gradientUnits="userSpaceOnUse" id="linearGradient1591" x1="578.60809" x2="523.89832" y1="234.5295" y2="297.38553" xlink:href="#linearGradient1528" />
    <linearGradient gradientUnits="userSpaceOnUse" id="linearGradient1640" x1="533.12897" x2="475.63574" y1="255.21921" y2="460.21921" xlink:href="#linearGradient1528" />
    <linearGradient id="linearGradient1808">
      <stop offset="0" stop-color="#85aaa5" />
      <stop offset="1" stop-color="#a5c0bd" />
    </linearGradient>
    <inkscape:path-effect effect="powerstroke" end_linecap_type="zerowidth" id="path-effect1798" interpolator_type="CubicBezierSmooth" offset_points="0.83,2.2 | 1.48,2.2" start_linecap_type="zerowidth" />
    <clipPath id="clipPath1434">
      <use xlink:href="#ellipse1768" />
    </clipPath>
    <clipPath id="clipPath1452">
      <use xlink:href="#path1105" />
    </clipPath>
    <linearGradient gradientUnits="userSpaceOnUse" id="linearGradient982" x1="676.94385" x2="690.07635" y1="299.74768" y2="598.59882" xlink:href="#linearGradient1528" />
    <linearGradient gradientUnits="userSpaceOnUse" id="linearGradient1058" x1="613.6286" x2="591.6676" y1="347.30786" y2="584.53461" xlink:href="#linearGradient1528" />
    <linearGradient gradientTransform="matrix(1.0913541,0.07323268,-0.07323268,1.0913541,-4.374713,-66.79359)" gradientUnits="userSpaceOnUse" id="linearGradient1143" x1="456.44809" x2="384.92145" y1="472.87369" y2="426.5993" xlink:href="#linearGradient1141" />
    <linearGradient gradientTransform="matrix(1.0913541,0.07323268,-0.07323268,1.0913541,-4.374713,-66.79359)" gradientUnits="userSpaceOnUse" id="linearGradient1151" x1="456.44809" x2="384.92145" y1="472.87369" y2="426.5993" xlink:href="#linearGradient1149" />
    <linearGradient gradientTransform="matrix(1.0913541,0.07323268,-0.07323268,1.0913541,-4.374713,-66.79359)" gradientUnits="userSpaceOnUse" id="linearGradient1159" x1="456.44809" x2="384.92145" y1="472.87369" y2="426.5993" xlink:href="#linearGradient1149" />
    <linearGradient gradientTransform="matrix(1.0913541,0.07323268,-0.07323268,1.0913541,-4.374713,-66.79359)" gradientUnits="userSpaceOnUse" id="linearGradient1161" x1="456.44809" x2="384.92145" y1="472.87369" y2="426.5993" xlink:href="#linearGradient1149" />
    <linearGradient gradientTransform="matrix(1.0910178,0.05389094,-0.05389094,1.0910178,-9.9437351,-58.373788)" gradientUnits="userSpaceOnUse" id="linearGradient1174" x1="441.01837" x2="368.94781" y1="478.87195" y2="431.05508" xlink:href="#linearGradient1149" />
    <linearGradient gradientTransform="matrix(1.0910178,0.05389094,-0.05389094,1.0910178,-9.9437351,-58.373788)" gradientUnits="userSpaceOnUse" id="linearGradient1192" x1="441.01837" x2="368.94781" y1="478.87195" y2="431.05508" xlink:href="#linearGradient1149" />
    <linearGradient gradientTransform="matrix(1.0910178,0.05389094,-0.05389094,1.0910178,-9.9437351,-58.373788)" gradientUnits="userSpaceOnUse" id="linearGradient1194" x1="441.01837" x2="368.94781" y1="478.87195" y2="431.05508" xlink:href="#linearGradient1149" />
    <linearGradient gradientTransform="matrix(1.0910178,0.05389094,-0.05389094,1.0910178,-9.9437351,-58.373788)" gradientUnits="userSpaceOnUse" id="linearGradient1202" x1="441.01837" x2="368.94781" y1="478.87195" y2="431.05508" xlink:href="#linearGradient1200" />
    <linearGradient gradientTransform="translate(-1.2270349)" gradientUnits="userSpaceOnUse" id="linearGradient1242" x1="301.37885" x2="210.77675" y1="453.59241" y2="706.63428" xlink:href="#linearGradient1528" />
    <linearGradient gradientTransform="translate(-1.2270349)" gradientUnits="userSpaceOnUse" id="linearGradient1267" x1="281.53442" x2="248.39084" y1="535.28473" y2="754.31677" xlink:href="#linearGradient1528" />
    <linearGradient gradientTransform="matrix(1.0200114,0,0,1.0200114,555.32782,-92.700939)" gradientUnits="userSpaceOnUse" id="linearGradient1418" x1="337.0636" x2="337.43784" y1="118.45619" y2="178.28975" xlink:href="#linearGradient1808" />
    <linearGradient gradientTransform="matrix(0.95619512,0,0,0.95619512,427.38143,84.201814)" gradientUnits="userSpaceOnUse" id="linearGradient1501" x1="158.27451" x2="161.93518" y1="249.20059" y2="326.51489" xlink:href="#linearGradient4618" />
    <clipPath id="K">
      <use xlink:href="#J" />
    </clipPath>
    <filter color-interpolation-filters="sRGB" height="1.5502142" id="filter1702" width="1.2418434" x="-0.1209217" y="-0.27510711">
      <feGaussianBlur stdDeviation="3.4012222" />
    </filter>
  </defs>
  <g transform="translate(-5.9093023)">
    <path d="M 721.56691,347.74417 C 739.17067,312.67531 739.96603,287.01289 724.31409,254.38169 687.75135,178.1556 806.38336,121.82811 865.46171,217.43334 L 861.01214,412.40693 C 863.87345,465.95217 847.06205,495.6866 791.18088,515.87039 799.06496,498.44954 799.01532,486.81029 788.60136,469.81336 726.8249,462.14727 690.16971,410.29124 721.56691,347.74417 Z" fill="#a9beba" />
    <path fill="#85a39c" inkscape:original-d="M 790.4,432.91512 C 794.53679,447.25484 802.32243,459.97285 814.9407,470.54302 737.98201,475.97549 685.92426,418.7487 721.56691,347.74417 739.17067,312.67531 739.96603,287.01289 724.31409,254.38169 687.75135,178.1556 806.38336,121.82811 865.46171,217.43334 L 861.01214,412.40693 C 863.87345,465.95217 847.06205,495.6866 791.18088,515.87039 799.06496,498.44954 799.01532,486.81029 788.59606,469.72683" inkscape:path-effect="#path-effect124" />
  </g>
  <g>
    <path d="M 760.24155,515.44999 C 789.60303,546.27714 778.85112,607.80698 736.19023,627.41024 688.64555,649.25767 548.12144,635.17656 604.42194,355.60216 L 728.08287,205.05116 C 826.24566,295.57907 663.3198,462.34761 677.74765,538.04157 685.4323,496.22568 728.89429,482.53793 760.24155,515.44999 Z" fill="url(#linearGradient982)" />
    <path d="M 647.71719,302.53619 C 659.59769,365.80977 621.95515,436.77336 623.69651,514.26395 625.87791,611.33605 721.13198,634.96628 744.03663,560.79884 736.69975,572.60329 726.37761,577.44214 713.58837,576.52442 694.77384,588.24942 661.19169,568.90877 657.6907,532.26046 648.303,433.99035 753.19666,343.04865 697.95457,242.24689 Z" fill="#57c4dd" />
    <path fill="#8c61ad" inkscape:original-d="M 729.15515,543.1619 C 728.33712,554.06888 716.25956,556.58673 710.75004,547.47715 704.72927,537.52226 713.91276,526.03562 723.79038,525.50898 744.5845,524.4003 755.43333,555.14712 737.20532,569.77228 716.09819,586.70749 684.53891,573.67107 677.74765,538.04157 663.3198,462.34761 826.24566,295.57907 728.08287,205.05116 L 604.42194,355.60216 C 548.12144,635.17656 688.64555,649.25767 736.19023,627.41024 778.85112,607.80698 789.60303,546.27714 760.24155,515.44999 728.89429,482.53793 685.4323,496.22568 677.74765,538.04157" inkscape:path-effect="#path-effect989" />
    <path d="M 661.96451,565.74034 C 653.23892,608.27755 604.15734,634.89283 565.89418,603.60931 525.4577,570.54891 521.90116,439.46047 600.97674,327.11861 L 645.8779,336.84419 C 626.51802,393.56047 617.88255,452.27617 617.31108,509.62036 641.42603,502.0399 669.1057,530.92706 661.96451,565.74034 Z" fill="url(#linearGradient1058)" />
    <path d="M 661.96451,565.74034 C 624.80408,614.0397 494.99792,597.47545 630.07588,333.18274 L 615.01715,330.20873 C 496.24623,539.60031 570.38078,622.28519 637.86425,604.54667 655.12551,589.12681 657.90652,579.05897 661.96451,565.74034 Z" fill="#57c4dd" />
    <path fill="#8c61ad" inkscape:original-d="M 622.79069,531.07908 C 638.33313,533.80582 641.28207,557.37914 623.60872,563.80001 603.54308,571.09001 583.29958,543.6854 602.15813,520.53546 627.42954,489.51339 670.6901,523.20313 661.96451,565.74034 653.23893,608.27755 604.15734,634.89283 565.89418,603.60931 525.4577,570.54891 521.90116,439.46047 600.97674,327.11861 L 645.8779,336.84419 C 626.51802,393.56047 617.88255,452.27617 617.3372,509.5378" inkscape:path-effect="#path-effect239" />
    <path d="M 661.96451,565.74034 C 624.80408,614.0397 494.99792,597.47545 630.07588,333.18274" style="fill:none;stroke:#8c61ad;stroke-width:6;stroke-miterlimit:20" />
  </g>
  <g>
    <path d="M 482.60172,450.27848 C 540.85234,491.03856 500.43233,552.96087 446.87151,523.00082 380.74751,486.01341 366.4769,425.27262 372.64336,417.76587 380.57894,408.10533 421.13908,420.12611 460.78157,445.60484 Z" fill="url(#linearGradient1143)" stroke="url(#linearGradient1151)" stroke-width="6" />
    <path d="M 454.72532,441.61299 C 449.47881,449.5961 448.66589,456.99095 453.63384,465.42775 441.43656,462.81005 430.53217,471.71999 447.783,492.15796 431.75817,485.88624 425.39543,505.15206 462.08848,529.46853" style="fill:none;stroke:url(#linearGradient1159);stroke-width:4.5;stroke-miterlimit:20" />
    <path d="M 450.54396,455.08692 393.46328,415.58814 M 435.66362,495.59023 373.94843,439.66023 M 439.8763,469.62717 372.06633,417.20949" fill="none" stroke="url(#linearGradient1161)" stroke-width="3" />
  </g>
  <g>
    <path d="M 363.48617,442.5763 C 330.38203,483.83989 384.15664,551.36715 326.90488,579.82844 297.90871,636.01831 292.33299,701.31616 303.54687,776.82844 307.31736,802.21823 410.07978,798.87845 397.31498,776.57108 357.05486,706.21374 352.79209,640.49983 368.56753,585.17454 413.16753,571.0324 436.2992,528.43443 436.31983,484.59381 Z M 499.54412,530.19704 C 472.87241,610.79551 467.36342,685.08119 478.06558,775.1417 481.10813,800.74531 583.6532,798.98503 573.01294,775.36264 535.26608,691.56104 527.03238,611.48003 537.49772,518.79915 Z" fill="#fbe2f1" stroke="#ffb8da" stroke-width="6" />
    <path d="M 419.48153,549.63552 C 408.17238,566.5147 390.70531,579.79858 370.55066,587.05809 353.82049,645.40411 359.10033,702.70711 399.46491,776.06445 413.65841,801.85928 305.34184,803.72286 301.56457,778.32872 289.73746,698.81644 295.56385,640.38188 325.31936,578.33564 344.0814,569.00194 349.11475,559.60585 352.15906,541.80014 372.81894,547.35455 395.09821,550.40587 419.48153,549.63552 Z M 535.87528,569.20617 C 533.84656,649.50658 545.10428,704.47817 575.39371,774.30759 587.7056,802.69148 478.30395,805.36464 474.97804,773.64743 466.48382,692.64311 471.44521,633.02053 486.84824,565.5863 502.09989,571.30622 519.53293,572.88374 535.87528,569.20617 Z" fill="#ee98db" />
    <path d="M 299.493,762.76997 C 329.72497,769.56967 358.95765,769.36515 391.03358,761.28433 L 379.19661,733.22167 C 350.53136,740.71021 325.90629,741.10213 296.64847,732.77635 Z M 296.04952,703.95038 C 319.9874,710.39947 344.28755,711.20853 369.76427,706.30077 L 363.87153,678.86964 C 340.71975,681.24317 318.94644,678.97513 297.58962,672.27747 Z M 301.91309,643.93116 C 320.71587,650.67187 340.65153,653.82799 361.38092,653.55991 L 362.56165,625.24303 C 344.32016,624.40465 326.8276,620.95347 310.32074,614.79134 Z M 394.7947,574.66741 C 376.82738,574.08537 359.5744,571.0014 343.2591,565.32376 338.26014,570.50408 332.95625,575.28155 325.8202,577.6385 L 320.9441,587.42523 C 335.65355,593.12954 351.16535,596.66248 367.30945,598.09392 L 370.33347,587.3653 C 379.6148,584.62238 387.67601,580.26749 394.7947,574.66741 Z M 481.72851,590.03968 477.34518,613.13738 C 495.62707,619.55308 517.17457,621.48002 536.53604,619.11842 L 536.14987,594.7143 C 517.9165,597.75893 499.24939,596.26798 481.72851,590.03968 Z M 474.12942,638.14397 471.94511,662.36679 C 495.09182,670.56336 519.27694,672.27281 542.62574,668.91972 L 538.59344,643.95458 C 516.3949,647.40279 495.06121,645.92408 474.12942,638.14397 Z M 470.42514,690.12197 470.76158,714.86659 C 501.49327,723.59938 527.39639,724.34032 554.50573,716.82028 L 547.42631,692.37697 C 521.25464,699.28288 498.6831,697.7151 470.42514,690.12197 Z M 471.54704,739.21221 473.72408,764.27768 C 508.76088,776.17234 540.94029,776.15248 571.90608,766.24341 L 562.6421,742.35935 C 533.28626,750.80603 502.8087,750.10427 471.54704,739.21221 Z" fill="#edf4c6" />
    <path d="M 419.48153,549.63552 C 408.17238,566.5147 390.70531,579.79858 370.55066,587.05809 353.82049,645.40411 359.10033,702.70711 399.46491,776.06445 413.65841,801.85928 305.34184,803.72286 301.56457,778.32872 289.73746,698.81644 295.56385,640.38188 325.31936,578.33564 344.0814,569.00194 349.11475,559.60585 352.15906,541.80014 372.81894,547.35455 395.09821,550.40587 419.48153,549.63552 Z M 535.87528,569.20617 C 533.84656,649.50658 545.10428,704.47817 575.39371,774.30759 587.7056,802.69148 478.30395,805.36464 474.97804,773.64743 466.48382,692.64311 471.44521,633.02053 486.84824,565.5863 502.09989,571.30622 519.53293,572.88374 535.87528,569.20617 Z" fill="none" stroke="#d971c2" stroke-width="6" />
  </g>
  <g>
    <path d="M 128.27797,688.69438 C 157.33591,788.32484 340.01898,787.50212 300.13852,588.70429 285.16233,514.05032 301.25619,464.98171 344.25848,458.80239 L 369.88224,437.55349 C 286.84468,359.93755 196.86508,426.31354 196.86508,509.44108 196.86508,574.73507 242.76244,634.57166 218.58256,678.07574 235.87934,576.04365 100.68358,594.08198 128.27797,688.69438 Z" fill="url(#linearGradient1242)" />
    <path d="M 360.52236,445.18662 C 283.88893,385.62069 197.37061,453.64651 240.45317,585.07558 271.09141,678.54159 227.38372,723.60704 185.82759,694.77442 171.59232,691.38381 157.93427,682.49914 154.74271,662.59884 131.13654,745.77603 321.04378,788.96326 274.71945,591.15814 248.70344,480.06964 280.6276,426.4622 350.9776,452.63894 Z" fill="#57c4dd" />
    <path fill="#8c61ad" inkscape:original-d="M 178.07578,654.47943 C 170.83766,667.59852 185.84058,675.20851 195.34061,665.70848 204.84064,656.20845 197.86488,636.34219 179.21493,636.05153 161.11964,635.76952 148.46692,656.4412 159.17921,676.68779 170.51955,698.1214 205.85747,700.97054 218.58256,678.07574 242.76244,634.57166 196.86508,574.73507 196.86508,509.44108 196.86508,426.31354 286.84468,359.93755 369.88224,437.55349 L 344.25848,458.80239 C 301.25619,464.98171 285.16233,514.05032 300.13852,588.70429 340.01898,787.50212 157.33591,788.32484 128.27797,688.69438 100.68358,594.08198 235.87934,576.04365 218.58256,678.07574" inkscape:path-effect="#path-effect1232" />
    <path d="M 209.05593,707.8628 C 195.19279,733.25806 206.87776,768.81772 232.68746,780.10281 295.3313,807.49334 369.88643,721.52219 300.13852,588.70429 295.40059,632.73532 284.14806,663.3019 258.76328,687.73379 244.56575,680.07901 222.11326,683.94367 209.05593,707.8628 Z" fill="url(#linearGradient1267)" />
    <path d="M 209.05593,707.8628 C 207.82275,730.92131 222.37579,751.29725 245.98507,754.95271 288.4187,761.52277 322.25274,699.07652 300.13852,588.70429 313.09577,612.34437 321.88699,638.32784 326.61771,666.59535 323.61829,739.6721 283.35201,790.84593 227.9991,778.03024 204.14381,763.11816 196.80215,728.68551 209.05593,707.8628" fill="#57c4dd" />
    <path fill="#8c61ad" inkscape:original-d="M 253.50753,713.16084 C 245.3675,694.13117 223.33172,705.96716 234.17433,725.25954 245.00375,744.52846 272.0194,737.17599 272.38569,710.0784 272.76432,682.06775 229.4502,670.50347 209.05593,707.8628 195.19279,733.25806 206.87776,768.81772 232.68746,780.10281 295.3313,807.49334 369.88643,721.52219 300.13852,588.70429 295.40059,632.73532 284.14806,663.3019 258.59532,687.72228" inkscape:path-effect="#path-effect1251" />
    <path d="M 300.13852,588.70429 C 322.25274,699.07652 288.4187,761.52277 245.98507,754.95271 222.37579,751.29725 207.82275,730.92131 209.05593,707.8628" fill="none" stroke="#8c61ad" stroke-width="6" />
  </g>
  <path d="M 339.79918,453.74786 C 376.2846,413.14374 438.0509,439.60649 481.79991,416.93266 517.51747,398.42129 534.18479,362.86441 533.42727,307.43031 531.12568,139.00354 780.11301,169.87452 735.30664,327.47762 728.10924,352.79377 737.70248,372.44344 754.35937,379.29144 744.94251,391.07827 736.60141,393.0552 721.22735,392.75147 L 626.32324,397.2085 C 566.08555,445.93211 600.49669,528.22936 522.00334,553.88222 470.59107,570.68456 429.71223,544.6702 395.92307,539.7064 Z" fill="#fff2fb" />
  <path d="M 626.32324,397.2085 C 566.08555,445.93211 600.49669,528.22936 522.00334,553.88222 470.59107,570.68456 429.71223,544.6702 395.81685,539.56793" fill="none" stroke="#ffb8da" stroke-width="6" />
  <g>
    <path d="M 546.0473,526.48034 C 524.97885,580.64011 560.43102,614.18233 562.03362,661.10729 564.35289,729.01487 496.8418,775.57902 426.31883,772.41426 301.59096,766.81703 273.29561,620.56895 368.07917,523.52887 Z" fill="#fff2fb" />
    <path fill="#ffb8da" inkscape:original-d="M 546.0473,526.48034 C 524.97885,580.64011 560.43102,614.18233 562.03362,661.10729 564.35289,729.01487 496.8418,775.57902 426.31883,772.41426 301.59096,766.81703 273.29561,620.56895 368.07917,523.52887" inkscape:path-effect="#path-effect1427" />
    <path d="M 517.73468,635.2568 C 534.22956,638.50194 534.83364,662.11469 519.94313,669.16704 540.3249,671.01215 540.6025,629.17073 517.73468,635.2568 Z M 415.30761,623.50752 C 401.63506,612.41037 409.8684,589.84365 426.87024,591.00118 408.37097,579.43626 393.05855,617.19988 415.30761,623.50752 Z M 388.13622,697.37321 C 397.87513,683.04713 420.00964,687.45854 421.74722,703.48106 430.36166,684.89704 391.48479,675.08996 388.13622,697.37321 Z" fill="#ffb8da" />
  </g>
  <g>
    <g clip-path="url(#clipPath4648)" transform="rotate(5.5813587 134.35951 963.00839)">
      <path d="M 546.56066,231 C 588.67462,220.64846 611.95759,226.18069 626.98856,237.02914 653.00531,255.80648 643.72001,292.27562 646.13388,315.48744 624.45332,309.95255 601.36895,325.3811 577.62086,312.41839 561.49324,303.61525 546.01488,276.86515 546.56066,231 Z" fill="#fff" id="path2578" />
      <g clip-path="url(#clipPath4630)">
        <ellipse cx="587.6286" cy="359.28278" fill="url(#linearGradient1501)" id="path974" rx="29.372602" ry="46.265285" transform="rotate(-7.1806036)" />
        <path d="M 635.57826,287.38607 610.69337,334.91334 589.85878,317.08469 Z" fill="#fbffff" />
        <path d="M 635.57826,287.38607 584.97171,298.59746 593.75792,321.43902 Z" fill="#9ae2d6" />
        <ellipse cx="599.35217" cy="346.44409" rx="23.775871" ry="38.173492" transform="rotate(-5.829304)" />
        <ellipse cx="665.16364" cy="85.676849" fill="#fff" rx="10.700241" ry="17.675932" transform="rotate(15.845945)" />
        <ellipse cx="684.8125" cy="86.641136" fill="#fff" rx="3.9180496" ry="6.4723005" transform="rotate(17.184425)" />
      </g>
    </g>
    <path d="M 616.8513,318.03705 C 608.12993,318.1377 601.35372,321.77954 600.12037,331.85186 604.44953,325.11263 611.23813,322.58929 617.23901,322.7557 M 619.13751,330.03882 C 611.88408,330.4798 606.2869,334.03495 604.67271,342.8139 609.39813,336.3464 616.33009,334.43122 622.31018,334.95715 M 623.80167,340.57628 C 617.56893,342.70861 613.45525,347.28834 613.6507,355.60216 616.28499,349.7918 620.87834,346.5232 625.65119,345.07737 M 614.56916,277.22565 C 633.25118,274.75671 671.53728,269.49839 694.81197,291.79655 715.57363,311.68725 704.62905,335.12342 704.63418,365.98288 681.09647,359.17117 662.67008,370.29807 640.89436,357.16836 620.57602,344.9172 613.77745,302.98982 618.16541,274.34497 L 612.61437,274.90203 C 608.50359,307.00762 617.13872,349.32422 637.8797,361.60092 661.60495,375.64411 683.71136,362.84723 708.88704,371.23404 708.63064,341.63133 722.01585,310.50423 698.27292,287.75761 673.31366,263.84563 631.39957,269.33798 614.48859,271.88923 604.98424,273.32308 594.10844,271.03372 585.36865,263.4978 590.86216,273.93799 600.75602,279.05139 614.56916,277.22565 Z M 615.04894,281.40819 C 604.74446,283.53493 597.08519,283.86879 589.09757,276.23888 594.47765,286.81076 602.1841,288.87257 614.43852,286.99291" />
    <path d="M 737.96212,379.89831 C 737.4779,382.53074 738.79683,383.52338 741.47428,383.10897 737.92404,385.90615 735.40539,383.4512 737.96212,379.89831 Z" fill="#ffb8da" />
  </g>
  <path d="M 408.5864,495.76537 C 404.34375,539.60599 377.10974,582.20396 331.1478,596.3461 308.04433,651.67139 306.59736,724.3853 339.7929,797.74264 349.98864,820.27376 247.29556,823.39414 246,798 241.94345,718.48772 255.35177,649.68987 290,591 349.99268,562.53871 302.72119,495.01145 339.79918,453.74786 Z" fill="#fff2fb" />
  <path fill="#ffb8da" inkscape:original-d="M 408.5864,495.76537 C 404.34375,539.60599 377.10974,582.20396 331.1478,596.3461 308.04433,651.67139 306.59736,724.3853 339.7929,797.74264 349.98864,820.27376 247.29556,823.39414 246,798 241.94345,718.48772 255.35177,649.68987 290,591 349.99268,562.53871 302.72119,495.01145 339.79918,453.74786 376.2846,413.14374 438.0509,439.60649 481.79991,416.93266 517.51747,398.42129 534.18479,362.86441 533.42727,307.43031 531.12568,139.00354 780.11301,169.87452 735.30664,327.47762 728.10924,352.79377 737.70248,372.44344 754.35937,379.29144 744.94251,391.07827 736.60141,393.0552 721.22735,392.75147" inkscape:path-effect="#path-effect1533" />
  <g transform="rotate(9.614747-1759.9958 762.35779)scale(.69736386)">
    <path d="M 420.04962,242.12072 C 423.34381,231.5259 441.4739,234.1271 453.44946,229.27562 459.40706,226.8621 460.4881,221.46544 457.22961,217.61517 454.75531,214.6915 448.33585,215.13864 446.5019,219.57422 444.23231,225.06343 449.96741,226.30385 450.97923,221.53086 451.5136,219.0101 454.47197,219.75873 453.77661,222.32788 451.73036,229.88818 440.8328,227.89129 444.19986,218.97487 446.94683,211.70051 455.20926,212.03005 458.96418,216.06038 463.51286,220.94269 461.56238,228.54169 454.10907,231.42758 442.90518,235.76567 424.83028,233.96373 422.05529,242.4374 M 421.97668,240.65157 C 425.84099,246.65223 433.08141,247.69724 435.09678,243.96507 436.58965,248.07046 429.05066,252.17585 423.4524,247.47331 424.87062,251.13084 423.08964,252.84764 419.49629,252.84764 415.90294,252.84764 414.12196,251.13084 415.54018,247.47331 409.94192,252.17585 402.40293,248.07046 403.8958,243.96507 405.91117,247.69724 413.15159,246.65223 417.0159,240.65157 418.45128,239.18788 420.5413,239.18788 421.97668,240.65157 Z M 416.93729,242.4374 C 414.1623,233.96373 396.0874,235.76567 384.88351,231.42758 377.4302,228.54169 375.47972,220.94269 380.0284,216.06038 383.78332,212.03005 392.04575,211.70051 394.79272,218.97487 398.15978,227.89129 387.26222,229.88818 385.21597,222.32788 384.52061,219.75873 387.47898,219.0101 388.01335,221.53086 389.02517,226.30385 394.76027,225.06343 392.49068,219.57422 390.65673,215.13864 384.23727,214.6915 381.76297,217.61517 378.50448,221.46544 379.58552,226.8621 385.54312,229.27562 397.51868,234.1271 415.64877,231.5259 418.94296,242.12072" fill="#e4c137" />
    <g clip-path="url(#K)" transform="translate(419.9186 206.19715)">
      <path d="M -0.6,26.6 C -22.1,13.2 -30,-0.5 -30,-12.3 -30,-34 -8.6,-32.6 0.6,-23.8 9.8,-31.3 29.9,-31.4 29.9,-10 29.9,2.2 20.5,14.7 -0.6,26.6 Z" fill="#08becc" id="J" />
      <path d="M -22.6,8.6 -14.3,2 -17.5,-13 -30.4,-15.4 V -30.4 H 0 V -25.9 L -7.2,-22.7 V -16.7 H 30.8 V -2.2 H 10.8 L -0.3,12.9 -11.3,20.3 Z" fill="#24bad2" />
      <path d="M -7.2,-22.7 -22.5,-28 -17.5,-13 -28.6,-3.5 -14.3,2 19.5,-14.5 29.8,-16.3 V -28.9 H 0 V -25.9 L 8,-23.1 0,9.6 -0.3,12.9 10.3,21.8 22.8,9.2 14.1,2.2 Z" fill="#50c9e4" />
      <path d="M 0,9.6 -12.6,-1 V -13 H -17.5 L -7.2,-22.7 0.5,-18.8 H 8 V -23.1 L 21.2,-26.9 19.5,-14.5 28.7,-2.2 14.1,2.2 H 10 Z" fill="#80ccda" />
      <path d="M 14.1,2.2 0,9.6 -14.3,2 -12.6,-4.9 -17.5,-13 0.5,-18.8 -12.6,-4.9 0,9.6 13.5,-4.6 0.5,-18.8 8,-23.1 19.5,-14.5 13.5,-4.6 Z" fill="#8dfffd" />
    </g>
    <path d="M 420.39142,177.35814 C 425.30456,174.12727 427.14017,171.1203 427.24241,168.97254 427.40113,165.63842 422.9681,163.35642 420.215,167.55908 417.92426,163.29036 413.46527,165.73557 413.4651,169.09892 413.46498,171.62241 415.46777,173.75064 420.39142,177.35814 Z M 450.12353,177.52909 C 453.16219,175.53045 454.29742,173.67068 454.36079,172.3421 454.45873,170.2801 451.71668,168.86866 450.01428,171.46829 448.59719,168.82793 445.83717,170.26364 445.83717,172.34391 445.83717,173.90485 447.07798,175.29766 450.12353,177.52909 Z M 388.86905,177.53545 C 385.83039,175.53681 384.69516,173.67704 384.63179,172.34846 384.53385,170.28646 387.2759,168.87502 388.9783,171.47465 390.39539,168.83429 393.15541,170.27 393.15541,172.35027 393.15541,173.91121 391.9146,175.30402 388.86905,177.53545 Z M 462.63944,206.84624 C 467.55242,203.61513 469.38788,200.60807 469.49002,198.4603 469.64857,195.12618 465.21543,192.84439 462.46254,197.04719 460.17159,192.77858 455.70935,195.09984 455.70935,198.4632 455.70935,200.98668 457.71561,203.23897 462.63944,206.84624 Z M 377.35314,206.84624 C 372.44016,203.61513 370.6047,200.60807 370.50256,198.4603 370.34401,195.12618 374.77715,192.84439 377.53004,197.04719 379.82099,192.77858 384.28323,195.09984 384.28323,198.4632 384.28323,200.98668 382.27697,203.23897 377.35314,206.84624 Z" fill="#e84359" />
  </g>
  <g>
    <g>
      <path d="M 469.02002,455.49593 C 527.40253,495.9003 487.35673,557.94779 433.71346,528.30468 367.48766,491.70853 352.92269,431.12333 359.04208,423.59486 366.91709,413.90639 407.48459,425.70156 447.20517,450.94125 Z" fill="url(#linearGradient1202)" />
      <path fill="url(#linearGradient1174)" inkscape:original-d="M 469.02002,455.49593 C 527.40253,495.9003 487.35673,557.94779 433.71346,528.30468 367.48766,491.70853 352.92269,431.12333 359.04208,423.59486 366.91709,413.90639 407.48459,425.70156 447.20517,450.94125" inkscape:path-effect="#path-effect1088" />
      <path d="M 441.13648,446.98605 C 435.93827,454.98548 435.16461,462.37455 440.16942,470.77432 427.97508,468.22313 417.1314,477.17737 434.46447,497.49869 418.42887,491.31817 412.17419,510.59087 448.94329,534.6851" style="fill:none;stroke:url(#linearGradient1192);stroke-width:4.5;stroke-miterlimit:20" />
      <path d="M 437.03031,460.4634 379.82268,421.31258 M 422.37916,500.98892 360.45844,445.45297 M 426.45212,475.03912 358.46297,423.04222" style="fill:none;stroke:url(#linearGradient1194);stroke-width:3;stroke-miterlimit:20" />
    </g>
    <g>
      <path d="M 713.15669,283.0954 C 794.77171,275.58333 802.49354,192.5402 743.39419,160.97718 696.75808,136.07026 616.13453,149.18096 556.79609,209.51493 L 564.99074,228.12064 C 618.70474,204.87039 672.48433,203.29014 709.75383,229.27903" fill="url(#linearGradient1559)" />
      <path d="M 709.75383,229.27903 C 672.48433,203.29014 618.70474,204.87039 564.99074,228.12064 L 559.39499,215.8104 C 607.76346,173.54421 668.05736,156.22771 713.82253,169.01338 766.55707,183.74584 775.9443,240.47669 757.13854,267.89604 745.62179,276.07356 732.30508,281.33296 713.15669,283.0954" fill="#57c4dd" />
      <path d="M 713.15669,283.0954 C 794.77171,275.58333 802.49354,192.5402 743.39419,160.97718 696.75808,136.07026 616.13453,149.18096 556.79609,209.51493 L 564.99074,228.12064 C 618.70474,204.87039 672.48433,203.29014 709.75383,229.27903" fill="none" stroke="#8c61ad" stroke-width="6" />
      <path d="M 690.07141,218.23523 C 867.85014,53.016056 867.45359,63.09635 727.38429,242.30247" fill="#fff2fb" stroke="#ffb8da" stroke-width="6" />
      <path d="M 796.6166,121.96816 C 806.08891,121.53758 814.98166,119.02446 822.55662,114.96672 M 778.4698,137.47127 C 789.99909,138.81138 801.1418,136.96383 810.54067,132.75175 M 759.55221,154.4904 C 772.78196,157.68353 785.97932,156.48154 796.93233,152.00138 M 740.20082,171.56498 C 754.3514,176.82523 769.05578,176.7281 781.28321,172.51966 M 719.74088,190.09462 C 734.85627,197.6106 751.34329,198.54281 764.86946,194.22379 M 700.93679,207.64041 C 716.13908,217.47395 733.71869,219.9634 748.29239,216.23658" fill="none" stroke="#ffb8da" stroke-width="3" />
      <path d="M 713.15669,283.0954 C 784.18732,276.55755 734.85153,110.88197 565.22067,220.13467 L 565.73723,234.00046 C 605.05566,229.78972 644.76289,236.13406 680.88895,259.86092 685.59364,273.16042 698.34358,284.45886 713.15669,283.0954 Z" fill="url(#linearGradient1551)" />
      <path fill="#8c61ad" inkscape:original-d="M 698.4494,249.01556 C 702.85815,266.86676 717.84365,263.95567 719.9061,249.49363 723.3377,225.43286 694.85398,217.17549 682.90177,235.39728 670.54679,254.2328 689.14013,285.30599 713.15669,283.0954 784.18732,276.55754 734.85153,110.88197 565.22067,220.13467 L 565.73723,234.00046 C 605.05566,229.78972 644.76289,236.13406 680.88173,259.84044" inkscape:path-effect="#path-effect705" />
    </g>
    <g>
      <path d="M 452.5996,410.03431 C 434.39156,421.90445 431.84966,444.9599 444.47724,462.83456 477.75141,509.93497 571.67286,479.21702 542.30386,362.17106 531.8959,320.6916 539.05787,277.74032 554.13574,249.53136 L 546.18152,213.45301 C 495.35861,275.90379 467.86793,339.38848 487.54816,415.33886 480.62676,405.37408 465.97382,401.31542 452.5996,410.03431 Z" fill="url(#linearGradient1640)" />
      <path d="M 547.59948,219.85777 C 525.17785,253.47094 517.09128,291.40662 520.13111,345.05914 523.479,404.14893 517.68442,442.00194 482.95393,446.08591 490.95416,440.67619 493.67167,430.78011 489.91409,420.18642 507.2382,384.47752 485.82588,313.78703 518.70635,250.85453 L 546.23529,213.46192 Z" fill="#57c4dd" />
      <path fill="#8c61ad" inkscape:original-d="M 463.29528,435.09001 C 468.76776,453.28224 488.42576,451.83524 491.26238,431.56109 494.05485,411.60243 471.9841,397.39721 452.5996,410.03431 434.39157,421.90446 431.84966,444.9599 444.47724,462.83456 477.75141,509.93497 571.67286,479.21702 542.30386,362.17106 531.8959,320.6916 539.05787,277.74032 554.13574,249.53136 L 546.18152,213.45301 C 495.35861,275.90379 467.86793,339.38848 487.58595,415.39361" inkscape:path-effect="#path-effect1624" />
      <path d="M 470.28146,405.18984 C 437.93133,415.26611 450.65926,474.43605 486.0146,484.15877" fill="none" stroke="#8c61ad" stroke-width="3" />
    </g>
    <g transform="rotate(5.5813587 134.35951 963.00839)">
      <path d="M 484.37123,240.14487 C 445.67881,193.82079 465.22806,135.47359 473.99635,132.40329 482.87816,129.29324 518.24988,165.70934 516.32095,206.74633 Z" fill="#fff2fb" />
      <path d="M 480.0232,161.56622 C 475.45042,178.66383 477.57355,196.89728 487.88666,212.8084 481.42331,195.08843 479.20922,179.20677 480.0232,161.56622 Z" fill="#ffb8da" />
      <path fill="#ffb8da" inkscape:original-d="M 484.37123,240.14487 C 445.67881,193.82079 465.22806,135.47359 473.99635,132.40329 482.87816,129.29324 518.24988,165.70934 516.32095,206.74633" inkscape:path-effect="#path-effect2613" />
    </g>
    <g>
      <path d="M 507.44888,275.84576 C 499.9903,298.72817 519.39324,319.50623 541.53046,318.33991 576.25096,316.51063 597.29724,275.92337 587.51454,211.77644 573.04666,233.82154 563.24639,245.19733 541.58939,255.84939 527.88349,251.23956 512.21462,261.22479 507.44888,275.84576 Z" fill="url(#linearGradient1591)" />
      <path d="M 574.29796,231.09157 C 574.02528,248.95174 567.99164,262.01787 556.26664,269.38008 558.99338,276.46961 556.71046,286.30814 550.02994,290.67094 574.45935,283.56437 586.86836,254.49954 580.0013,223.05909 Z" fill="#57c4dd" />
      <path fill="#8c61ad" inkscape:original-d="M 545.19735,277.19041 C 541.78644,265.99223 530.03851,271.4965 530.48844,281.50165 530.94142,291.57732 542.10198,294.61183 550.02244,290.06117 558.37278,285.26333 561.12401,272.44065 551.28546,262.18758 536.30901,246.5801 513.39434,257.60549 507.44888,275.84576 499.9903,298.72817 519.39324,319.50623 541.53046,318.33991 576.25096,316.51063 597.29724,275.92337 587.51454,211.77644 573.04666,233.82154 563.24639,245.19733 541.55141,255.80782" inkscape:path-effect="#path-effect1579" />
      <path d="M 530.09096,254.89781 C 511.08431,268.66151 514.62685,307.38208 541.9397,318.6506" fill="none" stroke="#8c61ad" stroke-width="3" />
    </g>
  </g>
  <g transform="translate(-5.9093023)">
    <g>
      <path d="M 870.84005,567.81425 C 866.9554,643.29655 857.31848,698.79438 825.26175,762.20106 813.86433,784.74461 911.11108,787.02911 915.68704,764.72975 929.04748,699.62197 926.39042,636.93296 918.01285,574.66193 Z" fill="#655662" stroke="#4f424b" stroke-width="6" />
      <path d="M 947.71209,568.74695 1045.5963,596.46159 C 1045.009,634.68851 1049.9283,668.53769 1072.7579,705.84895 1088.7178,731.93268 1011.6447,790.37966 999.5925,752.52754 985.33966,707.76407 983.43168,662.64896 991.49377,619.46559 973.50836,613.04466 956.36065,596.88119 947.71209,568.74695 Z" fill="#655662" />
      <path fill="#4f424b" inkscape:original-d="M 1008.0485,622.84715 C 984.69308,621.7489 958.984,605.41508 947.71209,568.74695 L 1045.5963,596.46159 C 1045.009,634.68851 1049.9283,668.53769 1072.7579,705.84895 1088.7178,731.93268 1011.6447,790.37966 999.5925,752.52754 985.33966,707.76407 983.43168,662.64896 991.41656,619.39078" inkscape:path-effect="#path-effect1496" />
      <path d="M 1083.3477,432.50131 C 1086.7054,422.14771 1087.2996,412.65862 1084.6049,399.5636 1070.6727,425.2959 1052.5521,442.94227 1026.4352,455.28889 L 1055.1737,479.78543 C 1026.7381,665.44047 1089.5722,747.57482 1174.2989,723.53131 1127.9763,701.33782 1130.841,623.96198 1172.7652,536.55433 1222.8341,460.55289 1153.6724,405.77793 1083.3477,432.50131 Z" fill="#a9beba" />
      <path fill="#85a39c" inkscape:original-d="M 1096.3595,472.0111 C 1142.9742,471.47046 1163.6269,496.10421 1154.5915,559.44542 1236.1969,471.90648 1160.4717,403.1942 1083.3477,432.50131 1086.7054,422.14771 1087.2996,412.65862 1084.6049,399.5636 1070.6727,425.2959 1052.5521,442.94227 1026.4352,455.28889 L 1055.1737,479.78543 C 1026.7381,665.44047 1089.5722,747.57482 1174.2989,723.53131 1127.9763,701.33782 1130.841,623.96198 1172.9173,536.32243" inkscape:path-effect="#path-effect1001" />
    </g>
    <path d="M 1022.5292,775.62693 C 1014.4755,794.99264 1108.4441,797.17561 1109.8583,777.08976 1114.5802,710.02567 1102.9904,660.50225 1073.558,609.5975 1070.2486,603.87376 1062.1705,601.81589 1054.4378,603.76534 1055.489,580.93482 1073.4439,561.37234 1073.4439,522.32292 1073.4439,482.63095 1050.5956,449.79954 1009.1388,449.79954 974.16341,449.79954 958.92214,467.23099 931.59334,471.82296 931.64698,430.88284 945.57609,397.21666 947.71176,334.21443 952.50544,192.80085 783.44077,190.34156 761.86921,294.84381 753.31867,336.26642 747.39987,355.91686 727.69175,370.2298 L 756.38547,426.85376 C 791.93744,423.62402 816.68526,427.83962 840.99133,425.63381 806.3262,546.43809 841.99083,617.49382 944.18203,612.89764 967.56511,611.84596 986.36433,605.03238 1000.2782,593.96099 1036.4794,651.39135 1049.6387,710.44 1022.5292,775.62693 Z" fill="#756472" />
    <g transform="rotate(-9.3125093 3618.7317-6131.3363)scale(-1.3248014 1.585438)" inkscape:path-effect="#path-effect231">
      <path fill="#e1a696" inkscape:original-d="M -0.8,-22.1 C 3.5,-5.3 -5.7,0.3 -4.1,17.9 -13.5,2.4 0,-6.8 -4,-19.7 -7.4,-9.4 -12.5,-1.9 -12.5,8 -12.5,17.9 -6.2,26.7 6.7,23 -7.7,12.9 15.2,-3.9 -0.8,-22.1 Z" />
      <path fill="#c5d459" inkscape:original-d="M -0.8,-22.1 C 17.9,-5.9 -5.1,10.3 6.7,23 -10.5,17.1 10.7,1.3 -0.8,-22.1 Z" />
      <path fill="#fff" inkscape:original-d="M -10.3,-16.7 C -5.9,-17.5 -4.2,-19.8 -3.5,-24.3 -2.8,-19.7 -1,-17.4 3.1,-16.7 -1,-15.9 -2.7,-13.4 -3.4,-9 -4.1,-13.4 -5.9,-15.9 -10.3,-16.7 Z" />
    </g>
    <g>
      <ellipse cx="1596.7329" cy="-701.31311" fill="#fc87c8" filter="url(#filter1702)" rx="34.112915" ry="13.988441" transform="rotate(-9.4420839 6369.3253 1601.4185)scale(.69785114)" />
      <g clip-path="url(#clipPath1452)">
        <ellipse cx="904.97864" cy="-37.72839" fill="#fff" id="path1105" rx="41.705017" ry="51.771748" transform="rotate(23.903297)" />
        <g clip-path="url(#clipPath1434)">
          <ellipse cx="887.44971" cy="57.710892" fill="url(#linearGradient1418)" id="ellipse1768" rx="32.255268" ry="40.041031" transform="rotate(18.317067)" />
          <path d="M 834.89277,381.5693 815.42523,337.21474 854.42656,362.05448 Z" fill="#e0e9e8" />
          <path d="M 861.11584,354.304 815.42523,337.21474 850.67895,370.15553 Z" fill="#a7c2bf" />
          <ellipse cx="882.70593" cy="85.654053" rx="26.061359" ry="32.990265" transform="rotate(16.546092)" />
          <path d="M 837.10362,341.22 842.60381,337.58667 844.43879,344.12368 838.64106,347.91816 Z M 822.35348,323.29732 828.80176,309.2749 841.99819,305.41466 847.16568,316.26094 841.27826,329.87806 828.49832,334.25666 Z" fill="#fff" />
        </g>
      </g>
      <path d="M 746.59542,406.98825 C 767.15545,408.16089 780.14782,403.40898 790.72427,392.01757 783.75978,406.49407 768.91244,412.66392 748.6913,412.55955 M 750.80024,378.27355 C 756.58518,381.58764 759.68905,377.99879 756.14934,372.69913 756.19692,376.41265 754.7907,378.1913 750.80024,378.27355 Z" fill="#5c4e59" />
      <path inkscape:original-d="M 816.38242,297.47371 C 829.65057,283.63098 848.29641,277.62326 863.62414,284.86833 894.87224,299.63859 891.74415,347.57118 865.93543,369.82537" inkscape:path-effect="#path-effect1798" />
    </g>
    <path fill="#5c4e59" inkscape:original-d="M 897.71511,405.70416 C 847.54839,438.24474 818.4082,421.21926 756.38547,426.85376 L 727.69175,370.2298 C 747.39987,355.91686 753.31867,336.26642 761.86921,294.84381 783.44077,190.34156 952.50545,192.80085 947.71176,334.21443 945.20832,408.06599 926.49991,441.60788 933.15569,493.83477" inkscape:path-effect="#path-effect1521" />
    <path fill="#5c4e59" inkscape:original-d="M 1055.7493,615.17153 C 1049.0381,586.88881 1073.4439,567.85004 1073.4439,522.32292 1073.4439,482.63095 1050.5956,449.79954 1009.1388,449.79954 974.16341,449.79954 958.92214,467.23099 931.45392,471.80595" inkscape:path-effect="#path-effect1523" />
    <path d="M 1000.5268,594.34655 C 1036.4794,651.39135 1049.6387,710.44 1022.5292,775.62693 1014.4755,794.99264 1108.4441,797.17561 1109.8583,777.08976 1114.5802,710.02567 1102.9904,660.50225 1073.558,609.5975 1070.2486,603.87376 1062.1705,601.81589 1054.261,603.97305" fill="none" stroke="#5c4e59" stroke-width="6" />
    <path fill="#5c4e59" inkscape:original-d="M 1025.4169,543.77714 C 1020.6233,584.52342 991.97899,610.74791 944.18203,612.89764 841.99083,617.49384 806.3262,546.43809 841.20062,425.36996" inkscape:path-effect="#path-effect1525" />
    <g>
      <path d="M 892.01186,575.2732 C 896.76098,648.89512 890.45963,713.80578 862.1549,782.92282 852.36415,806.83077 948.83825,808.57581 951.62582,784.38431 959.42713,716.68172 955.25146,645.83571 936.35744,579.52459 Z" fill="#756472" />
      <path fill="#5c4e59" inkscape:original-d="M 892.01186,575.2732 C 896.76098,648.89512 890.45963,713.80578 862.1549,782.92282 852.36415,806.83077 948.83825,808.57581 951.62582,784.38431 959.42713,716.68172 955.25146,645.83571 936.35744,579.52459" inkscape:path-effect="#path-effect936" />
    </g>
    <g>
      <path d="M 789.47775,276.69987 C 701.46283,125.54 705.38414,125.77724 827.48147,241.29736" fill="#756472" stroke="#5c4e59" stroke-width="6" />
      <path d="M 748.21696,204.17411 C 751.75134,191.86929 751.17596,180.03711 747.59793,167.8209 M 764.52568,234.23137 C 772.82633,219.92894 774.15219,205.01707 771.11544,188.24258 M 782.09295,264.04933 C 795.02381,247.89842 797.41413,230.21249 794.02321,209.15011" fill="none" stroke="#5c4e59" stroke-width="3" />
      <path d="M 897.91938,283.0781 C 893.95225,232.98972 909.98253,207.35665 919.70816,207.24068 931.0867,207.105 976.66624,285.8992 927.35664,353.79586 Z" fill="#756472" />
      <path fill="#5c4e59" inkscape:original-d="M 897.91938,283.0781 C 893.95225,232.98972 909.98253,207.35665 919.70816,207.24068 931.0867,207.105 976.66624,285.8992 927.35664,353.79586" inkscape:path-effect="#path-effect925" />
      <path d="M 924.08748,244.50935 C 930.12113,270.89866 930.46046,289.92527 925.71039,315.05639 935.99438,292.3899 933.83501,264.90166 924.08748,244.50935 Z" fill="#5c4e59" />
      <path d="M 841.05025,213.39248 C 685.54098,210.67565 731.24761,341.99104 845.74193,292.46406 936.34274,253.27272 946.96525,346.69393 910.55957,397.89699 875.44307,447.28687 911.71643,499.74641 961.84701,467.73996 914.03014,465.81187 920.59049,419.83758 961.37272,391.50077 1007.9077,359.16676 1022.6767,281.52489 949.16753,272.23152 961.52918,266.76064 970.88756,260.672 979.85049,248.72878 952.49116,248.78177 914.54796,235.45175 899.10316,206.66773 877.20892,165.86408 838.11719,160.18735 812.47642,198.56127 Z" fill="#a9beba" />
      <path fill="#85a39c" inkscape:original-d="M 841.05025,213.39248 C 685.54098,210.67565 731.24761,341.99104 845.74193,292.46406 936.34274,253.27272 946.96525,346.69393 910.55957,397.89699 875.44307,447.28687 911.71643,499.74641 961.84701,467.73996 914.03014,465.81187 920.59049,419.83758 961.37272,391.50077 1007.9077,359.16676 1022.6767,281.52489 949.16753,272.23152 961.52918,266.76064 970.88756,260.672 979.85049,248.72878 952.49116,248.78177 914.54796,235.45175 899.10316,206.66773 877.20892,165.86408 838.11719,160.18735 812.47642,198.56127" inkscape:path-effect="#path-effect1542" />
    </g>
  </g>
  <g>
    <path d="M 603.30142,381.65148 C 644.49335,421.25918 690.17043,395.0936 732.5425,411.08232 736.31355,405.31816 736.81531,396.47203 721.28661,389.75206 Z" fill="#fff2fb" />
    <path fill="#ffb8da" inkscape:original-d="M 603.30142,381.65148 C 644.49335,421.25918 690.17043,395.0936 732.5425,411.08232 736.31355,405.31816 736.81531,396.47203 721.28661,389.75206" inkscape:path-effect="#path-effect1449" />
  </g>
  <g>
    <path d="M 474.07525,540.12071 C 440.66966,623.63038 431.66357,701.8974 435.57778,797.99286 436.62448,823.68985 539.43119,822.46087 530.50166,798.52839 499.93391,716.60218 495.37424,622.49433 511.43059,531.34863 Z" fill="#fff2fb" />
    <path fill="#ffb8da" inkscape:original-d="M 474.07525,540.12071 C 440.66966,623.63038 431.66357,701.8974 435.57778,797.99286 436.62448,823.68985 539.43119,822.46087 530.50166,798.52839 499.93391,716.60218 495.37424,622.49433 511.43059,531.34863" inkscape:path-effect="#path-effect2632" />
    <path d="M 385.1854,561.34752 C 372.22669,578.2267 353.24232,591.32392 332.37822,598.58343 309.94602,656.92945 308.9261,724.37839 342.12162,797.73573 353.79425,823.53056 245.29556,825.39414 244,800 239.94345,720.48772 252.33795,649.7037 289,589.33564 308.67421,580.00194 314.62582,570.60585 319.41024,552.80014 339.5273,558.35455 364.35635,561.40587 385.1854,561.34752 Z M 458.78961,574.58924 C 476.56975,580.45294 492.02361,580.48207 508.17507,576.36047 496.99209,652.71321 508.07728,725.29237 533.07044,797.07883 543.62473,827.39332 433.81001,830.198 432.59358,798.41867 429.50862,717.82412 435.65242,657.4975 458.78961,574.58924 Z" fill="#f0a3df" />
    <path d="M 243.1892,783.66474 C 273.04576,792.36309 304.60171,790.44658 334.99589,780.94177 L 325.90142,752.87911 C 299.28272,761.07964 271.72004,761.9969 243.27588,753.67112 Z M 245.61495,722.24445 C 268.92257,728.69354 296.64847,732.77635 319.59785,726.43287 L 316.62323,698.28975 C 293.23949,699.23929 271.18997,696.73392 250.4877,690.03626 Z M 258.83115,657.62142 C 277.01557,664.27306 296.19207,668.52145 316.95574,668.15527 L 320.98686,638.45374 C 302.8151,637.7017 285.63558,633.38403 269.69431,627.30009 Z M 358.03131,585.76991 C 340.11001,585.27291 323.13604,582.27063 307.34136,576.67028 301.8584,581.8742 296.10784,586.67672 288.74939,589.06741 L 282.96098,598.87711 C 297.1466,604.51174 312.33687,607.97123 328.35513,609.32624 L 332.37822,598.58343 C 341.91882,595.79661 350.38864,591.40362 358.03131,585.76991 Z M 452.21845,600.84155 446.17352,625.60742 C 464.00246,632.36353 483.78423,634.30179 503.32391,631.65039 L 504.6911,605.51538 C 486.23095,608.89122 469.29951,607.40175 452.21845,600.84155 Z M 440.88672,652.41211 436.96094,678.36914 C 459.52888,687.00195 483.05623,688.68376 506.65625,684.94531 L 504.41602,658.23242 C 481.95994,662.06551 461.26869,660.61284 440.88672,652.41211 Z M 433.71875,708.10352 432.27734,734.60352 C 462.39507,743.7628 488.25635,744.39306 515.91797,736.16797 L 510.5918,710.0332 C 483.91239,717.59461 461.44356,716.05779 433.71875,708.10352 Z M 431.85938,760.66992 432.23633,787.50195 C 466.43388,800.02054 498.62887,799.79638 530.32031,788.98828 L 522.76843,763.46625 C 492.79273,772.69793 462.35218,772.13849 431.85938,760.66992 Z" fill="#f4f8dd" />
    <path d="M 385.1854,561.34752 C 372.22669,578.2267 353.24232,591.32392 332.37822,598.58343 309.94602,656.92945 308.9261,724.37839 342.12162,797.73573 353.79425,823.53056 245.29556,825.39414 244,800 239.94345,720.48772 252.33795,649.7037 289,589.33564 308.67421,580.00194 314.62582,570.60585 319.41024,552.80014 339.5273,558.35455 364.35635,561.40587 385.1854,561.34752 Z M 458.78961,574.58924 C 476.56975,580.45294 492.02361,580.48207 508.17507,576.36047 496.99209,652.71321 508.07728,725.29237 533.07044,797.07883 543.62473,827.39332 433.81001,830.198 432.59358,798.41867 429.50862,717.82412 435.65242,657.4975 458.78961,574.58924 Z" fill="none" stroke="#dd80c8" stroke-width="6" />
  </g>
</svg>
