<?xml version="1.0" encoding="UTF-8" standalone="no"?>
<!-- Created with Inkscape (http://www.inkscape.org/) -->

<svg xmlns:dc="http://purl.org/dc/elements/1.1/" xmlns:cc="http://creativecommons.org/ns#" xmlns:rdf="http://www.w3.org/1999/02/22-rdf-syntax-ns#" xmlns:svg="http://www.w3.org/2000/svg" xmlns="http://www.w3.org/2000/svg" xmlns:xlink="http://www.w3.org/1999/xlink" xmlns:sodipodi="http://sodipodi.sourceforge.net/DTD/sodipodi-0.dtd" xmlns:inkscape="http://www.inkscape.org/namespaces/inkscape" width="744.09448819" height="1052.3622047" id="svg2" version="1.1" inkscape:version="0.48.5 r" sodipodi:docname="Cloud-Riding Anthro Luna.svg" inkscape:export-filename="/home/parclytaxel/Pictures/Cloud-Riding Anthro Luna.png" inkscape:export-xdpi="930.37457" inkscape:export-ydpi="930.37457">
  <sodipodi:namedview id="base" pagecolor="#ffffff" bordercolor="#666666" borderopacity="1.0" inkscape:pageopacity="0.0" inkscape:pageshadow="2" inkscape:zoom="0.51218108" inkscape:cx="372.04724" inkscape:cy="526.18109" inkscape:document-units="px" inkscape:current-layer="layer1" showgrid="true" inkscape:window-width="1364" inkscape:window-height="698" inkscape:window-x="0" inkscape:window-y="0" inkscape:window-maximized="1" showguides="true" />
  <defs id="defs4">
    <linearGradient inkscape:collect="always" id="linearGradient12373">
      <stop style="stop-color:#6c96ec;stop-opacity:0.251" offset="0" id="stop12375" />
      <stop id="stop12381" offset="0.56310546" style="stop-color:#6c96ec;stop-opacity:0.749" />
      <stop style="stop-color:#6c96ec;stop-opacity:0.251" offset="1" id="stop12377" />
    </linearGradient>
    <inkscape:path-effect effect="skeletal" id="path-effect12129" is_visible="true" pattern="m 414.20263,519.4427 0,-4 111,0 c 8.02773,0 16.4891,0.74819 24,2 -7.58453,1.39909 -15.97227,2 -24,2 z" copytype="single_stretched" prop_scale="1" scale_y_rel="false" spacing="0" normal_offset="0" tang_offset="0" prop_units="false" vertical_pattern="false" fuse_tolerance="0" pattern-nodetypes="ccscsc" />
    <inkscape:path-effect effect="skeletal" id="path-effect12051" is_visible="true" pattern="m 358.48868,558.99302 0,-4 82,0 c 8.02773,0 16.4891,0.74819 24,2 -7.58453,1.39909 -15.97227,2 -24,2 z" copytype="single_stretched" prop_scale="1" scale_y_rel="false" spacing="0" normal_offset="0" tang_offset="0" prop_units="false" vertical_pattern="false" fuse_tolerance="0" pattern-nodetypes="ccscsc" />
    <inkscape:path-effect effect="skeletal" id="path-effect11995" is_visible="true" pattern="m 130.25217,572.79882 0,-4 128,0 c 8.02773,0 16.4891,0.74819 24,2 -7.58453,1.39909 -15.97227,2 -24,2 z" copytype="single_stretched" prop_scale="1" scale_y_rel="false" spacing="0" normal_offset="0" tang_offset="0" prop_units="false" vertical_pattern="false" fuse_tolerance="0" pattern-nodetypes="ccscsc" />
    <inkscape:path-effect effect="skeletal" id="path-effect11963" is_visible="true" pattern="m 372.75651,611.45505 0,-4 462,0 c 8.02773,0 16.4891,0.74819 24,2 -7.58453,1.39909 -15.97227,2 -24,2 z" copytype="single_stretched" prop_scale="1" scale_y_rel="false" spacing="0" normal_offset="0" tang_offset="0" prop_units="false" vertical_pattern="false" fuse_tolerance="0" pattern-nodetypes="ccscsc" />
    <inkscape:path-effect effect="skeletal" id="path-effect11931" is_visible="true" pattern="m 3.0446373,647.35012 0,-4 142.0000027,0 c 8.02773,0 16.4891,0.74819 24,2 -7.58453,1.39909 -15.97227,2 -24,2 z" copytype="single_stretched" prop_scale="1" scale_y_rel="false" spacing="0" normal_offset="0" tang_offset="0" prop_units="false" vertical_pattern="false" fuse_tolerance="0" pattern-nodetypes="ccscsc" />
    <inkscape:path-effect effect="skeletal" id="path-effect11872" is_visible="true" pattern="m 414.44158,699.06667 0,-4 134,0 c 8.02773,0 16.4891,0.74819 24,2 -7.58453,1.39909 -15.97227,2 -24,2 z" copytype="single_stretched" prop_scale="1" scale_y_rel="false" spacing="0" normal_offset="0" tang_offset="0" prop_units="false" vertical_pattern="false" fuse_tolerance="0" pattern-nodetypes="ccscsc" />
    <inkscape:path-effect effect="skeletal" id="path-effect11840" is_visible="true" pattern="m 167.58028,583.84346 c -8.02773,0 -15.60547,-0.45364 -24,-2 8.39453,-1.39909 15.97227,-2 24,-2 l 50,0 c 8.02773,0 16.4891,0.74819 24,2 -7.58453,1.39909 -15.97227,2 -24,2 z" copytype="single_stretched" prop_scale="1" scale_y_rel="false" spacing="0" normal_offset="0" tang_offset="0" prop_units="false" vertical_pattern="false" fuse_tolerance="0" pattern-nodetypes="scsscss" />
    <inkscape:path-effect pattern-nodetypes="scsscss" fuse_tolerance="0" vertical_pattern="false" prop_units="false" tang_offset="0" normal_offset="0" spacing="0" scale_y_rel="false" prop_scale="1" copytype="single_stretched" pattern="m 408.9814,535.39872 c -8.75669,0 -15.3667,-0.85932 -24,-2.91373 8.25989,-0.7869 16.0228,-1.08627 24,-1.08627 l 517,0 c 8.02773,0 16.4891,0.74819 24,2 -7.58453,1.39909 -15.97227,2 -24,2 z" is_visible="true" id="path-effect8760" effect="skeletal" />
    <inkscape:path-effect effect="skeletal" id="path-effect8648" is_visible="true" pattern="m 408.9814,535.39872 c -8.75669,0 -15.3667,-0.85932 -24,-2.91373 8.25989,-0.7869 16.0228,-1.08627 24,-1.08627 l 517,0 c 8.02773,0 16.4891,0.74819 24,2 -7.58453,1.39909 -15.97227,2 -24,2 z" copytype="single_stretched" prop_scale="1" scale_y_rel="false" spacing="0" normal_offset="0" tang_offset="0" prop_units="false" vertical_pattern="false" fuse_tolerance="0" pattern-nodetypes="scsscss" />
    <inkscape:path-effect pattern-nodetypes="ccscsc" fuse_tolerance="0" vertical_pattern="false" prop_units="false" tang_offset="0" normal_offset="0" spacing="0" scale_y_rel="false" prop_scale="1" copytype="single_stretched" pattern="m 366.29448,259.40724 0,-4 42,0 c 8.02773,0 16.4891,0.74819 24,2 -7.58453,1.39909 -15.97227,2 -24,2 z" is_visible="true" id="path-effect7761" effect="skeletal" />
    <linearGradient inkscape:collect="always" id="linearGradient3850">
      <stop style="stop-color:#007a96;stop-opacity:1" offset="0" id="stop3852" />
      <stop style="stop-color:#00d2b5;stop-opacity:1" offset="1" id="stop3854" />
    </linearGradient>
    <inkscape:path-effect pattern-nodetypes="scsccs" fuse_tolerance="0" vertical_pattern="false" prop_units="false" tang_offset="0" normal_offset="0" spacing="0" scale_y_rel="false" prop_scale="1" copytype="single_stretched" pattern="m 63.98875,293.91844 c -8.02773,0 -15.60547,-0.45364 -24,-2 8.39453,-1.39909 15.97227,-2 24,-2 l 368,0 0,4 z" is_visible="true" id="path-effect4016" effect="skeletal" />
    <inkscape:path-effect pattern-nodetypes="ccscsc" fuse_tolerance="0" vertical_pattern="false" prop_units="false" tang_offset="0" normal_offset="0" spacing="0" scale_y_rel="false" prop_scale="1" copytype="single_stretched" pattern="m 421.24231,529.8767 0,-4 693.99999,0 c 8.0278,0 16.4891,0.74819 24,2 -7.5845,1.39909 -15.9722,2 -24,2 z" is_visible="true" id="path-effect3162" effect="skeletal" />
    <inkscape:path-effect pattern-nodetypes="scsscss" fuse_tolerance="0" vertical_pattern="false" prop_units="false" tang_offset="0" normal_offset="0" spacing="0" scale_y_rel="false" prop_scale="1" copytype="single_stretched" pattern="m 408.9814,535.39872 c -8.75669,0 -15.3667,-0.85932 -24,-2.91373 8.25989,-0.7869 16.0228,-1.08627 24,-1.08627 l 517,0 c 8.02773,0 16.4891,0.74819 24,2 -7.58453,1.39909 -15.97227,2 -24,2 z" is_visible="true" id="path-effect3128" effect="skeletal" />
    <inkscape:path-effect pattern-nodetypes="scsscss" fuse_tolerance="0" vertical_pattern="false" prop_units="false" tang_offset="0" normal_offset="0" spacing="0" scale_y_rel="false" prop_scale="1" copytype="single_stretched" pattern="m 271.79807,244.30965 c -8.02773,0 -15.60547,-0.45364 -24,-2 8.39453,-1.39909 15.97227,-2 24,-2 l 64,0 c 8.02773,0 16.4891,0.74819 24,2 -7.58453,1.39909 -15.97227,2 -24,2 z" is_visible="true" id="path-effect3087" effect="skeletal" />
    <clipPath id="clipPath3874" clipPathUnits="userSpaceOnUse">
      <use height="1052.3622" width="744.09448" id="use3876" xlink:href="#path3832" y="0" x="0" />
    </clipPath>
    <clipPath id="clipPath3889" clipPathUnits="userSpaceOnUse">
      <use height="1" width="1" id="use3891" xlink:href="#path4364" y="0" x="0" />
    </clipPath>
    <clipPath id="clipPath8579" clipPathUnits="userSpaceOnUse">
      <path sodipodi:nodetypes="cscccc" inkscape:connector-curvature="0" id="path8581" d="m 428.34375,368.25 c -17.33685,-9.72859 -32.21838,-10.64815 -46.96875,-11.0625 -14.75037,-0.41435 -29.38107,-0.37851 -47.25,-7.875 L 322.53125,437 c 25.76748,9.40752 57.81261,12.62307 86.28125,11.84375 51.24732,-10.3527 53.02923,-72.49842 19.53125,-80.59375 z" style="font-size:medium;font-style:normal;font-variant:normal;font-weight:normal;font-stretch:normal;text-indent:0;text-align:start;text-decoration:none;line-height:normal;letter-spacing:normal;word-spacing:normal;text-transform:none;direction:ltr;block-progression:tb;writing-mode:lr-tb;text-anchor:start;baseline-shift:baseline;color:black;fill:none;stroke:lime;stroke-width:0.5;stroke-miterlimit:4;stroke-dasharray:none;marker:none;visibility:visible;display:inline;overflow:visible;enable-background:accumulate;font-family:Sans;-inkscape-font-specification:Sans" />
    </clipPath>
    <clipPath id="clipPath8583" clipPathUnits="userSpaceOnUse">
      <path sodipodi:nodetypes="ccssscccc" inkscape:connector-curvature="0" d="m 396.5,466.6875 c -1.23157,-17.23229 6.2931,-30.04782 11.6875,-45.1875 3.4733,0.67601 6.88881,0.74338 10.09375,0.0625 10.63779,-2.25996 18.5533,-12.1277 17.25,-26.53125 -1.17518,-12.98767 -11.74894,-22.02266 -21.96875,-30.40625 -10.21981,-8.38359 -20.12429,-16.24124 -21.96875,-25.8125 L 344.25,331.25 c -11.8181,33.07166 -16.68568,79.47163 -11.59375,125.40625 z" style="font-size:medium;font-style:normal;font-variant:normal;font-weight:normal;font-stretch:normal;text-indent:0;text-align:start;text-decoration:none;line-height:normal;letter-spacing:normal;word-spacing:normal;text-transform:none;direction:ltr;block-progression:tb;writing-mode:lr-tb;text-anchor:start;baseline-shift:baseline;color:black;fill:none;stroke:lime;stroke-width:0.5;stroke-miterlimit:4;stroke-dasharray:none;marker:none;visibility:visible;display:inline;overflow:visible;enable-background:accumulate;font-family:Sans;-inkscape-font-specification:Sans" id="path8585" />
    </clipPath>
    <clipPath id="clipPath8622" clipPathUnits="userSpaceOnUse">
      <path sodipodi:nodetypes="cc" inkscape:connector-curvature="0" id="path8624" d="m 362.84375,570.9375 c -1.65174,15.34263 -0.9209,32.98077 1.375,46.40625 L 434,653.36218 l 175,-40 -51,-90.5 z" style="font-size:medium;font-style:normal;font-variant:normal;font-weight:normal;font-stretch:normal;text-indent:0;text-align:start;text-decoration:none;line-height:normal;letter-spacing:normal;word-spacing:normal;text-transform:none;direction:ltr;block-progression:tb;writing-mode:lr-tb;text-anchor:start;baseline-shift:baseline;color:black;fill:none;stroke:yellow;stroke-width:4;marker:none;visibility:visible;display:inline;overflow:visible;enable-background:accumulate;font-family:Sans;-inkscape-font-specification:Sans" />
    </clipPath>
    <clipPath id="clipPath8626" clipPathUnits="userSpaceOnUse">
      <path sodipodi:nodetypes="ccccc" style="fill:none;stroke:yellow" d="m 376.24097,613.1461 c -7.14904,-0.22731 -14.29733,-0.44243 -21.44516,-0.63392 l 0.68325,-34.72616 c 6.29664,-1.77879 12.63237,-3.45365 19.00214,-5.00121 z" id="path8628" inkscape:connector-curvature="0" />
    </clipPath>
    <clipPath id="clipPath8659" clipPathUnits="userSpaceOnUse">
      <path inkscape:connector-curvature="0" id="path8661" d="m 520.78415,603.70293 -0.35356,21.92031 86.56941,1.23894 8.5,-154.5 -260,-1.5 5,66.5 185.5,36 -5,25 z" style="fill:none;stroke:black" />
    </clipPath>
    <clipPath id="clipPath8703" clipPathUnits="userSpaceOnUse">
      <path sodipodi:nodetypes="ccccc" style="fill:none;stroke:aqua;stroke-width:0.5;stroke-miterlimit:4;stroke-dasharray:none" clip-path="none" d="m 403.5,505.21875 c -3.7664,-10.94997 -5.95432,-23.89985 -7,-38.53125 l -71.1875,16.75 c -4.61861,8.82795 -10.08298,17.49419 -11.875,26.53125 z" id="path8705" inkscape:connector-curvature="0" />
    </clipPath>
    <clipPath id="clipPath8707" clipPathUnits="userSpaceOnUse">
      <path sodipodi:nodetypes="cccccc" inkscape:connector-curvature="0" id="path8709" d="m 408.28125,492.96875 c -27.36838,5.46969 -65.15124,1.74825 -89.75,-9.65625 l -56.19464,132.7648 325.26913,39.59798 46.66904,-113.84419 z" style="font-size:medium;font-style:normal;font-variant:normal;font-weight:normal;font-stretch:normal;text-indent:0;text-align:start;text-decoration:none;line-height:normal;letter-spacing:normal;word-spacing:normal;text-transform:none;direction:ltr;block-progression:tb;writing-mode:lr-tb;text-anchor:start;baseline-shift:baseline;color:black;fill:none;stroke:aqua;stroke-width:0.5;stroke-miterlimit:4;stroke-dasharray:none;marker:none;visibility:visible;display:inline;overflow:visible;enable-background:accumulate;font-family:Sans;-inkscape-font-specification:Sans" />
    </clipPath>
    <clipPath id="clipPath8763" clipPathUnits="userSpaceOnUse">
      <path style="fill:none;stroke:black" d="m 249.5,560.36218 -1,90.5 353,-8.5 -3.5,-117.5 -123.5,26 z" id="path8765" inkscape:connector-curvature="0" />
    </clipPath>
    <clipPath clipPathUnits="userSpaceOnUse" id="clipPath12097">
      <path style="font-size:medium;font-style:normal;font-variant:normal;font-weight:normal;font-stretch:normal;text-indent:0;text-align:start;text-decoration:none;line-height:normal;letter-spacing:normal;word-spacing:normal;text-transform:none;direction:ltr;block-progression:tb;writing-mode:lr-tb;text-anchor:start;baseline-shift:baseline;color:black;fill:none;stroke:black;stroke-width:0.5;stroke-miterlimit:4;stroke-dasharray:none;marker:none;visibility:visible;display:inline;overflow:visible;enable-background:accumulate;font-family:Sans;-inkscape-font-specification:Sans" d="m 427.59375,505.46875 c 25.88075,-1.32006 49.78133,13.48298 57.40625,48 l 48.93918,73.6749 64.5421,-3.10631 24.50529,-132.53564 -192.24572,4.14173 z" id="path12099" inkscape:connector-curvature="0" sodipodi:nodetypes="cc" />
    </clipPath>
    <clipPath clipPathUnits="userSpaceOnUse" id="clipPath12101">
      <path style="font-size:medium;font-style:normal;font-variant:normal;font-weight:normal;font-stretch:normal;text-indent:0;text-align:start;text-decoration:none;line-height:normal;letter-spacing:normal;word-spacing:normal;text-transform:none;direction:ltr;block-progression:tb;writing-mode:lr-tb;text-anchor:start;baseline-shift:baseline;color:black;fill:none;stroke:black;stroke-width:0.5;stroke-miterlimit:4;stroke-dasharray:none;marker:none;visibility:visible;display:inline;overflow:visible;enable-background:accumulate;font-family:Sans;-inkscape-font-specification:Sans" d="m 481.25,552.625 c 23.85548,-30.88459 53.71291,-35.58679 75.3125,-24.90625 l -4.5278,-33.23525 -126.12587,-22.30992 -74.89645,52.80717 -1.38058,55.22319 128.73905,-15.18638 z" id="path12103" inkscape:connector-curvature="0" sodipodi:nodetypes="cccccccc" />
    </clipPath>
    <filter inkscape:collect="always" id="filter12369">
      <feGaussianBlur inkscape:collect="always" stdDeviation="2.2524154" id="feGaussianBlur12371" />
    </filter>
    <linearGradient inkscape:collect="always" xlink:href="#linearGradient12373" id="linearGradient12379" x1="432.46472" y1="184.28188" x2="478.95779" y2="115.53188" gradientUnits="userSpaceOnUse" />
    <mask maskUnits="userSpaceOnUse" id="mask12383">
      <path d="m 473.15625,105.53125 c -5.89184,-0.43394 -12.56726,3.32311 -15.46875,10.125 -1.43666,3.36793 -2.65795,4.71025 -3.5625,5.4375 -0.90455,0.72725 -1.69889,1.02805 -3.375,1.5625 -1.67611,0.53445 -4.40357,1.29959 -6.90625,3.59375 -2.50268,2.29416 -4.19197,5.66272 -5.21875,10 -1.281,5.41117 -3.92665,7.08582 -8.46875,10.6875 -4.5421,3.60168 -10.63434,9.16138 -12.59375,19.15625 -1.17868,6.0124 0.75888,11.78584 4,16.125 3.24112,4.33916 7.68733,7.57675 12.46875,9.84375 4.78142,2.267 9.92757,3.58497 14.96875,3.5 5.04118,-0.085 10.48432,-1.73793 13.84375,-6.3125 4.6392,-6.31735 5.31522,-12.23218 6.03125,-15.84375 0.71603,-3.61157 0.9747,-5.42257 5.8125,-9.59375 6.89229,-5.94258 8.33542,-13.16774 8.6875,-17.90625 0.35208,-4.73851 0.0619,-7.01962 3.90625,-11.53125 5.01827,-5.88946 4.41403,-14.0252 1.09375,-19.3125 -3.32028,-5.2873 -8.73101,-9.05342 -15.21875,-9.53125 z" id="path12385" style="fill:none;stroke:white;stroke-width:20;stroke-miterlimit:4;stroke-dasharray:none;filter:url(#filter12369)" inkscape:original="M 472.71875 111.5 C 468.99496 111.22574 465.35483 112.99243 463.21875 118 C 456.38329 134.02423 447.91231 123.07892 444.46875 137.625 C 441.02519 152.17126 426.70598 150.57758 423.4375 167.25 C 420.16902 183.92242 450.30804 196.16173 458 185.6875 C 465.69196 175.21311 459.35077 169.13669 470.78125 159.28125 C 482.21173 149.42581 472.97387 141.90521 482.71875 130.46875 C 489.41836 122.60606 480.91108 112.10338 472.71875 111.5 z " inkscape:radius="6" sodipodi:type="inkscape:offset" />
    </mask>
    <clipPath clipPathUnits="userSpaceOnUse" id="clipPath12387">
      <path style="fill:none;stroke:lime;stroke-width:0.89775419" d="m 423.44256,167.26436 c -3.26848,16.67242 26.86945,28.91023 34.56141,18.436 7.69196,-10.47439 1.33605,-16.55957 12.76653,-26.41501 11.43048,-9.85544 2.21412,-17.37025 11.959,-28.80671 9.74488,-11.43664 -12.68291,-28.50656 -19.51837,-12.48235 -6.83546,16.02423 -15.30857,5.09448 -18.75213,19.64056 -3.44356,14.54626 -17.74796,12.95509 -21.01644,29.62751 z" id="path12389" inkscape:connector-curvature="0" sodipodi:nodetypes="zzzzzzz" />
    </clipPath>
    <filter inkscape:collect="always" id="filter13638">
      <feGaussianBlur inkscape:collect="always" stdDeviation="2.1011379" id="feGaussianBlur13640" />
    </filter>
    <linearGradient inkscape:collect="always" xlink:href="#linearGradient3850" id="linearGradient13691" gradientUnits="userSpaceOnUse" x1="412.08072" y1="236.7289" x2="414.89777" y2="265.93527" />
  </defs>
  <metadata id="metadata7">
    <rdf:RDF>
      <cc:Work rdf:about="">
        <dc:format>image/svg+xml</dc:format>
        <dc:type rdf:resource="http://purl.org/dc/dcmitype/StillImage" />
        <dc:title></dc:title>
      </cc:Work>
    </rdf:RDF>
  </metadata>
  <g id="layer1" inkscape:groupmode="layer" inkscape:label="Drawing">
    <g id="g12149">
      <path sodipodi:nodetypes="cccccsssscssscc" inkscape:connector-curvature="0" id="path12143" d="m 275.75091,551.65616 c 28.21849,-14.48011 55.66549,-2.53743 81.90682,4.45261 C 387.83568,490.34193 467,485.16979 485,545.36218 c 36.86541,-42.82956 91.29436,-26.14543 100.56484,16.97363 60.79384,-26.88407 107.82031,10.27376 97.62675,58.74646 29.28437,8.08434 43.69748,41.95837 6.80841,78.27991 -65,64 -281.34858,-27.61722 -503,4 -179.8664863,25.65685 -254.110115,-22.15661 -244,-93 15.809431,-110.77952 168.85826,-82 143,13 -16.567035,60.8652 -90.9289322,48.31371 -85,-11 11.87868,42.99138 54.394094,41.79027 63,6 16.020815,-66.62742 -90.807613,-82.05025 -100,-5 -6.750296,56.58073 63.337011,76.08645 115.249328,74.69682 35.489752,-0.95002 50.432222,-18.43635 68.476462,-28.77327 -12.00106,-78.4925 61.80136,-123.99135 128.02512,-107.62957 z" style="fill:white;stroke:none;stroke-width:1;stroke-linecap:butt;stroke-linejoin:miter;stroke-miterlimit:12;stroke-opacity:1;stroke-dasharray:none;fill-opacity:1" />
      <path style="fill:none;stroke:#c1ecef;stroke-width:4;stroke-linecap:butt;stroke-linejoin:miter;stroke-miterlimit:12;stroke-opacity:1;stroke-dasharray:none" d="m 690,699.36218 c -65,64 -281.34858,-27.61722 -503,4 -179.8664863,25.65685 -254.110115,-22.15661 -244,-93 15.809431,-110.77952 168.85826,-82 143,13 -16.567035,60.8652 -90.9289322,48.31371 -85,-11 11.87868,42.99138 54.394094,41.79027 63,6 16.020815,-66.62742 -90.807613,-82.05025 -100,-5 -6.750296,56.58073 63.337011,76.08645 115.249328,74.69682" id="path4037" inkscape:connector-curvature="0" sodipodi:nodetypes="cssscssc" />
      <path inkscape:original-d="m 187,703.36218 c 221.65142,-31.61722 438,60 503,-4 52.71487,-51.90387 0.66704,-98.80974 -50,-73" inkscape:path-effect="#path-effect11963" id="path11905" d="m 187.28243,705.34214 -0.56486,-3.95992 c 54.06853,-7.70798 108.93023,-8.2446 163.36434,-4.97998 49.3595,2.95854 98.41182,9.14977 147.40419,15.11815 10e-6,10e-6 2e-5,10e-6 3e-5,10e-6 21.12761,2.57304 42.24563,5.09491 63.4106,6.9031 18.06542,1.54162 36.15922,2.61719 54.20236,2.11827 14.63305,-0.41277 29.27054,-1.77011 43.15451,-5.84888 5.85848,-1.71909 11.55789,-3.93335 16.86041,-6.84051 4.92423,-2.69911 9.5119,-6.00127 13.48278,-9.91533 10.11979,-10.0486 18.94229,-22.11303 20.97822,-35.81244 0,-10e-6 10e-6,-2e-5 10e-6,-3e-5 0.76418,-4.99009 0.57081,-10.13244 -0.7946,-14.93017 0,-10e-6 0,-2e-5 0,-3e-5 -1.25828,-4.45682 -3.52444,-8.63977 -6.53528,-12.17856 -6.35258,-7.52411 -16.00969,-12.02872 -25.92411,-13.4545 -1.76033,-0.25224 -3.53146,-0.40806 -5.30686,-0.47282 -5.1785,-0.18888 -10.53443,0.22257 -15.80015,1.15614 -5.26573,0.93356 -10.43201,2.38402 -15.21402,4.11754 4.22448,-2.93703 9.19764,-5.40692 14.54044,-7.03904 5.34279,-1.63213 11.046,-2.4183 16.6174,-2.21961 1.9101,0.0681 3.81979,0.23203 5.72251,0.49708 10.75095,1.49252 21.237,6.4532 28.41094,14.82273 3.37858,3.96875 5.91233,8.65285 7.33803,13.68203 0,10e-6 0,2e-5 10e-6,3e-5 1.525,5.41787 1.75314,11.12649 0.89893,16.62897 -2.38318,14.95119 -11.58795,27.76246 -22.12505,38.05294 -4.26803,4.1981 -9.15082,7.71967 -14.36814,10.57355 -5.61046,3.06822 -11.57544,5.39256 -17.65711,7.17076 -14.38294,4.20064 -29.35855,5.61124 -44.16884,6.00863 -18.27471,0.50039 -36.5187,-0.57952 -54.65296,-2.13128 -21.25416,-1.81667 -42.41987,-4.34348 -63.55368,-6.91792 0,0 -10e-6,0 -10e-6,0 -49.00423,-5.96767 -97.97506,-12.1515 -147.15974,-15.09596 -54.24864,-3.2457 -108.84232,-2.72006 -162.5603,4.94705 z" style="fill:#c1ecef;stroke:none;stroke-width:4;stroke-linecap:butt;stroke-linejoin:miter;stroke-miterlimit:12;stroke-opacity:1;stroke-dasharray:none;fill-opacity:1" />
      <path inkscape:original-d="m -36,613.36218 c -6.750296,56.58073 63.337011,76.08645 115.249328,74.69682 68.597152,-1.83626 60.429762,-65.45211 146.528842,-19.62575" inkscape:path-effect="#path-effect11931" id="path11901" d="m -37.985917,613.12525 3.971834,0.47386 c -0.746327,6.30073 -0.569794,12.71044 0.847713,18.82491 1.274063,5.52875 3.569349,10.82786 6.696244,15.57463 6.443044,9.8408 16.324567,17.21014 27.00252503,22.66791 11.91663697,6.06635 24.95765097,9.86346 38.21923197,12.2966 13.320636,2.43613 26.902408,3.45867 40.444179,3.09656 7.441193,-0.20208 14.855304,-1.17676 21.97308,-3.17652 5.8427,-1.63691 11.49359,-3.98297 16.85913,-6.87068 4.77528,-2.56799 9.34914,-5.58193 13.89489,-8.70185 1e-5,0 1e-5,-10e-6 2e-5,-10e-6 4.23801,-2.91268 8.4838,-5.93391 12.99656,-8.65177 4.41928,-2.66542 9.12743,-4.98988 14.15679,-6.54967 5.57044,-1.7155 11.41376,-2.41224 17.2029,-2.19934 2.5021,0.0942 4.98543,0.34049 7.44461,0.71154 4.87947,0.73623 9.73148,2.05757 14.40194,3.72624 10.09855,3.60123 19.47521,8.76355 27.65244,14.08559 -9.10479,-3.76323 -18.81424,-7.73179 -28.76156,-10.66478 -4.61177,-1.35653 -9.27175,-2.49451 -13.8908,-3.19575 -2.32337,-0.35272 -4.65587,-0.58366 -6.99206,-0.66549 -5.37346,-0.19324 -10.77506,0.44507 -15.87771,2.02405 -4.6234,1.41974 -9.03745,3.61269 -13.27447,6.15512 0,0 0,0 -1e-5,0 -4.33885,2.60748 -8.51708,5.58524 -12.79387,8.52136 0,0 -1e-5,0 -1e-5,10e-6 -4.58673,3.15314 -9.2834,6.24203 -14.2633,8.92666 -5.60176,3.01756 -11.52471,5.47345 -17.67533,7.20017 -7.48654,2.09615 -15.225024,3.11989 -22.946204,3.32368 -13.814482,0.37019 -27.671786,-0.67362 -41.270774,-3.16037 -13.537258,-2.46765 -26.942558,-6.38774 -39.3120906,-12.66552 -4e-6,0 -8.1e-6,0 -1.22e-5,0 -11.1261812,-5.62479 -21.5169732,-13.44918 -28.5303292,-24.0331 -3.385379,-5.13784 -5.866454,-10.87073 -7.25361,-16.87598 -1.524619,-6.63702 -1.725896,-13.50444 -0.921947,-20.19806 z" style="fill:#c1ecef;stroke:none;stroke-width:4;stroke-linecap:butt;stroke-linejoin:miter;stroke-miterlimit:12;stroke-opacity:1;stroke-dasharray:none;fill-opacity:1" />
      <path inkscape:original-d="M 147.69029,659.26048 C 132.91212,562.34879 248.96194,515.72614 320.29289,573.82665" inkscape:path-effect="#path-effect11995" style="fill:#c1ecef;stroke:none;stroke-width:4;stroke-linecap:butt;stroke-linejoin:miter;stroke-miterlimit:12;stroke-opacity:1;stroke-dasharray:none;fill-opacity:1" d="m 149.66743,658.95898 -3.95428,0.603 c -1.74381,-11.40795 -1.81279,-23.12866 0.25731,-34.53768 1.86147,-10.23723 5.46736,-20.16067 10.6936,-29.17153 0,0 0,0 1e-5,0 10.08979,-17.35725 26.01938,-30.94856 44.20455,-39.25749 1e-5,0 1e-5,0 1e-5,0 18.81186,-8.60115 39.96745,-11.81805 60.50386,-9.54685 8.652,0.95725 17.18103,2.91698 25.38805,5.79464 6.32035,2.21612 12.55014,5.23041 18.25916,8.82961 5.70901,3.59919 10.89199,7.77814 15.27319,12.15397 -5.26509,-3.38629 -10.90514,-6.64459 -16.77755,-9.56575 -5.87241,-2.92115 -11.97449,-5.50369 -18.07809,-7.64405 -7.92556,-2.77928 -16.15995,-4.67167 -24.50412,-5.59262 -19.82844,-2.18944 -40.28287,0.91467 -58.4004,9.20846 -10e-6,10e-6 -10e-6,10e-6 -10e-6,10e-6 -17.4835,8.00924 -32.8145,21.05719 -42.4088,37.62741 -4.98928,8.5966 -8.43664,18.08954 -10.21803,27.88001 -1.99042,10.91485 -1.91516,22.19596 -0.23846,33.21886 z" id="path4039" inkscape:connector-curvature="0" sodipodi:nodetypes="cc" />
      <path inkscape:original-d="m 275.58579,551.65436 c 50.36396,-25.75736 98.12132,32.10122 142.36396,-3.12061" inkscape:path-effect="#path-effect12051" style="fill:#c1ecef;stroke:none;stroke-width:4;stroke-linecap:butt;stroke-linejoin:miter;stroke-miterlimit:12;stroke-opacity:1;stroke-dasharray:none;fill-opacity:1" d="m 276.49645,553.435 -1.82132,-3.56128 c 6.06683,-3.10304 12.62535,-5.24625 19.3703,-6.28091 6.31564,-0.96319 12.72159,-0.97565 19.01369,-0.329 10e-6,0 10e-6,0 10e-6,0 12.60423,1.30414 24.66327,5.02274 36.55748,8.45749 0,0 0,0 0,0 5.84002,1.6801 11.66057,3.30689 17.53323,4.52873 5.63669,1.16999 11.32153,1.97956 16.98507,2.00843 0.98488,0.005 1.96973,-0.0136 2.95274,-0.0576 4.54052,-0.20299 9.14888,-0.82081 13.60492,-2.01975 6.16509,-1.64823 12.04547,-4.42687 17.25718,-7.64737 -4.29332,4.45411 -9.86938,8.36239 -16.23722,10.77444 -4.62443,1.74361 -9.57701,2.6741 -14.44648,2.89098 -1.05191,0.0468 -2.1042,0.0662 -3.15507,0.0592 -6.02342,-0.041 -11.97224,-0.87861 -17.77702,-2.09245 -6.04661,-1.26154 -11.9641,-2.91234 -17.82403,-4.60078 -10e-6,0 -10e-6,0 -10e-6,0 -11.95082,-3.43049 -23.7765,-7.10395 -35.85738,-8.32207 0,0 -10e-6,0 -10e-6,0 -6.0175,-0.61112 -12.08599,-0.60714 -18.00133,0.30358 -6.30974,0.96544 -12.46307,2.97779 -18.15475,5.88833 z" id="path4027" inkscape:connector-curvature="0" sodipodi:nodetypes="cc" />
      <path clip-path="url(#clipPath12101)" sodipodi:nodetypes="cc" inkscape:connector-curvature="0" id="path12063" d="m 357.41421,556.12053 c 29.73118,-65.7786 113.96637,-73.6148 129.55036,-3.06806" style="fill:none;stroke:#c1ecef;stroke-width:4;stroke-linecap:butt;stroke-linejoin:miter;stroke-miterlimit:12;stroke-opacity:1;stroke-dasharray:none" />
      <path inkscape:original-d="m 479.65486,551.39761 c 48.58958,-62.90669 124.14413,-20.55015 104.24463,46.55036" inkscape:path-effect="#path-effect12129" clip-path="url(#clipPath12097)" sodipodi:nodetypes="cc" inkscape:connector-curvature="0" id="path12059" d="m 481.23768,552.62019 -3.16564,-2.44516 c 10.29826,-13.39108 24.13542,-24.71601 40.62659,-29.40398 13.05097,-3.67553 27.4313,-2.6636 39.64845,3.35624 0,0 0,10e-6 10e-6,10e-6 11.91712,5.90802 21.35635,16.35085 26.34529,28.64055 1.88847,4.68446 3.13597,9.56442 3.81101,14.524 0.71121,5.22543 0.59839,10.70247 -0.2411,15.95565 -0.8395,5.25318 -2.39746,10.27478 -4.3628,14.70047 0.70798,-4.84768 1.22256,-9.92355 1.3756,-15.01719 0.15303,-5.09363 -0.0593,-10.20025 -0.71922,-15.10462 -0.6263,-4.65487 -1.79337,-9.21137 -3.56969,-13.55362 -4.625,-11.39026 -13.41984,-21.13946 -24.4121,-26.55965 0,0 0,0 0,0 -11.23245,-5.57549 -24.66075,-6.4991 -36.79235,-3.09127 0,0 0,0 0,0 -15.42942,4.29066 -28.57239,15.14712 -38.54405,27.99857 z" style="fill:#c1ecef;stroke:none;stroke-width:4;stroke-linecap:butt;stroke-linejoin:miter;stroke-miterlimit:12;stroke-opacity:1;stroke-dasharray:none;fill-opacity:1" />
      <path style="fill:none;stroke:#c1ecef;stroke-width:4;stroke-linecap:butt;stroke-linejoin:miter;stroke-miterlimit:12;stroke-opacity:1;stroke-dasharray:none" d="m 585.31371,562.36218 c 61.04497,-26.91044 108.07144,10.24739 97.93513,58.85653" id="path4031" inkscape:connector-curvature="0" sodipodi:nodetypes="cc" />
    </g>
    <g id="g13775">
      <g id="g11057">
        <path sodipodi:nodetypes="ssssscsss" inkscape:connector-curvature="0" id="path8778" d="m 368.29289,314.61344 c 39.55456,-4.88204 77.94209,-155.8873 2.17158,-158.00862 -62.98967,-1.7635 -45.04979,77.56686 -113.42283,40.45227 -86.51894,-46.96463 -4.1797,98.72665 -81.45411,94.04371 -44.30273,-2.68481 -40.78245,39.5157 -50.09081,72.73608 -13.90512,49.62564 -52.454966,25.17444 -30.568334,-4.95139 -30.073762,3.62041 -35.309275,59.37849 7.609244,65.43205 75.97857,10.71659 76.1879,-75.10682 139.12908,-61.92954 70.67108,14.7956 59.8914,-39.53778 126.62618,-47.77456 z" style="fill:#4641d1;fill-opacity:0.50196078;stroke:#885de4;stroke-width:4;stroke-linecap:butt;stroke-linejoin:miter;stroke-miterlimit:4;stroke-opacity:1;stroke-dasharray:none" />
        <path style="fill:#1558ce;fill-opacity:1;stroke:none" d="m 229.86568,345.53728 c 85.6398,14.64126 76.61545,-31.80315 113.81725,-39.84828 96.27441,-20.81997 83.52628,-145.96766 15.56962,-134.25069 -40.73056,7.02269 -29.08778,81.15705 -82.46383,50.34037 -30.1447,-17.40405 -50.94491,-8.76517 -51.80412,42.81447 -1.13151,67.92582 -76.43878,22.46906 -83.17614,80.1815 -4.46392,38.23812 -29.70529,49.71682 -16.84914,63.55606 22.33142,24.03908 55.54229,-71.23287 104.90636,-62.79343 z" id="path8780" inkscape:connector-curvature="0" sodipodi:nodetypes="ssssssss" />
        <path sodipodi:type="star" style="fill:#b6ecff;fill-opacity:1;stroke:none" id="path10259" sodipodi:sides="4" sodipodi:cx="269.26929" sodipodi:cy="291.77481" sodipodi:r1="12.089468" sodipodi:r2="1.5111835" sodipodi:arg1="1.5475447" sodipodi:arg2="2.3329429" inkscape:flatsided="false" inkscape:rounded="0" inkscape:randomized="0" d="m 269.55036,303.86101 -1.32451,-10.99308 -11.04276,-0.81204 10.99307,-1.32451 0.81205,-11.04277 1.32451,10.99308 11.04277,0.81205 -10.99308,1.32451 z" transform="matrix(0.46573123,-0.25009903,-0.25009903,-0.46573123,226.98123,523.50746)" />
        <use x="0" y="0" xlink:href="#path10259" id="use10271" transform="matrix(0.3472318,1.2958868,-1.2958868,0.3472318,659.64076,-200.026)" width="744.09448" height="1052.3622" />
        <use height="1052.3622" width="744.09448" transform="matrix(-0.91232218,-0.63106618,0.63106618,-0.91232218,359.98614,746.4701)" id="use10273" xlink:href="#path10259" y="0" x="0" />
        <use x="0" y="0" xlink:href="#path10259" id="use10275" transform="matrix(-0.57763318,-0.04720753,0.04720753,-0.57763318,381.46398,482.63831)" width="744.09448" height="1052.3622" />
        <use height="1052.3622" width="744.09448" transform="matrix(0.41563181,-0.76002573,-0.76002573,-0.41563181,378.82014,597.426)" id="use10277" xlink:href="#path10259" y="0" x="0" />
        <use x="0" y="0" xlink:href="#path10259" id="use10279" transform="matrix(-0.10644579,-1.1166931,1.1166931,-0.10644579,-145.36894,669.05996)" width="744.09448" height="1052.3622" />
        <use height="1052.3622" width="744.09448" transform="matrix(-0.1446636,-0.56772574,-0.56772574,0.1446636,526.28665,409.18516)" id="use10281" xlink:href="#path10259" y="0" x="0" />
        <use x="0" y="0" xlink:href="#path10259" id="use10283" transform="matrix(-1.1694608,-1.4693662,-1.4693662,1.1694608,931.9039,433.4011)" width="744.09448" height="1052.3622" />
        <use height="1052.3622" width="744.09448" transform="matrix(1.127365,-0.09357401,0.09357401,1.127365,-189.93592,17.465244)" id="use10285" xlink:href="#path10259" y="0" x="0" />
        <use x="0" y="0" xlink:href="#path10259" id="use10287" transform="matrix(-1.0996261,-0.69885661,-0.69885661,1.0996261,777.61603,166.9748)" width="744.09448" height="1052.3622" />
        <use height="1052.3622" width="744.09448" transform="matrix(0.42727309,-0.69565502,0.69565502,0.42727309,-81.650627,362.91795)" id="use10289" xlink:href="#path10259" y="0" x="0" />
        <use x="0" y="0" xlink:href="#path10259" id="use10291" transform="matrix(-1.8192257,-0.43479843,-0.43479843,1.8192257,947.61231,-209.27685)" width="744.09448" height="1052.3622" />
        <use height="1052.3622" width="744.09448" transform="matrix(-0.83617577,-0.23538134,0.23538134,-0.83617577,364.29095,654.46106)" id="use10293" xlink:href="#path10259" y="0" x="0" />
        <use x="0" y="0" xlink:href="#path10259" id="use10295" transform="matrix(-0.78317496,-0.37580745,-0.37580745,0.78317496,662.73006,151.06106)" width="744.09448" height="1052.3622" />
        <use height="1052.3622" width="744.09448" transform="matrix(0.70887747,0.61360126,-0.61360126,0.70887747,262.4865,-59.099696)" id="use10297" xlink:href="#path10259" y="0" x="0" />
        <use height="1052.3622" width="744.09448" transform="matrix(-0.87410781,-0.93821868,-0.93821868,0.87410781,863.76425,230.08413)" id="use11019" xlink:href="#path10259" y="0" x="0" />
        <use x="0" y="0" xlink:href="#path10259" id="use11021" transform="matrix(-0.51565951,0.20977188,0.20977188,0.51565951,244.43567,107.61945)" width="744.09448" height="1052.3622" />
        <use height="1052.3622" width="744.09448" transform="matrix(-0.83494949,0.37844549,0.37844549,0.83494949,337.6284,-42.271153)" id="use11023" xlink:href="#path10259" y="0" x="0" />
        <use x="0" y="0" xlink:href="#path10259" id="use11025" transform="matrix(-1.2721966,0.40241843,0.40241843,1.2721966,493.62421,-286.00883)" width="744.09448" height="1052.3622" />
        <use height="1052.3622" width="744.09448" transform="matrix(-0.87289046,0.08660226,0.08660226,0.87289046,496.69972,-73.377093)" id="use11027" xlink:href="#path10259" y="0" x="0" />
        <use x="0" y="0" xlink:href="#path10259" id="use11029" transform="matrix(-0.66624792,-0.87659923,-0.87659923,0.66624792,626.44985,404.43898)" width="744.09448" height="1052.3622" />
        <use height="1052.3622" width="744.09448" transform="matrix(0.5517104,-0.78588386,-0.78588386,-0.5517104,434.57924,602.67306)" id="use11031" xlink:href="#path10259" y="0" x="0" />
      </g>
      <path sodipodi:nodetypes="csssssssscccc" inkscape:connector-curvature="0" id="path4242" d="m 368.43113,500.8533 c 60.89972,13.36537 123.75857,30.86963 177.17015,50.55393 29.02792,10.69795 20.81485,51.28167 -12.7383,55.42271 -46.77328,5.77264 -86.87847,2.39471 -188.73663,-0.33396 -26.57917,-0.71203 -54.8932,1.37412 -82.57724,9.84006 -6.71438,2.0533 -10.29122,-5.3906 -4.19553,-8.92501 28.60079,-16.58332 45.01979,-27.64506 65.20756,-43.36439 5.93429,-4.62079 11.97244,-5.50441 15.01349,-0.0805 2.35579,4.20161 2.77435,13.12502 7.72469,11.72776 72.45113,-20.44967 133.19967,-21.59332 181.85052,-1.49361 l 3.53419,-13.36649 -167.03634,-37.906 z" style="fill:#284282;fill-opacity:1;stroke:#071b42;stroke-width:4;stroke-miterlimit:4;stroke-opacity:1;stroke-dasharray:none" />
      <path style="fill:#1558ce;fill-opacity:1;stroke:#885de4;stroke-width:4;stroke-linecap:butt;stroke-linejoin:miter;stroke-miterlimit:4;stroke-opacity:1;stroke-dasharray:none;display:inline" d="m 356.90941,296.94075 c -24.3843,-28.32347 -26.2751,-77.59149 -5.82673,-107.56992 15.94806,35.4447 16.09423,72.17643 5.82673,107.56992 z" id="path7731" inkscape:connector-curvature="0" sodipodi:nodetypes="ccc" />
      <path sodipodi:nodetypes="sssssssscccsscs" inkscape:connector-curvature="0" id="path4128" d="m 451.98959,294.1802 c 7.65032,4.022 21.27487,-27.54567 12.3033,-31.81802 -8.57448,-4.08325 -9.32739,-13.33455 -13.79289,-30 -14.67005,-54.74934 -79.4363,-55.64936 -94,-21.5 -14.5,34 13.16581,55.20118 -10.3699,121.0633 -11.6763,32.67485 -16.5364,78.86275 -11.4762,124.51116 2.16496,19.53022 -15.89393,36.93759 -19.26346,53.92998 -6.84055,34.49658 10.58437,61.54936 42.34259,67.49697 54.7574,10.25484 114.80282,11.91139 172.25991,7.74925 16.86906,-4.30283 26.09434,-16.71846 26.33136,-30.18869 -48.9652,-19.49879 -100.4401,-35.91118 -154.45066,-48.83536 -4.01473,-11.42129 -6.29355,-24.75487 -7.3666,-39.7692 -1.92896,-26.99031 16.76025,-43.09501 16.54032,-71.00499 -0.34345,-43.58478 -42.99341,-45.34734 -10.07403,-102.73567 17.02316,0.95009 31.35924,-9.23299 51.01626,1.10127 z" style="fill:#314b8f;fill-opacity:1;stroke:none" />
      <g id="g3893">
        <path id="path6621" style="fill:black;fill-opacity:1;fill-rule:evenodd;stroke:none" d="m 387.20432,241.99338 c -3.53155,2.32341 -7.21224,3.07595 -12.97636,3.01964 5.11385,1.08299 8.19169,1.09086 13.42249,-0.78895 z m -0.0233,-2.84715 c -4.75915,2.18431 -9.2421,2.34247 -15.22789,1.16632 5.19289,2.35293 9.88893,2.35078 15.17217,1.09262 z m 0.50447,-2.55619 c -6.28676,1.17892 -11.56971,0.62934 -17.99509,-1.80373 4.82932,3.34407 10.41312,4.40001 18.28975,3.78645 z" inkscape:connector-curvature="0" sodipodi:nodetypes="cccccccccccc" />
        <path sodipodi:nodetypes="csc" inkscape:connector-curvature="0" id="path4364" d="m 430.63435,265.91671 c -25.60056,4.81744 -44.62566,-6.86373 -45.50212,-28.81307 -0.87961,-22.02836 41.46066,-22.83456 45.50212,28.81307 z" style="fill:white;stroke:none" />
        <g clip-path="url(#clipPath3889)" id="g3880">
          <g id="g3866" clip-path="url(#clipPath3874)">
            <path transform="matrix(0.99985597,0.01697127,-0.01697127,0.99985597,6.8923236,-6.4507067)" d="m 432.09747,250.02171 a 15.169065,20.197046 0 1 1 -30.33813,0 15.169065,20.197046 0 1 1 30.33813,0 z" sodipodi:ry="20.197046" sodipodi:rx="15.169065" sodipodi:cy="250.02171" sodipodi:cx="416.92841" id="path3832" style="fill:url(#linearGradient13691);fill-opacity:1;stroke:none" sodipodi:type="arc" />
            <path style="fill:#9cfff3;fill-opacity:1;fill-rule:evenodd;stroke:none" d="m 408.73917,273.5188 14.56995,-20.21334 -23.00507,10.32029 z" id="path3848" inkscape:connector-curvature="0" sodipodi:nodetypes="cccc" />
            <path sodipodi:nodetypes="cccc" inkscape:connector-curvature="0" id="path3844" d="m 398.63785,257.58578 24.67127,-4.28032 -21.33887,13.54855 z" style="fill:#66f4d4;fill-opacity:1;fill-rule:evenodd;stroke:none" />
            <path sodipodi:type="arc" style="fill:black;stroke:none" id="path3838" sodipodi:cx="416.92841" sodipodi:cy="250.02171" sodipodi:rx="14.711262" sodipodi:ry="20.197046" d="m 431.63967,250.02171 a 14.711262,20.197046 0 1 1 -29.42253,0 14.711262,20.197046 0 1 1 29.42253,0 z" transform="matrix(0.78483064,0.05242393,-0.05242393,0.78483064,106.5912,31.823624)" />
            <path transform="matrix(0.98314602,-0.18282208,0.18282208,0.98314602,-39.803912,75.382589)" d="m 421.6823,247.7448 a 5.7576475,8.2238436 0 1 1 -11.5153,0 5.7576475,8.2238436 0 1 1 11.5153,0 z" sodipodi:ry="8.2238436" sodipodi:rx="5.7576475" sodipodi:cy="247.7448" sodipodi:cx="415.92465" id="path3840" style="fill:white;stroke:none" sodipodi:type="arc" />
            <path sodipodi:type="arc" style="fill:white;stroke:none" id="path3842" sodipodi:cx="415.92465" sodipodi:cy="247.7448" sodipodi:rx="5.8981071" sodipodi:ry="7.5110583" d="m 421.82276,247.7448 a 5.8981071,7.5110583 0 1 1 -11.79621,0 5.8981071,7.5110583 0 1 1 11.79621,0 z" transform="matrix(0.29701271,-0.11404461,0.11404461,0.29701271,266.40682,228.17884)" />
          </g>
        </g>
        <path id="path3055" d="m 400,222.84375 c -7.29604,-0.12957 -13.34623,3.93492 -14.625,10.8125 13.59598,1.51776 26.19108,1.62789 38.40625,6.40625 C 417.43705,228.15675 407.97905,222.98545 400,222.84375 z" style="fill:#779ae1;fill-opacity:1;stroke:none" inkscape:connector-curvature="0" />
        <path id="path6614" style="fill:black;stroke:none" d="m 387.74011,234.00959 c -2.54215,-3.04313 -3.77677,-5.7823 -4.86968,-10.04271 -0.13469,3.77495 0.41001,6.8617 2.01062,9.79613 z m -2.00058,-0.13288 c -4.36646,-2.63654 -6.92553,-5.02685 -10.30791,-9.25643 1.60013,4.03152 3.5726,6.64464 6.95601,8.89345 z m 44.84663,9.74201 c -10.77206,-9.29708 -31.89367,-9.7501 -44.68585,-10.75475 -4.89664,-0.38457 -9.51867,-1.79033 -14.43614,-4.89415 3.68064,4.24332 9.86429,6.36471 13.76912,6.68782 13.75931,1.13855 31.98253,1.98078 45.35287,8.96108 z" inkscape:connector-curvature="0" sodipodi:nodetypes="cccccccccscsc" />
      </g>
      <path style="fill:#071b42;fill-opacity:1;stroke:none" d="m 529.84844,583.61807 0.289,3.98954 c -57.60852,4.17894 -115.90951,2.86496 -172.77257,-7.7782 -14.80828,-2.7518 -28.79513,-11.10006 -36.96823,-23.93979 -8.50286,-13.56363 -10.07203,-30.46215 -6.968,-45.91202 0.95957,-4.76137 2.83687,-9.17922 4.90382,-13.34411 10e-6,-10e-6 10e-6,-2e-5 10e-6,-2e-5 2.2342,-4.52848 4.71501,-8.85344 6.99301,-13.20729 2.27504,-4.36145 4.38919,-8.74883 5.79556,-13.30603 1.35605,-4.41228 2.05452,-9.01558 1.54504,-13.46316 0,0 -1e-5,-1e-5 -1e-5,-2e-5 -2.48463,-22.41147 -2.68957,-45.08117 -0.54116,-67.53153 1.87125,-19.619 5.4615,-39.21558 12.12183,-57.87298 4.78646,-13.41102 8.27817,-27.30339 9.40009,-41.40697 0.80516,-10.00305 0.28877,-20.11661 -0.92877,-30.15858 0,-1e-5 0,-3e-5 0,-4e-5 -0.99044,-8.11385 -2.43362,-16.3346 -2.64526,-24.77871 0,-1e-5 0,-2e-5 0,-4e-5 -0.20586,-8.45914 1.25458,-16.99284 4.58751,-24.83051 3.79948,-8.83219 11.14039,-15.80082 19.76855,-19.77712 9.12565,-4.20586 19.44621,-5.40816 29.31067,-4.00571 10.75808,1.51978 21.02844,6.18004 29.24219,13.29724 9.67028,8.41528 16.18055,19.99009 19.45013,32.25252 10e-6,1e-5 10e-6,3e-5 10e-6,4e-5 1.7961,6.68677 3.00179,13.37576 5.29909,19.54095 0.79179,2.09644 1.70377,4.07566 2.98603,5.66938 1.16171,1.4785 2.71005,2.67826 4.43581,3.50156 1e-5,1e-5 3e-5,2e-5 5e-5,3e-5 1.6868,0.87305 2.83054,2.30288 3.37509,3.86605 0.65335,1.83388 0.7912,3.67438 0.70178,5.35645 0,1e-5 0,3e-5 0,4e-5 -0.18712,4.36201 -1.41283,8.51731 -3.00414,12.35973 -1.52018,3.76539 -3.49255,7.51356 -6.33741,10.70483 -1e-5,1e-5 -2e-5,3e-5 -3e-5,4e-5 -1.00746,1.1677 -2.29939,2.32822 -3.98837,3.12486 -2e-5,10e-6 -4e-5,10e-6 -5e-5,2e-5 -1.39885,0.6786 -3.15153,0.75814 -4.8408,-0.0181 -4.95844,-2.60368 -10.45937,-4.18439 -16.01147,-4.40412 -4.84062,-0.21233 -9.7784,0.56325 -14.76331,1.46881 -1.18542,0.21942 -2.37831,0.44539 -3.57962,0.66496 -3.73569,0.68276 -7.66981,1.19849 -11.63979,1.12663 -2.93152,-0.0564 -5.83128,-0.48479 -8.55298,-1.24667 -2.72171,-0.76188 -5.26386,-1.85647 -7.51174,-3.19789 5.14237,1.2447 10.58889,1.61866 15.93833,1.10881 3.67363,-0.34326 7.34993,-1.05496 11.04623,-1.73039 1.18606,-0.21674 2.37797,-0.44092 3.57667,-0.65958 5.05624,-0.93948 10.28942,-1.7359 15.64954,-1.53135 6.19478,0.26034 12.26172,1.9931 17.7095,4.86027 0.20416,0.21923 0.79169,0.10287 1.34535,-0.0924 10e-6,0 10e-6,0 2e-5,0 0.90798,-0.36572 1.75324,-1.20086 2.64837,-2.14869 2.41935,-2.66212 4.14903,-6.0235 5.60932,-9.54446 1.4579,-3.61197 2.58536,-7.31399 2.70937,-10.9999 0.0302,-1.4131 -0.0247,-2.7365 -0.45296,-3.80511 0,-1e-5 -1e-5,-2e-5 -1e-5,-2e-5 -0.32297,-0.76473 -0.79058,-1.45635 -1.34672,-1.65145 0,0 -1e-5,0 -2e-5,0 -2.25731,-1.07348 -4.27815,-2.6499 -5.85327,-4.63153 -1.63869,-2.0992 -2.75516,-4.44225 -3.59951,-6.76088 -2.4379,-6.61258 -3.68125,-13.41982 -5.41206,-19.89566 -3.12203,-11.59138 -9.21781,-22.50385 -18.20668,-30.26549 -7.61363,-6.60466 -17.19684,-10.9521 -27.18076,-12.35878 -9.17369,-1.2836 -18.74815,-0.19145 -27.0724,3.67529 -7.79517,3.62141 -14.46944,9.90298 -17.76862,17.71591 -3.10116,7.24916 -4.4551,15.22787 -4.26804,23.16555 0.18344,8.04279 1.61727,16.13458 2.61717,24.39182 0,1e-5 0,3e-5 0,4e-5 1.24682,10.22821 1.76871,20.60903 0.94527,30.96036 -1.17037,14.54566 -4.73559,28.78036 -9.62063,42.43398 -6.52625,18.24379 -10.04481,37.51872 -11.90674,56.90801 -2.12206,22.17205 -1.91917,44.56782 0.535,66.70974 0,10e-6 0,2e-5 0,4e-5 0.55352,5.1418 -0.19675,10.2872 -1.70043,15.08947 -1.53702,4.92695 -3.74317,9.53722 -6.07157,13.9747 -2.32591,4.446 -4.79223,8.74245 -6.94955,13.12174 -1.98137,4.04674 -3.74671,8.13436 -4.56793,12.35344 -2.86949,14.67436 -1.48116,30.60108 6.42549,42.99665 10e-6,10e-6 2e-5,2e-5 3e-5,3e-5 7.39264,11.78463 20.49789,19.53477 34.32343,22.14545 56.43252,10.57457 114.39175,11.86925 171.74725,7.7203 z" id="path4010" inkscape:connector-curvature="0" sodipodi:nodetypes="cssssssssc" inkscape:path-effect="#path-effect3162" inkscape:original-d="m 529.99294,585.61284 c -57.45709,4.16214 -117.50251,2.50559 -172.25991,-7.74925 -31.75822,-5.94761 -49.18314,-33.00039 -42.34259,-67.49697 3.36953,-16.99239 21.42842,-34.39976 19.26346,-53.92998 -5.0602,-45.64841 -0.2001,-91.83631 11.4762,-124.51116 23.53571,-65.86212 -4.1301,-87.0633 10.3699,-121.0633 14.5637,-34.14936 79.32995,-33.24934 94,21.5 4.4655,16.66545 5.21841,25.91675 13.79289,30 8.97157,4.27235 -4.65298,35.84002 -12.3033,31.81802 C 427.79823,281.4621 411.66572,299.81867 389,290.36218" />
      <path sodipodi:nodetypes="cssc" inkscape:connector-curvature="0" id="path4018" d="m 401.83573,506.48081 c -3.97682,-11.31331 -6.25564,-24.64689 -7.32869,-39.66122 -1.92896,-26.99031 16.76025,-43.09501 16.54032,-71.00499 -0.34345,-43.58478 -42.99341,-45.34734 -10.25336,-102.79275" style="fill:none;stroke:#071b42;stroke-width:4;stroke-linecap:butt;stroke-linejoin:miter;stroke-miterlimit:12;stroke-opacity:1;stroke-dasharray:none" />
      <g id="g11401">
        <path sodipodi:nodetypes="csscccsc" inkscape:connector-curvature="0" id="path8668" d="m 529.99294,585.61284 c -57.45709,4.16214 -117.50251,2.50559 -172.25991,-7.74925 -31.75822,-5.94761 -49.18314,-33.00039 -42.34259,-67.49697 1.43852,-7.25438 5.55432,-14.58439 9.54089,-22.18852 21.6075,8.04681 50.17458,11.04962 73.96976,8.31549 0.88592,3.52434 1.85207,6.87238 2.9457,10.06785 53.97926,12.90481 105.44262,29.33616 154.47751,48.86271 28.74144,11.44534 20.81485,51.28167 -12.7383,55.42271" style="fill:#1558ce;fill-opacity:1;stroke:none" />
        <path style="fill:#020016;fill-opacity:1;stroke:none" d="m 315.39044,510.36662 c 1.43852,-7.25438 5.55432,-14.58439 9.54089,-22.18852 5.58754,2.08085 11.64047,3.8244 17.93666,5.14936 18.23315,35.54845 -6.86652,52.37352 9.12966,83.25027 -28.10662,-8.07321 -43.02013,-33.87106 -36.60721,-66.21111 z" id="path11416" inkscape:connector-curvature="0" sodipodi:nodetypes="scccs" />
        <path sodipodi:nodetypes="cscsc" inkscape:connector-curvature="0" style="fill:white;stroke:none" d="m 325.69937,512.03331 c -12.40381,7.78847 -6.82081,27.21356 5.98712,27.21356 13.93519,0 19.58325,-17.66139 7.92236,-26.99142 3.56197,7.44942 -1.5636,12.64993 -7.40417,12.64993 -4.95682,0 -9.95153,-5.60192 -6.50531,-12.87207 z" id="path7017" />
        <path clip-path="url(#clipPath8703)" sodipodi:nodetypes="cc" inkscape:connector-curvature="0" id="path3913" d="m 317.68736,485.13288 c 25.14899,11.6596 63.10126,15.35685 90.97847,9.78547" style="fill:none;stroke:#885de4;stroke-width:4;stroke-linecap:butt;stroke-linejoin:miter;stroke-miterlimit:4;stroke-opacity:1;stroke-dasharray:none" />
        <g clip-path="url(#clipPath8707)" id="g8680">
          <path sodipodi:nodetypes="cssssssssc" inkscape:connector-curvature="0" id="path8653" d="m 417.44465,512.56675 c -6.34218,-1.60485 -11.86708,-3.17034 -17.32624,-4.94388 -5.45916,-1.77354 -10.85205,-3.75495 -16.94798,-6.14444 12.25455,1.88381 23.65915,4.27608 35.25548,7.21046 47.12318,11.92421 93.47708,26.89334 138.63832,44.87717 6.62277,2.61292 12.53322,7.38739 15.89297,13.85127 2.95953,5.80728 3.68712,12.5771 2.31296,18.88129 -1.45605,6.6601 -5.11875,12.72276 -10.1614,17.2398 0,0 -10e-6,10e-6 -10e-6,10e-6 -5.92095,5.27995 -13.52177,8.35109 -21.27777,9.29337 -24.56848,3.02817 -49.3361,3.43855 -73.9889,3.03581 -1e-5,0 -3e-5,0 -4e-5,0 -38.39089,-0.623 -76.72529,-2.32882 -115.04623,-3.35543 -27.68018,-0.73193 -55.58599,1.68254 -81.9388,9.75335 -3.30478,1.11697 -7.32113,0.0223 -9.2931,-3.42183 -0.72523,-1.56337 -0.79888,-3.31968 -0.23023,-4.91642 10e-6,-2e-5 10e-6,-3e-5 2e-5,-5e-5 0.75894,-1.93794 2.16364,-3.36593 3.73965,-4.22945 2e-5,-10e-6 3e-5,-2e-5 5e-5,-3e-5 12.09097,-7.01126 24.05778,-14.20827 35.65234,-21.94001 1e-5,-10e-6 2e-5,-2e-5 4e-5,-2e-5 10.04218,-6.69529 19.78971,-13.84429 29.32963,-21.27219 1e-5,-1e-5 2e-5,-2e-5 4e-5,-3e-5 2.61194,-2.1202 5.89728,-3.96807 9.72892,-4.22686 2e-5,0 3e-5,0 5e-5,0 1.57577,-0.0846 3.21071,0.2455 4.69527,1.05349 1.58297,0.91856 2.77321,2.24156 3.56247,3.69282 1.57182,2.89678 2.08002,5.84539 3.00545,8.2079 10e-6,10e-6 10e-6,2e-5 2e-5,3e-5 0.46752,1.05345 0.81971,1.95939 1.35984,2.36948 0.16586,0.24756 0.69277,0.32215 1.07159,0.20366 32.6413,-9.22112 66.33311,-15.64931 100.3719,-16.0279 16.08947,-0.1814 32.28926,1.09401 48.09778,4.23345 5.94706,1.18104 11.96104,2.84935 17.71685,4.92928 5.75582,2.07992 11.25097,4.57149 16.20727,7.29636 -5.51333,-1.52089 -11.2636,-3.03831 -17.10298,-4.44518 -5.83938,-1.40687 -11.76763,-2.70419 -17.59892,-3.85958 -15.50076,-3.07127 -31.4268,-4.32038 -47.27651,-4.15457 -33.56265,0.35629 -66.90676,6.73442 -99.32883,15.87774 -1.66574,0.4586 -3.45435,0.085 -4.85666,-1.10062 -1.26157,-1.23655 -1.95463,-2.63758 -2.38248,-3.85478 0,-10e-6 -1e-5,-2e-5 -1e-5,-4e-5 -1.14888,-2.89791 -1.5797,-5.68355 -2.77333,-7.71901 -0.54674,-0.9316 -1.22487,-1.74301 -2.02612,-2.15804 -0.70554,-0.41704 -1.6286,-0.57887 -2.55962,-0.54868 -10e-6,0 -2e-5,0 -3e-5,0 -2.52135,0.0322 -5.04854,1.60014 -7.45446,3.38714 -9.6002,7.47567 -19.42723,14.682 -29.56813,21.44419 -11.69868,7.79949 -23.73637,15.04062 -35.86498,22.07237 0,0 -10e-6,10e-6 -2e-5,10e-6 -0.93976,0.59519 -1.75819,1.31976 -1.98083,2.11923 -10e-6,0 -10e-6,10e-6 -10e-6,2e-5 -0.21383,0.58545 -0.1908,1.3198 0.0783,1.85058 0.30851,1.35867 2.73049,1.75023 4.50998,1.3124 26.89863,-8.21379 55.23007,-10.68607 83.21568,-9.92677 38.3681,1.0278 76.68842,2.73331 115.00398,3.35451 2e-5,0 3e-5,0 4e-5,0 24.56563,0.3956 49.14831,-0.005 73.43407,-3.00621 7.04335,-0.88422 13.91721,-3.62463 19.09691,-8.30119 10e-6,-1e-5 2e-5,-2e-5 3e-5,-3e-5 4.43121,-3.98036 7.68115,-9.33312 8.92312,-15.11009 10e-6,-10e-6 10e-6,-2e-5 10e-6,-3e-5 1.17395,-5.44188 0.56301,-11.32048 -1.963,-16.20767 -2.76054,-5.4681 -7.97791,-9.61237 -13.81372,-11.96067 C 510.58851,539.36395 464.4008,524.4487 417.44465,512.56675 z" style="fill:#885de4;fill-opacity:1;stroke:none" inkscape:original-d="m 382.97456,502.37092 c 60.89972,13.36537 118.68851,31.28618 173.34974,53.05323 28.74144,11.44534 20.81485,51.28167 -12.7383,55.42271 -46.77328,5.77264 -86.87847,2.39471 -188.73663,-0.33396 -26.57917,-0.71203 -54.8932,1.37412 -82.57724,9.84006 -6.71438,2.0533 -10.29122,-5.3906 -4.19553,-8.92501 28.60079,-16.58332 45.01979,-27.64506 65.20756,-43.36439 5.93429,-4.62079 11.97244,-5.50441 15.01349,-0.0805 2.35579,4.20161 2.77435,13.12502 7.72469,11.72776 72.45113,-20.44967 133.19967,-21.59332 181.85052,-1.49361" inkscape:path-effect="#path-effect8648" clip-path="url(#clipPath8659)" />
          <path sodipodi:nodetypes="cccssc" inkscape:connector-curvature="0" d="m 401.83573,506.48081 c -3.97682,-11.31331 -6.25564,-24.64689 -7.32869,-39.66122 m 135.4859,118.79325 c -57.45709,4.16214 -117.50251,2.50559 -172.25991,-7.74925 -31.75822,-5.94761 -49.18314,-33.00039 -42.34259,-67.49697 3.36953,-16.99239 21.42842,-34.39976 19.26346,-53.92998" style="fill:none;stroke:#885de4;stroke-width:4;stroke-linecap:butt;stroke-linejoin:miter;stroke-miterlimit:12;stroke-opacity:1;stroke-dasharray:none" id="path8655" />
        </g>
      </g>
      <path sodipodi:nodetypes="cssscc" inkscape:connector-curvature="0" d="m 342.24196,344.04157 c -1.52206,-35.74499 40.55632,-40.3832 47.40176,-4.861 4.09564,21.25304 41.71328,32.0738 43.88141,56.03516 2.4675,27.26989 -28.67907,34.78517 -46.58579,8.99871 C 375.00198,387.02413 366.4663,368.69552 359.5,351.59441 z" style="fill:#314b8f;fill-opacity:1;stroke:none" id="path4026" />
      <path id="path3136" style="fill:none;stroke:#071b42;stroke-width:4;stroke-linecap:butt;stroke-linejoin:miter;stroke-miterlimit:12;stroke-opacity:1;stroke-dasharray:none" d="m 342.24196,344.04157 c -1.52206,-35.74499 40.55632,-40.3832 47.40176,-4.861 4.09564,21.25304 41.71328,32.0738 43.88141,56.03516 2.4675,27.26989 -28.67907,34.78517 -46.58579,8.99871 C 375.00198,387.02413 366.4663,368.69552 359.5,351.59441" inkscape:connector-curvature="0" sodipodi:nodetypes="csssc" />
      <path id="path4121" style="fill:#071b42;fill-opacity:1;fill-rule:evenodd;stroke:none" d="m 461.35078,268.58791 c -1.98674,1.66094 -3.71188,0.94099 -4.38753,-1.13149 -0.90737,4.26199 2.99973,5.14765 4.38753,1.13149 z m 1.45356,16.33899 -1.26752,2.71497 c -7.08134,0 -12.75598,-2.93809 -16.18817,-10.78005 5.49331,6.32912 10.16311,8.437 17.45569,8.06508 z" inkscape:connector-curvature="0" />
      <path style="fill:#020016;fill-opacity:1;stroke:#7070ca;stroke-width:4;stroke-linecap:butt;stroke-linejoin:miter;stroke-miterlimit:4;stroke-opacity:1;stroke-dasharray:none;display:inline" d="m 434.83074,180.64375 c -6.19878,-57.34596 -7.35784,-2.55879 -17.48206,-36.07559 -6.19644,-20.51364 -10.67466,-19.49096 -11.50957,0.7972 -1.41591,34.40609 -19.21178,-12.71791 -10.12981,39.83216 z" id="path4159" inkscape:connector-curvature="0" sodipodi:nodetypes="csscc" />
      <g id="g7777" transform="matrix(1.1910499,0.06114697,0.1193466,1.0073999,-105.76659,-28.473716)">
        <path style="fill:#314b8f;fill-opacity:1;stroke:#071b42;stroke-width:3.66284728;stroke-linecap:butt;stroke-linejoin:miter;stroke-miterlimit:4;stroke-opacity:1;stroke-dasharray:none" d="m 417.63222,191.93646 c 75.57027,-98.399392 73.90993,-99.874159 17.49508,13.16268 z" id="path7779" inkscape:connector-curvature="0" sodipodi:nodetypes="ccc" />
        <path sodipodi:nodetypes="cccccccccc" inkscape:connector-curvature="0" d="m 443.33464,187.73908 c -8.00233,1.15488 -14.14524,0.42667 -21.51267,-2.14038 m 48.07879,-50.43265 c -3.66772,1.28596 -7.07628,1.99845 -10.62264,2.24011 m 3.98566,10.94318 c -4.73544,1.43968 -8.98198,1.99037 -13.53991,1.81502 m 7.34016,10.65806 c -6.31192,2.06931 -11.59704,2.66501 -17.53521,2.09623 m 10.97182,11.23346 c -7.23434,1.7513 -13.05255,1.75307 -19.86336,0.2648" style="fill:none;stroke:#071b42;stroke-width:1.83142364;stroke-linecap:butt;stroke-linejoin:miter;stroke-miterlimit:4;stroke-opacity:1;stroke-dasharray:none" id="path7781" />
      </g>
      <g id="g7771">
        <path id="path3866" d="m 370.45748,198.45214 c 16.45182,10.56479 36.56896,4.59414 54.56022,8.96541 16.85985,4.09637 18.20049,21.07522 6.20875,31.07814 53.92857,6.20764 35.05006,-107.54865 -70.27876,-54.77037 z" style="fill:#1558ce;fill-opacity:1;stroke:#885de4;stroke-width:4;stroke-linecap:butt;stroke-linejoin:miter;stroke-miterlimit:4;stroke-opacity:1;stroke-dasharray:none;display:inline" inkscape:connector-curvature="0" sodipodi:nodetypes="csccc" />
        <path sodipodi:nodetypes="cscc" inkscape:connector-curvature="0" id="path7769" d="m 351.08268,189.37083 c 4.80186,-7.03979 8.7199,0.24681 4.48066,30.05778 -2.46429,17.32927 -1.82756,37.04497 -4.36919,53.42411 -9.27407,-22.9411 -10.25028,-53.69195 -0.11147,-83.48189 z" style="fill:#1558ce;fill-opacity:1;stroke:none;display:inline" />
        <path inkscape:original-d="m 351.08268,189.37083 c 4.80186,-7.03979 8.7199,0.24681 4.48066,30.05778 -2.46429,17.32927 -1.82756,37.04497 -4.36919,53.42411" inkscape:path-effect="#path-effect7761" style="fill:#885de4;fill-opacity:1;stroke:none;display:inline" d="m 352.73492,190.49782 -3.30448,-2.25398 c 0.52439,-0.80672 1.22493,-1.66978 2.20198,-2.42887 0.63032,-0.5871 1.69679,-0.97558 3.09365,-0.8837 1.38846,0.37198 2.28897,1.11625 2.6857,1.91619 0,0 0,0 0,0 0.69858,1.14467 1.05312,2.289 1.25291,3.29439 0,0 0,0 0,0 0.82689,3.76742 0.79327,7.52319 0.66121,11.08827 0,0 0,0 0,0 -0.20311,6.22624 -0.91415,12.38799 -1.78247,18.48006 0,0 0,0 0,1e-5 -0.94449,6.61865 -1.40289,13.32803 -1.75947,20.08612 -0.29259,5.54515 -0.71062,11.27064 -1.42789,16.88748 -0.71728,5.61684 -1.74498,11.11954 -3.16191,16.16893 0.11499,-5.30307 0.134,-10.80835 0.17672,-16.40472 0.0427,-5.59637 0.11912,-11.28393 0.41524,-16.86325 0.36089,-6.79974 0.83184,-13.62632 1.79715,-20.43772 0,0 0,0 0,0 0.8546,-6.02377 1.55306,-12.04081 1.74471,-18.04594 0,0 0,0 0,0 0.0965,-3.51634 0.1619,-6.93654 -0.56581,-10.08157 0,0 0,0 0,0 -0.21619,-0.84426 -0.39218,-1.56124 -0.71723,-2.01233 0,0 0,0 0,0 -0.2236,-0.1671 -0.21607,-0.31527 0.0384,-0.1279 0.27557,-0.0907 0.22022,0.0508 -0.0603,0.14268 -0.42863,0.28877 -0.82456,0.83416 -1.28814,1.47585 z" id="path7735" inkscape:connector-curvature="0" sodipodi:nodetypes="csc" />
      </g>
      <g id="g8595">
        <path sodipodi:nodetypes="ccscccc" inkscape:connector-curvature="0" id="path8589" style="fill:#020016;fill-opacity:1;stroke:none" d="m 396.67362,446.93155 c 2.52579,-9.54428 6.91022,-18.23399 10.31024,-27.70367 14.62409,3.5803 28.18736,-5.8202 26.54127,-24.01215 -1.27046,-14.04062 -14.71286,-23.56929 -26.27436,-33.25877 -22.33279,-5.46266 -41.87376,0.33949 -67.51596,-8.34248 -5.70551,24.98477 -8.04886,54.57307 -6.61753,84.66942 19.61259,5.72806 42.13093,8.35322 63.55634,8.64765 z" clip-path="none" />
        <path clip-path="url(#clipPath8579)" sodipodi:nodetypes="cssccccc" inkscape:connector-curvature="0" d="m 389.64372,339.18057 c 4.09564,21.25304 41.71328,32.0738 43.88141,56.03516 2.4675,27.26989 -28.67907,34.78517 -46.58579,8.99871 C 375.00198,387.02413 366.4663,368.69552 359.5,351.59441 m 35.00704,115.22518 c -1.3305,-18.61658 7.14821,-32.05427 12.46514,-47.75915 m -72.31828,37.3762 c -5.0602,-45.64841 -0.24304,-91.83631 11.43326,-124.51116" style="fill:none;stroke:#7070ca;stroke-width:4;stroke-linecap:butt;stroke-linejoin:miter;stroke-miterlimit:12;stroke-opacity:1;stroke-dasharray:none" id="path8561" />
        <path clip-path="url(#clipPath8583)" d="m 427.37065,369.98562 c -33.92355,-19.03623 -57.55732,-3.52125 -94.02426,-18.8201 m -10.12308,83.94138 c 25.40196,9.27407 57.25018,12.5003 85.52579,11.72626" style="fill:none;stroke:#7070ca;stroke-width:4;stroke-linecap:butt;stroke-linejoin:miter;stroke-miterlimit:4;stroke-opacity:1;stroke-dasharray:none" id="path8548" inkscape:connector-curvature="0" />
      </g>
      <g id="g8743">
        <path style="fill:#314b8f;fill-opacity:1;stroke:none" d="m 556.3243,555.42415 c 28.74144,11.44534 20.81485,51.28167 -12.7383,55.42271 -46.77328,5.77264 -86.87847,2.39471 -188.73663,-0.33396 -26.57917,-0.71203 -54.8932,1.37412 -82.57724,9.84006 -6.71438,2.0533 -10.29122,-5.3906 -4.19553,-8.92501 28.60079,-16.58332 45.01979,-27.64506 65.20756,-43.36439 5.93429,-4.62079 11.97244,-5.50441 15.01349,-0.0805 2.35579,4.20161 2.77435,13.12502 7.72469,11.72776 72.45113,-20.44967 133.19967,-21.59332 181.85052,-1.49361 z" id="path3170" inkscape:connector-curvature="0" sodipodi:nodetypes="cssssssscc" />
        <path sodipodi:nodetypes="ccc" inkscape:connector-curvature="0" id="path11710-4" d="m 341.87709,581.93865 c -7.24402,1.31269 -11.10448,7.962 -8.02419,16.47069 -0.57299,-8.63388 1.64162,-12.84544 8.02419,-16.47069 z" style="fill:#071b42;fill-opacity:1;stroke:none" />
        <path inkscape:original-d="m 382.97456,502.37092 c 60.89972,13.36537 118.68851,31.28618 173.34974,53.05323 28.74144,11.44534 20.81485,51.28167 -12.7383,55.42271 -46.77328,5.77264 -86.87847,2.39471 -188.73663,-0.33396 -26.57917,-0.71203 -54.8932,1.37412 -82.57724,9.84006 -6.71438,2.0533 -10.29122,-5.3906 -4.19553,-8.92501 28.60079,-16.58332 45.01979,-27.64506 65.20756,-43.36439 5.93429,-4.62079 11.97244,-5.50441 15.01349,-0.0805 2.35579,4.20161 2.77435,13.12502 7.72469,11.72776 72.45113,-20.44967 133.19967,-21.59332 181.85052,-1.49361" inkscape:path-effect="#path-effect8760" sodipodi:nodetypes="cssssssssc" inkscape:connector-curvature="0" id="path9187" d="m 417.44465,512.56675 c -6.34218,-1.60485 -11.86708,-3.17034 -17.32624,-4.94388 -5.45916,-1.77354 -10.85205,-3.75495 -16.94798,-6.14444 12.25455,1.88381 23.65915,4.27608 35.25548,7.21046 47.12318,11.92421 93.47708,26.89334 138.63832,44.87717 6.62277,2.61292 12.53322,7.38739 15.89297,13.85127 2.95953,5.80728 3.68712,12.5771 2.31296,18.88129 -1.45605,6.6601 -5.11875,12.72276 -10.1614,17.2398 0,0 -10e-6,10e-6 -10e-6,10e-6 -5.92095,5.27995 -13.52177,8.35109 -21.27777,9.29337 -24.56848,3.02817 -49.3361,3.43855 -73.9889,3.03581 -1e-5,0 -3e-5,0 -4e-5,0 -38.39089,-0.623 -76.72529,-2.32882 -115.04623,-3.35543 -27.68018,-0.73193 -55.58599,1.68254 -81.9388,9.75335 -3.30478,1.11697 -7.32113,0.0223 -9.2931,-3.42183 -0.72523,-1.56337 -0.79888,-3.31968 -0.23023,-4.91642 10e-6,-2e-5 10e-6,-3e-5 2e-5,-5e-5 0.75894,-1.93794 2.16364,-3.36593 3.73965,-4.22945 2e-5,-10e-6 3e-5,-2e-5 5e-5,-3e-5 12.09097,-7.01126 24.05778,-14.20827 35.65234,-21.94001 1e-5,-10e-6 2e-5,-2e-5 4e-5,-2e-5 10.04218,-6.69529 19.78971,-13.84429 29.32963,-21.27219 1e-5,-1e-5 2e-5,-2e-5 4e-5,-3e-5 2.61194,-2.1202 5.89728,-3.96807 9.72892,-4.22686 2e-5,0 3e-5,0 5e-5,0 1.57577,-0.0846 3.21071,0.2455 4.69527,1.05349 1.58297,0.91856 2.77321,2.24156 3.56247,3.69282 1.57182,2.89678 2.08002,5.84539 3.00545,8.2079 10e-6,10e-6 10e-6,2e-5 2e-5,3e-5 0.46752,1.05345 0.81971,1.95939 1.35984,2.36948 0.16586,0.24756 0.69277,0.32215 1.07159,0.20366 32.6413,-9.22112 66.33311,-15.64931 100.3719,-16.0279 16.08947,-0.1814 32.28926,1.09401 48.09778,4.23345 5.94706,1.18104 11.96104,2.84935 17.71685,4.92928 5.75582,2.07992 11.25097,4.57149 16.20727,7.29636 -5.51333,-1.52089 -11.2636,-3.03831 -17.10298,-4.44518 -5.83938,-1.40687 -11.76763,-2.70419 -17.59892,-3.85958 -15.50076,-3.07127 -31.4268,-4.32038 -47.27651,-4.15457 -33.56265,0.35629 -66.90676,6.73442 -99.32883,15.87774 -1.66574,0.4586 -3.45435,0.085 -4.85666,-1.10062 -1.26157,-1.23655 -1.95463,-2.63758 -2.38248,-3.85478 0,-10e-6 -1e-5,-2e-5 -1e-5,-4e-5 -1.14888,-2.89791 -1.5797,-5.68355 -2.77333,-7.71901 -0.54674,-0.9316 -1.22487,-1.74301 -2.02612,-2.15804 -0.70554,-0.41704 -1.6286,-0.57887 -2.55962,-0.54868 -10e-6,0 -2e-5,0 -3e-5,0 -2.52135,0.0322 -5.04854,1.60014 -7.45446,3.38714 -9.6002,7.47567 -19.42723,14.682 -29.56813,21.44419 -11.69868,7.79949 -23.73637,15.04062 -35.86498,22.07237 0,0 -10e-6,10e-6 -2e-5,10e-6 -0.93976,0.59519 -1.75819,1.31976 -1.98083,2.11923 -10e-6,0 -10e-6,10e-6 -10e-6,2e-5 -0.21383,0.58545 -0.1908,1.3198 0.0783,1.85058 0.30851,1.35867 2.73049,1.75023 4.50998,1.3124 26.89863,-8.21379 55.23007,-10.68607 83.21568,-9.92677 38.3681,1.0278 76.68842,2.73331 115.00398,3.35451 2e-5,0 3e-5,0 4e-5,0 24.56563,0.3956 49.14831,-0.005 73.43407,-3.00621 7.04335,-0.88422 13.91721,-3.62463 19.09691,-8.30119 10e-6,-1e-5 2e-5,-2e-5 3e-5,-3e-5 4.43121,-3.98036 7.68115,-9.33312 8.92312,-15.11009 10e-6,-10e-6 10e-6,-2e-5 10e-6,-3e-5 1.17395,-5.44188 0.56301,-11.32048 -1.963,-16.20767 -2.76054,-5.4681 -7.97791,-9.61237 -13.81372,-11.96067 C 510.58851,539.36395 464.4008,524.4487 417.44465,512.56675 z" style="fill:#071b42;fill-opacity:1;stroke:none" clip-path="url(#clipPath8763)" />
        <g id="g8630">
          <g id="g8604" clip-path="url(#clipPath8622)">
            <path sodipodi:nodetypes="cssssssscc" inkscape:connector-curvature="0" id="path8606" d="m 556.3243,555.42415 c 28.74144,11.44534 20.81485,51.28167 -12.7383,55.42271 -46.77328,5.77264 -86.87847,2.39471 -188.73663,-0.33396 -26.57917,-0.71203 -54.8932,1.37412 -82.57724,9.84006 -6.71438,2.0533 -10.29122,-5.3906 -4.19553,-8.92501 28.60079,-16.58332 45.01979,-27.64506 65.20756,-43.36439 5.93429,-4.62079 11.97244,-5.50441 15.01349,-0.0805 2.35579,4.20161 2.77435,13.12502 7.72469,11.72776 72.45113,-20.44967 133.19967,-21.59332 181.85052,-1.49361 z" style="fill:#1558ce;fill-opacity:1;stroke:none" />
            <path style="fill:#885de4;fill-opacity:1;stroke:none" d="m 417.44465,512.56675 c -6.34218,-1.60485 -11.86708,-3.17034 -17.32624,-4.94388 -5.45916,-1.77354 -10.85205,-3.75495 -16.94798,-6.14444 12.25455,1.88381 23.65915,4.27608 35.25548,7.21046 47.12318,11.92421 93.47708,26.89334 138.63832,44.87717 6.62277,2.61292 12.53322,7.38739 15.89297,13.85127 2.95953,5.80728 3.68712,12.5771 2.31296,18.88129 -1.45605,6.6601 -5.11875,12.72276 -10.1614,17.2398 0,0 -10e-6,10e-6 -10e-6,10e-6 -5.92095,5.27995 -13.52177,8.35109 -21.27777,9.29337 -24.56848,3.02817 -49.3361,3.43855 -73.9889,3.03581 -1e-5,0 -3e-5,0 -4e-5,0 -38.39089,-0.623 -76.72529,-2.32882 -115.04623,-3.35543 -27.68018,-0.73193 -55.58599,1.68254 -81.9388,9.75335 -3.30478,1.11697 -7.32113,0.0223 -9.2931,-3.42183 -0.72523,-1.56337 -0.79888,-3.31968 -0.23023,-4.91642 10e-6,-2e-5 10e-6,-3e-5 2e-5,-5e-5 0.75894,-1.93794 2.16364,-3.36593 3.73965,-4.22945 2e-5,-10e-6 3e-5,-2e-5 5e-5,-3e-5 12.09097,-7.01126 24.05778,-14.20827 35.65234,-21.94001 1e-5,-10e-6 2e-5,-2e-5 4e-5,-2e-5 10.04218,-6.69529 19.78971,-13.84429 29.32963,-21.27219 1e-5,-1e-5 2e-5,-2e-5 4e-5,-3e-5 2.61194,-2.1202 5.89728,-3.96807 9.72892,-4.22686 2e-5,0 3e-5,0 5e-5,0 1.57577,-0.0846 3.21071,0.2455 4.69527,1.05349 1.58297,0.91856 2.77321,2.24156 3.56247,3.69282 1.57182,2.89678 2.08002,5.84539 3.00545,8.2079 10e-6,10e-6 10e-6,2e-5 2e-5,3e-5 0.46752,1.05345 0.81971,1.95939 1.35984,2.36948 0.16586,0.24756 0.69277,0.32215 1.07159,0.20366 32.6413,-9.22112 66.33311,-15.64931 100.3719,-16.0279 16.08947,-0.1814 32.28926,1.09401 48.09778,4.23345 5.94706,1.18104 11.96104,2.84935 17.71685,4.92928 5.75582,2.07992 11.25097,4.57149 16.20727,7.29636 -5.51333,-1.52089 -11.2636,-3.03831 -17.10298,-4.44518 -5.83938,-1.40687 -11.76763,-2.70419 -17.59892,-3.85958 -15.50076,-3.07127 -31.4268,-4.32038 -47.27651,-4.15457 -33.56265,0.35629 -66.90676,6.73442 -99.32883,15.87774 -1.66574,0.4586 -3.45435,0.085 -4.85666,-1.10062 -1.26157,-1.23655 -1.95463,-2.63758 -2.38248,-3.85478 0,-10e-6 -1e-5,-2e-5 -1e-5,-4e-5 -1.14888,-2.89791 -1.5797,-5.68355 -2.77333,-7.71901 -0.54674,-0.9316 -1.22487,-1.74301 -2.02612,-2.15804 -0.70554,-0.41704 -1.6286,-0.57887 -2.55962,-0.54868 -10e-6,0 -2e-5,0 -3e-5,0 -2.52135,0.0322 -5.04854,1.60014 -7.45446,3.38714 -9.6002,7.47567 -19.42723,14.682 -29.56813,21.44419 -11.69868,7.79949 -23.73637,15.04062 -35.86498,22.07237 0,0 -10e-6,10e-6 -2e-5,10e-6 -0.93976,0.59519 -1.75819,1.31976 -1.98083,2.11923 -10e-6,0 -10e-6,10e-6 -10e-6,2e-5 -0.21383,0.58545 -0.1908,1.3198 0.0783,1.85058 0.30851,1.35867 2.73049,1.75023 4.50998,1.3124 26.89863,-8.21379 55.23007,-10.68607 83.21568,-9.92677 38.3681,1.0278 76.68842,2.73331 115.00398,3.35451 2e-5,0 3e-5,0 4e-5,0 24.56563,0.3956 49.14831,-0.005 73.43407,-3.00621 7.04335,-0.88422 13.91721,-3.62463 19.09691,-8.30119 10e-6,-1e-5 2e-5,-2e-5 3e-5,-3e-5 4.43121,-3.98036 7.68115,-9.33312 8.92312,-15.11009 10e-6,-10e-6 10e-6,-2e-5 10e-6,-3e-5 1.17395,-5.44188 0.56301,-11.32048 -1.963,-16.20767 -2.76054,-5.4681 -7.97791,-9.61237 -13.81372,-11.96067 C 510.58851,539.36395 464.4008,524.4487 417.44465,512.56675 z" id="path8608" inkscape:connector-curvature="0" sodipodi:nodetypes="cssssssssc" inkscape:path-effect="#path-effect3128" inkscape:original-d="m 382.97456,502.37092 c 60.89972,13.36537 118.68851,31.28618 173.34974,53.05323 28.74144,11.44534 20.81485,51.28167 -12.7383,55.42271 -46.77328,5.77264 -86.87847,2.39471 -188.73663,-0.33396 -26.57917,-0.71203 -54.8932,1.37412 -82.57724,9.84006 -6.71438,2.0533 -10.29122,-5.3906 -4.19553,-8.92501 28.60079,-16.58332 45.01979,-27.64506 65.20756,-43.36439 5.93429,-4.62079 11.97244,-5.50441 15.01349,-0.0805 2.35579,4.20161 2.77435,13.12502 7.72469,11.72776 72.45113,-20.44967 133.19967,-21.59332 181.85052,-1.49361" />
          </g>
          <path style="fill:none;stroke:#885de4;stroke-width:4;stroke-linecap:butt;stroke-linejoin:miter;stroke-miterlimit:4;stroke-opacity:1;stroke-dasharray:none" d="m 364.83705,571.1593 c -1.62732,15.11576 -0.89671,32.63617 1.36173,45.8426" id="path3915" inkscape:connector-curvature="0" sodipodi:nodetypes="cc" clip-path="url(#clipPath8626)" />
        </g>
      </g>
      <g id="g4028">
        <path sodipodi:nodetypes="cssssssssscc" inkscape:connector-curvature="0" d="m 379.86367,339.56368 c 10.79375,60.61322 7.26376,136.29332 10.91838,141.75954 21.74652,32.52624 44.46589,77.19832 64.8594,136.47327 1.7564,5.10508 29.47233,1.61478 46.34769,14.09501 2.59389,1.91832 1.68412,5.12657 -1.62516,4.73771 -8.76253,-1.02967 -22.89777,-7.22245 -47.39098,-5.45712 -4.3187,0.31127 -8.30152,-1.35651 -10.93109,-5.00635 -38.14787,-52.9491 -58.48538,-94.91458 -74.02482,-132.1115 -1.32429,-3.16996 -2.57805,-7.06202 -3.49554,-10.65362 -12.60822,-49.35585 -20.35753,-94.22003 -22.27959,-139.35905 -1.52206,-35.74499 40.55632,-40.3832 47.40176,-4.861 z" style="fill:#314b8f;fill-opacity:1;stroke:none" id="path4024" />
        <path inkscape:original-d="m 379.86367,339.56368 c 10.79375,60.61322 7.26376,136.29332 10.91838,141.75954 21.74652,32.52624 44.46589,77.19832 64.8594,136.47327 1.7564,5.10508 29.47233,1.61478 46.34769,14.09501 2.59389,1.91832 1.68412,5.12657 -1.62516,4.73771 -8.76253,-1.02967 -22.89777,-7.22245 -47.39098,-5.45712 -4.3187,0.31127 -8.30152,-1.35651 -10.93109,-5.00635 -38.14787,-52.9491 -58.48538,-94.91458 -74.02482,-132.1115 -1.32429,-3.16996 -2.57805,-7.06202 -3.49554,-10.65362 -12.60822,-49.35585 -20.35753,-94.22003 -22.27959,-139.35905 -1.52206,-35.74499 40.55632,-40.3832 47.40176,-4.861" inkscape:path-effect="#path-effect4016" id="path4012" style="fill:#071b42;fill-opacity:1;stroke:none" d="m 383.72026,388.01098 c -0.0345,-0.44636 -0.0691,-0.892 -0.10362,-1.337 -0.60971,-7.84676 -1.21018,-15.49092 -1.81931,-23.23704 -0.60914,-7.74613 -1.2229,-15.59338 -1.93366,-23.87326 2.12069,8.0288 3.71876,15.7938 4.96386,23.51328 1.2451,7.71949 2.13382,15.3955 2.7742,23.28133 0.0364,0.44738 0.0719,0.89547 0.10658,1.34429 1.11641,14.44022 1.79972,28.90025 2.29057,43.35308 0.38878,11.44227 0.59692,22.86562 1.05166,34.25555 0,0 0,10e-6 0,10e-6 0.14426,3.58798 0.29059,7.14021 0.64564,10.6361 0,1e-5 0,2e-5 0,2e-5 0.11369,1.10151 0.23398,2.15691 0.43913,3.1488 0.185,0.65297 0.20485,1.07476 0.30937,1.11547 28.19509,42.18735 48.63073,89.07494 65.08797,136.93421 -0.0674,-0.0942 -0.0323,-0.0953 0.0282,-0.0111 0.1188,0.12015 0.36313,0.23446 0.6826,0.38752 0.95069,0.43066 2.11061,0.65822 3.3779,0.90983 1e-5,0 2e-5,1e-5 3e-5,1e-5 3.81236,0.72153 7.77839,1.08857 11.80775,1.66643 5.01982,0.71534 10.07227,1.6398 15.02333,3.12863 10e-6,0 10e-6,1e-5 2e-5,1e-5 5.17198,1.5475 10.25874,3.76984 14.72585,7.05632 2e-5,1e-5 3e-5,2e-5 5e-5,3e-5 1.59193,0.99382 2.60488,3.02693 2.11723,5.44991 -1.12185,2.32491 -3.27111,3.26333 -5.16507,2.88213 -6.29568,-0.75493 -12.15311,-2.70213 -17.93516,-3.79793 -10e-6,0 -10e-6,0 -2e-5,-10e-6 -9.56228,-1.81158 -19.36452,-2.35089 -29.07858,-1.65069 -10e-6,0 -2e-5,0 -3e-5,10e-6 -4.88549,0.33644 -9.76847,-1.84281 -12.69758,-5.83208 -29.66513,-41.17597 -54.68172,-85.67774 -74.24755,-132.50965 -1.48699,-3.56338 -2.64562,-7.23337 -3.58786,-10.92952 -1e-5,-10e-6 -1e-5,-2e-5 -1e-5,-4e-5 -11.69164,-45.74945 -20.32151,-92.49539 -22.34001,-139.76898 0,-10e-6 0,-2e-5 0,-3e-5 -0.37214,-7.698 1.34806,-15.81784 6.22463,-22.15202 3.90559,-4.99385 9.77407,-8.38262 16.12549,-9.07755 6.40298,-0.65638 12.88362,1.44215 17.809,5.48353 6.21202,5.16571 9.77011,12.75349 11.2047,20.42154 l -3.92774,0.7569 c -1.38896,-6.98384 -4.4829,-13.79262 -9.81227,-18.08453 -4.12459,-3.37464 -9.61938,-5.17859 -14.85142,-4.59979 -5.19184,0.5305 -10.15085,3.41484 -13.39708,7.56429 -10e-6,1e-5 -2e-5,2e-5 -2e-5,3e-5 -4.19486,5.26328 -5.63315,12.50494 -5.37891,19.51747 1.99149,46.89987 10.58108,93.37253 22.21917,138.94912 1e-5,10e-6 1e-5,2e-5 1e-5,3e-5 0.90936,3.55212 2.00643,7.03815 3.4032,10.37765 19.44358,46.54533 44.31169,90.78167 73.80209,131.71335 1.97572,2.81862 5.68104,4.44738 9.1646,4.18062 2e-5,0 3e-5,0 4e-5,0 10.05356,-0.72453 20.19972,-0.16539 30.11032,1.71018 6.13878,1.16139 11.90376,3.09443 17.65781,3.75544 0.54083,-0.0951 1.26423,-0.11454 0.88747,-0.12519 0.2743,0.0346 -0.26122,-0.52126 -0.68493,-1.01815 0,0 -1e-5,-10e-6 -1e-5,-10e-6 -3.96025,-2.946 -8.63918,-4.96382 -13.50238,-6.44275 -4.6607,-1.40991 -9.51715,-2.29104 -14.43533,-2.99866 -1e-5,0 -3e-5,0 -4e-5,0 -3.89899,-0.55736 -7.92285,-0.93399 -11.98126,-1.69518 -2e-5,0 -3e-5,-10e-6 -4e-5,-10e-6 -1.32291,-0.23634 -2.76826,-0.5517 -4.2342,-1.17324 -0.52068,-0.21274 -1.09599,-0.53337 -1.67554,-1.00649 -0.48711,-0.38104 -0.91972,-0.96233 -1.22088,-1.73604 -16.40329,-47.65181 -36.68656,-94.23211 -64.63083,-136.01233 -0.61236,-1.03152 -0.83016,-1.9276 -0.90323,-2.53836 -0.24593,-1.21698 -0.38641,-2.40491 -0.49969,-3.5464 0,-2e-5 0,-3e-5 0,-4e-5 -0.36841,-3.65363 -0.52046,-7.28693 -0.66278,-10.87927 0,-10e-6 0,-2e-5 0,-4e-5 -0.45672,-11.44767 -0.66515,-22.87891 -1.05253,-34.27923 -0.49014,-14.41753 -1.17022,-28.82003 -2.28093,-43.18051 z" inkscape:connector-curvature="0" sodipodi:nodetypes="csssssssssc" />
      </g>
      <g id="g13676" transform="translate(0,0.06101358)">
        <path sodipodi:type="inkscape:offset" inkscape:radius="6" inkscape:original="M 472.71875 111.5 C 468.99496 111.22574 465.35483 112.99243 463.21875 118 C 456.38329 134.02423 447.91231 123.07892 444.46875 137.625 C 441.02519 152.17126 426.70598 150.57758 423.4375 167.25 C 420.16902 183.92242 450.30804 196.16173 458 185.6875 C 465.69196 175.21311 459.35077 169.13669 470.78125 159.28125 C 482.21173 149.42581 472.97387 141.90521 482.71875 130.46875 C 489.41836 122.60606 480.91108 112.10338 472.71875 111.5 z " style="fill:url(#linearGradient12379);fill-opacity:1;stroke:none" id="path12181" d="m 473.15625,105.53125 c -5.89184,-0.43394 -12.56726,3.32311 -15.46875,10.125 -1.43666,3.36793 -2.65795,4.71025 -3.5625,5.4375 -0.90455,0.72725 -1.69889,1.02805 -3.375,1.5625 -1.67611,0.53445 -4.40357,1.29959 -6.90625,3.59375 -2.50268,2.29416 -4.19197,5.66272 -5.21875,10 -1.281,5.41117 -3.92665,7.08582 -8.46875,10.6875 -4.5421,3.60168 -10.63434,9.16138 -12.59375,19.15625 -1.17868,6.0124 0.75888,11.78584 4,16.125 3.24112,4.33916 7.68733,7.57675 12.46875,9.84375 4.78142,2.267 9.92757,3.58497 14.96875,3.5 5.04118,-0.085 10.48432,-1.73793 13.84375,-6.3125 4.6392,-6.31735 5.31522,-12.23218 6.03125,-15.84375 0.71603,-3.61157 0.9747,-5.42257 5.8125,-9.59375 6.89229,-5.94258 8.33542,-13.16774 8.6875,-17.90625 0.35208,-4.73851 0.0619,-7.01962 3.90625,-11.53125 5.01827,-5.88946 4.41403,-14.0252 1.09375,-19.3125 -3.32028,-5.2873 -8.73101,-9.05342 -15.21875,-9.53125 z" mask="url(#mask12383)" />
        <path sodipodi:nodetypes="zzzzzzz" inkscape:connector-curvature="0" id="path12177" d="m 423.44256,167.26436 c -3.26848,16.67242 26.86945,28.91023 34.56141,18.436 7.69196,-10.47439 1.33605,-16.55957 12.76653,-26.41501 11.43048,-9.85544 2.21412,-17.37025 11.959,-28.80671 9.74488,-11.43664 -12.68291,-28.50656 -19.51837,-12.48235 -6.83546,16.02423 -15.30857,5.09448 -18.75213,19.64056 -3.44356,14.54626 -17.74796,12.95509 -21.01644,29.62751 z" style="fill:#6c96ec;fill-opacity:0.25098039;stroke:#6c96ec;stroke-width:10;stroke-miterlimit:4;stroke-opacity:1;stroke-dasharray:none;filter:url(#filter13638)" clip-path="url(#clipPath12387)" />
        <path sodipodi:type="star" style="fill:white;fill-opacity:1;stroke:none" id="path10259-7" sodipodi:sides="4" sodipodi:cx="269.26929" sodipodi:cy="291.77481" sodipodi:r1="12.089468" sodipodi:r2="1.5111835" sodipodi:arg1="1.5475447" sodipodi:arg2="2.3329429" inkscape:flatsided="false" inkscape:rounded="0" inkscape:randomized="0" d="m 269.55036,303.86101 -1.32451,-10.99308 -11.04276,-0.81204 10.99307,-1.32451 0.81205,-11.04277 1.32451,10.99308 11.04277,0.81205 -10.99308,1.32451 z" transform="matrix(0.15019275,-0.49859221,-0.49859221,-0.15019275,562.41815,359.47049)" />
        <use x="0" y="0" xlink:href="#path10259-7" id="use13660" transform="matrix(-0.48723162,0.91260339,-0.91260339,-0.48723162,856.84098,-191.58201)" width="744.09448" height="1052.3622" />
        <use height="1052.3622" width="744.09448" transform="matrix(-0.16775464,0.38446247,-0.38446247,-0.16775464,613.27749,4.6339205)" id="use13662" xlink:href="#path10259-7" y="0" x="0" />
        <use x="0" y="0" xlink:href="#path10259-7" id="use13664" transform="matrix(-0.56491728,0.41617123,-0.41617123,-0.56491728,813.70279,42.167954)" width="744.09448" height="1052.3622" />
        <use height="1052.3622" width="744.09448" transform="matrix(0.15586089,-0.47923198,-0.47923198,-0.15586089,445.64604,417.1576)" id="use13666" xlink:href="#path10259-7" y="0" x="0" />
        <use x="0" y="0" xlink:href="#path10259-7" id="use13668" transform="matrix(-0.57469194,0.38289868,-0.38289868,-0.57469194,784.60779,93.578713)" width="744.09448" height="1052.3622" />
        <use x="0" y="0" xlink:href="#path10259-7" id="use13670" transform="matrix(0.04063742,-0.71539994,-0.71539994,-0.04063742,550.65617,483.51377)" width="744.09448" height="1052.3622" />
        <use height="1052.3622" width="744.09448" transform="matrix(0.53601947,-0.43432407,-0.43432407,-0.53601947,275.1521,478.17154)" id="use13672" xlink:href="#path10259-7" y="0" x="0" />
        <use x="0" y="0" xlink:href="#path10259-7" id="use13674" transform="matrix(0.5188168,0.24588873,0.24588873,-0.5188168,187.64524,96.331393)" width="744.09448" height="1052.3622" />
      </g>
      <g id="g3099">
        <path style="fill:#314b8f;fill-opacity:1;stroke:none" d="m 358.5,241.86218 c -20.97487,-35.56676 -7.39111,-71.66071 -2.35355,-72.29289 4.36649,-0.54797 16.46446,15.05025 20.35355,37.29289 z" id="path3097" inkscape:connector-curvature="0" sodipodi:nodetypes="cscc" />
        <path inkscape:original-d="m 358.5,241.86218 c -20.97487,-35.56676 -7.39111,-71.66071 -2.35355,-72.29289 4.36649,-0.54797 16.46446,15.05025 20.35355,37.29289" inkscape:path-effect="#path-effect3087" sodipodi:nodetypes="csc" inkscape:connector-curvature="0" id="path4243" d="m 350.99422,217.48926 c 0.90813,4.11498 2.00518,8.0648 3.24731,12.05706 1.24212,3.99227 2.62797,8.02897 4.25847,12.31586 -2.89906,-3.53878 -5.25873,-7.26842 -7.1472,-11.17872 -1.88848,-3.9103 -3.30828,-8.00481 -4.26399,-12.33198 -0.17076,-0.77318 -0.33031,-1.54895 -0.47848,-2.32705 -1.47796,-7.76391 -1.84588,-15.74395 -1.03112,-23.61528 0,0 0,0 0,0 0.58793,-5.7627 1.77061,-11.56144 4.01007,-17.03866 0.69579,-1.72211 1.54383,-3.49291 2.73439,-5.14876 0.38399,-0.54516 0.87348,-1.12237 1.51185,-1.66656 0,-1e-5 0,-1e-5 0,-1e-5 0.38155,-0.39504 1.0682,-0.76988 2.0619,-0.9703 1.40154,-0.0736 2.4856,0.28921 3.18435,0.76633 1.15327,0.65111 2.10803,1.44479 2.92361,2.24177 2.50451,2.41515 4.48297,5.20832 6.20158,8.03037 0.58961,0.9624 1.15513,1.93817 1.69695,2.9261 2.13768,3.89776 3.78567,8.18258 4.87944,12.51454 1.09378,4.33196 1.63651,8.70588 1.71665,12.79821 -1.39261,-3.9031 -2.89437,-7.91869 -4.56618,-11.87169 -1.67181,-3.95299 -3.51538,-7.84099 -5.53417,-11.51824 -0.51169,-0.93204 -1.0456,-1.85147 -1.60211,-2.75706 -1.64904,-2.66671 -3.41334,-5.19431 -5.55912,-7.23364 -0.71309,-0.66731 -1.38994,-1.25658 -2.08986,-1.62855 -0.51048,-0.19044 -0.78412,-0.39762 -0.75308,-0.29928 0.21646,-0.10288 0.21496,-0.0247 -0.006,0.0803 0,0 0,0 0,0 -0.26323,0.20356 -0.52571,0.53887 -0.83081,0.94089 -0.91332,1.23602 -1.60614,2.72887 -2.26875,4.31493 -2.06243,4.99939 -3.15228,10.42908 -3.73157,15.93152 0,0 0,0 0,0 -0.775,7.47213 -0.42349,15.06554 0.98192,22.45536 0.14061,0.73965 0.29213,1.47724 0.45439,2.21251 z" style="fill:#071b42;fill-opacity:1;stroke:none" />
        <path sodipodi:nodetypes="ccc" inkscape:connector-curvature="0" id="path3095" d="m 357.816,188.2303 c -3.05265,10.6072 -1.5289,23.22136 3.4993,34.78188 -2.81911,-11.17537 -4.50493,-25.08104 -3.4993,-34.78188 z" style="fill:#071b42;fill-opacity:1;fill-rule:evenodd;stroke:none" />
      </g>
    </g>
    <g id="g12164">
      <path sodipodi:nodetypes="ccc" inkscape:connector-curvature="0" id="path12160" d="m 238,594.36218 c 37.22134,-8.42747 79.62138,-4.52469 111.28102,13.76533 C 453.62203,574.10623 536,659.36218 594,609.36218 l -14.12696,61.29906 -329.96143,-17.57191 z" style="fill:white;stroke:none;stroke-width:4;stroke-linecap:butt;stroke-linejoin:miter;stroke-miterlimit:12;stroke-opacity:1;stroke-dasharray:none" />
      <path inkscape:original-d="m 238,594.36218 c 53,-12 116.5,1 145,45" inkscape:path-effect="#path-effect11840" style="fill:#c1ecef;stroke:none;stroke-width:4;stroke-linecap:butt;stroke-linejoin:miter;stroke-miterlimit:12;stroke-opacity:1;stroke-dasharray:none;fill-opacity:1" d="m 277.14188,592.05313 c -6.52197,-0.0303 -12.86397,0.1966 -19.294,0.58941 -6.43002,0.39281 -12.94961,0.95052 -19.84788,1.71964 6.57306,-2.20549 13.0341,-3.77483 19.51072,-4.80909 6.47663,-1.03427 12.9723,-1.53438 19.65013,-1.50207 14.53396,0.0703 29.04966,1.98945 43.06265,5.88432 12.73054,3.53644 25.05084,8.816 36.12752,16.12821 0.17837,0.11775 0.35647,0.23629 0.53428,0.3556 5.50311,3.69351 10.69364,8.17365 15.15206,13.1296 4.45842,4.95596 8.17775,10.38095 10.96264,15.81343 -3.91202,-4.77333 -8.30918,-9.42678 -13.0913,-13.75385 -4.78213,-4.32707 -9.94456,-8.32643 -15.24718,-11.86553 -0.17159,-0.11454 -0.3433,-0.22862 -0.51514,-0.34224 -10.66952,-7.05473 -22.61227,-12.16207 -34.99488,-15.61154 -13.65019,-3.8004 -27.81488,-5.67005 -42.00962,-5.73589 z" id="path4033" inkscape:connector-curvature="0" sodipodi:nodetypes="cc" />
      <path inkscape:original-d="m 349.12203,608.10623 c 104.5,-34 186.87797,51.25595 244.87797,1.25595" inkscape:path-effect="#path-effect11872" style="fill:#c1ecef;stroke:none;stroke-width:4;stroke-linecap:butt;stroke-linejoin:miter;stroke-miterlimit:12;stroke-opacity:1;stroke-dasharray:none;fill-opacity:1" d="m 349.74082,610.0081 -1.23758,-3.80374 c 12.50993,-4.0699 25.4924,-6.66684 38.60046,-7.74833 12.13435,-0.99947 24.34135,-0.71501 36.41746,0.54471 0,0 0,0 0,0 22.47416,2.35111 44.33735,8.06997 65.98851,13.79989 0,0 0,0 10e-6,0 9.81683,2.59428 19.6047,5.18006 29.47841,7.21311 8.96032,1.84156 17.98765,3.24843 27.02541,3.4653 4.44309,0.10498 8.89445,-0.0854 13.27153,-0.66289 3.77479,-0.49805 7.56468,-1.22507 11.28683,-2.26209 4.23678,-1.17289 8.37887,-2.76385 12.31701,-4.67107 3.93815,-1.90723 7.67058,-4.12909 11.11113,-6.52081 -2.86766,3.11342 -6.24003,6.02454 -10.00982,8.52738 -3.76978,2.50284 -7.93566,4.595 -12.33029,6.1213 -3.86678,1.33644 -7.8648,2.23977 -11.8497,2.76965 -4.61186,0.61326 -9.27103,0.81511 -13.89493,0.69732 -9.38338,-0.23571 -18.64701,-1.6696 -27.73433,-3.54637 -10.01689,-2.06498 -19.87648,-4.66762 -29.69356,-7.26368 0,0 -10e-6,0 -10e-6,0 -21.64843,-5.71656 -43.30902,-11.39832 -65.38072,-13.68858 -1e-5,0 -1e-5,0 -1e-5,0 -11.8625,-1.23451 -23.82168,-1.51631 -35.67402,-0.53671 -12.80081,1.05617 -25.48039,3.5922 -37.69179,7.56561 z" id="path4041" inkscape:connector-curvature="0" sodipodi:nodetypes="cc" />
    </g>
  </g>
</svg>
