<svg xmlns="http://www.w3.org/2000/svg" xmlns:inkscape="http://www.inkscape.org/namespaces/inkscape" xmlns:xlink="http://www.w3.org/1999/xlink" height="1581.8337" viewBox="0 0 1436.3985 1581.8338" width="1436.3984">
  <defs>
    <inkscape:path-effect effect="powerstroke" id="path-effect5740" interpolator_type="CubicBezierSmooth" offset_points="0.14,3.5 | 1,3.5" start_linecap_type="zerowidth" />
    <inkscape:path-effect effect="powerstroke" id="path-effect5738" interpolator_type="CubicBezierSmooth" offset_points="0.14,3.5 | 2,3.5" start_linecap_type="zerowidth" />
    <inkscape:path-effect effect="powerstroke" id="path-effect4394" interpolator_type="CubicBezierSmooth" offset_points="0.16,3.5 | 4,3.5" start_linecap_type="zerowidth" />
    <inkscape:path-effect effect="powerstroke" id="path-effect4371" interpolator_type="CubicBezierSmooth" offset_points="0.47,3.5 | 3,3.5" start_linecap_type="zerowidth" />
    <inkscape:path-effect effect="powerstroke" end_linecap_type="zerowidth" id="path-effect13316" interpolator_type="CubicBezierSmooth" offset_points="0.26,3.5 | 2.72,3.5" start_linecap_type="zerowidth" />
    <inkscape:path-effect effect="powerstroke" end_linecap_type="zerowidth" id="path-effect11188" interpolator_type="CubicBezierSmooth" offset_points="0.38,3.5 | 1.81,3.5" start_linecap_type="zerowidth" />
    <inkscape:path-effect effect="join_type" id="path-effect8434" line_width="7" />
    <inkscape:path-effect effect="powerstroke" end_linecap_type="zerowidth" id="path-effect8371" interpolator_type="CubicBezierSmooth" offset_points="0.2,3.5 | 1.75,3.5" start_linecap_type="zerowidth" />
    <inkscape:path-effect bendpath1="m -22.90216,-20.739637 h 45.804319" bendpath2="m 20.600921,-22.793627 c -6.281571,14.7918805 -7.021819,30.7166016 -2.496662,47.098975" bendpath3="m -22.90216,20.739637 h 45.804319" bendpath4="m -16.882202,-22.733161 c -6.103449,14.8539602 -7.124841,32.4280309 -3.703306,46.577861" effect="envelope" id="path-effect3700" yy="false" />
    <inkscape:path-effect effect="powerstroke" id="path-effect4529" interpolator_type="CubicBezierSmooth" offset_points="0.6,3.5 | 2,3.5" start_linecap_type="zerowidth" />
    <inkscape:path-effect effect="powerstroke" end_linecap_type="zerowidth" id="path-effect4493" interpolator_type="CubicBezierSmooth" offset_points="0.34,3.5 | 2.2,3.5" start_linecap_type="zerowidth" />
    <inkscape:path-effect effect="powerstroke" end_linecap_type="zerowidth" id="path-effect4491" interpolator_type="CubicBezierSmooth" offset_points="0.44,3.5 | 3.7,3.5" start_linecap_type="zerowidth" />
    <inkscape:path-effect effect="powerstroke" end_linecap_type="zerowidth" id="path-effect4447" interpolator_type="CubicBezierSmooth" miter_limit="20" offset_points="0.27,3.5 | 5.5,3.5 | 10.45,3.5" start_linecap_type="zerowidth" />
    <inkscape:path-effect effect="powerstroke" id="path-effect4421" interpolator_type="CubicBezierSmooth" offset_points="0.7,3.5" start_linecap_type="zerowidth" />
    <inkscape:path-effect effect="powerstroke" end_linecap_type="zerowidth" id="path-effect4385" interpolator_type="CubicBezierSmooth" offset_points="0.47,3.5 | 4.68,3.5" start_linecap_type="zerowidth" />
    <inkscape:path-effect effect="powerstroke" end_linecap_type="zerowidth" id="path-effect5053" interpolator_type="CubicBezierSmooth" offset_points="0.5,3.5 | 3.45,3.5" start_linecap_type="zerowidth" />
    <inkscape:path-effect effect="powerstroke" end_linecap_type="zerowidth" id="path-effect5040" interpolator_type="CubicBezierSmooth" offset_points="0.33,3.5 | 1.55,3.5" start_linecap_type="zerowidth" />
    <linearGradient gradientTransform="matrix(1,0.05,-0.05,1,12.12,-34.34)" gradientUnits="userSpaceOnUse" id="l" x1="723.02002" x2="716.15002" y1="306.20999" y2="163.12">
      <stop offset="0" stop-color="#005cff" />
      <stop offset="1" stop-color="#002b77" />
    </linearGradient>
    <clipPath id="clipPath4445">
      <use xlink:href="#ellipse172" />
    </clipPath>
    <clipPath id="clipPath4461">
      <use xlink:href="#ellipse170" />
    </clipPath>
    <clipPath id="clipPath4848">
      <use xlink:href="#path4482" />
    </clipPath>
    <clipPath id="clipPath4864">
      <use xlink:href="#path194" />
    </clipPath>
    <linearGradient id="linearGradient932">
      <stop offset="0" stop-color="#230f38" />
      <stop offset="1" stop-color="#5c2594" />
    </linearGradient>
    <clipPath id="clipPath8447">
      <path d="m 1042.1372,-562.9214 c 11.4748,8.48572 16.2566,19.64871 15.8608,32.40057 -2.2066,85.51792 121.9785,-1.79999 49.9072,-30.43392 -12.5693,-5.44786 -21.5853,-12.91156 -24.6384,-26.96609 -68.6476,-126.32328 -130.29241,-84.77781 -41.1296,24.99944 z" />
    </clipPath>
    <clipPath id="clipPath10780">
      <use xlink:href="#path10758" />
    </clipPath>
    <clipPath id="clipPath11168">
      <use xlink:href="#path11136" />
    </clipPath>
    <clipPath id="clipPath11184">
      <use xlink:href="#path4883-0" />
    </clipPath>
    <clipPath id="clipPath11572">
      <use xlink:href="#path11190" />
    </clipPath>
    <clipPath id="clipPath6001">
      <path d="m 1169.0026,207.36055 c 63.4042,149.9489 -177.55412,312.62079 -386.68698,204.76449 l -26.7355,68.85242 c 316.83468,245.62397 676.54938,-99.30773 585.97008,-321.32541 z" />
    </clipPath>
    <filter color-interpolation-filters="sRGB" height="1.2314382" id="filter6309" width="1.1045142" x="-0.052257083" y="-0.1157191">
      <feGaussianBlur stdDeviation="4.2524314" />
    </filter>
    <inkscape:path-effect effect="powerstroke" id="path-effect6869-6" interpolator_type="CubicBezierSmooth" offset_points="0.31,2" start_linecap_type="zerowidth" />
    <inkscape:path-effect effect="powerstroke" end_linecap_type="zerowidth" id="path-effect4297-7" interpolator_type="CubicBezierSmooth" offset_points="0.27,2 | 0.73,2" start_linecap_type="zerowidth" />
    <inkscape:path-effect effect="powerstroke" id="path-effect4295-5" interpolator_type="CubicBezierSmooth" offset_points="0.29,2" start_linecap_type="zerowidth" />
    <inkscape:path-effect effect="powerstroke" id="path-effect4299-3" interpolator_type="CubicBezierSmooth" offset_points="1,2" start_linecap_type="zerowidth" />
    <inkscape:path-effect effect="powerstroke" end_linecap_type="zerowidth" id="path-effect6798-5" interpolator_type="CubicBezierSmooth" offset_points="0.18,2 | 6.56,2" start_linecap_type="zerowidth" />
    <inkscape:path-effect effect="powerstroke" id="path-effect6800-6" interpolator_type="CubicBezierSmooth" offset_points="0.39,2" start_linecap_type="zerowidth" />
    <inkscape:path-effect effect="powerstroke" id="path-effect6802-2" interpolator_type="CubicBezierSmooth" offset_points="0.37,2 | 3,2" start_linecap_type="zerowidth" />
    <inkscape:path-effect effect="powerstroke" id="path-effect4321-9" interpolator_type="CubicBezierSmooth" offset_points="0.38,2 | 3,2" start_linecap_type="zerowidth" />
    <inkscape:path-effect effect="powerstroke" id="path-effect971-1" interpolator_type="CubicBezierSmooth" offset_points="0.85,2 | 5,2" start_linecap_type="zerowidth" />
    <inkscape:path-effect effect="powerstroke" end_linecap_type="zerowidth" id="path-effect4285-2" interpolator_type="CubicBezierSmooth" offset_points="0.32,2 | 1.74,2" start_linecap_type="zerowidth" />
    <filter color-interpolation-filters="sRGB" height="1.1919767" id="filter7821" width="1.0872775" x="-0.04363877" y="-0.095988348">
      <feGaussianBlur stdDeviation="1.8463119" />
    </filter>
    <filter color-interpolation-filters="sRGB" height="1.0243518" id="filter7995" width="1.0236582" x="-0.011829102" y="-0.012175908">
      <feGaussianBlur stdDeviation="5.9878106" />
    </filter>
    <mask id="mask7999">
      <path d="m 1108.2925,-55.584112 c 39.9285,23.470995 39.1711,102.751539 -2.9475,125.288245 l -157.96944,396.793597 -983.967881,-47.37053 -4.817453,-1046.64509 983.099414,66.95573 z" fill="#fff" filter="url(#filter7995)" />
    </mask>
    <linearGradient gradientUnits="userSpaceOnUse" id="linearGradient8003" x1="740.073" x2="650.79663" y1="1007.8021" y2="1010.4254" xlink:href="#linearGradient932" />
    <linearGradient gradientUnits="userSpaceOnUse" id="linearGradient8005" x1="-310.11053" x2="-230.64561" y1="-1061.0387" y2="-1062.8882" xlink:href="#linearGradient932" />
    <linearGradient gradientUnits="userSpaceOnUse" id="linearGradient8007" x1="346.67294" x2="226.19264" y1="-817.48944" y2="-816.5755" xlink:href="#l" />
    <linearGradient gradientTransform="matrix(1,0.05,-0.05,1,-41.067168,90.167474)" gradientUnits="userSpaceOnUse" id="linearGradient8009" x1="723.02002" x2="716.15002" y1="306.20999" y2="163.12" xlink:href="#l" />
    <filter color-interpolation-filters="sRGB" height="1.034022" id="filter4537" width="1.0249677" x="-0.012483871" y="-0.017010989">
      <feGaussianBlur stdDeviation="6.3051432" />
    </filter>
  </defs>
  <g transform="translate(-.84014621 648.53997)">
    <g>
      <path d="m 755.58012,480.97746 c 316.83468,245.62397 676.54938,-99.30773 585.97008,-321.32541 -85.0198,-208.39076 6.2235,-400.72553 -10.8292,-550.54128 -27.1382,-238.42213 -389.20999,-152.95514 -300.434,92.25851 -11.436,3.78407 -18.9115,5.08651 -15.7387,16.92752 12.2699,45.79133 67.7622,79.3529 141.4269,72.26779 45.7191,127.936526 -68.3861,224.255747 13.0274,416.79596 63.4042,149.9489 -177.55412,312.62079 -386.68698,204.76449 z" fill="#6dc6fb" />
      <g>
        <g clip-path="url(#clipPath11572)">
          <ellipse cx="1188.4232" cy="-359.30966" fill="#fff" id="path11190" rx="82.252213" ry="69.292603" transform="rotate(300.06535 1188.4232-359.30968)" />
          <g clip-path="url(#clipPath10780)">
            <ellipse cx="697.75153" cy="988.63318" fill="url(#linearGradient8003)" id="path10758" rx="60.569618" ry="51.026287" transform="rotate(288.81678)" />
            <path d="m 1145.2733,-336.91879 48.7788,66.72709 27.2062,-31.50978 z" fill="#8f4dd3" />
            <path d="m 1145.2733,-336.91879 81.3119,14.49357 -8.3777,31.56787 z" fill="#62289e" />
            <ellipse cx="1155.6005" cy="-338.65643" rx="48.309776" ry="40.698208" transform="rotate(288.81678 1155.6005-338.65644)" />
            <ellipse cx="918.60236" cy="-816.58179" fill="#fff" rx="16.608715" ry="23.696388" transform="rotate(24.432784)" />
            <ellipse cx="934.58752" cy="-808.28851" fill="#fff" rx="5.472713" ry="7.5149922" transform="rotate(25.219485)" />
          </g>
        </g>
        <path d="m 1240.0784,-423.49949 c 28.126,-31.57347 32.8471,-26.65932 4.8833,4.42839 m 9.3267,12.44252 c 36.9605,-21.0481 39.5961,-15.42226 3.3579,5.67321 m 7.8276,15.1216 c 36.2017,-4.25128 37.4766,2.21285 -4.6632,6.93771 -9.4461,-50.47601 -55.1429,-67.96642 -92.921,-48.75991 -35.8764,18.23966 -64.2385,66.43041 -42.2404,118.0523 -29.4428,-44.70819 -0.9244,-102.87095 39.4549,-123.50697 39.8707,-20.37605 90.099,-1.94475 100.3697,47.27687 z" />
      </g>
      <path fill="#1c92cd" inkscape:original-d="m 1169.0026,207.36055 c -81.4135,-192.540213 32.6917,-288.859434 -13.0274,-416.79596" inkscape:path-effect="#path-effect5740" />
      <path fill="#1c92cd" inkscape:original-d="m 1341.5502,159.65205 c -85.0198,-208.39076 6.2235,-400.72553 -10.8292,-550.54128 -27.1382,-238.42213 -389.20999,-152.95514 -300.434,92.25851" inkscape:path-effect="#path-effect5738" />
      <g>
        <path d="m 1021.4424,-401.03768 c -30.36967,-5.76302 -31.36802,-1.13673 -0.061,6.37626 m 5.5805,-25.32699 c -30.79537,-9.71194 -31.81167,-4.33822 -1.3823,5.88363" />
        <g clip-path="url(#clipPath11184)">
          <path d="m 1056.8082,-313.59251 c 14.4162,-43.0254 8.839,-100.53786 -27.2058,-123.03872 -17.1642,38.70858 -18.0318,83.76923 0.1038,137.61338 10.3037,-2.42128 20.3385,-7.81323 27.1021,-14.57466 z" fill="#fff" id="path4883-0" />
          <g clip-path="url(#clipPath11168)" transform="translate(-55.868875 15.011673)scale(1.0519472)">
            <ellipse cx="-274.25525" cy="-1069.7833" fill="url(#linearGradient8005)" id="path11136" rx="53.213039" ry="20.650885" transform="rotate(86.185453)" />
            <path d="m 1052.5887,-341.08097 -18.1738,50.96277 -10.1786,-24.50406 z" fill="#8f4dd3" />
            <path d="m 1052.5887,-341.08097 -30.8439,8.83594 2.6384,25.35767 z" fill="#62289e" />
            <ellipse cx="1051.3447" cy="-341.64062" rx="41.838093" ry="16.236496" transform="rotate(86.185453 1051.3448-341.64061)" />
            <ellipse cx="977.56249" cy="-510.48269" fill="#fff" rx="6.2587775" ry="19.680046" transform="rotate(8.2692354)" />
            <ellipse cx="969.05476" cy="-517.38933" fill="#fff" rx="1.9969344" ry="5.6803898" transform="rotate(10.212698)" />
          </g>
        </g>
        <path d="m 1056.8082,-313.59251 c 26.1311,-67.62311 -5.2323,-113.93755 -26.0536,-125.23697 -24.737,-13.42448 -26.8862,-8.46732 -2.5993,5.06999 19.8619,11.07087 47.0086,49.13591 28.6529,120.16698 z" />
      </g>
      <g>
        <path d="m 1315.1102,-421.38868 c 27.4107,114.74521 -13.5817,189.65098 -82.3116,233.93557 26.3449,4.59259 49.0225,2.24334 68.0225,-10.75666 -14.7748,40.00492 -12.4729,81.97921 20.3352,118.295908 -4.5045,-38.136808 3.9734,-67.228308 22.6844,-92.735298 -0.9769,60.80287 26.9517,101.120497 84.5618,121.427855 -88.2125,-130.552955 -17.7501,-319.428385 -92.0422,-452.295385 z" fill="#f3a4d9" />
        <path d="m 1328.0023,-471.21435 -12.8921,49.82567 c 27.4107,114.74521 -13.5817,189.65098 -82.3116,233.93557 26.3449,4.59259 49.0225,2.24334 68.0225,-10.75666 -14.7748,40.00492 -12.4729,81.97921 20.3352,118.295908 -45.6698,-96.740088 80.2175,-175.168008 6.846,-391.300488 z" fill="#961370" />
        <path d="m 1315.1102,-421.38868 c 27.4107,114.74521 -13.5817,189.65098 -82.3116,233.93557 26.3449,4.59259 49.0225,2.24334 68.0225,-10.75666 -14.7748,40.00492 -12.4729,81.97921 20.3352,118.295908 -4.5045,-38.136808 3.9734,-67.228308 22.6844,-92.735298 -0.9769,60.80287 26.9517,101.120497 84.5618,121.427855 -88.2125,-130.552955 -17.7501,-319.428385 -92.0422,-452.295385 z" fill="none" stroke="#d91e9b" stroke-width="7" />
      </g>
      <g>
        <path d="m 1254.3182,-491.29083 c -23.0544,13.74512 -32.125,38.97692 -19.395,68.26795 -32.6718,-12.8216 -48.7938,-34.67663 -49.8487,-65.95995 -24.2244,15.76625 -30.2853,37.44744 -24.0612,67.11877 -31.0428,-12.0179 -46.4268,-34.52508 -46.339,-67.23506 -25.2118,18.43499 -33.9992,41.75169 -28.3229,71.04268 -31.6884,-14.45538 -44.8289,-37.51112 -41.8027,-69.16056 -21.9748,16.64539 -31.4674,38.27496 -30.0448,66.97322 -78.8415,-80.36295 8.4401,-252.8318 170.2955,-158.85081 30.0278,17.4355 70.6478,26.65488 110.4949,28.9917 z" fill="#f3a4d9" />
        <path d="m 1170.1626,-548.13239 c 29.1075,13.11463 68.4084,20.66636 107.9855,22.70534 l -23.8299,34.13622 c -23.0544,13.74512 -32.125,38.97692 -19.395,68.26795 -32.6718,-12.8216 -48.7938,-34.67663 -49.8487,-65.95995 -24.2244,15.76625 -30.2853,37.44744 -24.0612,67.11877 -31.0428,-12.0179 -46.4268,-34.52508 -46.339,-67.23506 -25.2118,18.43499 -33.9992,41.75169 -28.3229,71.04268 -51.7065,-64.53739 6.0782,-165.09922 83.8112,-130.07595 z" fill="#961370" />
        <path d="m 1254.3182,-491.29083 c -23.0544,13.74512 -32.125,38.97692 -19.395,68.26795 -32.6718,-12.8216 -48.7938,-34.67663 -49.8487,-65.95995 -24.2244,15.76625 -30.2853,37.44744 -24.0612,67.11877 -31.0428,-12.0179 -46.4268,-34.52508 -46.339,-67.23506 -25.2118,18.43499 -33.9992,41.75169 -28.3229,71.04268 -31.6884,-14.45538 -44.8289,-37.51112 -41.8027,-69.16056 -21.9748,16.64539 -31.4674,38.27496 -30.0448,66.97322 -78.8415,-80.36295 8.4401,-252.8318 170.2955,-158.85081 30.0278,17.4355 70.6478,26.65488 110.4949,28.9917 z" fill="none" stroke="#d91e9b" stroke-width="7" />
        <g clip-path="url(#clipPath8447)">
          <path d="m 1145.8677,-513.56508 c -163.47026,-182.28734 -166.3382,-180.63108 -55.413,40.19462 z" fill="#6dc6fb" stroke="#1c92cd" stroke-width="7" />
          <path d="m 1038.9733,-577.03945 c 4.6306,-16.07986 6.9687,-29.98252 7.3967,-45.39128 m 12.9465,86.98232 c 10.5086,-16.84834 16.8743,-33.52168 19.8643,-52.05912 m -1.2353,89.02594 c 16.7912,-16.64429 27.3923,-34.09685 34.119,-53.49059" fill="none" stroke="#1c92cd" stroke-width="3.5" />
        </g>
        <path d="m 1083.5812,-582.41594 c 6.1636,6.6958 12.7547,13.91781 19.7802,21.6609 -10.7197,13.62151 -25.3416,22.97387 -43.3811,26.34691 -4.5239,-9.1545 -8.7279,-17.72753 -12.6054,-25.72404 14.4004,-2.66148 27.0175,-10.53206 36.2063,-22.28377 z" fill="#ebebeb" />
        <path d="m 1071.0805,-569.86552 15.2471,25.38371 10.3253,-7.93014 -22.6278,-20.61927 z" fill="#fff" />
        <path fill="#d7d7d7" inkscape:original-d="m 1083.5812,-582.41594 c 6.1636,6.6958 12.7547,13.91781 19.7802,21.6609 -10.7197,13.62151 -25.3416,22.97387 -43.3811,26.34691 -4.5239,-9.1545 -8.7279,-17.72753 -12.6054,-25.72404 14.4004,-2.66148 27.0175,-10.53206 36.2063,-22.28377 z" inkscape:path-effect="#path-effect8434" />
        <path d="m 1067.4451,-461.7998 c -7.7036,-56.98938 41.2754,-114.01586 102.7175,-86.33259 z" fill="#961370" />
      </g>
      <g transform="translate(-4.3303536)">
        <path d="m 1321.5774,-370.60241 c 78.2423,-102.00605 16.2314,-202.27614 -1.1124,-205.16898 -13.9325,-2.32383 -60.4,39.06497 -68.4077,102.35092 z" fill="#6dc6fb" />
        <path fill="#1c92cd" inkscape:original-d="m 1321.5774,-370.60241 c 78.2423,-102.00605 16.2314,-202.27614 -1.1124,-205.16898 -13.9325,-2.32383 -60.4,39.06497 -68.4077,102.35092" inkscape:path-effect="#path-effect8371" />
        <path d="m 1317.2802,-518.60176 c 14.4861,29.27559 9.9961,65.38752 -7.3656,90.96559 11.9434,-30.3093 15.6518,-59.97148 7.3656,-90.96559 z" fill="#1c92cd" />
      </g>
      <path fill="#1c92cd" inkscape:original-d="m 1056.8082,-313.59251 c -22.4392,21.11422 -47.5874,12.00698 -42.2599,31.88931 16.5177,61.64469 112.1905,101.90908 223.6852,49.35506" inkscape:path-effect="#path-effect11188" />
      <path d="m 1036.581,-244.25007 c 24.2147,-2.35073 36.5131,-10.91798 43.3238,-30.12213 -0.3495,22.7593 -15.9174,33.05036 -36.9279,36.26942 m 1.9522,-48.4549 c -1.395,6.95391 -6.166,8.64514 -11.4307,4.41707 4.3054,10.20905 14.5413,6.57439 11.4307,-4.41707 z" fill="#1c92cd" />
      <g transform="translate(-2.8284272-25.455849)">
        <path d="m 1297.297,29.93465 c -56.924,-71.545596 -138.6132,-36.9829965 -101.2434,35.467015 28.3444,54.951935 112.6442,126.473425 135.2872,112.356075 12.6383,-7.87967 -1.0598,-64.14881 -25.1557,-120.132522 z" fill="#6dc6fb" />
        <path fill="#1c92cd" inkscape:original-d="m 1297.297,29.93465 c -56.924,-71.545596 -138.6132,-36.9829965 -101.2434,35.467015 28.3444,54.951935 112.6442,126.473425 135.2872,112.356075 12.6383,-7.87967 -1.0598,-64.14881 -25.1557,-120.132522" inkscape:path-effect="#path-effect13316" />
        <path d="m 1312.5313,72.13871 c -6.4852,3.50201 -11.3337,0.221705 -17.1742,-11.235355 -3.5711,29.55575 -20.9952,17.813718 -34.5025,-11.046726 -1.0704,37.062738 -21.0047,20.573908 -33.5871,-1.060448 0.3882,11.564867 -9.5855,31.135516 -34.4081,10.130552" style="fill:none;stroke:#1c92cd;stroke-width:4.5;stroke-miterlimit:20" />
        <path d="m 1218.6004,66.100911 88.909,109.125129 m -50.6508,-107.03083 75.1825,108.39536 m -39.1598,-105.209299 43.0378,87.579369" style="fill:none;stroke:#1c92cd;stroke-width:3.5;stroke-miterlimit:20" />
      </g>
      <g transform="translate(0-25.455849)">
        <g stroke="#1c92cd">
          <path d="m 1084.6674,78.854463 c -36.7618,-52.367603 -20.6688,-111.138237 9.4873,-122.135638 4.1671,-1.519672 8.0903,-2.337983 11.8088,-2.549232 l 18.6476,121.994102 z" fill="#6dc6fb" stroke="#1c92cd" stroke-width="7" />
          <path d="m 1084.6674,78.854463 c -36.7618,-52.367603 -20.6688,-111.138237 9.4873,-122.135638 4.1671,-1.519672 8.0903,-2.337983 11.8088,-2.549232" fill="none" stroke="#1c92cd" stroke-width="7" />
        </g>
        <g>
          <path d="m 1179.0419,-38.79428 c -4.1427,1.795523 -8.257,3.867906 -12.3312,6.220151 -140.2791,80.990222 -111.8109,220.708549 1.8232,111.020369 l 58.1441,-47.526709 z" fill="#6dc6fb" />
          <path d="m 1179.0419,-38.79428 c -4.1427,1.795523 -8.257,3.867906 -12.3312,6.220151 -140.2791,80.990222 -111.8109,220.708549 1.8232,111.020369" fill="none" stroke="#1c92cd" stroke-width="7" />
        </g>
        <g>
          <path d="m 1088.6271,24.472117 c 47.4017,71.140503 112.8407,106.618403 152.8044,87.127583 41.8411,-20.406437 49.9684,-89.873107 -7.4504,-150.53244 l -20.4831,83.528942 c -53.106,-15.186271 -66.9407,-106.987687 -119.3433,-87.877377 15.0673,12.096582 7.9404,43.42459514 -5.5276,67.753292 z" fill="#6dc6fb" />
          <path fill="#1c92cd" inkscape:original-d="m 1088.6271,24.472117 c 47.4017,71.140503 112.8407,106.618403 152.8044,87.127583 41.8411,-20.406437 49.9684,-89.873107 -7.4504,-150.53244 l -20.4831,83.528942 c -53.106,-15.186271 -66.9407,-106.987687 -119.3433,-87.877377" inkscape:path-effect="#path-effect4394" />
        </g>
        <g>
          <path d="m 1188.7798,20.995554 c 15.9127,22.078855 23.2752,40.874227 26.9539,64.249793 7.3633,46.788563 151.3476,13.897698 120.5098,-47.273479 -39.6669,-78.685093 -109.0235,-105.481084 -169.5328,-70.545997 17.6704,13.215612 23.4826,33.6504968 22.0691,53.569683 z" fill="#6dc6fb" />
          <path d="m 1231.8135,83.002366 c 12.0115,-29.943568 66.6212,-46.285407 94.0754,-31.301268 -30.4919,-6.45712 -74.6644,5.889094 -94.0754,31.301268 z" fill="#1c92cd" />
          <path fill="#1c92cd" inkscape:original-d="m 1188.7798,20.995554 c 15.9127,22.078855 23.2752,40.874227 26.9539,64.249793 7.3633,46.788563 151.3476,13.897698 120.5098,-47.273479 -39.6669,-78.685093 -109.0235,-105.481084 -169.5328,-70.545997" inkscape:path-effect="#path-effect4371" />
        </g>
      </g>
    </g>
    <g mask="url(#mask7999)">
      <g opacity=".6">
        <g transform="translate(-41.024895-604.39894)">
          <path d="m 128.35449,829.85667 c 40.4811,44.50305 63.17183,26.60266 43.92195,-10.53521 -13.63849,-26.31209 -7.57239,-48.10274 12.79517,-61.55809 -8.38574,21.98392 -8.00611,41.32544 9.84632,67.88889 31.3703,46.67729 -19.40402,93.88918 -64.57988,38.12088 z" fill="#7689bb" stroke="#fff" stroke-width="4" />
          <path d="m 102.36496,689.91086 c 18.27965,144.14627 52.82534,154.91378 37.30214,198.23067 16.91793,29.20731 4.05495,56.8963 -35.13996,48.57578 7.18711,-14.22391 9.57778,-28.56081 5.95765,-42.94372 -9.70143,-38.54389 -11.674123,-94.06306 -36.165591,-203.47405 -5.862925,-26.19151 8.6634,-71.33469 21.069043,-71.82074 l 204.684078,-8.01937 50.07805,2.23249 c -2.43065,23.60661 -15.29282,48.58956 -28.84648,48.0819 l -207.77661,-7.78238 c -8.58307,13.25763 -12.51473,26.25487 -11.16232,36.91942 z" fill="#7689bb" />
          <path d="m 139.6671,888.14153 c -7.87502,5.92966 -19.56127,9.37024 -29.18231,5.63206" fill="none" stroke="#fff" stroke-width="4" />
          <path fill="#fff" inkscape:original-d="m 119.31322,645.06213 c -12.6106,15.96397 -18.56767,32.07869 -16.94826,44.84873 18.27958,144.14628 52.82534,154.91378 37.30214,198.23067 16.91793,29.20731 4.05495,56.8963 -35.13996,48.57578 7.18711,-14.22391 9.57778,-28.56081 5.95765,-42.94372 -9.70143,-38.54389 -11.674123,-94.06306 -36.165591,-203.47405 -5.862925,-26.19151 8.6634,-71.33469 21.069043,-71.82074 l 204.684078,-8.01937 50.07805,2.23249 c -2.43065,23.60661 -15.29272,48.58696 -28.84648,48.0819 l -207.87171,-7.74597" inkscape:path-effect="#path-effect6869-6" />
        </g>
        <path d="m 359.07047,-467.39276 c -12.01322,-16.09947 -19.73999,-33.55961 -22.14137,-58.10331 32.01619,28.9809 56.01272,31.36574 70.04321,61.11526 z" fill="#7689bb" stroke="#fff" stroke-width="4" />
        <g transform="translate(-41.024895-604.39894)">
          <path d="m 98.648937,117.78229 c 84.341403,95.26423 501.007943,45.08903 557.126163,205.27195 -34.55905,-26.85471 -82.05973,-33.20446 -113.84458,-20.97953 36.56363,83.49455 138.2535,78.23027 159.02735,218.92952 -104.34177,-133.23955 -190.82042,-83.7088 -315.05571,-117.16184 26.18772,29.99802 56.73479,43.25913 98.96329,47.42877 -83.32773,29.93034 -170.17868,32.74839 -260.48386,13.82789 z" fill="#8f9fc9" />
          <path d="m 387.84313,289.26252 c 132.64265,-4.14738 123.00222,45.1996 58.68864,61.47731 -32.01447,8.10283 -37.82599,36.77827 -12.9026,62.67602 -15.32767,-2.13897 -31.19296,-5.12131 -47.72701,-9.57346 26.18772,29.99802 56.73479,43.25913 98.96329,47.42877 -83.32773,29.93034 -170.17868,32.74839 -260.48386,13.82789 l -92.49701,-255.5085 c 59.20474,43.99584 164.91476,82.51867 255.95855,79.67197 z" fill="#7689bb" />
          <path d="m 98.648937,117.78229 c 84.341403,95.26423 501.007943,45.08903 557.126163,205.27195 -34.55905,-26.85471 -82.05973,-33.20446 -113.84458,-20.97953 36.56363,83.49455 138.2535,78.23027 159.02735,218.92952 -104.34177,-133.23955 -190.82042,-83.7088 -315.05571,-117.16184 26.18772,29.99802 56.73479,43.25913 98.96329,47.42877 -83.32773,29.93034 -170.17868,32.74839 -260.48386,13.82789 z" style="fill:none;stroke:#fff;stroke-width:4;stroke-miterlimit:20" />
          <path d="m 428.6836,146.35967 c -116.75252,-115.446809 -326.68451,-118.937012 -344.54069,-60.50168 -61.758158,202.10697 -12.5946,327.34004 158.73696,416.73792 -2.13054,-165.86663 41.04816,-289.6794 185.80373,-356.23624 z" fill="#7689bb" />
          <path d="m 428.6836,146.35967 c -116.75252,-115.446809 -326.68451,-118.937012 -344.54069,-60.50168 -5.226816,17.10504 -9.659117,33.65945 -13.290084,49.6881 34.982034,-61.651614 183.983654,-22.42469 281.792794,58.16057 23.15349,-19.68011 48.64285,-35.20757 76.03798,-47.34699 z" fill="#8f9fc9" />
          <path d="m 428.6836,146.35967 c -116.75252,-115.446809 -326.68451,-118.937012 -344.54069,-60.50168 -61.758158,202.10697 -12.5946,327.34004 158.73696,416.73792 -2.13054,-165.86663 41.04816,-289.6794 185.80373,-356.23624 z" fill="none" stroke="#fff" stroke-width="4" />
        </g>
        <path d="m 559.29378,-273.70894 c -4.78117,-9.00184 -7.11491,-17.43943 -7.85662,-27.50367 -52.24194,-13.45734 -108.0834,-84.54502 -120.87106,-160.60096 -38.64584,-17.36195 -81.39801,-23.99645 -122.75956,-12.13598 -67.41121,19.33023 -131.12857,87.78794 -167.35479,239.00012 -56.951855,237.7233 104.42442,412.93136 315.71214,284.23137 72.63722,-44.2449298 137.32283,-26.04407 158.78758,41.740735 81.06198,255.990395 327.20875,74.826485 231.61218,-119.699753 -63.23852,-128.681932 84.49331,-171.742892 127.26811,-54.304407 40.14774,110.225887 150.45624,139.048077 255.88654,72.331059 -103.8526,23.211845 -195.8058,-2.39236 -224.3124,-102.709874 -56.08216,-197.3589 -272.16956,-112.99709 -197.30116,58.800715 82.49872,189.306805 -113.39765,261.541505 -143.57999,114.700222 -23.60067,-114.820583 -93.91762,-176.863447 -215.28552,-179.801987 -144.82488,-3.50648 -211.03246,-98.30386 -134.94098,-223.97037 5.56156,9.24226 13.58757,14.3283 23.55644,14.3283 86.49531,0 163.90206,23.13316 146.70088,68.62115 32.8634,20.80293 58.5466,11.61257 62.11587,-12.63239 3.61637,-0.54117 8.11031,-0.78565 12.62234,-0.39428 z" fill="#7689bb" />
        <path d="m 532.60757,25.171725 c 38.59907,0.465345 68.92163,23.463955 82.3439,65.85095 81.06197,255.990395 327.20875,74.826485 231.61218,-119.699753 -63.23852,-128.681932 84.49331,-171.742892 127.26811,-54.304407 40.14774,110.225887 150.45624,139.048077 255.88654,72.331059 -103.8526,23.211845 -195.8058,-2.39236 -224.3124,-102.709874 -56.08216,-197.3589 -272.16957,-112.99709 -197.30116,58.800715 46.47589,106.646535 4.59852,176.138305 -46.23016,190.238115 -105.34159,58.40027 -107.32808,-148.262564 -229.26701,-110.506805 z" fill="#8f9fc9" />
        <g transform="rotate(180 479.48755-302.19947)scale(1-1)">
          <path d="m 609.92124,203.35467 c -19.20632,18.97257 -44.56834,25.81809 -63.10291,18.9877 2.31062,-9.38088 4.98697,-18.28661 7.93171,-26.36119 19.08225,-1.71212 36.93021,0.76264 55.1712,7.37349 z" fill="#fff" />
          <path fill="#fff" inkscape:original-d="m 617.04748,195.16331 c -22.02262,28.17776 -56.52643,37.02544 -77.46112,23.42479" inkscape:path-effect="#path-effect4297-7" />
          <path fill="#fff" inkscape:original-d="m 587.45571,177.60733 c 19.47207,13.72647 29.55639,-18.68563 9.15919,-21.02882 -23.31094,-2.67791 -40.41419,26.11332 -49.71432,65.9212" inkscape:path-effect="#path-effect4295-5" />
          <path d="m 554.59238,195.89853 c 19.23991,-1.62947 37.08787,0.84529 55.31557,7.61968" style="fill:none;stroke:#fff;stroke-width:4;stroke-miterlimit:8" />
          <path d="m 518.78791,178.76218 c 2.97291,2.35136 6.09532,5.25991 9.03808,8.42324 -2.07789,7.876 -5.18831,16.291 -9.02701,24.86553 -3.69253,-1.27349 -7.37449,-3.86409 -10.41928,-7.89348 4.0579,-8.16202 7.8199,-16.47643 10.40821,-25.39529 z" fill="#fff" />
          <path fill="#fff" inkscape:original-d="m 524.84733,212.91109 c -5.76517,0.15966 -11.84936,-2.64192 -16.46763,-8.75362" inkscape:path-effect="#path-effect4299-3" />
          <path d="m 527.85838,187.16728 c -2.97515,-3.14519 -6.09756,-6.05374 -9.07047,-8.4051 m -0.10405,33.31048 c 11.24717,-24.45317 15.66958,-47.43974 8.16834,-60.30687" style="fill:none;stroke:#fff;stroke-width:4;stroke-miterlimit:8" />
        </g>
        <path d="m 307.80654,-473.94955 c -67.41121,19.33023 -131.12857,87.78794 -167.35479,239.00012 -56.951855,237.7233 104.42442,412.93136 315.71214,284.23137 72.63722,-44.2449298 137.32283,-26.04407 158.78758,41.740735 81.06198,255.990395 327.20875,74.826485 231.61218,-119.699753 -63.23852,-128.681932 84.49331,-171.742892 127.26811,-54.304407 40.14774,110.225887 150.45624,139.048077 255.88654,72.331059 -103.8526,23.211845 -195.8058,-2.39236 -224.3124,-102.709874 -56.08216,-197.3589 -272.16956,-112.99709 -197.30116,58.800715 82.49872,189.306805 -113.39765,261.541505 -143.57999,114.700222 -23.60067,-114.820583 -93.91762,-176.863447 -215.28552,-179.801987 -144.82488,-3.50648 -211.03246,-98.30386 -134.94936,-223.91545" style="fill:none;stroke:#fff;stroke-width:4;stroke-miterlimit:20" />
        <path d="m 431.27086,-360.82836 -0.58767,-22.82565 24.09299,14.1043 31.98107,39.25933 z" style="fill:none;stroke:#fff;stroke-width:4;stroke-miterlimit:12" />
        <path d="m 540.863,-282.43729 c -1.33696,-4.48789 -0.0128,-9.41317 4.67812,-11.43845 1.18698,5.22331 -0.385,8.85142 -4.67812,11.43845 z m -12.55839,3.1111 c -2.32317,-6.077 -6.61331,-8.9023 -12.19466,-8.9023 1.94245,6.27606 6.04799,8.78713 12.19466,8.9023 z" fill="none" stroke="#fff" stroke-width="3" />
        <path fill="#fff" inkscape:original-d="m 305.59411,-384.12512 c -0.0322,34.1599 12.16779,54.8217 32.26058,54.8217 86.49531,0 163.90206,23.13316 146.70088,68.62115 32.8634,20.80293 58.5466,11.61257 62.81596,-12.9103" inkscape:path-effect="#path-effect4321-9" />
        <path fill="#fff" inkscape:original-d="m 497.67444,-280.23023 c 5.07051,7.72019 14.99891,14.28058 27.85326,16.6665 8.83811,-7.41302 21.2323,-11.23239 33.76608,-10.14521 -4.78117,-9.00184 -7.11491,-17.43943 -7.85662,-27.50367 -52.24194,-13.45734 -108.0834,-84.54502 -120.87106,-160.60096 -38.64584,-17.36195 -81.39801,-23.99645 -122.75956,-12.13598" inkscape:path-effect="#path-effect971-1" />
        <g transform="rotate(180 479.48755-302.19947)scale(1-1)">
          <path d="m 637.94295,159.60131 c 33.06262,-18.68403 55.57827,-34.53255 69.55239,-71.640891 -42.65555,21.831821 -67.27458,14.604421 -90.42754,50.199071 z" fill="#7689bb" />
          <path fill="#fff" inkscape:original-d="m 637.94295,159.60131 c 33.06262,-18.68403 55.57827,-34.53255 69.55239,-71.640891 -42.65555,21.831821 -67.27458,14.604421 -90.42754,50.199071" inkscape:path-effect="#path-effect4285-2" />
        </g>
        <g transform="translate(-41.024895-604.39894)">
          <path d="m 435.4333,880.86517 c -24.52166,-81.57144 34.23822,-37.63362 56.25015,-43.65583 22.01192,-6.02222 20.7238,-28.00532 9.09402,-48.81603 -1.73752,30.67781 -21.83163,39.15056 -44.27415,28.59253 -45.34267,-21.33137 -62.54292,11.18994 -55.50689,49.0571 z" fill="#7689bb" stroke="#fff" stroke-width="4" />
          <path d="m 418.59342,619.89657 c 11.05267,21.00044 14.18304,48.92544 2.61731,56.01016 l -177.25621,108.58025 c -0.32108,18.36803 2.77074,31.33585 8.9767,33.85479 128.61384,52.20321 157.84044,25.30984 188.57153,59.55781 33.73846,-1.00065 51.98471,23.47813 26.03305,54.0065 -9.09779,-13.08453 -20.57491,-22.00288 -34.94979,-25.65481 -38.52237,-9.78659 -88.2095,-34.78471 -198.6144,-65.38497 -12.91663,-3.58002 -34.33799,-67.75559 -24.27872,-75.03208 l 165.97066,-120.05675 z" fill="#7689bb" />
          <path fill="#fff" inkscape:original-d="m 375.66355,645.77747 -165.97066,120.05675 c -10.05927,7.27649 11.36209,71.45206 24.27872,75.03208 110.4049,30.60026 160.09203,55.59838 198.6144,65.38497 14.37488,3.65193 25.852,12.57028 34.94979,25.65481 25.95166,-30.52837 7.70541,-55.00715 -26.03305,-54.0065 -30.73109,-34.24797 -59.95766,-7.35466 -188.57153,-59.55781 -7.25399,-2.94433 -10.25323,-20.16461 -8.594,-43.6279" inkscape:path-effect="#path-effect6798-5" />
          <path fill="#fff" inkscape:original-d="m 418.59342,619.89657 c 11.05267,21.00044 14.18168,48.92322 2.61731,56.01016 l -177.21024,108.59887" inkscape:path-effect="#path-effect6800-6" />
          <path fill="#fff" inkscape:original-d="m 366.81594,545.19718 c -17.84747,16.21353 -13.87731,51.92851 17.56294,51.92851 38.83804,0 39.40146,-88.5539 -13.6785,-95.10364 -55.77803,-6.88266 -93.46798,85.57591 -20.83073,163.1946" inkscape:path-effect="#path-effect6802-2" />
          <path d="m 441.50275,877.89958 c 1.47351,9.74702 -1.05454,21.66406 -8.91674,28.35169" fill="none" stroke="#fff" stroke-width="4" />
        </g>
      </g>
      <path d="m 305.59412,-384.12512 c -0.0322,34.1599 12.16779,54.8217 32.26058,54.8217 86.49531,0 163.90206,23.13316 146.70088,68.62115 32.8634,20.80293 58.5466,11.61257 62.81596,-12.9103 m -49.69709,-6.63766 c 5.07051,7.72019 14.99891,14.28058 27.85326,16.6665 8.83811,-7.41302 21.2323,-11.23239 33.76608,-10.14521 -4.78117,-9.00184 -7.11491,-17.43943 -7.85662,-27.50367 -52.24194,-13.45734 -108.0834,-84.54502 -120.87106,-160.60096 -31.26947,-14.04806 -65.22731,-21.07297 -98.96163,-16.96004 m -44.0978,12.22449 c -59.70907,26.61157 -114.48967,95.66892 -147.05497,231.59969 -38.4456,160.47622 22.6007,292.46433 131.33019,321.70667 m 78.9702,3.460252 c 33.00827,-5.204692 68.44617,-18.418973 105.41179,-40.935552 72.63722,-44.244931 137.32283,-26.04407 158.78758,41.740735 81.06198,255.990395 327.20875,74.826485 231.61218,-119.699753 -63.23852,-128.681932 84.49331,-171.742892 127.26811,-54.304407 40.14774,110.225887 150.45624,139.048077 255.88654,72.331059 -103.8526,23.211845 -195.8058,-2.39236 -224.3124,-102.709874 -56.08216,-197.3589 -272.16956,-112.99709 -197.30116,58.800715 82.49872,189.306805 -113.39765,261.541505 -143.57999,114.700222 -23.60067,-114.820583 -93.91762,-176.863447 -215.28552,-179.801987 -144.82487,-3.50648 -211.03242,-98.30386 -134.94935,-223.91545 m 86.18799,617.07744 c 1.4735,9.74702 -1.05454,21.66406 -8.91674,28.35169 m -13.99259,-286.3547 c 11.05266,21.00044 14.18168,48.92322 2.6173,56.01016 l -177.21023,108.59887 m 131.66305,-138.72813 -165.97065,120.05675 c -10.0593,7.27649 11.3621,71.45206 24.2787,75.03208 110.40491,30.60026 160.09204,55.59838 198.61441,65.38497 14.37488,3.65193 25.852,12.57028 34.94979,25.65481 25.95166,-30.52837 7.70541,-55.00715 -26.03305,-54.0065 -30.73109,-34.24797 -59.95766,-7.35466 -188.57155,-59.55781 -7.254,-2.94433 -10.2532,-20.16461 -8.594,-43.6279 m 188.06757,95.0035 c -15.80099,-66.22173 38.34957,-26.78207 59.27868,-32.50803 22.01192,-6.02221 20.7238,-28.00532 9.09402,-48.81603 -1.73752,30.67781 -21.83163,39.15057 -44.27415,28.59253 -41.69307,-19.61442 -59.59173,6.30359 -56.73278,40.04259 m -32.9546,-311.83125 c -17.84747,16.21353 -13.87731,51.92851 17.56294,51.92851 38.83804,0 39.40146,-88.5539 -13.6785,-95.10364 -55.77803,-6.88266 -93.46798,85.57591 -20.83073,163.1946 m -230.556455,-20.15452 c -12.6106,15.96397 -18.5677,32.07869 -16.9482,44.84873 18.2795,144.14628 52.825305,154.91378 37.3021,198.23067 16.917905,29.20731 4.054905,56.8963 -35.14,48.57578 7.1871,-14.22391 9.5778,-28.56081 5.9577,-42.94372 -9.7014,-38.54389 -11.6741,-94.06306 -36.1656,-203.47405 -5.8629,-26.19151 8.6634,-71.33469 21.069,-71.82074 l 114.539605,-4.48757 m 38.6127,44.07119 -135.108305,-5.03457 m 24.333,186.37919 c 34.449405,31.94847 52.212705,14.065 34.511205,-20.08558 -13.6385,-26.31209 -7.5724,-48.10274 12.7952,-61.55809 -8.3857,21.98392 -8.0061,41.32544 9.8463,67.88889 28.532,42.45398 -10.8885,85.35019 -52.245,50.806 m -3.005805,11.68327 c -7.875,5.92966 -19.5613,9.37024 -29.1823,5.63206 m 251.572255,-734.17228 c -33.06262,-18.68403 -55.57827,-34.53255 -69.55239,-71.64089 42.65555,21.83182 67.27458,14.60442 90.42754,50.19907 m 89.36356,105.41109 -0.58767,-22.82565 24.09299,14.1043 31.98107,39.25933 z m 114.27026,66.95262 -4.67812,11.43845 m -24.75305,-5.7912 12.19466,8.9023 m -165.19214,-200.35432 c -119.38247,-93.99558 -303.330475,-93.39432 -319.994475,-38.86044 -51.8911,169.81661 -25.4728,285.36111 85.926205,370.97742 m 407.19713,-106.94372 c 45.1703,41.48324 107.87727,64.00336 123.69164,171.11254 -104.34177,-133.23955 -190.82042,-83.7088 -315.05571,-117.16184 26.18772,29.99802 56.73479,43.25913 98.96329,47.42877 -24.81358,8.91274 -49.93957,15.42132 -75.37617,19.66761 m 89.22336,-252.831 c 76.13517,19.80351 137.81203,49.99836 157.06246,104.94647 -24.23758,-18.83423 -54.84083,-27.58258 -81.92376,-26.91094 m -188.5106,-185.22394 c -3.68997,-9.39318 -6.19459,-19.83195 -7.38674,-32.01649 29.04799,26.2941 51.49439,30.69495 65.88552,53.50369 m 28.3021,54.76072 c 2.97515,-3.14519 6.09756,-6.05374 9.07047,-8.4051 m 0.10405,33.31048 c -11.24717,-24.45317 -15.66958,-47.43974 -8.16834,-60.30687 m 2.00487,61.1453 c 5.76517,0.15966 11.84936,-2.64192 16.46763,-8.75362 m -46.21268,-8.25894 c -19.23991,-1.62947 -37.08787,0.84529 -55.31557,7.61968 m 22.45224,-25.91088 c -19.47207,13.72647 -29.55639,-18.68563 -9.15919,-21.02882 23.31094,-2.67791 40.41419,26.11332 49.71432,65.9212 m -70.1469,-27.3364 c 22.02262,28.17776 56.52643,37.02544 77.46112,23.42479" style="fill:none;stroke:#fff;stroke-width:4;stroke-miterlimit:20;filter:url(#filter4537)" />
      <path d="m 349.05386,-401.04427 c 19.20632,18.97257 44.56834,25.81809 63.10291,18.9877 -2.31062,-9.38088 -4.98697,-18.28661 -7.93171,-26.36119 -19.08225,-1.71212 -36.93021,0.76264 -55.1712,7.37349 z m 91.13333,-24.59249 c -2.97291,2.35136 -6.09532,5.25991 -9.03808,8.42324 2.0779,7.876 5.18831,16.291 9.02702,24.86553 3.69252,-1.27349 7.37448,-3.86409 10.41928,-7.89348 -4.05791,-8.16202 -7.81991,-16.47643 -10.40822,-25.39529 z" fill="#fff" filter="url(#filter7821)" />
    </g>
    <path d="m 560.49,485.44 c -94,-10.5 -159.8209,-65.09016 -154.17,-96.5 2.9991,-16.67016 15.67,-27.5 48.67,-22.5 -59.08,-23.67 -108.49732,-98.99833 -95.33,-120.17 12.92269,-20.77833 52.86,0.33 69.33,21.67 -42.5,-107 -136.60153,-138.542 -124.62,-166.21 7.64847,-17.662012 46.12329,-14.794125 81.63,13.54 45.23329,36.09588 66.5,57.17 97,127 -19,-142.83 -117.98449,-181.087937 -90.06,-217 20.07551,-25.81794538 67.46277,4.871022 97.55,47.67 31.52277,44.84103 43.51,108.71 43.51,154 0,81.51 12,192 45,218 z" style="fill:#e08119;stroke:#b24c00;stroke-width:7;stroke-miterlimit:20" />
    <path d="m 782.31562,412.12504 c -121.88387,-62.85929 -217.57566,-58.32713 -258.89855,1.50336 l 13.83212,12.07316 c 28.06955,-41.18392 109.72534,-28.91986 218.33093,55.2759 z" fill="#6dc6fb" />
    <path clip-path="url(#clipPath6001)" d="m 867.13088,567.98032 c 45.23122,-49.5799 118.54212,-36.11332 119.83711,13.87268 l 61.04781,-7.61173 c -11.8458,-93.57372 -125.20735,-110.42953 -198.83602,-22.7229 z" fill="#11a2f9" filter="url(#filter6309)" />
    <g>
      <path d="m 568.14797,105.35252 c -68.01134,60.30594 -15.35985,149.06595 -61.59797,241.69748 23.78,-14.82 29.8,-33.9 37.12,-55 -2.75,60.77 9.84,139.48 23.17,188.51 l 109.86,133.9 c 86.8,-26.34 107.47,-122.68 110.8,-152.85 5.66,20.34 7.83,32.34 4.33,59.67 15,-26.67 27.83,-73.67 17.58,-112.42 z" style="fill:#d95dff;stroke:#8d10b2;stroke-width:7;stroke-miterlimit:20" />
      <path d="m 734.47184,416.09869 c -1.04168,59.83269 -20.25137,117.34846 -65.68964,164.36496 l 15.8156,15.2927 c 54.14891,-56.03871 71.43218,-123.80238 71.87036,-179.25504 z m -211.87635,-115.84167 c 24.43602,-38.58018 38.53952,-85.26321 62.68602,-124.48236 l -18.82052,-11.39245 c -15.39526,26.69719 -26.09126,51.38276 -37.91619,77.07803 z" fill="#fff" />
      <path d="m 568.14797,105.35252 c -68.01134,60.30594 -15.35985,149.06595 -61.59797,241.69748 23.78,-14.82 29.8,-33.9 37.12,-55 -2.75,60.77 9.84,139.48 23.17,188.51 l 109.86,133.9 c 86.8,-26.34 107.47,-122.68 110.8,-152.85 5.66,20.34 7.83,32.34 4.33,59.67 15,-26.67 27.83,-73.67 17.58,-112.42 z" style="fill:none;stroke:#8d10b2;stroke-width:7;stroke-miterlimit:20" />
    </g>
    <path d="m 465.67,627.37 c -24.27,54.73 -33.27235,118.23078 -4.77,204 9.54765,28.73078 1.0005,38.43239 -16.5,42.09 -18.7195,3.91239 -65.5,5.16 -83.25,-1.34 -5.5,-55.49 -21,-208.36 44.5,-324 z m 211.99,-30.26 c 1.5,65 6.07985,132.72007 53.25,237.38 15.99985,35.50007 -3.62644,39.02668 -22.86,41.58 -25.58647,3.39669 -38.82976,3.54702 -55.39,2.21 -27.40976,-2.21298 -44.08202,-7.21981 -46.25,-29.67 -3.74202,-38.74981 -15.07,-175 4.09,-241.25 z" fill="#e08119" stroke="#b24c00" stroke-width="7" />
    <g>
      <path d="m 428.69423,419.58444 c -39.45347,-100.85925 -228.19586,-164.98027 -296.54423,5.77556 23.5,-25 35.06,-31.65 52.25,-38.5 -81,80 -6.75,201.25 -110.75,299.75 51.5,-2 73.5,-28 82,-51.5 -7.83,73.17 -75.151226,174.5 -132.651226,190.5 68.5,3 117.481226,-39.67 130.151226,-59.5 -6.33,38.17 -29.5,63.75 -61.5,77.35 73.75,4.65 209.5,-69.7 190.5,-205.28 29.5,21.93 28,40 31,59.44 12,-24 13,-94 -15,-128.51 29.67,16.5 45.5,17.5 66.5,7.5 -50.01432,-16.71838 -69.48026,-143.75803 10.84107,-142.20406 z" fill="#d95dff" />
      <path d="m 132.15,425.36 c 21.97609,-24.74602 38.83064,-33.86455 59.83041,-43.00041 57.02155,-48.42847 95.31972,-55.6797 173.61392,-34.8028 -73.38658,-46.03479 -184.43655,-44.63371 -233.44433,77.80321 z m 218.34,-17.75 c -50,2.33 -87.56,17.43 -102.61,118 -12,80 22.11,127.67 4.61,236.67 16.5,-29.5 37.42,-68.92 28.67,-124.09 8.5,7 14.5,11.93 14.5,11.93 -17,-57.33 -25.5,-125.5 -7,-167 18.5,-41.5 48.39,-55.27 66.89,-54 z m 22.34,-26.17 c -26,-23.84 -129.34,-44.17 -172.67,72.16 -43.33,116.33 -14,165.33 -52,251 -38,85.67 -82,105.83 -116,121.5 41.184616,-2.40763 95.70232,-21.58037 119.71122,-61.11041 66.90141,-127.13306 36.28928,-116.26188 60.28878,-226.17959 23.5,-107.63 64.77,-171.65 143.39,-142.66 z" fill="#fff" />
      <path d="m 428.69423,419.58444 c -39.45347,-100.85925 -228.19586,-164.98027 -296.54423,5.77556 23.5,-25 35.06,-31.65 52.25,-38.5 -81,80 -6.75,201.25 -110.75,299.75 51.5,-2 73.5,-28 82,-51.5 -7.83,73.17 -75.151226,174.5 -132.651226,190.5 68.5,3 117.481226,-39.67 130.151226,-59.5 -6.33,38.17 -29.5,63.75 -61.5,77.35 73.75,4.65 209.5,-69.7 190.5,-205.28 29.5,21.93 28,40 31,59.44 12,-24 13,-94 -15,-128.51 29.67,16.5 45.5,17.5 66.5,7.5 -50.01432,-16.71838 -69.48026,-143.75803 10.84107,-142.20406 z" style="fill:none;stroke:#8d10b2;stroke-width:7;stroke-miterlimit:20" />
    </g>
    <path d="m 564.76594,211.23 c 58.90511,-201.159989 367.20159,-162.810419 290.04211,100.93716 l -167.18886,99.05527 c 30.10056,68.08028 42.74331,211.75666 -73.54422,237.34544 -83.65374,18.4078 -143.80192,2.30003 -180.96461,-50.53692 -58.74668,99.97422 -69.02035,211.78256 -47.79036,267.81905 12.9,39.33 2.72,50.58 -22,53.58 -27.51,3.33 -41,3.59 -71.71,1.27 -21.55,-1.64 -31.32,-12.45 -32.19,-34.35 -4.73,-119.08 12.07,-181 58.25,-246.08 11.53,-16.25 23.6,-18.51 32.18747,-16.17369 -0.7452,-29.27011 -18.38851,-64.45666 -18.38851,-108.14777 0,-43.39541 20.14982,-105.8161 86.75128,-105.8161 40.32051,0 64.65161,45.47091 143.09384,27.33652 1.10499,-62.6846 -16.81237,-157.03695 3.45186,-226.23896 z" fill="#ff9916" />
    <path d="m 433.14768,597.86186 c -58.784,100.14331 -68.01906,211.56909 -47.82768,267.98814 13.94704,38.971 2.72049,50.58401 -22,53.58 -27.50951,3.33401 -41.00053,3.59701 -71.71,1.27 -21.55053,-1.63299 -31.32009,-12.45 -32.19,-34.35 -4.73009,-119.08 12.07043,-180.99969 58.25,-246.08 11.53043,-16.24969 23.6,-18.51 32.3,-16.17" fill="none" stroke="#b24c00" stroke-width="7" />
    <path fill="#b24c00" inkscape:original-d="m 543.16,497.12 c 42.57478,-33.9618 -7.62016,-186.08335 21.60594,-285.89 58.9051,-201.159993 367.20159,-162.810419 290.04211,100.93716 l -167.18886,99.05527 c 30.10056,68.08028 42.74331,211.75667 -73.54422,237.34544 -95.94511,21.11248 -160.96978,-3.1786 -195.91497,-75.95787" inkscape:path-effect="#path-effect4385" />
    <g>
      <path d="m 853.86,185.08 c 0,0 21.44,-9.52 22.76,-7.65 1.32,1.87 -18.46,14.4 -18.46,14.4" />
      <g clip-path="url(#clipPath4864)">
        <path d="m 816.66,292.11 c -5.25,-50.81 13.5,-100.25 40.67,-119.58 7.95,27 18.28,77.95 -3.78,134.85 -22.72,-1.11 -34.64,-10.38 -36.89,-15.27 z" fill="#fff" id="path194" />
        <g clip-path="url(#clipPath4848)">
          <ellipse cx="282.33429" cy="-817.39062" fill="url(#linearGradient8007)" id="path4482" rx="53.749294" ry="29.611988" transform="rotate(86.225659)" />
          <path d="m 866.82,259.59 -24.73,-8.93 -4.52,5.22 20.39,19.86" fill="#99beff" />
          <path d="m 867.52,245.12 -22.53,-1.93 -2.9,7.47 22.49,10.37" fill="#4c8dff" />
          <ellipse cx="264.29788" cy="-819.41815" rx="41.190582" ry="23.321581" transform="rotate(87.539811)" />
          <ellipse cx="169.90173" cy="842.1236" fill="#fff" rx="15.72" ry="9.8400002" transform="rotate(296.36)" />
          <ellipse cx="258.16895" cy="831.91809" fill="#fff" rx="8.0299997" ry="5.0599999" transform="rotate(303.41)" />
        </g>
      </g>
      <path d="m 847.19,185.27 c -3.45623,4.06477 -6.56389,8.41348 -9.29,13 -5.44978,9.27784 -9.75134,19.18385 -12.81,29.5 -1.59485,5.15307 -2.92987,10.38299 -4,15.67 -0.27,1.32 -0.55,2.64 -0.78,4 -0.23,1.36 -0.53,2.65 -0.74,4 -0.45,2.67 -0.85,5.35 -1.24,8 -0.7,5.38 -1.19,10.79333 -1.47,16.24 -0.29,5.46 -0.33,10.93 -0.2,16.43 -0.96037,-5.4238 -1.59484,-10.90029 -1.9,-16.4 -0.33684,-5.5209 -0.36021,-11.05646 -0.07,-16.58 l 0.31,-4.13 c 0.1,-1.38 0.27,-2.76 0.41,-4.14 0.31,-2.76 0.67,-5.51 1.18,-8.24 0.98156,-5.47195 2.24659,-10.88925 3.79,-16.23 3.13005,-10.72611 7.58791,-21.01916 13.27,-30.64 2.85724,-4.84956 6.11882,-9.44923 9.75,-13.75 3.70184,-4.31136 7.89277,-8.17607 12.48,-11.52 5.78314,-4.2157 13.05,-8.12 13.85,-7.13 0.8,0.99 -5.91247,7.41656 -10.975,11.2 -4.2103,3.14653 -8.12651,6.71015 -11.565,10.72 z" />
    </g>
    <g>
      <path d="m 828.43,362.18 c -8.9,13.68 -11.2,28 -9.52,45.43 -12.32,-8.34 -36,-30.25 -16.5,-63.5 4.5,9.5 10.04,14.89 26.02,18.07 z" fill="#bb1c76" />
      <path d="m 795.41,381.87 c 12.75,-1.52 23,8.68 18.44,21.49" fill="#ef6f2f" />
      <path d="m 816.67,292.11 c 12.48217,20.35561 43.71891,2.68856 48.22739,31.99749 6.08144,39.53449 -41.62145,52.64819 -62.75306,19.78536 -10.68176,20.58133 -12.88223,45.71665 16.06278,63.00715 -69.87788,22.70274 -126.36694,15.97666 -180.03711,-7.63 z" fill="#ff9916" />
      <path d="m 826.4,319 c 0,12.26 10.44,12.49 16.68,5.75 -7.08,0.86 -14.08,-0.53 -16.68,-5.75 z" fill="#b24c00" />
      <path fill="#b24c00" inkscape:original-d="m 816.67,292.11 c 12.48217,20.35561 43.71891,2.68856 48.22739,31.99749 6.08144,39.53449 -41.62145,52.64819 -62.75306,19.78536 -10.68176,20.58133 -12.88223,45.71665 16.06278,63.00715 -69.87788,22.70274 -126.36694,15.97666 -180.03711,-7.63" inkscape:path-effect="#path-effect5053" />
    </g>
    <g>
      <path d="m 638.17,259.01 113.63,65.36 c 0.77,-1.2 1.63,-2.36 2.33,-3.61 0.7,-1.25 1.46,-2.48 2.1,-3.77 1.36983,-2.54629 2.5659,-5.1823 3.58,-7.89 2.1328,-5.42675 3.71084,-11.05543 4.71,-16.8 1.03756,-5.77316 1.57953,-11.62448 1.62,-17.49 l -0.09,-4.41 -0.25,-4.4 -0.42,-4.4 c -0.19,-1.46 -0.43,-2.91 -0.64,-4.37 -1.90411,-11.72393 -5.68953,-23.06331 -11.21,-33.58 -1.37423,-2.65433 -2.90354,-5.22544 -4.58,-7.7 l -1.26,-1.86 -1.33,-1.82 c -0.86,-1.23 -1.83,-2.38 -2.76,-3.56 -3.81058,-4.70628 -8.1377,-8.96967 -12.9,-12.71 -4.80852,-3.79068 -10.12327,-6.89067 -15.79,-9.21 -0.71,-0.32 -1.44,-0.58 -2.18,-0.83 -0.74,-0.25 -1.46,-0.54 -2.21,-0.76 -1.52,-0.42 -2.98,-0.9 -4.52,-1.2 -3.08179,-0.70304 -6.22165,-1.12146 -9.38,-1.25 -1.57,-0.08 -3.14,-0.03 -4.72,0 -1.58,0.03 -3.14,0.26 -4.7,0.44 -6.24075,0.90395 -12.25942,2.95877 -17.75,6.06 -2.73239,1.50384 -5.31713,3.2616 -7.72,5.25 -9.62,7.9 -16.38,18.42 -20.81,29.51 -1.12,2.78 -2.04,5.62 -2.91,8.47 -0.87,2.85 -1.56,5.74 -2.18,8.65 -1.15093,5.81581 -1.87288,11.70835 -2.16,17.63 z m 10.6,-33.75 c 0,0 -27.77,-14.2 -29.21,-11.26 -1.44,2.94 26.5,18.37 26.5,18.37 m 0.53,8.79 c 0,0 -34.74,-7.69 -36,-4.33 -1.26,3.36 34.66,9.78 34.66,9.78 m -2.16,10.83 c 0,0 -32,2.33 -32,4.75 0,2.42 32,1.5 32,1.5" />
      <g clip-path="url(#clipPath4461)">
        <ellipse cx="651.25024" cy="373.95114" fill="#fff" id="ellipse170" rx="61.59" ry="84.029999" transform="rotate(351.31)" />
        <g clip-path="url(#clipPath4445)">
          <ellipse cx="666.6828" cy="358.46747" fill="url(#linearGradient8009)" id="ellipse172" rx="45.57" ry="65.18" transform="rotate(349.74)" />
          <path d="m 678.56,284.21 30.98,-25.94 7.81,2.47 -13.1,37.78" fill="#99beff" />
          <path d="m 671.67,261.48 32,-11.44 6.58,7.38 -24.13,24.87" fill="#4c8dff" />
          <ellipse cx="687.30804" cy="324.19687" rx="32.810001" ry="51.599998" transform="rotate(352.43)" />
          <ellipse cx="41.934101" cy="731.38202" fill="#fff" rx="23.950001" ry="13.52" transform="rotate(290.98)" />
          <ellipse cx="148.41644" cy="738.90253" fill="#fff" rx="10.3" ry="7.3899999" transform="rotate(300.59)" />
        </g>
      </g>
    </g>
    <g>
      <path d="m 613.83,78.94 c 17.67,-17 178.58,-101.33 259.46,-36.17 59.88,73.17 33.54,114.85 26.21,127.12 -7.33,12.27 -27.79,41.83 -44.4,46.94 12.39,-13.89 19.34,-42.63 16.2,-65.64 -16.14,21.75 -40.83,22.92 -65.48,23.32 -24.65,0.4 -75,3.1 -110.33,27.43 20.67,-22.33 18.5,-52.33 10.42,-67.83 -13.08,43.5 -45.42,59.17 -62.75,63.83 24,-27 10.33,-54.67 7,-56.67 -3.33,-2 -36.33,-62.33 -36.33,-62.33 z" fill="#d95dff" />
      <path d="m 857.27526,32.927432 c -20.84301,66.804343 -89.27627,77.237368 -146.89334,136.239618 l -7.15949,27.74792 20.23526,-9.6472 c 47.52616,-51.82301 122.11586,-69.83706 149.17512,-133.023629 29.34845,48.323689 22.95213,109.697489 -4.75535,152.824499 60.82313,-48.84357 56.38844,-138.217661 -10.6022,-174.141208 z" fill="#fff" />
      <path d="m 649.39,133 c 13.13,26.25 8.39,42.37 -6.23,65 36.25,-12.67 51.5,-32.33 62.75,-63.83 11.5,31.25 4.92,49.67 -10.42,67.83 83.83,-54.61 141.17,0 179.33,-55.5" style="fill:none;stroke:#8d10b2;stroke-width:7;stroke-miterlimit:10" />
      <path d="m 871.34108,142.90722 10.00171,5.45833 -8.17157,9.17552 z" fill="#d95dff" />
      <path fill="#8d10b2" inkscape:original-d="m 866.18,123.61 c 11.94012,31.09174 8.37793,65.59587 -14.69,94.70033 129.89878,-75.12695 44.48208,-309.807879 -241.16797,-140.878299" inkscape:path-effect="#path-effect4529" />
      <path d="m 576.83,260.94 c -57,-97 5.43,-199.49 17.33,-201 12.5,-1.58 60.33,31 59,104.67 z" fill="#ff9916" />
      <path fill="#b24c00" inkscape:original-d="m 576.83,260.94 c -57,-97 5.43,-199.49 17.33,-201 12.5,-1.58 60.33,31 59,104.67" inkscape:path-effect="#path-effect5040" />
      <path d="m 592.16,115.44 c -1.25,7.6 -2.42,15 -3.24,22.52 -0.82,7.52 -1.4,14.92 -1.67,22.39 -0.27,7.47 -0.28,15 -0.07,22.48 0.21,7.48 0.65,15.07 1,22.77 a 104.17,104.17 0 0 1 -5.69,-22.36 127.49,127.49 0 0 1 -1.22,-23.12 121.79,121.79 0 0 1 3,-23 90.91,90.91 0 0 1 7.89,-21.68 z" fill="#b24c00" />
    </g>
    <path fill="#b24c00" inkscape:original-d="m 342.9,652.38 c 20.48891,-34.28359 -11.43104,-77.66438 -11.43104,-136.43146 0,-43.39541 20.14982,-105.8161 86.75128,-105.8161 40.32051,0 64.65161,45.47091 143.28667,27.34317" inkscape:path-effect="#path-effect4421" />
    <g transform="matrix(1.9067623.27865659-.32103368 2.3624499 391.89746 491.34378)" inkscape:path-effect="#path-effect3700">
      <path fill="#ffbd4b" transform="rotate(44)" inkscape:original-d="m 15.4,0 a 15.4,24.700001 0 0 1 -15.4,24.700001 15.4,24.700001 0 0 1 -15.4,-24.700001 15.4,24.700001 0 0 1 15.4,-24.700001 15.4,24.700001 0 0 1 15.4,24.700001" />
      <path fill="#d95dff" inkscape:original-d="m 22.2,10.45 -6.75,-16.2 c -1,-2.4 -4.4,-0.95 -3.4,1.45 l 5.75,13.8 h -14.9 c -2.6,0 -2.6,3.7 0,3.7 h 17.6 c 1.8,0 2.2,-1.55 1.7,-2.75 z m -44.4,-20.9 6.75,16.2 c 1,2.4 4.4,0.95 3.4,-1.45 l -5.75,-13.8 h 14.9 c 2.6,0 2.6,-3.7 0,-3.7 h -17.6 c -1.8,0 -2.2,1.55 -1.7,2.75 z m 19.6,23.75 8.5,-25.5 c 0.8,-2.4 -2.5,-3.5 -3.3,-1.1 l -8.5,25.5 c -0.8,2.4 2.5,3.5 3.3,1.1 z" />
      <path fill="#fff" inkscape:original-d="m 5.0078125,-15.023438 c -1.0549838,-0.351661 -2.4103436,0.147047 -2.8828125,1.564454 l -8.5,25.5 c -0.4724689,1.417406 0.3122037,2.63076 1.3671875,2.982422 1.0549838,0.351661 2.4103436,-0.147047 2.8828125,-1.564454 l 8.5,-25.5 c 0.4724689,-1.417406 -0.3122037,-2.63076 -1.3671875,-2.982422 z m -0.3164063,0.947266 c 0.5950162,0.198339 1.0619062,0.736157 0.734375,1.71875 l -8.5,25.5 c -0.3275311,0.982594 -1.0221713,1.131933 -1.6171874,0.933594 -0.5950162,-0.198339 -1.0619062,-0.736157 -0.734375,-1.71875 l 8.5,-25.5 c 0.3275311,-0.982594 1.0221713,-1.131933 1.6171874,-0.933594 z m -25.1914062,0.376953 c -1.043519,0 -1.820338,0.505261 -2.162109,1.205078 -0.341772,0.699818 -0.297603,1.522082 0,2.236329 l 6.75,16.1992182 c 0.295564,0.7093537 0.807975,1.1878627 1.382812,1.4003907 0.574838,0.2125279 1.191775,0.1705974 1.724609,-0.056641 0.532835,-0.227238 0.992611,-0.6435307 1.242188,-1.2050781 0.249577,-0.5615473 0.270173,-1.2633026 -0.02539,-1.9726562 l -5.460937,-13.1074219 h 14.1484374 c 0.7685897,0 1.4083646,-0.2883147 1.828125,-0.7363281 0.41976031,-0.4480136 0.62304685,-1.0336636 0.62304685,-1.6132806 0,-0.579617 -0.20328654,-1.165268 -0.62304685,-1.613282 -0.4197604,-0.448013 -1.0595353,-0.736328 -1.828125,-0.736328 z m 0,1 h 17.5996094 c 0.5314102,0 0.8674166,0.174186 1.0976562,0.419922 0.2302397,0.245737 0.3535156,0.584305 0.3535156,0.929688 0,0.345383 -0.1232759,0.683951 -0.3535156,0.929687 -0.2302396,0.245737 -0.566246,0.419922 -1.0976562,0.419922 h -14.9003904 a 0.50005,0.50005 0 0 0 -0.460938,0.6914062 l 5.75,13.8007813 c 0.204436,0.4906463 0.17308,0.871313 0.03516,1.1816406 -0.137924,0.3103277 -0.401585,0.5561443 -0.71875,0.6914063 -0.317166,0.1352619 -0.675619,0.1546595 -0.988282,0.039063 -0.312662,-0.1155971 -0.600251,-0.3550568 -0.804687,-0.8457031 l -6.75,-16.2011723 c -0.202397,-0.485753 -0.208619,-1.036927 -0.02539,-1.41211 0.183229,-0.375182 0.507191,-0.644531 1.263672,-0.644531 z m 35.029297,5.3574221 c -0.574838,-0.2125279 -1.191775,-0.1705974 -1.724609,0.056641 -0.532835,0.227238 -0.992611,0.6435307 -1.242188,1.2050781 -0.249577,0.5615473 -0.270173,1.2633026 0.02539,1.9726562 l 5.460937,13.1074219 h -14.1484374 c -0.7685897,0 -1.4083646,0.2883147 -1.828125,0.7363281 -0.41976031,0.4480136 -0.62304685,1.0336636 -0.62304685,1.6132806 0,0.579617 0.20328654,1.165268 0.62304685,1.613282 0.4197604,0.448013 1.0595353,0.736328 1.828125,0.736328 h 17.5996094 c 1.043519,0 1.820338,-0.505261 2.162109,-1.205078 0.341772,-0.699818 0.297603,-1.522082 0,-2.236329 l -6.75,-16.1992179 c -0.295564,-0.7093537 -0.807975,-1.1878627 -1.382812,-1.4003907 z m -0.345703,0.9375 c 0.312662,0.1155971 0.600251,0.3550568 0.804687,0.8457031 l 6.75,16.2011718 c 0.202397,0.485753 0.208619,1.036927 0.02539,1.41211 -0.183229,0.375182 -0.507191,0.644531 -1.263672,0.644531 h -17.5996094 c -0.5314102,0 -0.8674166,-0.174186 -1.0976562,-0.419922 -0.2302397,-0.245737 -0.3535157,-0.584305 -0.3535156,-0.929688 0,-0.345383 0.1232759,-0.683951 0.3535156,-0.929687 0.2302396,-0.245737 0.566246,-0.419922 1.0976562,-0.419922 h 14.9003904 a 0.50005,0.50005 0 0 0 0.460938,-0.6914062 l -5.75,-13.8007813 c -0.204436,-0.4906463 -0.17308,-0.871313 -0.03516,-1.1816406 0.137924,-0.3103277 0.401585,-0.5561443 0.71875,-0.6914063 0.317166,-0.1352619 0.675619,-0.1546595 0.988282,-0.039063 z" />
    </g>
    <g>
      <path d="m 504.66,504.11 c -94,-10.5 -159.82,-65.09 -154.17,-96.5 3,-16.67 15.67,-27.5 48.67,-22.5 -59.08,-23.67 -108.5,-99 -95.33,-120.17 12.92,-20.78 52.86,0.33 69.33,21.67 -42.5,-107 -136.62,-138.55 -124.62,-166.21 7.67,-17.67 46.12,-14.79 81.62,13.54 45.23,36.1 66.5,57.17 97,127 -19,-142.83 -118,-181.1 -90.06,-217 20.06,-25.81 67.46,4.9 97.56,47.69 31.55,44.85 43.5,108.71 43.5,154 0,81.51 12,192 45,218" fill="#ff9916" />
      <path fill="#b24c00" inkscape:original-d="m 504.66,504.11 c -94,-10.5 -159.8209,-65.09016 -154.17,-96.5 2.9991,-16.67016 15.67,-27.5 48.67,-22.5 -59.08,-23.67 -108.49732,-98.99833 -95.33,-120.17 12.92269,-20.77833 52.86,0.33 69.33,21.67 -42.5,-107 -136.62208,-138.5509 -124.62,-166.21 7.66792,-17.6709 46.12111,-14.79139 81.62,13.54 45.23111,36.09861 66.5,57.17 97,127 -19,-142.83 -117.99013,-181.092323 -90.06,-217 20.06987,-25.802326 67.4597,4.900212 97.56,47.69 31.5497,44.85021 43.5,108.71 43.5,154 0,81.51 12,192 45,218" inkscape:path-effect="#path-effect4447" />
      <path d="m 426.29,412.24 c -65.75,-50.83 -57.06163,-78.47165 -47.23,-88.18 9.30837,-9.19165 41.56,-0.94 67.06,43.31 z" fill="#ff9916" />
      <path d="m 442.36963,489.837 c -53.23974,-30.66338 -51.29721,-74.90677 -16.07963,-77.597 -65.75,-50.83 -57.06163,-78.47165 -47.23,-88.18 9.30837,-9.19165 41.56,-0.94 67.06,43.31 -8.5,-48 -10.00089,-83.81131 4.68,-93.75 11.81911,-8.00131 25.85512,2.97509 29.14512,27.97509" style="fill:none;stroke:#b24c00;stroke-width:7;stroke-miterlimit:20" />
    </g>
    <g>
      <path d="m 870.71667,562.98032 -190.99378,232.11947 c 28.15832,128.34675 -41.70785,169.24153 -108.24262,114.49504 -66.53458,-54.74642 -39.85995,-131.18028 91.50728,-128.26538 l 190.99377,-232.11935 z" fill="#a176db" id="path4672" opacity=".1" />
      <path d="m 860.0951,568.67573 c 46.33541,-62.82031 134.19525,-43.31355 133.498,15.98433 -0.39288,33.4123 -35.73467,73.27301 -120.11062,82.5235 l 3.69669,69.19878 c 101.97735,-11.14983 166.07853,-86.35521 163.51403,-152.09448 -4.0794,-104.5762 -118.31869,-113.9915 -190.86868,-24.37675 -64.9854,80.27086 -113.6406,140.04372 -181.91973,223.3254 -5.89667,7.19231 -106.00359,-7.42578 -124.51883,55.15656 -13.90991,47.01611 69.5471,118.4597 116.89149,76.27346 38.17995,-34.02027 9.25654,-111.60875 14.5,-119.5 19.14381,-28.81088 158.45208,-190.06718 185.31765,-226.4908 z" fill="#6dc6fb" />
      <use xlink:href="#path4672" />
      <g transform="rotate(39.448422-880.90266 1288.2999)scale(2.4713968)">
        <g fill="#54a2e1">
          <path d="m 20.3,-9 c -5.5,14 -14.5,14.6 -19.9,14.3 l -0.5,1.9 c 6.6,1.8 15.7,1.2 21.7,-7.6 z" />
          <path d="m -2.3557714,22.080316 c -9.3743556,-11.76314 -5.3939709,-19.8573687 -2.4341632,-24.3839058 l -1.3954483,-1.3830127 c -4.8588461,4.8157676 -8.8892301,12.9965988 -4.2682071,22.5927515 z" />
          <path d="m -17.944229,-13.080316 c 14.874356,-2.23686 19.8939713,5.2573687 22.3341636,10.0839058 l 1.8954483,-0.5169873 c -1.7411543,-6.6157675 -6.81076951,-14.1965985 -17.4317929,-14.9927515 z" />
        </g>
        <g fill="#5a318e" transform="rotate(180)">
          <path d="m 20.3,-9 c -5.5,14 -14.5,14.6 -19.9,14.3 l -0.5,1.9 c 6.6,1.8 15.7,1.2 21.7,-7.6 z" />
          <path d="m -2.3557714,22.080316 c -9.3743556,-11.76314 -5.3939709,-19.8573687 -2.4341632,-24.3839058 l -1.3954483,-1.3830127 c -4.8588461,4.8157676 -8.8892301,12.9965988 -4.2682071,22.5927515 z" />
          <path d="m -17.944229,-13.080316 c 14.874356,-2.23686 19.8939713,5.2573687 22.3341636,10.0839058 l 1.8954483,-0.5169873 c -1.7411543,-6.6157675 -6.81076951,-14.1965985 -17.4317929,-14.9927515 z" />
        </g>
        <path d="m -10.18,4.52 1.18,-11.07 10.17,-4.52 9.01,6.55 -1.18,11.07 -10.17,4.52 z" fill="none" stroke="#576ab7" />
      </g>
    </g>
    <g>
      <path d="m 559.49,592.77 c -15.59438,37.83289 -30.7768,136.49306 101.26195,100.84 26.74871,-24.5885 20.95887,-57.05443 -34.59195,-55.51475 0.41708,-21.03188 -3.88397,-37.46668 -15.66,-49.97525" fill="#ff9916" />
      <path fill="#b24c00" inkscape:original-d="m 559.49,592.77 c -15.59438,37.83289 -30.7768,136.49306 101.26195,100.84 26.74871,-24.5885 20.95887,-57.05443 -34.59195,-55.51475 0.41708,-21.03188 -3.88397,-37.46668 -15.66,-49.97525" inkscape:path-effect="#path-effect4493" />
      <path d="m 651.1,662.94 c 5.24394,45.8272 -29.13979,51.74556 -24.86,97.67 6.71455,72.05063 60.54875,117.4725 86.30602,69.69602 22.02497,-40.85355 26.54895,-118.46935 9.41244,-160.1531 -20.44903,-49.74127 -67.41324,-58.88801 -124.46846,-35.80292" fill="#ff9916" />
      <path fill="#b24c00" inkscape:original-d="m 651.1,662.94 c 5.24394,45.8272 -29.13979,51.74556 -24.86,97.67 6.71455,72.05063 60.54875,117.4725 86.30602,69.69602 22.02497,-40.85355 26.54895,-118.46935 9.41244,-160.1531 -20.44903,-49.74127 -67.41324,-58.88801 -124.46846,-35.80292" inkscape:path-effect="#path-effect4491" />
    </g>
    <path d="m 894.91481,664.00114 c -6.76011,1.28713 -13.90088,2.35672 -21.43233,3.18242 -194.17794,21.28854 -386.69482,-167.44435 -336.23329,-241.482 1.4132,-2.07345 2.96222,-4.01143 4.64367,-5.81158 l -14.07164,-12.17425 c -1.53021,1.9066 -2.99863,3.87765 -4.40415,5.91267 -81.05332,117.35529 134.3552,346.74309 353.7621,322.75394 7.66496,-0.83806 15.11594,-2.038 22.34072,-3.56861 z" fill="#6dc6fb" />
  </g>
</svg>