<?xml version="1.0" encoding="UTF-8" standalone="no"?>
<!-- Created with Inkscape (http://www.inkscape.org/) -->

<svg
   xmlns:dc="http://purl.org/dc/elements/1.1/"
   xmlns:cc="http://creativecommons.org/ns#"
   xmlns:rdf="http://www.w3.org/1999/02/22-rdf-syntax-ns#"
   xmlns:svg="http://www.w3.org/2000/svg"
   xmlns="http://www.w3.org/2000/svg"
   xmlns:xlink="http://www.w3.org/1999/xlink"
   xmlns:sodipodi="http://sodipodi.sourceforge.net/DTD/sodipodi-0.dtd"
   xmlns:inkscape="http://www.inkscape.org/namespaces/inkscape"
   id="svg2985"
   version="1.1"
   inkscape:version="0.48.2 r9819"
   width="1920"
   height="1080"
   sodipodi:docname="Pinkie Pie Likes Capablanca Chess.svg"
   inkscape:export-filename="C:\Users\tan jierui\Pictures\Pinkie Pie Likes Capablanca Chess.png"
   inkscape:export-xdpi="1027.8522"
   inkscape:export-ydpi="1027.8522">
  <metadata
     id="metadata2991">
    <rdf:RDF>
      <cc:Work
         rdf:about="">
        <dc:format>image/svg+xml</dc:format>
        <dc:type
           rdf:resource="http://purl.org/dc/dcmitype/StillImage" />
        <dc:title />
      </cc:Work>
    </rdf:RDF>
  </metadata>
  <defs
     id="defs2989">
    <linearGradient
       inkscape:collect="always"
       id="linearGradient3811">
      <stop
         style="stop-color:#186f98;stop-opacity:1;"
         offset="0"
         id="stop3813" />
      <stop
         style="stop-color:#186f98;stop-opacity:0;"
         offset="1"
         id="stop3815" />
    </linearGradient>
    <clipPath
       clipPathUnits="userSpaceOnUse"
       id="clipPath3851">
      <g
         id="g3853">
        <path
           sodipodi:type="arc"
           style="color:#000000;fill:#82d1f4;fill-opacity:1;stroke:none;stroke-width:0.5;marker:none;visibility:visible;display:inline;overflow:visible;enable-background:accumulate"
           id="path3855"
           sodipodi:cx="1188.5143"
           sodipodi:cy="431.94653"
           sodipodi:rx="35.507336"
           sodipodi:ry="54.010727"
           d="m 1224.0216,431.94653 a 35.507336,54.010727 0 1 1 -71.0147,0 35.507336,54.010727 0 1 1 71.0147,0 z"
           transform="matrix(0.99114126,-0.13281191,0.13281191,0.99114126,-49.336908,158.10679)" />
        <path
           transform="matrix(0.99114126,-0.13281191,0.13281191,0.99114126,-49.336908,158.10679)"
           d="m 1224.0216,431.94653 a 35.507336,54.010727 0 1 1 -71.0147,0 35.507336,54.010727 0 1 1 71.0147,0 z"
           sodipodi:ry="54.010727"
           sodipodi:rx="35.507336"
           sodipodi:cy="431.94653"
           sodipodi:cx="1188.5143"
           id="path3857"
           style="color:#000000;fill:url(#linearGradient3859);fill-opacity:1;stroke:none;stroke-width:0.5;marker:none;visibility:visible;display:inline;overflow:visible;enable-background:accumulate"
           sodipodi:type="arc" />
      </g>
    </clipPath>
    <linearGradient
       inkscape:collect="always"
       xlink:href="#linearGradient3811"
       id="linearGradient3859"
       gradientUnits="userSpaceOnUse"
       x1="1187.3319"
       y1="394.31729"
       x2="1187.7939"
       y2="472.37589" />
    <clipPath
       clipPathUnits="userSpaceOnUse"
       id="clipPath3880">
      <path
         transform="matrix(0.99463695,-0.10342796,0.10342796,0.99463695,-42.194253,116.13133)"
         d="m 1216.1741,434.44455 a 39.971348,68.158157 0 1 1 -79.9427,0 39.971348,68.158157 0 1 1 79.9427,0 z"
         sodipodi:ry="68.158157"
         sodipodi:rx="39.971348"
         sodipodi:cy="434.44455"
         sodipodi:cx="1176.2028"
         id="path3882"
         style="color:#000000;fill:#ffffff;stroke:none;stroke-width:0.5;marker:none;visibility:visible;display:inline;overflow:visible;enable-background:accumulate"
         sodipodi:type="arc" />
    </clipPath>
    <linearGradient
       inkscape:collect="always"
       xlink:href="#linearGradient3811"
       id="linearGradient3974"
       gradientUnits="userSpaceOnUse"
       x1="1187.3319"
       y1="394.31729"
       x2="1187.7939"
       y2="472.37589" />
    <clipPath
       clipPathUnits="userSpaceOnUse"
       id="clipPath3986">
      <g
         style="stroke:none"
         transform="matrix(-0.99908785,-0.0427019,-0.0427019,0.99908785,2502.9512,53.610601)"
         id="g3988">
        <path
           transform="matrix(0.99114126,-0.13281191,0.13281191,0.99114126,-49.336908,158.10679)"
           d="m 1224.0216,431.94653 c 0,29.8293 -15.8972,54.01073 -35.5073,54.01073 -19.6102,0 -35.5074,-24.18143 -35.5074,-54.01073 0,-29.8293 15.8972,-54.01072 35.5074,-54.01072 19.6101,0 35.5073,24.18142 35.5073,54.01072 z"
           sodipodi:ry="54.010727"
           sodipodi:rx="35.507336"
           sodipodi:cy="431.94653"
           sodipodi:cx="1188.5143"
           id="path3990"
           style="color:#000000;fill:#82d1f4;fill-opacity:1;stroke:none;stroke-width:0.5;marker:none;visibility:visible;display:inline;overflow:visible;enable-background:accumulate"
           sodipodi:type="arc" />
        <path
           sodipodi:type="arc"
           style="color:#000000;fill:url(#linearGradient3994);fill-opacity:1;stroke:none;stroke-width:0.5;marker:none;visibility:visible;display:inline;overflow:visible;enable-background:accumulate"
           id="path3992"
           sodipodi:cx="1188.5143"
           sodipodi:cy="431.94653"
           sodipodi:rx="35.507336"
           sodipodi:ry="54.010727"
           d="m 1224.0216,431.94653 c 0,29.8293 -15.8972,54.01073 -35.5073,54.01073 -19.6102,0 -35.5074,-24.18143 -35.5074,-54.01073 0,-29.8293 15.8972,-54.01072 35.5074,-54.01072 19.6101,0 35.5073,24.18142 35.5073,54.01072 z"
           transform="matrix(0.99114126,-0.13281191,0.13281191,0.99114126,-49.336908,158.10679)" />
      </g>
    </clipPath>
    <linearGradient
       inkscape:collect="always"
       xlink:href="#linearGradient3811"
       id="linearGradient3994"
       gradientUnits="userSpaceOnUse"
       x1="1187.3319"
       y1="394.31729"
       x2="1187.7939"
       y2="472.37589" />
    <clipPath
       clipPathUnits="userSpaceOnUse"
       id="clipPath4033">
      <path
         sodipodi:type="arc"
         style="color:#000000;fill:#ffffff;stroke:none;stroke-width:0.5;marker:none;visibility:visible;display:inline;overflow:visible;enable-background:accumulate"
         id="path4035"
         sodipodi:cx="1176.2028"
         sodipodi:cy="434.44455"
         sodipodi:rx="39.911594"
         sodipodi:ry="68.158157"
         d="m 1216.1144,434.44455 a 39.911594,68.158157 0 1 1 -79.8232,0 39.911594,68.158157 0 1 1 79.8232,0 z"
         transform="matrix(-0.98834432,-0.15223503,-0.15223503,0.98834432,2538.2868,179.64343)" />
    </clipPath>
    <clipPath
       clipPathUnits="userSpaceOnUse"
       id="clipPath3858">
      <path
         style="font-size:medium;font-style:normal;font-variant:normal;font-weight:normal;font-stretch:normal;text-indent:0;text-align:start;text-decoration:none;line-height:normal;letter-spacing:normal;word-spacing:normal;text-transform:none;direction:ltr;block-progression:tb;writing-mode:lr-tb;text-anchor:start;baseline-shift:baseline;color:#000000;fill:none;stroke:#000000;stroke-width:1;stroke-miterlimit:4;stroke-dasharray:none;marker:none;visibility:visible;display:inline;overflow:visible;enable-background:accumulate;font-family:Sans;-inkscape-font-specification:Sans"
         d="m 1120.9341,232.95323 c 34.5835,-25.33251 64.542,33.74495 104.0293,66.35546 6.0664,-0.91396 12.0707,-1.40244 17.9741,-1.40244 33.4176,0 60.5081,11.21113 85.175,29.09429 246.4708,170.33964 -676.01306,296.24802 -207.1784,-94.04731 z"
         id="path3860"
         inkscape:connector-curvature="0"
         sodipodi:nodetypes="ccscc" />
    </clipPath>
    <clipPath
       clipPathUnits="userSpaceOnUse"
       id="clipPath3887">
      <path
         style="font-size:medium;font-style:normal;font-variant:normal;font-weight:normal;font-stretch:normal;text-indent:0;text-align:start;text-decoration:none;line-height:normal;letter-spacing:normal;word-spacing:normal;text-transform:none;direction:ltr;block-progression:tb;writing-mode:lr-tb;text-anchor:start;baseline-shift:baseline;color:#000000;fill:none;stroke:#000000;stroke-width:1;stroke-miterlimit:4;stroke-dasharray:none;marker:none;visibility:visible;display:inline;overflow:visible;enable-background:accumulate;font-family:Sans;-inkscape-font-specification:Sans"
         d="m 1321.1978,322.20992 c 2.6475,1.7485 5.2642,3.57566 7.8546,5.4761 l 30.4728,81.07256 -323.0898,107.42276 -10.5938,-317.67091 z"
         id="path3889"
         inkscape:connector-curvature="0"
         sodipodi:nodetypes="cccccc" />
    </clipPath>
    <clipPath
       clipPathUnits="userSpaceOnUse"
       id="clipPath3895">
      <path
         style="font-size:medium;font-style:normal;font-variant:normal;font-weight:normal;font-stretch:normal;text-indent:0;text-align:start;text-decoration:none;line-height:normal;letter-spacing:normal;word-spacing:normal;text-transform:none;direction:ltr;block-progression:tb;writing-mode:lr-tb;text-anchor:start;baseline-shift:baseline;color:#000000;fill:none;stroke:#000000;stroke-width:1;stroke-miterlimit:4;stroke-dasharray:none;marker:none;visibility:visible;display:inline;overflow:visible;enable-background:accumulate;font-family:Sans;-inkscape-font-specification:Sans"
         d="m 1288.8628,305.76743 c 4.8565,1.746 9.582,3.75976 14.1968,6.01773 l -4.2611,52.18618 -23.1589,-2.65758 z"
         id="path3897"
         inkscape:connector-curvature="0"
         sodipodi:nodetypes="ccccc" />
    </clipPath>
    <clipPath
       clipPathUnits="userSpaceOnUse"
       id="clipPath4097">
      <path
         sodipodi:nodetypes="ccc"
         inkscape:connector-curvature="0"
         id="path4099"
         d="m 1252.219,683.52154 c -27.4252,-22.08436 -80.4794,-48.20618 -123.287,-63.59013 -203.95384,84.87626 46.8358,338.95788 123.287,63.59013 z"
         style="fill:none;stroke:#000000" />
    </clipPath>
    <linearGradient
       inkscape:collect="always"
       xlink:href="#linearGradient3811"
       id="linearGradient4261"
       gradientUnits="userSpaceOnUse"
       x1="1189.4067"
       y1="394.95535"
       x2="1191.072"
       y2="472.09503" />
    <linearGradient
       inkscape:collect="always"
       xlink:href="#linearGradient3811"
       id="linearGradient4263"
       gradientUnits="userSpaceOnUse"
       x1="1194.1482"
       y1="398.79102"
       x2="1193.111"
       y2="468.97159" />
  </defs>
  <sodipodi:namedview
     pagecolor="#ffffff"
     bordercolor="#666666"
     borderopacity="1"
     objecttolerance="10"
     gridtolerance="10"
     guidetolerance="10"
     inkscape:pageopacity="0"
     inkscape:pageshadow="2"
     inkscape:window-width="1366"
     inkscape:window-height="706"
     id="namedview2987"
     showgrid="false"
     fit-margin-top="0"
     fit-margin-left="0"
     fit-margin-right="0"
     fit-margin-bottom="0"
     inkscape:zoom="0.465625"
     inkscape:cx="922.41611"
     inkscape:cy="540"
     inkscape:window-x="-8"
     inkscape:window-y="-8"
     inkscape:window-maximized="1"
     inkscape:current-layer="layer2" />
  <g
     inkscape:groupmode="layer"
     id="layer2"
     inkscape:label="Drawing"
     style="display:inline">
    <path
       sodipodi:type="arc"
       style="fill:#a9b7bc;fill-opacity:1;stroke:none"
       id="path3163"
       sodipodi:cx="1087.7853"
       sodipodi:cy="992.48322"
       sodipodi:rx="210.4698"
       sodipodi:ry="46.711411"
       d="m 1298.2551,992.48322 a 210.4698,46.711411 0 1 1 -420.93962,0 210.4698,46.711411 0 1 1 420.93962,0 z"
       transform="translate(-11.81208,-7.5167785)" />
    <g
       id="g3989">
      <path
         sodipodi:nodetypes="cccsccc"
         inkscape:connector-curvature="0"
         id="path3978"
         d="m 1287.7852,562.68456 c 11.8121,41.07383 31.9463,41.07383 44.2953,20.40269 -16.9127,-5.10067 -22.2818,-18.25504 -22.2818,-18.25504 0,0 35.4837,13.1453 37.8523,-41.87919 1.1214,-26.05072 -7.7852,-37.58389 -7.7852,-37.58389 l 3.2215,-16.10739 c 25.4923,7.83444 26.7865,-63.72007 23.6241,-89.93289 l -31.4094,-1.61073 z"
         style="fill:#ed458b;fill-opacity:1;stroke:none" />
      <path
         inkscape:connector-curvature="0"
         id="path3986"
         d="m 1303.6242,537.71812 10.0671,2.28188 -4.8322,-9.93289 z"
         style="fill:#be1d77;fill-opacity:1;stroke:none" />
      <path
         sodipodi:nodetypes="cccsccccccsccc"
         inkscape:connector-curvature="0"
         id="path3976"
         d="m 1292.7241,567.08657 c 9.0779,35.54505 30.5396,26.54411 35.6875,17.84377 -9.85,-1.92973 -15.9392,-7.69065 -22.1311,-24.02944 34.6064,6.28201 36.8961,-10.77774 39.9223,-42.24959 1.2279,-12.77048 -3.0113,-25.06129 -9.2901,-32.74527 l 4.2954,-23.62416 c 24.4656,10.34547 26.2307,-41.92264 23.8926,-82.68457 l 3.2214,-8.32214 c 0,0 10.2014,103.08724 -24.6979,103.62416 l -1.8792,9.12751 c 0,0 9.1275,8.59061 7.7852,35.16779 -2.0673,40.92947 -14.7651,52.88591 -35.7047,49.39597 8.0537,11.54363 22.2819,12.08054 22.2819,12.08054 -18.1169,35.69939 -41.4265,14.47942 -46.9799,-7.51678 z"
         style="fill:#be1d77;fill-opacity:1;stroke:none" />
    </g>
    <g
       id="g3970"
       transform="translate(1.5661691e-4,0)">
      <path
         sodipodi:nodetypes="ccc"
         inkscape:connector-curvature="0"
         id="path3966"
         d="m 1184.902,559.49349 c -61.917,14.25376 -86.1321,-63.99647 -48.216,-140.09256 z"
         style="fill:#ed458b;fill-opacity:1;stroke:#be1d77;stroke-width:5;stroke-linecap:butt;stroke-linejoin:miter;stroke-miterlimit:4;stroke-opacity:1;stroke-dasharray:none" />
      <path
         sodipodi:nodetypes="cc"
         inkscape:connector-curvature="0"
         id="path3968"
         d="m 1175.0312,562.15107 c -11.8521,-10.58068 -16.9428,-32.35568 -15.9456,-49.35511"
         style="fill:none;stroke:#be1d77;stroke-width:2;stroke-linecap:butt;stroke-linejoin:miter;stroke-miterlimit:4;stroke-opacity:1;stroke-dasharray:none" />
    </g>
    <path
       sodipodi:nodetypes="csscc"
       inkscape:connector-curvature="0"
       id="path4173"
       d="m 949.53685,822.48012 c -19.24406,41.98642 -43.91466,131.05537 -30.04516,155.07804 9.23737,15.9996 100.96061,12.45297 104.12941,0.62667 3.4044,-12.70546 -36.50997,-52.08055 -11.2752,-155.16779 z"
       style="fill:#ec9dc4;fill-opacity:1;stroke:#eb81b4;stroke-width:6;stroke-linecap:butt;stroke-linejoin:miter;stroke-miterlimit:4;stroke-opacity:1;stroke-dasharray:none" />
    <path
       style="fill:#f3b6cf;fill-opacity:1;stroke:#eb81b4;stroke-width:6;stroke-linecap:butt;stroke-linejoin:miter;stroke-miterlimit:4;stroke-opacity:1;stroke-dasharray:none"
       d="m 1001.3423,852.34899 c -26.84566,70.87249 -20.86659,145.60565 -15.57049,153.02021 10.73826,15.0335 95.08619,14.5108 98.25499,2.6845 3.4044,-12.70546 -36.51,-52.08055 -11.2752,-155.16779 z"
       id="path4167"
       inkscape:connector-curvature="0"
       sodipodi:nodetypes="csscc" />
    <path
       sodipodi:nodetypes="cssscc"
       inkscape:connector-curvature="0"
       id="path4165"
       d="m 1137.9113,745.35105 c -45.2668,97.92424 -56.4396,206.72982 -49.4719,214.90059 15.5583,18.24483 88.972,3.6212 92.6424,-4.41777 7.3155,-16.02212 -8.4184,-21.35623 -4.7388,-102.87719 1.5939,-35.31283 11.3666,-90.54033 16.3504,-106.74532 z"
       style="fill:#ec9dc4;fill-opacity:1;stroke:#eb81b4;stroke-width:6;stroke-linecap:butt;stroke-linejoin:miter;stroke-miterlimit:4;stroke-opacity:1;stroke-dasharray:none" />
    <path
       style="fill:#f3b6cf;fill-opacity:1;stroke:#eb81b4;stroke-width:6;stroke-linecap:butt;stroke-linejoin:miter;stroke-miterlimit:4;stroke-opacity:1;stroke-dasharray:none"
       d="m 1180.7262,516.59251 -5.3152,84.28333 91.1171,36.44685 53.9109,-145.78738 z"
       id="path3974"
       inkscape:connector-curvature="0"
       sodipodi:nodetypes="ccccc" />
    <path
       sodipodi:type="arc"
       style="fill:#f3b6cf;fill-opacity:1;stroke:#eb81b4;stroke-width:6;stroke-miterlimit:4;stroke-opacity:1;stroke-dasharray:none"
       id="path3935"
       sodipodi:cx="1238.0538"
       sodipodi:cy="409.52991"
       sodipodi:rx="112.22051"
       sodipodi:ry="130.06429"
       d="m 1350.2743,409.52991 a 112.22051,130.06429 0 1 1 -224.441,0 112.22051,130.06429 0 1 1 224.441,0 z"
       transform="translate(3.7965464,16.704804)" />
    <g
       id="g3961">
      <path
         sodipodi:nodetypes="cccc"
         inkscape:connector-curvature="0"
         id="path3959"
         d="m 1133.6913,409.9329 47.7852,-90.73826 -73.2886,5.10067 c 0.9734,28.49567 6.2209,72.67904 25.5034,85.63759 z"
         style="fill:#f3b6cf;fill-opacity:1;stroke:none" />
      <path
         sodipodi:nodetypes="cccc"
         inkscape:connector-curvature="0"
         id="path3955"
         d="m 1136.9127,372.349 c -5.3691,-6.58262 -11.2751,-24.80084 -12.3489,-37.04697 l 7.7852,-1.34229 c -3.4222,11.91244 0.303,26.82835 4.5637,38.38926 z"
         style="fill:#eb81b4;fill-opacity:1;stroke:none" />
      <path
         sodipodi:nodetypes="cccc"
         inkscape:connector-curvature="0"
         id="path3957"
         d="m 1137.4496,412.349 c -19.7737,-6.67343 -28.6022,-31.54586 -30.067,-67.11409 l 5.3691,0.53691 c 0.5993,22.59296 5.6109,48.93026 24.6979,66.57718 z"
         style="fill:#eb81b4;fill-opacity:1;stroke:none" />
    </g>
    <g
       id="g3884">
      <path
         style="fill:#000000;stroke:none"
         d="m 1145.4679,460.29776 1.3181,-3.78481 c -9.8289,-4.06846 -27.3504,-5.61052 -26.6084,7.0607 7.2551,-7.61939 16.2611,-6.79293 25.2903,-3.27589 z"
         id="path3823"
         inkscape:connector-curvature="0"
         sodipodi:nodetypes="cccc" />
      <path
         sodipodi:nodetypes="cccc"
         inkscape:connector-curvature="0"
         id="path3827"
         d="m 1155.1812,461.20183 -0.9286,-3.04342 c -13.6814,2.79078 -22.3363,7.52245 -19.1309,18.78973 2.3392,-10.25766 10.5015,-14.15219 20.0595,-15.74631 z"
         style="fill:#000000;stroke:none" />
      <path
         style="fill:#000000;stroke:none"
         d="m 1144.2567,454.33571 1.695,-2.69292 c -11.059,-8.52447 -21.0558,-12.22947 -26.2213,-2.81417 9.2896,-4.93913 17.0693,-0.68076 24.5263,5.50709 z"
         id="path3829"
         inkscape:connector-curvature="0"
         sodipodi:nodetypes="cccc" />
      <path
         transform="matrix(0.99463695,-0.10342796,0.10342796,0.99463695,-42.194253,116.13133)"
         d="m 1216.1741,434.44455 a 39.971348,68.158157 0 1 1 -79.9427,0 39.971348,68.158157 0 1 1 79.9427,0 z"
         sodipodi:ry="68.158157"
         sodipodi:rx="39.971348"
         sodipodi:cy="434.44455"
         sodipodi:cx="1176.2028"
         id="path3017"
         style="color:#000000;fill:#ffffff;stroke:none;stroke-width:0.5;marker:none;visibility:visible;display:inline;overflow:visible;enable-background:accumulate"
         sodipodi:type="arc" />
      <g
         clip-path="url(#clipPath3880)"
         id="g3861">
        <g
           id="g3819">
          <path
             transform="matrix(0.99114126,-0.13281191,0.13281191,0.99114126,-49.336908,158.10679)"
             d="m 1224.0216,431.94653 a 35.507336,54.010727 0 1 1 -71.0147,0 35.507336,54.010727 0 1 1 71.0147,0 z"
             sodipodi:ry="54.010727"
             sodipodi:rx="35.507336"
             sodipodi:cy="431.94653"
             sodipodi:cx="1188.5143"
             id="path3789"
             style="color:#000000;fill:#82d1f4;fill-opacity:1;stroke:none;stroke-width:0.5;marker:none;visibility:visible;display:inline;overflow:visible;enable-background:accumulate"
             sodipodi:type="arc" />
          <path
             sodipodi:type="arc"
             style="color:#000000;fill:url(#linearGradient4261);fill-opacity:1;stroke:none;stroke-width:0.5;marker:none;visibility:visible;display:inline;overflow:visible;enable-background:accumulate"
             id="path3809"
             sodipodi:cx="1188.5143"
             sodipodi:cy="431.94653"
             sodipodi:rx="35.507336"
             sodipodi:ry="54.010727"
             d="m 1224.0216,431.94653 a 35.507336,54.010727 0 1 1 -71.0147,0 35.507336,54.010727 0 1 1 71.0147,0 z"
             transform="matrix(0.99114126,-0.13281191,0.13281191,0.99114126,-49.336908,158.10679)" />
        </g>
        <g
           id="g3847"
           clip-path="url(#clipPath3851)">
          <path
             sodipodi:nodetypes="ccccc"
             inkscape:connector-curvature="0"
             id="path3797"
             d="m 1148.8879,452.69159 11.1027,19.93457 19.43,-20.43925 -3.7851,-8.3271 z"
             style="fill:#e1f4fd;fill-opacity:1;stroke:none" />
          <path
             sodipodi:nodetypes="ccccc"
             inkscape:connector-curvature="0"
             id="path3795"
             d="m 1143.3365,442.59813 30.2803,-2.52336 2.271,6.05607 -29.271,13.8785 z"
             style="fill:#a2def8;fill-opacity:1;stroke:none" />
        </g>
        <path
           sodipodi:type="arc"
           style="color:#000000;fill:#000000;stroke:none;stroke-width:0.5;marker:none;visibility:visible;display:inline;overflow:visible;enable-background:accumulate"
           id="path3787"
           sodipodi:cx="1191.1908"
           sodipodi:cy="430.69754"
           sodipodi:rx="28.96525"
           sodipodi:ry="42.641441"
           d="m 1220.156,430.69754 a 28.96525,42.641441 0 1 1 -57.9305,0 28.96525,42.641441 0 1 1 57.9305,0 z"
           transform="matrix(0.99573124,-0.09230003,0.09230003,0.99573124,-37.523351,110.35806)" />
        <path
           sodipodi:type="arc"
           style="color:#000000;fill:#ffffff;stroke:none;stroke-width:0.5;marker:none;visibility:visible;display:inline;overflow:visible;enable-background:accumulate"
           id="path3791"
           sodipodi:cx="1184.9458"
           sodipodi:cy="427.84268"
           sodipodi:rx="7.5193954"
           sodipodi:ry="5.0997281"
           d="m 1192.4652,427.84268 a 7.5193954,5.0997281 0 1 1 -15.0388,0 7.5193954,5.0997281 0 1 1 15.0388,0 z"
           transform="matrix(0.69767772,0.71641176,-0.71641176,0.69767772,664.03333,-719.74115)" />
        <path
           transform="matrix(0.55363624,0.83275862,-0.83275862,0.55363624,899.82195,-817.98894)"
           d="m 1208.3845,427.84268 a 23.438734,15.105046 0 1 1 -46.8774,0 23.438734,15.105046 0 1 1 46.8774,0 z"
           sodipodi:ry="15.105046"
           sodipodi:rx="23.438734"
           sodipodi:cy="427.84268"
           sodipodi:cx="1184.9458"
           id="path3793"
           style="color:#000000;fill:#ffffff;stroke:none;stroke-width:0.5;marker:none;visibility:visible;display:inline;overflow:visible;enable-background:accumulate"
           sodipodi:type="arc" />
      </g>
      <path
         sodipodi:nodetypes="scscs"
         inkscape:connector-curvature="0"
         id="path3799"
         d="m 1168.186,356.54507 c 35.683,0 58.745,61.8879 39.0417,112.74536 12.1555,-52.83286 -9.0549,-107.79265 -39.0417,-107.79265 -18.5587,0 -31.0152,24.15365 -34.3232,39.75901 -4.1643,-10.73982 9.0544,-44.71172 34.3232,-44.71172 z"
         style="fill:#000000;stroke:none" />
      <path
         sodipodi:nodetypes="cccc"
         inkscape:connector-curvature="0"
         id="path3801"
         d="m 1134.5046,393.01402 -0.7569,4.66822 c -12.185,0.39557 -21.6776,-5.7552 -21.4486,-17.15888 4.8364,8.49533 13.0079,12.57658 22.2055,12.49066 z"
         style="fill:#000000;stroke:none" />
      <use
         height="1080"
         width="1920"
         transform="matrix(0.98442256,0.17581874,-0.17581874,0.98442256,91.215065,-208.36041)"
         id="use3805"
         xlink:href="#path3801"
         y="0"
         x="0" />
      <use
         height="1080"
         width="1920"
         transform="matrix(0.74161979,0.67082046,-0.67082046,0.74161979,568.94076,-683.96122)"
         id="use3807"
         xlink:href="#path3801"
         y="0"
         x="0" />
    </g>
    <g
       id="g3950">
      <path
         sodipodi:nodetypes="ccccc"
         inkscape:connector-curvature="0"
         id="path3948"
         d="m 1348.5807,406.7774 -43.7077,-76.21566 13.6676,-41.0027 53.1516,29.99271 c 1.3451,31.42171 2.4881,62.791 -23.1115,87.22565 z"
         style="fill:#f3b6cf;fill-opacity:1;stroke:none" />
      <path
         sodipodi:nodetypes="cccc"
         inkscape:connector-curvature="0"
         id="path3940"
         d="m 1368.9568,359.02988 c -1.5725,20.56622 -13.6,39.99459 -22.8551,50.05124 17.5271,-12.01643 25.6897,-29.37112 26.4785,-47.01927 z"
         style="font-size:medium;font-style:normal;font-variant:normal;font-weight:normal;font-stretch:normal;text-indent:0;text-align:start;text-decoration:none;line-height:normal;letter-spacing:normal;word-spacing:normal;text-transform:none;direction:ltr;block-progression:tb;writing-mode:lr-tb;text-anchor:start;baseline-shift:baseline;color:#000000;fill:#eb81b4;fill-opacity:1;stroke:none;stroke-width:0.5;marker:none;visibility:visible;display:inline;overflow:visible;enable-background:accumulate;font-family:Sans;-inkscape-font-specification:Sans" />
      <path
         sodipodi:nodetypes="ccc"
         inkscape:connector-curvature="0"
         id="path3942"
         d="m 1344.5469,363.02221 c 7.4293,-16.98404 6.3902,-39.79331 0.7593,-51.4432 2.4403,14.3043 2.6352,35.17181 -0.7593,51.4432 z"
         style="fill:#eb81b4;fill-opacity:1;stroke:none" />
    </g>
    <g
       id="g4037">
      <path
         sodipodi:nodetypes="cccc"
         inkscape:connector-curvature="0"
         id="path3906"
         d="m 1334.7759,465.2205 -1.0914,-3.8563 c 10.0529,-3.47853 27.635,-3.97899 26.143,8.62594 -6.7906,-8.03615 -15.8298,-7.74513 -25.0516,-4.76964 z"
         style="fill:#000000;stroke:none" />
      <path
         style="fill:#000000;stroke:none"
         d="m 1325.0261,465.54706 1.1074,-2.98301 c 13.4919,3.59707 21.851,8.83358 17.9832,19.89099 -1.7269,-10.37831 -9.6439,-14.74995 -19.0906,-16.90798 z"
         id="path3908"
         inkscape:connector-curvature="0"
         sodipodi:nodetypes="cccc" />
      <path
         sodipodi:nodetypes="cccc"
         inkscape:connector-curvature="0"
         id="path3910"
         d="m 1336.3385,459.34076 -1.5324,-2.78869 c 11.545,-7.85376 21.7439,-10.95951 26.342,-1.2545 -8.9804,-5.48124 -16.9989,-1.69164 -24.8096,4.04319 z"
         style="fill:#000000;stroke:none" />
      <path
         sodipodi:type="arc"
         style="color:#000000;fill:#ffffff;stroke:#ffffff;stroke-width:0.5;marker:none;visibility:visible;display:inline;overflow:visible;enable-background:accumulate"
         id="path3912"
         sodipodi:cx="1176.2028"
         sodipodi:cy="434.44455"
         sodipodi:rx="39.911594"
         sodipodi:ry="68.158157"
         d="m 1216.1144,434.44455 a 39.911594,68.158157 0 1 1 -79.8232,0 39.911594,68.158157 0 1 1 79.8232,0 z"
         transform="matrix(-0.98834432,-0.15223503,-0.15223503,0.98834432,2538.2868,179.64343)" />
      <g
         clip-path="url(#clipPath4033)"
         id="g3996">
        <g
           id="g3916"
           transform="matrix(-0.99908785,-0.0427019,-0.0427019,0.99908785,2502.9512,53.610601)"
           style="stroke:none">
          <path
             sodipodi:type="arc"
             style="color:#000000;fill:#82d1f4;fill-opacity:1;stroke:none;stroke-width:0.5;marker:none;visibility:visible;display:inline;overflow:visible;enable-background:accumulate"
             id="path3918"
             sodipodi:cx="1188.5143"
             sodipodi:cy="431.94653"
             sodipodi:rx="35.507336"
             sodipodi:ry="54.010727"
             d="m 1224.0216,431.94653 c 0,29.8293 -15.8972,54.01073 -35.5073,54.01073 -19.6102,0 -35.5074,-24.18143 -35.5074,-54.01073 0,-29.8293 15.8972,-54.01072 35.5074,-54.01072 19.6101,0 35.5073,24.18142 35.5073,54.01072 z"
             transform="matrix(0.99114126,-0.13281191,0.13281191,0.99114126,-49.336908,158.10679)" />
          <path
             transform="matrix(0.99114126,-0.13281191,0.13281191,0.99114126,-49.336908,158.10679)"
             d="m 1224.0216,431.94653 c 0,29.8293 -15.8972,54.01073 -35.5073,54.01073 -19.6102,0 -35.5074,-24.18143 -35.5074,-54.01073 0,-29.8293 15.8972,-54.01072 35.5074,-54.01072 19.6101,0 35.5073,24.18142 35.5073,54.01072 z"
             sodipodi:ry="54.010727"
             sodipodi:rx="35.507336"
             sodipodi:cy="431.94653"
             sodipodi:cx="1188.5143"
             id="path3920"
             style="color:#000000;fill:url(#linearGradient4263);fill-opacity:1;stroke:none;stroke-width:0.5;marker:none;visibility:visible;display:inline;overflow:visible;enable-background:accumulate"
             sodipodi:type="arc" />
        </g>
        <g
           id="g3976"
           clip-path="url(#clipPath3986)">
          <path
             style="fill:#e1f4fd;fill-opacity:1;stroke:none"
             d="m 1331.8129,457.42494 -7.9754,16.46549 -21.4644,-20.29365 3.2629,-6.574 z"
             id="path3924"
             inkscape:connector-curvature="0"
             sodipodi:nodetypes="ccccc" />
          <path
             style="fill:#a2def8;fill-opacity:1;stroke:none"
             d="m 1336.439,445.91203 -29.0681,-1.79093 -2.3737,5.40609 29.6582,12.30924 z"
             id="path3926"
             inkscape:connector-curvature="0"
             sodipodi:nodetypes="ccccc" />
        </g>
        <path
           transform="matrix(-0.98741492,-0.15815102,-0.15815102,0.98741492,2539.6519,195.32124)"
           d="m 1217.9671,430.69754 a 26.776258,40.142895 0 1 1 -53.5526,0 26.776258,40.142895 0 1 1 53.5526,0 z"
           sodipodi:ry="40.142895"
           sodipodi:rx="26.776258"
           sodipodi:cy="430.69754"
           sodipodi:cx="1191.1908"
           id="path3928"
           style="color:#000000;fill:#000000;stroke:none;stroke-width:0.5;marker:none;visibility:visible;display:inline;overflow:visible;enable-background:accumulate"
           sodipodi:type="arc" />
        <path
           transform="matrix(-0.62829732,-0.77797331,-0.77797331,0.62829732,2374.8585,1082.8851)"
           d="m 1192.4652,427.84268 a 7.5193954,5.0997281 0 1 1 -15.0388,0 7.5193954,5.0997281 0 1 1 15.0388,0 z"
           sodipodi:ry="5.0997281"
           sodipodi:rx="7.5193954"
           sodipodi:cy="427.84268"
           sodipodi:cx="1184.9458"
           id="path3930"
           style="color:#000000;fill:#ffffff;stroke:none;stroke-width:0.5;marker:none;visibility:visible;display:inline;overflow:visible;enable-background:accumulate"
           sodipodi:type="arc" />
        <path
           sodipodi:type="arc"
           style="color:#000000;fill:#ffffff;stroke:none;stroke-width:0.5;marker:none;visibility:visible;display:inline;overflow:visible;enable-background:accumulate"
           id="path3932"
           sodipodi:cx="1184.9458"
           sodipodi:cy="427.84268"
           sodipodi:rx="22.203272"
           sodipodi:ry="13.098395"
           d="m 1207.1491,427.84268 a 22.203272,13.098395 0 1 1 -44.4066,0 22.203272,13.098395 0 1 1 44.4066,0 z"
           transform="matrix(-0.42641543,-0.90452743,-0.90452743,0.42641543,2205.8323,1302.0121)" />
      </g>
      <path
         style="fill:#000000;stroke:none"
         d="m 1349.7093,398.70517 0.4788,4.70489 c 12.1401,1.11734 21.9807,-4.45977 22.4282,-15.85697 -5.3316,8.19363 -13.7307,11.78319 -22.907,11.15208 z"
         id="path3936"
         inkscape:connector-curvature="0"
         sodipodi:nodetypes="cccc" />
      <use
         x="0"
         y="0"
         xlink:href="#path3801"
         id="use3938"
         transform="matrix(-0.99311528,0.11714111,0.11714111,0.99311528,2426.82,-139.7526)"
         width="1920"
         height="1080" />
      <use
         x="0"
         y="0"
         xlink:href="#path3801"
         id="use3940"
         transform="matrix(-0.78008928,0.6256682,0.6256682,0.78008928,1978.1341,-642.84195)"
         width="1920"
         height="1080" />
      <path
         style="fill:#000000;stroke:none;display:inline"
         d="m 1317.6632,360.25674 c -35.6831,0 -59.074,56.27722 -44.9442,110.23214 -9.0016,-53.46063 14.8422,-105.82344 44.8289,-105.82344 17.0514,0 29.5591,25.22372 32.4407,42.25944 4.4153,-11.48336 -8.2514,-46.66814 -32.3254,-46.66814 z"
         id="path3934"
         inkscape:connector-curvature="0"
         sodipodi:nodetypes="scscs" />
    </g>
    <path
       style="fill:#eb81b4;fill-opacity:1;stroke:none"
       d="m 1225.0922,462.63631 c 5.5729,-5.97131 24.9876,-4.92176 30.6898,0.98135 -6.7422,-1.96924 -24.8697,-2.75532 -30.6898,-0.98135 z"
       id="path4059"
       inkscape:connector-curvature="0"
       sodipodi:nodetypes="ccc" />
    <path
       style="fill:#eb81b4;fill-opacity:1;stroke:none"
       d="m 1222.7726,475.66161 c -5.3528,6.33422 -1.4274,11.95473 5.7098,9.45672 -3.6592,-1.49781 -5.9843,-4.37557 -5.7098,-9.45672 z"
       id="path4061"
       inkscape:connector-curvature="0"
       sodipodi:nodetypes="ccc" />
    <path
       sodipodi:nodetypes="ccc"
       inkscape:connector-curvature="0"
       id="path4063"
       d="m 1255.6301,476.39408 c 4.5957,6.90321 0.055,12.03952 -6.7508,8.74409 3.8061,-1.07086 6.4441,-3.66477 6.7508,-8.74409 z"
       style="fill:#eb81b4;fill-opacity:1;stroke:none" />
    <g
       id="g4079">
      <path
         sodipodi:nodetypes="ccc"
         inkscape:connector-curvature="0"
         id="path4069"
         d="m 1196.3652,499.7495 c 20.3871,9.97001 65.8776,10.16972 84.3968,2.31957 2.8856,44.03344 -87.5735,45.72763 -84.3968,-2.31957 z"
         style="fill:#ffffff;stroke:none" />
      <path
         sodipodi:nodetypes="cccc"
         inkscape:connector-curvature="0"
         id="path4071"
         d="m 1196.4532,507.70093 c 0,0 13.1216,6.18225 27.8833,10.09346 -16.4019,-0.88317 -27.0001,-5.1729 -27.0001,-5.1729 z"
         style="fill:#b9e0f7;fill-opacity:1;stroke:none" />
      <path
         style="fill:#b9e0f7;fill-opacity:1;stroke:none"
         d="m 1280.2165,512.61129 c 0,0 -12.7831,3.86102 -27.9844,5.31948 16.3272,1.79601 26.6105,-0.85668 26.6105,-0.85668 z"
         id="path4073"
         inkscape:connector-curvature="0"
         sodipodi:nodetypes="cccc" />
      <path
         style="fill:#eb81b4;fill-opacity:1;stroke:none"
         d="m 1189.379,504.75977 c 1.6841,-9.28203 10.701,-12.40347 18.7073,-7.79366 -7.6402,-0.55731 -14.2217,1.86742 -18.7073,7.79366 z"
         id="path4065"
         inkscape:connector-curvature="0"
         sodipodi:nodetypes="ccc" />
      <path
         sodipodi:nodetypes="ccc"
         inkscape:connector-curvature="0"
         id="path4067"
         d="m 1287.6518,507.50954 c -0.3067,-8.75603 -9.8026,-12.96599 -17.2682,-9.26254 7.0295,0.30684 14.1534,4.13256 17.2682,9.26254 z"
         style="fill:#eb81b4;fill-opacity:1;stroke:none" />
      <path
         style="fill:none;stroke:#eb81b4;stroke-width:4;stroke-linecap:butt;stroke-linejoin:miter;stroke-miterlimit:1;stroke-opacity:1;stroke-dasharray:none"
         d="m 1196.3652,499.7495 c 20.3871,9.97001 65.8776,10.16972 84.3968,2.31957 2.8856,44.03344 -87.5735,45.72763 -84.3968,-2.31957 z"
         id="path4077"
         inkscape:connector-curvature="0"
         sodipodi:nodetypes="ccc" />
    </g>
    <g
       id="g3917">
      <g
         id="g3899">
        <path
           style="fill:#dfb04e;fill-opacity:1;stroke:#d88a10;stroke-width:6;stroke-linecap:butt;stroke-linejoin:miter;stroke-miterlimit:4;stroke-opacity:1;stroke-dasharray:none"
           d="m 1419.335,415.73 c 0,0 88.1229,-71.03841 -64.7929,-149.76738 l -5.5515,51.47664 z"
           id="path3835"
           inkscape:connector-curvature="0"
           sodipodi:nodetypes="cccc" />
        <g
           id="g3859">
          <path
             sodipodi:nodetypes="cssccc"
             inkscape:connector-curvature="0"
             id="path3841"
             d="m 1118.9262,188.72483 c 0,0 3.2214,-72.55033 73.4228,-78.32215 52.4031,-4.30848 61.4603,-34.526668 44.4705,-35.007506 -5.1817,-0.14665 -12.7863,2.472806 -22.3229,9.437039 33.2467,-112.343489 210.4129,-20.263281 171.2752,131.275177 z"
             style="fill:#7f4438;fill-opacity:1;stroke:none" />
          <g
             id="g3854">
            <path
               sodipodi:nodetypes="ccccc"
               inkscape:connector-curvature="0"
               id="path3851"
               d="m 1108.2616,183.70094 28.7665,91.34579 228.112,31.28973 32.4709,-99.4528 c -86.8834,-51.46525 -197.1021,-51.85923 -289.3494,-23.18272 z"
               style="fill:#c3d5e1;fill-opacity:1;stroke:none" />
            <path
               style="fill:#8dbfc5;fill-opacity:1;stroke:none"
               d="m 1122.3925,229.1215 c 69.0103,-26.02843 188.2174,-24.47951 259.4019,28.76636 l -16.6542,48.44859 -228.1122,-31.28972 z"
               id="path3839"
               inkscape:connector-curvature="0"
               sodipodi:nodetypes="ccccc" />
            <path
               style="fill:none;stroke:#455d67;stroke-width:6;stroke-linecap:butt;stroke-linejoin:miter;stroke-miterlimit:4;stroke-opacity:1;stroke-dasharray:none"
               d="m 1108.2616,183.70094 28.7665,91.34579 228.112,31.28973 32.4709,-99.4528 c -86.8834,-51.46525 -197.1021,-51.85923 -289.3494,-23.18272 z"
               id="path3837"
               inkscape:connector-curvature="0"
               sodipodi:nodetypes="ccccc" />
          </g>
          <path
             transform="matrix(0.84172687,-0.53990357,0.53990357,0.84172687,100.59392,648.87151)"
             d="m 1187.8636,154.63087 a 21.420633,13.481815 0 1 1 -42.8412,0 21.420633,13.481815 0 1 1 42.8412,0 z"
             sodipodi:ry="13.481815"
             sodipodi:rx="21.420633"
             sodipodi:cy="154.63087"
             sodipodi:cx="1166.443"
             id="path3843"
             style="fill:#eeeded;fill-opacity:1;stroke:none"
             sodipodi:type="arc" />
          <path
             sodipodi:nodetypes="sssss"
             inkscape:connector-curvature="0"
             id="path3845"
             d="m 1251.5881,120.0625 c -17.4072,0 -57.1782,5.81462 -56.3138,21.88318 0.8963,16.66184 24.95,-1.69464 56.9087,-2.76847 24.9198,-0.83732 42.0774,10.69602 45.4208,-1.78181 4.1813,-15.60466 -29.466,-17.3329 -46.0157,-17.3329 z"
             style="font-size:medium;font-style:normal;font-variant:normal;font-weight:normal;font-stretch:normal;text-indent:0;text-align:start;text-decoration:none;line-height:normal;letter-spacing:normal;word-spacing:normal;text-transform:none;direction:ltr;block-progression:tb;writing-mode:lr-tb;text-anchor:start;baseline-shift:baseline;color:#000000;fill:#eeeded;fill-opacity:1;stroke:none;stroke-width:1;marker:none;visibility:visible;display:inline;overflow:visible;enable-background:accumulate;font-family:Sans;-inkscape-font-specification:Sans" />
        </g>
        <path
           style="fill:#cfa552;fill-opacity:1;stroke:#d88a10;stroke-width:6;stroke-linecap:butt;stroke-linejoin:miter;stroke-miterlimit:4;stroke-opacity:1;stroke-dasharray:none"
           d="m 1036.3758,412.04911 c -35.3622,-86.10632 129.5543,-190.47175 209.3494,-190.47175 112.2336,0 160.0481,139.73163 173.6098,194.15264 -54.1469,-61.59502 -99.0496,-120.81678 -176.3999,-120.81678 -93.2954,0 -206.5593,117.13589 -206.5593,117.13589 z"
           id="path3833"
           inkscape:connector-curvature="0"
           sodipodi:nodetypes="cscsc" />
      </g>
      <g
         id="g3911">
        <path
           style="fill:#ed458b;fill-opacity:1;stroke:none"
           d="m 1331.4358,310.61496 c -13.2958,44.22169 -25.9911,-3.70233 -84.9321,61.73637 -29.6192,-68.87353 -100.5497,-37.76838 -119.1905,-21.76832 -42.8229,36.75634 -6.8897,92.37545 -16.0586,113.48073 -5.4721,12.5959 -39.2542,20.69774 -54.956,-28.19176 19.6271,15.70174 38.5406,14.98802 38.5406,14.98802 0,0 -80.4717,-89.74947 -16.4155,-153.80563 64.3514,-64.35142 143.8137,0.35686 143.8137,0.35686 40.9287,-39.11777 88.9047,-26.01332 109.1984,13.20373 z"
           id="path3831"
           inkscape:connector-curvature="0"
           sodipodi:nodetypes="ccssccscc"
           clip-path="url(#clipPath3858)" />
        <path
           style="fill:#be1d77;fill-opacity:1;stroke:none"
           d="m 1327.2897,315.92523 c -8.0748,30.78505 -22.4579,-8.83178 -81.2523,52.23365 -21.4485,-55.00935 -90.9201,-50.46123 -125.6636,-15.39253 -38.128,38.4848 -1.3318,90.61655 -12.2599,109.54464 -10.3314,17.89448 -38.4462,3.94985 -47.1436,-21.20151 18.2829,17.4316 36.8601,13.71223 37.6772,11.40368 0.9914,-2.80082 -83.3641,-87.62074 -16.2287,-154.75616 70.8635,-70.86349 168.7877,24.34677 168.7877,24.34677 -19.5636,-27.90185 -113.5839,-94.94822 -173.8882,-29.65326 -47.4329,51.35827 -24.5432,111.538 12.3771,156.22506 0,0 -16.6245,-1.91942 -38.0359,-22.26031 4.1038,48.17577 48.2568,64.22958 62.9853,38.71905 10.9762,-19.01134 -26.4178,-71.53956 10.8842,-108.84158 32.7454,-32.74538 104.9798,-36.49287 119.9041,21.76832 63.5,-67.03895 68.945,-26.16938 84.2185,-57.81094 z"
           id="path4087"
           inkscape:connector-curvature="0"
           sodipodi:nodetypes="ccsscsscsccsscc"
           clip-path="url(#clipPath3887)" />
        <path
           style="fill:none;stroke:#be1d77;stroke-width:3.5;stroke-linecap:butt;stroke-linejoin:miter;stroke-miterlimit:4;stroke-opacity:1;stroke-dasharray:none"
           d="m 1290.5643,339.05352 c 3.091,-11.64933 4.763,-35.17347 2.3308,-51.27745"
           id="path3061"
           inkscape:connector-curvature="0"
           sodipodi:nodetypes="cc"
           clip-path="url(#clipPath3895)" />
      </g>
    </g>
    <path
       sodipodi:nodetypes="ccccc"
       inkscape:connector-curvature="0"
       id="path4029"
       d="m 1075.0248,550.60416 c 71.0397,1.53564 215.9313,31.63851 298.5657,140.62948 -12.9082,24.96509 -50.8737,45.55856 -50.8737,45.55856 0,0 -46.6975,-121.48949 -258.5448,-155.65841 2.6576,-17.46411 10.8528,-30.52963 10.8528,-30.52963 z"
       style="fill:#ebe3ce;fill-opacity:1;stroke:none" />
    <path
       style="fill:#ddcdad;fill-opacity:1;stroke:#c0af85;stroke-width:3;stroke-linecap:butt;stroke-linejoin:miter;stroke-miterlimit:4;stroke-opacity:1;stroke-dasharray:none"
       d="m 1321.5779,732.99565 c 0.1518,-19.05866 49.2024,-40.03888 34.1688,-61.88371 -5.6722,-8.24218 -15.1289,6.21936 -23.2655,22.49297 -6.1545,12.30908 -18.4931,25.01583 -26.0896,12.81491 -15.7951,-25.36908 45.1264,-30.48683 25.4369,-57.7075 -19.1473,-26.47108 -17.0407,52.83173 -50.8737,28.47409 -9.3799,-6.75291 -3.7449,-21.41633 6.5158,-30.31913 9.5401,-8.27756 17.8003,-18.51321 8.2907,-26.62906 -21.4653,-18.31937 -22.4407,47.68029 -44.0399,31.13168 -20.0745,-15.38035 28.5196,-40.22064 7.2134,-53.15165 -23.9491,-14.53507 -12.4652,45.76059 -41.3823,31.89099 -22.3767,-10.73259 19.0111,-40.8793 -0.7594,-49.73476 -17.3173,-7.75663 -14.2339,41.70567 -32.6503,33.40961 -17.6911,-7.96934 14.8157,-42.00094 -9.4913,-47.45683 -19.4568,-4.36724 0.1427,42.43535 -22.7793,34.92823 -23.1032,-7.56649 10.1615,-37.0519 -10.2507,-41.76202 -20.5604,-4.74432 -0.9085,36.48913 -22.3996,31.51134 -19.2955,-4.46923 6.0449,-35.33764 -12.149,-36.82649 -19.6798,-1.61046 -1.1389,29.61306 -18.9827,28.47409 -10.9876,-0.70133 3.0373,-31.51134 -8.3524,-32.27064 -10.0296,-0.66864 -15.1862,29.61306 -15.1862,29.61306 103.6707,15.40708 209.5834,67.23424 257.0263,153.00082 z"
       id="path4023"
       inkscape:connector-curvature="0"
       sodipodi:nodetypes="cssssssssssssssssssscc" />
    <path
       style="fill:none;stroke:#c0af85;stroke-width:6;stroke-linecap:butt;stroke-linejoin:round;stroke-miterlimit:4;stroke-opacity:1;stroke-dasharray:none"
       d="m 1075.0248,550.60416 c 71.0397,1.53564 215.9313,31.63851 298.5657,140.62948 -12.9082,24.96509 -50.8737,45.55856 -50.8737,45.55856 0,0 -46.6975,-121.48949 -258.5448,-155.65841 2.6576,-17.46411 10.8528,-30.52963 10.8528,-30.52963 z"
       id="path4019"
       inkscape:connector-curvature="0"
       sodipodi:nodetypes="ccccc" />
    <path
       sodipodi:nodetypes="ccc"
       inkscape:connector-curvature="0"
       id="path4021"
       d="m 1322.7168,736.7922 c 0,0 -46.6975,-121.48949 -258.5448,-155.65841 29.6658,51.69688 203.4309,157.77776 258.5448,155.65841 z"
       style="fill:#ddcdad;fill-opacity:1;stroke:#c0af85;stroke-width:6;stroke-linecap:butt;stroke-linejoin:round;stroke-miterlimit:2;stroke-opacity:1;stroke-dasharray:none" />
    <path
       style="fill:#c0af85;fill-opacity:1;stroke:none"
       d="m 1262.3517,692.75226 c -29.7171,-31.72275 -132.3145,-78.03179 -177.1242,-85.11168 l -3.3038,-4.53288 c 40.5005,4.60457 153.3325,50.45653 180.428,89.64456 z"
       id="path4025"
       inkscape:connector-curvature="0"
       sodipodi:nodetypes="cccc" />
    <path
       style="fill:#eabb34;fill-opacity:1;stroke:#d08b13;stroke-width:6;stroke-linecap:butt;stroke-linejoin:miter;stroke-miterlimit:4;stroke-opacity:1;stroke-dasharray:none"
       d="m 1097.2019,783.11007 c 134.3977,12.14895 159.455,-135.15706 159.455,-135.15706 -168.6962,-55.9781 -176.956,-12.54428 -159.455,135.15706 z"
       id="path4027"
       inkscape:connector-curvature="0"
       sodipodi:nodetypes="ccc"
       clip-path="url(#clipPath4097)" />
    <g
       id="g4153">
      <path
         sodipodi:nodetypes="cccccccccc"
         inkscape:connector-curvature="0"
         id="path4101"
         d="m 940.78422,798.29625 c -50.11442,-13.66757 -59.98544,42.90098 -26.57583,41.0027 4.17621,18.22342 20.88101,21.64032 33.78926,15.56584 17.84377,19.06411 48.21615,15.95414 56.18895,3.41689 14.0471,13.39013 37.9654,7.27979 44.0399,-0.7593 20.6391,14.78738 37.0118,7.35249 38.3451,-0.75932 7.9728,8.96791 28.0945,5.72508 30.7521,-6.07446 13.701,3.10424 19.5634,-2.63508 20.8809,-8.73207 0,0 40.2434,-11.38963 -29.6131,-39.10443 z"
         style="fill:#eedd8d;fill-opacity:1;stroke:#dcb258;stroke-width:5;stroke-linecap:butt;stroke-linejoin:miter;stroke-miterlimit:1;stroke-opacity:1;stroke-dasharray:none" />
      <path
         sodipodi:nodetypes="csc"
         inkscape:connector-curvature="0"
         id="path4103"
         d="m 914.20839,838.9193 c -4.24524,-9.588 -5.40633,-24.22116 4.55586,-21.64032 9.46117,2.45105 3.20231,17.167 -4.55586,21.64032 z"
         style="fill:none;stroke:#dcb258;stroke-width:3;stroke-linecap:butt;stroke-linejoin:miter;stroke-miterlimit:4;stroke-opacity:1;stroke-dasharray:none" />
      <path
         style="fill:none;stroke:#dcb258;stroke-width:3;stroke-linecap:butt;stroke-linejoin:miter;stroke-miterlimit:4;stroke-opacity:1;stroke-dasharray:none"
         d="m 948.11466,854.53016 c -7.97803,-8.26 -11.54064,-25.58275 -2.00912,-25.51445 9.77325,0.07 8.43903,19.28099 2.00912,25.51445 z"
         id="path4105"
         inkscape:connector-curvature="0"
         sodipodi:nodetypes="csc" />
      <path
         sodipodi:nodetypes="csc"
         inkscape:connector-curvature="0"
         id="path4103-1"
         d="m 1004.352,858.64759 c -7.19834,-7.62472 -12.98064,-20.27478 -2.7279,-21.16207 9.7371,-0.84263 8.5514,14.35864 2.7279,21.16207 z"
         style="fill:none;stroke:#dcb258;stroke-width:3;stroke-linecap:butt;stroke-linejoin:miter;stroke-miterlimit:4;stroke-opacity:1;stroke-dasharray:none;display:inline" />
      <path
         sodipodi:nodetypes="csc"
         inkscape:connector-curvature="0"
         id="path4103-7"
         d="m 1048.7401,857.15254 c -6.6522,-8.10559 -8.0736,-22.2273 -1.2005,-22.07092 6.7333,0.1532 6.7225,15.6878 1.2005,22.07092 z"
         style="fill:none;stroke:#dcb258;stroke-width:3;stroke-linecap:butt;stroke-linejoin:miter;stroke-miterlimit:4;stroke-opacity:1;stroke-dasharray:none;display:inline" />
      <path
         sodipodi:nodetypes="csc"
         inkscape:connector-curvature="0"
         id="path4103-4"
         d="m 1086.2921,856.5222 c -7.849,-7.6382 -9.2412,-19.25169 -5.309,-20.50647 5.5352,-1.76634 8.9444,11.41131 5.309,20.50647 z"
         style="fill:none;stroke:#dcb258;stroke-width:3;stroke-linecap:butt;stroke-linejoin:miter;stroke-miterlimit:4;stroke-opacity:1;stroke-dasharray:none;display:inline" />
      <path
         sodipodi:nodetypes="csc"
         inkscape:connector-curvature="0"
         id="path4103-0"
         d="m 1117.368,849.74311 c -9.5461,-4.33855 -13.7908,-15.64874 -7.9492,-19.00277 5.089,-2.92195 10.7694,10.50295 7.9492,19.00277 z"
         style="fill:none;stroke:#dcb258;stroke-width:3;stroke-linecap:butt;stroke-linejoin:miter;stroke-miterlimit:4;stroke-opacity:1;stroke-dasharray:none;display:inline" />
      <path
         sodipodi:nodetypes="csc"
         inkscape:connector-curvature="0"
         id="path4103-9"
         d="m 1137.9867,841.37286 c -12.737,1.50799 -20.3531,-7.22694 -16.1626,-14.27052 5.4276,-9.12291 16.0985,2.79854 16.1626,14.27052 z"
         style="fill:none;stroke:#dcb258;stroke-width:3;stroke-linecap:butt;stroke-linejoin:miter;stroke-miterlimit:4;stroke-opacity:1;stroke-dasharray:none;display:inline" />
    </g>
    <path
       style="fill:#f3b6cf;fill-opacity:1;stroke:#eb81b4;stroke-width:6;stroke-linecap:butt;stroke-linejoin:miter;stroke-miterlimit:4;stroke-opacity:1;stroke-dasharray:none"
       d="m 1172.8398,774.18213 c -40.8053,99.86577 -47.8198,208.30516 -40.4908,216.15344 16.3652,17.52473 89.0447,-0.39431 92.349,-8.59061 6.5856,-16.33569 -9.3729,-20.95492 -9.3729,-102.55888 0,-35.34878 7.2725,-90.96077 11.5205,-107.374 z"
       id="path4163"
       inkscape:connector-curvature="0"
       sodipodi:nodetypes="cssscc" />
    <g
       id="g4060"
       transform="translate(2.8e-4,0)">
      <path
         sodipodi:nodetypes="ccssc"
         inkscape:connector-curvature="0"
         id="path4031"
         d="m 931.6725,805.88934 c 80.4868,46.31787 188.3087,6.07448 188.3087,6.07448 -4.4043,-54.44318 42.2845,-59.3761 0,-176.91907 -9.3503,-25.99218 -166.90905,-9.33703 -167.25885,33.95158 -0.63617,78.72694 -21.04985,136.89301 -21.04985,136.89301 z"
         style="fill:#7f4438;fill-opacity:1;stroke:#5f3227;stroke-width:6;stroke-linecap:butt;stroke-linejoin:miter;stroke-miterlimit:4;stroke-opacity:1;stroke-dasharray:none" />
      <path
         style="fill:#efdd8f;fill-opacity:1;stroke:none"
         d="m 924.83872,688.95571 c 97.95088,41.76201 184.51218,20.50135 211.84728,-59.98543 -126.107,-66.88096 -180.68268,-18.19051 -211.84728,59.98543 z"
         id="path4038"
         inkscape:connector-curvature="0"
         sodipodi:nodetypes="ccc" />
      <path
         sodipodi:nodetypes="ccccc"
         inkscape:connector-curvature="0"
         id="path4036"
         d="m 1118.4626,619.85857 c -7.5931,55.80923 -34.9283,68.33783 -33.03,18.98273 -7.593,45.1789 -22.3159,69.03094 -63.0226,37.5858 -23.91824,33.40962 -61.12443,36.82651 -54.29065,-55.42957 48.00015,-39.2639 103.60525,-22.55439 150.34325,-1.13896 z"
         style="fill:#a35d39;fill-opacity:1;stroke:none" />
      <path
         sodipodi:nodetypes="ccc"
         inkscape:connector-curvature="0"
         id="path4033"
         d="m 924.83872,688.95571 c 97.95088,41.76201 184.51218,20.50135 211.84728,-59.98543 -126.107,-66.88096 -180.68268,-18.19051 -211.84728,59.98543 z"
         style="fill:none;stroke:#5f3227;stroke-width:6;stroke-linecap:butt;stroke-linejoin:miter;stroke-miterlimit:4;stroke-opacity:1;stroke-dasharray:none" />
    </g>
    <g
       id="g4084">
      <path
         sodipodi:nodetypes="cscsc"
         inkscape:connector-curvature="0"
         id="path4080"
         d="m 909.65254,634.66509 c -10.33682,32.56416 -25.67092,83.52403 -3.03724,83.52403 22.82381,0 71.71926,-38.0081 83.14437,-82.76471 -11.28658,-42.25108 -58.28212,-89.97815 -86.94092,-89.97815 -22.01866,0 -13.981,60.8604 6.83379,89.21883 z"
         style="fill:#e96c9f;fill-opacity:1;stroke:#af3361;stroke-width:5;stroke-linecap:butt;stroke-linejoin:miter;stroke-miterlimit:4;stroke-opacity:1;stroke-dasharray:none" />
      <path
         style="fill:#d94a7a;fill-opacity:1;stroke:#af3361;stroke-width:5;stroke-linecap:butt;stroke-linejoin:round;stroke-miterlimit:4;stroke-opacity:1;stroke-dasharray:none"
         d="m 989.75967,635.42441 c -11.28658,-42.25108 -58.28212,-89.97815 -86.94092,-89.97815 14.76997,34.99622 58.02385,71.18664 86.94092,89.97815 z"
         id="path4082"
         inkscape:connector-curvature="0"
         sodipodi:nodetypes="ccc" />
      <path
         sodipodi:nodetypes="ssccs"
         inkscape:connector-curvature="0"
         id="path4068"
         d="m 970.20135,620.40269 c -6.70998,6.70997 -6.68125,32.54732 4.83221,39.19462 6.6014,3.81132 29.26174,-3.48993 29.26174,-3.48993 l 1.8792,-26.30872 c -9.37716,-12.33988 -29.06655,-16.30257 -35.97315,-9.39597 z"
         style="fill:#e96c9f;fill-opacity:1;stroke:#af3361;stroke-width:5;stroke-linecap:butt;stroke-linejoin:miter;stroke-miterlimit:4;stroke-opacity:1;stroke-dasharray:none" />
      <path
         sodipodi:nodetypes="scsss"
         inkscape:connector-curvature="0"
         id="path4066"
         d="m 1045.3691,532.8859 c 31.6825,0 26.8456,88.0537 3.2215,126.71142 19.7663,31.05384 25.3049,78.53341 8.1054,78.53341 -13.0404,0 -75.7564,-30.01561 -75.7564,-91.95624 0,-42.91814 42.3847,-113.28859 64.4295,-113.28859 z"
         style="fill:#e96c9f;fill-opacity:1;stroke:#af3361;stroke-width:5;stroke-linecap:butt;stroke-linejoin:miter;stroke-miterlimit:4;stroke-opacity:1;stroke-dasharray:none" />
      <path
         sodipodi:nodetypes="cccc"
         inkscape:connector-curvature="0"
         id="path4070"
         d="m 938.52349,636.51007 c 8.83309,-5.95028 21.2885,-3.49965 27.38255,4.02684 l 0.13423,4.2953 c -6.03713,-6.15839 -16.3348,-10.06373 -27.51678,-8.32214 z"
         style="fill:#af3361;fill-opacity:1;stroke:none" />
      <path
         style="fill:#af3361;fill-opacity:1;stroke:none"
         d="m 942.09795,652.41498 c 4.29065,-9.352 14.97321,-11.64833 23.76287,-9.2363 l 1.20597,4.43936 c -8.13432,-2.56326 -15.84839,-1.90284 -24.96884,4.79694 z"
         id="path4076"
         inkscape:connector-curvature="0"
         sodipodi:nodetypes="cccc" />
      <path
         sodipodi:nodetypes="cccc"
         inkscape:connector-curvature="0"
         id="path4078"
         d="m 980.53691,648.05369 c 5.92793,6.47511 15.16042,13.34386 26.97989,11.81208 -13.68349,-4.97535 -21.51845,-11.30396 -25.90606,-21.74496 z"
         style="fill:#af3361;fill-opacity:1;stroke:none" />
    </g>
    <g
       id="g4014">
      <path
         sodipodi:nodetypes="ccccc"
         inkscape:connector-curvature="0"
         id="path4010"
         d="m 1177.9866,749.79866 -9.6645,31.14094 59.5974,-4.29531 1.6107,-24.69798 z"
         style="fill:#eedd8d;fill-opacity:1;stroke:#dcb258;stroke-width:6;stroke-linecap:butt;stroke-linejoin:miter;stroke-miterlimit:4;stroke-opacity:1;stroke-dasharray:none" />
      <path
         sodipodi:nodetypes="sss"
         inkscape:connector-curvature="0"
         id="path3996"
         d="m 1187.4677,765.42355 c -84.4382,0 -17.6607,-89.69062 21.3527,-89.69062 70.6199,0 73.2057,89.69062 -21.3527,89.69062 z"
         style="fill:#e96c9f;fill-opacity:1;stroke:#ac3561;stroke-width:7;stroke-linecap:butt;stroke-linejoin:miter;stroke-miterlimit:4;stroke-opacity:1;stroke-dasharray:none" />
      <path
         sodipodi:nodetypes="ccccccc"
         inkscape:connector-curvature="0"
         id="path3998"
         d="m 1172.7532,763.74768 c -3.8552,-4.56499 -7.2411,-11.967 -8.732,-22.39963 6.1907,9.2434 18.2491,17.45124 25.0572,22.39962 l 19.742,-0.37964 c 0,0 25.4369,-23.53859 30.3724,-35.30789 -5.3152,22.39963 -21.6403,36.06719 -21.6403,36.06719 z"
         style="fill:#ac3561;fill-opacity:1;stroke:none" />
    </g>
  </g>
</svg>
