<svg xmlns="http://www.w3.org/2000/svg" xmlns:inkscape="http://www.inkscape.org/namespaces/inkscape" xmlns:xlink="http://www.w3.org/1999/xlink" height="576" viewBox="0 0 1024 576.00002" width="1024">
  <defs>
    <linearGradient id="linearGradient1017">
      <stop offset="0" stop-color="#0c6182" />
      <stop offset="1" stop-color="#00b6a3" />
    </linearGradient>
    <inkscape:path-effect effect="powerstroke" end_linecap_type="zerowidth" id="path-effect1583" interpolator_type="CubicBezierSmooth" offset_points="0.33,2.5 | 3,2.3 | 2,2.5 | 4,2.5 | 5.72,2.5" start_linecap_type="zerowidth" />
    <inkscape:path-effect effect="powerstroke" end_linecap_type="zerowidth" id="path-effect3194" interpolator_type="CubicBezierSmooth" offset_points="0.21,2.5 | 2.79,2.5" start_linecap_type="zerowidth" />
    <linearGradient id="linearGradient3728">
      <stop offset="0" stop-color="#196e91" />
      <stop offset="1" stop-color="#7dd0f1" />
    </linearGradient>
    <inkscape:path-effect effect="powerstroke" end_linecap_type="zerowidth" id="path-effect837" interpolator_type="CubicBezierSmooth" offset_points="0.34,1.8 | 1.38,1.8" start_linecap_type="zerowidth" />
    <inkscape:path-effect effect="powerstroke" end_linecap_type="zerowidth" id="path-effect865" interpolator_type="CubicBezierSmooth" offset_points="0.46,2.5 | 1.79,2.5" start_linecap_type="zerowidth" />
    <inkscape:path-effect effect="powerstroke" end_linecap_type="zerowidth" id="path-effect844" interpolator_type="CubicBezierSmooth" offset_points="0.34,1.8 | 1.38,1.8" start_linecap_type="zerowidth" />
    <clipPath id="clipPath3742">
      <use xlink:href="#path9269" />
    </clipPath>
    <clipPath id="clipPath3756">
      <use xlink:href="#ellipse2712" />
    </clipPath>
    <clipPath id="clipPath3902">
      <use xlink:href="#path3760" />
    </clipPath>
    <clipPath id="clipPath3918">
      <use xlink:href="#path23" />
    </clipPath>
    <inkscape:path-effect effect="powerstroke" end_linecap_type="zerowidth" id="path-effect991" interpolator_type="CubicBezierSmooth" offset_points="0.21,2.5 | 2.79,2.5" start_linecap_type="zerowidth" />
    <inkscape:path-effect effect="powerstroke" end_linecap_type="zerowidth" id="path-effect8679" interpolator_type="CubicBezierSmooth" offset_points="0.34,2.5 | 1.44,2.5" start_linecap_type="zerowidth" />
    <clipPath id="clipPath1047">
      <use xlink:href="#use1015" />
    </clipPath>
    <clipPath id="clipPath1063">
      <use xlink:href="#path13739" />
    </clipPath>
    <clipPath id="clipPath2043">
      <use xlink:href="#path1573" />
    </clipPath>
    <clipPath id="clipPath2059">
      <use xlink:href="#path4398" />
    </clipPath>
    <linearGradient gradientUnits="userSpaceOnUse" id="linearGradient1600" x1="337.49496" x2="392.83194" y1="-208.17912" y2="-212.06163" xlink:href="#linearGradient1017" />
    <linearGradient gradientTransform="matrix(0.64584933,0,0,0.64584933,-802.07244,361.8001)" gradientUnits="userSpaceOnUse" id="linearGradient1589" x1="993.44202" x2="916.83838" y1="279.80884" y2="280.05872" xlink:href="#linearGradient3728" />
    <linearGradient gradientTransform="matrix(0.67123185,0,0,0.67123185,98.276675,-5.8563238)" gradientUnits="userSpaceOnUse" id="linearGradient1591" x1="479.36264" x2="478.07825" y1="356.00391" y2="430.65286" xlink:href="#linearGradient3728" />
    <clipPath id="clipPath1762">
      <use transform="matrix(.80862339.58168525-3.9359408 5.4715054 1955.1191-2362.4968)" xlink:href="#path1758" />
    </clipPath>
    <linearGradient gradientTransform="translate(5.0492187e-6,-546.51965)" gradientUnits="userSpaceOnUse" id="linearGradient4939" x1="0" x2="1024" y1="834.51965" y2="834.51965" xlink:href="#linearGradient5584" />
    <linearGradient id="linearGradient5584">
      <stop offset="0" stop-color="#9bade5" />
      <stop offset="1" stop-color="#fcd4e7" />
    </linearGradient>
    <linearGradient gradientUnits="userSpaceOnUse" id="linearGradient1019" x1="297.23602" x2="341.52298" y1="-342.10748" y2="-342.22202" xlink:href="#linearGradient1017" />
  </defs>
  <rect fill="url(#linearGradient4939)" height="576" width="1024" x="9.5367432e-07" />
  <g>
    <path d="M 465.82978,465.6287 C 449.37984,415.41018 469.31059,352.267 455.33827,288.16173 L 547.5,283 C 537,349 580.79706,395.79481 556.87618,466.3713 Z" fill="#f5b7d0" stroke="#e880b0" stroke-width="5" />
    <g transform="translate(0 50)">
      <path d="M 475.49888,317.48112 C 414.188,308.13826 355.10728,288.36011 305.14261,257.29078 272.64629,237.08373 253.4288,317.76369 282.15305,331.00871 341.35757,357.8126 412.64082,362.49116 476.59461,352.41961 Z M 542.2022,319.73311 C 599.40118,308.34917 657.74127,286.48276 709.82624,253.07235 742.03577,232.41123 763.65764,311.66821 735.42253,325.92621 677.2085,354.81834 602.50071,363.30572 543.33973,354.39635 Z" fill="#f5b7d0" />
      <path fill="#e880b0" inkscape:original-d="M 542.2022,319.73311 C 599.40118,308.34917 657.74127,286.48276 709.82624,253.07235 742.03577,232.41123 763.65764,311.66821 735.42253,325.92621 677.2085,354.81834 602.50071,363.30572 543.33973,354.39635" inkscape:path-effect="#path-effect991" />
      <path fill="#e880b0" inkscape:original-d="M 475.49888,317.48112 C 414.188,308.13826 355.10728,288.36011 305.14261,257.29078 272.64629,237.08373 253.4288,317.76369 282.15305,331.00871 341.35757,357.8126 412.64082,362.49116 476.59461,352.41961" inkscape:path-effect="#path-effect3194" />
      <path d="M 297.08393,267.08116 C 296.88734,285.5492 293.26388,303.71861 283.11808,319.03769 297.23754,307.63254 302.09023,283.9131 297.08393,267.08116 Z M 718.22796,262.56999 C 719.08111,281.01936 723.34834,299.04844 734.03242,313.99707 719.51636,303.10118 713.82334,279.5693 718.22796,262.56999 Z" fill="#e880b0" />
      <path d="M 671.67428,273.35594 C 667.35105,301.22683 673.5464,323.90711 688.02692,345.7415 695.84689,343.41177 703.47512,340.88656 710.9866,338.24232 696.54261,315.22381 688.17111,291.86132 692.78305,261.81658 686.08591,265.66303 679.2443,269.50948 671.67428,273.35594 Z" fill="#fac42d" />
      <path d="M 670.0798,288.06669 691.42045,278.30624 692.16489,290.54816 670.65881,300.8049 Z" fill="#ffff64" />
      <path d="M 671.67428,273.35594 C 667.35105,301.22683 673.5464,323.90711 688.02692,345.7415 695.84689,343.41177 703.47512,340.88656 710.9866,338.24232 696.54261,315.22381 688.17111,291.86132 692.78305,261.81658 686.08591,265.66303 679.2443,269.50948 671.67428,273.35594 Z" fill="none" stroke="#a0833d" stroke-width="2.5" />
      <g id="g2079" transform="translate(.33086276 1)">
        <circle cx="683.41187" cy="306.44205" fill="#f5b7d0" r="5.1989474" stroke="#e880b0" stroke-width="1.2" />
        <ellipse cx="361.79083" cy="653.14203" fill="#fff" rx="1.7273395" ry="1.1376334" transform="rotate(-36.973378)" />
      </g>
      <use transform="translate(-2.3308628-24.661724)" xlink:href="#g2079" />
      <use transform="translate(8.827157 22.488879)" xlink:href="#g2079" />
    </g>
    <g transform="translate(0 50)">
      <path d="M 528.68364,47.735773 C 588.9645,10.789444 632.50702,125.21943 587.07541,165.17096 621.91908,193.78671 617.11741,250.62086 567.62997,272.65119 586.10205,279.25897 590.16385,293.59706 556.13949,324.44676 564.58704,321.55969 573.91703,315.22145 580.53467,308.00653 571.5705,371.16646 504.99903,348.25939 538.15636,316.41859 488.66783,327.95613 489.87054,283.82024 535.57273,262.7088 494.00887,246.07662 502.85767,121.79043 528.68364,47.735773 Z" style="fill:#eb458b;stroke:#bb1c76;stroke-width:5;stroke-miterlimit:20" />
      <path d="M 523.125,318.375 C 543.5,304.25 555.875,284.625 544.25,264.875 570.47686,268.36477 581.8522,250.17149 571.37501,236 588.75001,240.875 601.00001,233.5 608.87501,217.625" style="fill:none;stroke:#bb1c76;stroke-width:2.5;stroke-miterlimit:20" />
      <path d="M 425.5,93.249996 C 404.25,36.499995 427.5,29.249995 448.75,42.249995 423,-44.250005 568.53033,-40.090995 531.75,95.749996 Z" fill="#eb458b" stroke="#bb1c76" stroke-width="5" />
      <path d="M 491.43922,-15.671604 C 507.58483,-5.6542583 512.35779,9.1949851 507.34912,25.694143 520.35396,27.509103 531.15587,33.100517 537.57794,46.20024 M 446.89149,10.668124 C 457.67487,8.5468027 464.92271,13.673327 466.33692,23.572822 491.43922,19.860512 505.40458,59.635268 499.21739,94.813831" fill="none" stroke="#bb1c76" stroke-width="2.5" />
    </g>
    <path d="M 416.75,229.25 C 406.51653,108.46804 568.0299,86.684006 579.25,216 584.11738,272.09847 549.26238,310.4142 507.25,313.5 463.33983,316.72519 421.77288,288.53321 416.75,229.25 Z" fill="#f5b7d0" stroke="#e880b0" stroke-width="5" />
    <g transform="translate(0 50)">
      <path d="M 434.73306,107.53289 C 459.56416,122.0298 481.62935,141.85745 498.19517,171.13024 512.65191,137.45083 528.57979,118.73013 553.38547,99.605513 549.40597,96.018489 545.75604,92.326453 541.15831,89.666758 522.163,103.32343 508.34446,119.7635 496.90443,142.04512 483.85949,120.99303 466.70143,106.19657 444.82893,96.959258 441.42465,100.11721 438.13734,103.45576 434.73306,107.53289 Z" fill="#fac42d" />
      <path d="M 514.24345,114.86002 525.07921,126.3575 534.75694,115.68718 522.9286,104.76871 Z" fill="#ffff64" />
      <path d="M 434.73306,107.53289 C 459.56416,122.0298 481.62935,141.85745 498.19517,171.13024 512.65191,137.45083 528.57979,118.73013 553.38547,99.605513 549.40597,96.018489 545.75604,92.326453 541.15831,89.666758 522.163,103.32343 508.34446,119.7635 496.90443,142.04512 483.85949,120.99303 466.70143,106.19657 444.82893,96.959258 441.42465,100.11721 438.13734,103.45576 434.73306,107.53289 Z" fill="none" stroke="#a0833d" stroke-width="2.5" />
      <ellipse cx="488.75626" cy="178.32457" fill="#f5b7d0" rx="4.8709168" ry="7.0093679" stroke="#e880b0" stroke-width="1.2" transform="rotate(-2.9010172)" />
      <ellipse cx="244.82762" cy="456.68741" fill="#fff" rx="2.0812824" ry="1.2758288" transform="rotate(-45)" />
    </g>
    <g id="g874" transform="translate(0 50)">
      <path d="M 549.84932,107.78437 C 546.14858,83.113054 553.1134,52.397492 562.21116,51.487029 580.43402,49.663365 618.54009,124.93512 574.97627,161.3839 Z" fill="#f5b7d0" />
      <path fill="#e880b0" inkscape:original-d="M 549.84932,107.78437 C 546.14858,83.113054 553.1134,52.397492 562.21116,51.487029 580.43402,49.663365 618.54009,124.93512 574.97627,161.3839" inkscape:path-effect="#path-effect865" />
      <path d="M 570.33046,80.945645 C 580.02882,95.692388 582.66531,112.67932 576.6409,130.47211 578.9876,112.80827 576.8973,97.248575 570.33046,80.945645 Z" fill="#e880b0" />
    </g>
    <use transform="rotate(-9.5245501 2.1421656-5762.9084)scale(-1 1)" xlink:href="#g874" />
    <path d="M 489.58307,263.3426 C 497.32161,261.21549 503.82696,260.42532 511.94532,261.22128 504.05541,257.6556 496.33829,258.6046 489.58307,263.3426 Z" fill="#e880b0" />
    <path d="M 495.68186,184.05826 C 469.78972,124.46333 359.13946,154.85241 406.5864,241.33391 419.69233,265.22207 395.62624,287.6494 365.57421,246.28366 378.12535,251.58696 386.96419,253.07439 397.04046,251.30662 292.11353,159.36497 393.33335,68.774725 449.36636,126.78261 470.57956,40.51558 581.59533,115.4689 495.68186,184.05826 Z" fill="#eb458b" stroke="#bb1c76" stroke-width="5" />
    <path d="M 885.2977,208.09989 Z" fill="#e880b0" stroke="#e880b0" stroke-width="5" />
    <g transform="translate(0 50)">
      <path d="M 426.60082,226.17403 C 425.6437,219.4519 429.59464,215.13955 436.565,214.30786 L 438.3021,216.65634 C 431.64345,217.14359 428.31341,220.41001 426.60082,226.17403 Z M 416.03335,205.06541 C 420.46357,200.30708 426.80885,199.97426 431.94135,204.20541 L 431.63331,206.79848 C 426.65091,202.84145 421.08929,202.83263 416.03335,205.06541 Z M 418.75284,217.65976 C 420.13113,210.84793 425.20343,208.25049 431.70054,208.91659 L 432.69278,211.66407 C 426.59341,210.5939 421.71438,212.61459 418.75284,217.65976 Z" />
      <path d="M 578.19327,216.02102 C 578.0934,209.23186 573.51996,205.58637 566.50502,205.84874 L 565.15426,208.43878 C 571.80768,207.88463 575.60516,210.59352 578.19327,216.02102 Z M 585.34961,193.52593 C 580.23335,189.51439 573.91353,190.17233 569.50146,195.15019 L 570.20897,197.6638 C 574.51541,192.9801 580.00804,192.10654 585.34961,193.52593 Z M 584.62174,206.38994 C 582.20094,199.8753 576.78643,198.09824 570.47191,199.76659 L 569.91901,202.63495 C 575.77774,200.62931 580.91167,201.86668 584.62174,206.38994 Z" />
      <g clip-path="url(#clipPath3902)">
        <ellipse cx="-161.93517" cy="553.28571" fill="#fff" id="path3760" rx="49.952507" ry="26.905386" transform="rotate(-88.134754)" />
        <g clip-path="url(#clipPath3742)">
          <ellipse cx="-185.09518" cy="534.78198" fill="url(#linearGradient1589)" id="path9269" rx="33.48954" ry="19.480776" transform="rotate(89.737534)scale(-1)" />
          <path d="M 529.35626,187.3203 552.33242,213.13796 560.09264,198.78881 Z" fill="#dcf3fd" />
          <path d="M 529.35626,187.3203 561.65583,189.11114 558.44062,201.93942 Z" fill="#9cdcf4" />
          <ellipse cx="-185.68991" cy="532.8667" rx="27.350651" ry="15.909804" transform="rotate(89.737567)scale(-1)" />
          <ellipse cx="560.89764" cy="54.046181" fill="#fff" rx="7.941813" ry="12.29929" transform="rotate(11.982017)" />
          <ellipse cx="575.27887" cy="32.723148" fill="#fff" rx="2.7920191" ry="3.4844024" transform="rotate(15.643393)" />
        </g>
      </g>
      <g clip-path="url(#clipPath3918)">
        <ellipse cx="408.23624" cy="267.02802" fill="#fff" id="path23" rx="26.905392" ry="49.952526" transform="rotate(-10.81142)" />
        <g clip-path="url(#clipPath3756)">
          <ellipse cx="427.47363" cy="258.47" fill="url(#linearGradient1591)" id="ellipse2712" rx="19.480772" ry="33.48954" transform="rotate(-9.0127938)" />
          <path d="M 468.03382,193.76046 451.50468,221.86994 441.53314,208.95918 Z" fill="#dcf3fd" />
          <path d="M 468.03382,193.76046 438.43059,199.65998 443.6714,211.80233 Z" fill="#9cdcf4" />
          <ellipse cx="258.86945" cy="-429.41754" rx="27.350651" ry="15.909798" transform="rotate(80.987181)" />
          <ellipse cx="480.64838" cy="81.173943" fill="#fff" rx="7.9418135" ry="12.29929" transform="rotate(11.402252)" />
          <ellipse cx="493.09323" cy="91.782188" fill="#fff" rx="2.7920191" ry="3.4844024" transform="rotate(11.842635)" />
        </g>
      </g>
      <path inkscape:original-d="M 572.80836,159.6813 C 565.81363,127.50239 543.09729,120.6927 529.90585,143.85067 519.21302,162.62231 517.61125,190.92928 526.3366,211.89699" inkscape:path-effect="#path-effect837" />
      <path d="M 567.86261,116.53736 C 569.945,124.60604 567.77298,131.55096 561.61632,136.73962 L 564.76697,138.82155 C 571.5863,132.1622 572.99948,124.50356 567.86261,116.53736 Z M 581.42969,128.56954 C 579.77159,136.73599 575.45398,141.32158 566.97347,144.00222 L 568.89555,147.25281 C 577.94128,144.24861 583.00963,138.44365 581.42969,128.56954 Z M 586.81387,143.78299 C 583.80331,150.52031 578.80465,153.72307 571.30988,154.14236 L 572.34958,157.62108 C 580.9382,156.76116 586.35455,152.65476 586.81387,143.78299 Z" />
      <path transform="rotate(-10.81142)" inkscape:original-d="M 383.81045,246.05344 C 391.84885,214.11924 414.78373,208.04443 427.2144,231.61953 437.29056,250.72924 437.97166,279.07181 428.56845,299.74442" inkscape:path-effect="#path-effect844" />
      <path d="M 421.33539,126.29411 C 420.53311,134.58845 423.75867,141.11111 430.64731,145.27923 L 427.85873,147.82578 C 420.08679,142.30794 417.49981,134.96223 421.33539,126.29411 Z M 409.80449,140.28971 C 412.71232,148.09894 417.69049,151.95733 426.48469,153.28654 L 425.09149,156.79653 C 415.68865,155.23554 409.77924,150.28934 409.80449,140.28971 Z M 406.85157,156.15535 C 410.87324,162.34253 416.30911,164.72902 423.77793,163.97771 L 423.2918,167.57575 C 414.67394,168.06189 408.68498,164.84774 406.85157,156.15535 Z" />
    </g>
    <g>
      <path d="M 511.64624,268.37042 C 512.3962,271.40016 511.49496,272.91785 508.87868,273.995 512.88728,275.39234 515.17874,271.53643 511.64624,268.37042 Z M 490.5,270.35669 C 490.33709,273.76386 491.78033,274.91291 494.34597,275.23169 490.72541,277.44822 487.83839,274.53661 490.5,270.35669 Z" fill="#e880b0" />
      <path d="M 485.18253,288.28495 C 499.19682,302.7679 511.46852,299.98697 519.44687,286.54779 520.02805,308.5529 490.99246,313.08026 485.18253,288.28495 Z" fill="#bb1c76" stroke="#e880b0" stroke-width="3" />
      <path d="M 468.18445,332.47764 C 465.9143,280.93451 537.54196,283.70999 539.25395,328.29772 541.1937,378.81708 470.13152,376.68558 468.18445,332.47764 Z" fill="#363e7a" stroke="#12162c" stroke-width="2" />
      <path d="M 485.18253,288.28495 C 499.19682,302.7679 511.46852,299.98697 519.44687,286.54779" fill="#f5b7d0" stroke="#e880b0" stroke-width="3" />
      <path d="M 480.59184,343.36165 485.98776,340.24375 M 503.77235,356.74594 V 350.51454 M 526.95286,343.36165 521.55695,340.24375 M 526.95285,316.59306 521.55695,319.71089 M 503.77235,303.20876 V 309.44012 M 480.59184,316.59306 485.98775,319.71089 M 494.8822,324.84197 C 489.37881,328.01833 485.98822,333.88959 485.98776,340.24375 491.49032,343.42076 498.26977,343.42076 503.77235,340.24375 509.27491,343.42076 516.05439,343.42076 521.55695,340.24375 521.55641,333.88959 518.16585,328.01833 512.66245,324.84197 512.66295,318.48862 509.27404,312.61757 503.77235,309.44012 498.27063,312.61757 494.88178,318.48862 494.8822,324.84197 Z M 494.8822,335.11268 C 494.88178,341.46604 498.27062,347.33707 503.77235,350.51454 509.27404,347.33707 512.66295,341.46603 512.66245,335.11268 518.16585,331.93638 521.55642,326.06513 521.55695,319.71089 516.05439,316.53398 509.27491,316.53398 503.77235,319.71089 498.26978,316.53398 491.49032,316.53398 485.98775,319.71089 485.98822,326.06513 489.37881,331.93638 494.8822,335.11268 Z M 494.8822,324.84197 512.66245,335.11268 M 494.8822,335.11268 512.66245,324.84197 M 503.77235,340.24375 V 319.71088 M 526.95285,316.59306 C 526.95198,304.69732 514.07519,297.26233 503.77235,303.20876 493.4695,297.26233 480.59271,304.69732 480.59184,316.59306 470.28869,322.54168 470.28869,337.41302 480.59184,343.36165 480.59271,355.25737 493.4695,362.69237 503.77235,356.74594 514.07519,362.69237 526.95198,355.25738 526.95286,343.36165 537.256,337.41302 537.256,322.54168 526.95285,316.59306 Z M 496.04676,325.51467 511.49793,334.44003 M 496.04676,334.44003 511.49793,325.51467 M 503.77235,338.89897 503.77234,321.05573" fill="none" id="path673" stroke="#747dc0" stroke-width="1.5" />
    </g>
  </g>
  <g>
    <path d="M 758.80446,471.98969 C 660.0239,505.92195 600.50254,554.13254 566.57029,625.01325 H 458.30044 C 424.36819,554.13254 364.84683,505.92195 266.06627,471.98969 Z" fill="#265b7e" />
    <path d="M 919.72888,473.61728 911.73328,492.64515 C 902.73768,513.24459 733.40924,530.6224 512.43537,530.6224 291.46149,530.6224 122.13305,513.24459 113.13745,492.64515 L 105.14185,473.61728 Z" fill="#3a78a1" />
    <path d="M 919.72888,473.61728 C 900.6463,497.45056 737.37736,512.45224 512.43537,512.45224 287.49338,512.45224 124.22442,497.45056 105.14185,473.61728 105.14186,452.16932 287.49338,434.78232 512.43537,434.78232 737.37736,434.78232 919.72887,452.16932 919.72888,473.61728 Z" fill="#4f93c0" />
    <use transform="translate(196.65747-24.552523)" xlink:href="#g1050" />
    <use transform="translate(259.30842-.374817)" xlink:href="#g1050" />
    <g transform="translate(-9.622975 3)">
      <path d="M 388.54305,443.86358 C 408.11177,443.22689 430.41355,445.31765 431.49835,449.79882 433.17615,456.72961 432.21189,463.93471 428.79912,473.46203 413.16761,477.36802 395.20921,478.39488 378.04534,476.42045 375.99019,469.47483 375.97341,462.23543 377.45221,455.69903 382.10387,455.1612 385.98386,454.40835 388.98189,453.51184 389.38912,450.48249 389.313,447.59314 388.54305,443.86358 Z" fill="#282d5a" />
      <path d="M 388.54305,443.86358 C 408.11177,443.22689 430.41355,445.31765 431.49835,449.79882 430.75469,455.59467 398.64165,457.48328 377.45221,455.69903 396.88385,453.45234 402.84957,447.45336 388.54305,443.86358 Z" fill="#363e7a" id="path1758" />
      <use clip-path="url(#clipPath1762)" transform="matrix(.81495601-.08663939.5862406.1204408-208.34447 453.93133)" xlink:href="#path673" />
      <path d="M 388.96497,453.49869 C 389.38912,450.48249 389.313,447.59314 388.54305,443.86358 408.11177,443.22689 430.41355,445.31765 431.49835,449.79882 433.17615,456.72961 432.21189,463.93471 428.79912,473.46203 413.16761,477.36802 395.20921,478.39488 378.04534,476.42045 375.99019,469.47483 375.97341,462.23543 377.45221,455.69903 396.88385,453.45234 402.84957,447.45336 388.54305,443.86358 M 431.49835,449.79882 C 430.75469,455.59467 398.64165,457.48328 377.45221,455.69903" fill="none" stroke="#12162c" stroke-width="2" />
    </g>
    <use transform="translate(28.933612-18)" xlink:href="#g1050" />
    <g id="g1050" transform="translate(68.488948 153.69947)scale(.758764)">
      <path d="M 458.82978,438.6287 C 454.87165,426.48311 453.46466,416.32336 455.64314,408.01205 458.7031,396.33773 548.47049,396.94038 550.99582,407.37219 553.20705,416.5065 551.93621,426.00234 547.43841,438.55871 520.09818,445.39046 487.35685,445.53925 458.82978,438.6287 Z" fill="#282d5a" />
      <path d="M 455.64314,408.01205 C 458.7031,396.33773 548.47049,396.94038 550.99582,407.37219 549.52488,418.83609 454.93365,418.70136 455.64314,408.01205 Z" fill="#363e7a" />
      <path d="M 455.64314,408.01205 C 454.93365,418.70136 549.52488,418.83609 550.99582,407.37219 M 458.82978,438.6287 C 454.87165,426.48311 453.46466,416.32336 455.64314,408.01205 458.7031,396.33773 548.47049,396.94038 550.99582,407.37219 553.20705,416.5065 551.93621,426.00234 547.43841,438.55871 520.09818,445.39046 487.35685,445.53925 458.82978,438.6287 Z" fill="none" stroke="#12162c" stroke-width="2.64" />
      <use transform="matrix(1.0740573-.1141849.77262574.15873289-292.27405 412.81856)" xlink:href="#path673" />
    </g>
    <use transform="translate(104.9336 1)" xlink:href="#g1050" />
  </g>
  <g transform="translate(-1.8195725 49.24057)">
    <g>
      <path d="M 277.27839,175.15255 C 173.89994,159.05107 183.69668,240.54399 99.965598,222.22921 11.444234,202.86663 -17.689676,260.99389 4.5793188,334.06793 30.122183,417.88496 -123.87521,433.16761 -65.674294,487.90394 -23.212834,527.83765 -21.100431,568.03351 -67.585852,612.19059 -118.09694,660.17167 -78.391522,697.00327 -66.679957,756.42357 -48.967802,710.33027 -23.010025,692.96203 18.528389,688.49334 76.798826,682.22464 133.91264,644.82379 108.52296,552.17789 86.067525,470.23845 123.78714,397.0403 225.54317,411.02654 Z" style="fill:#4b37ca;fill-opacity:.5;stroke:#844fde;stroke-width:5" />
      <path d="M 255.57446,207.18062 C 167.72456,193.49778 171.0965,256.60734 98.870773,247.18646 38.924187,239.36725 21.215699,280.18233 31.78609,344.23467 44.85617,423.4334 -91.347564,431.46134 -41.889801,477.9762 -5.8071828,511.91182 10.054558,566.54722 -30.894023,602.48871 -113.67404,675.1464 -57.886005,726.75867 -9.3239255,674.56121 34.487409,627.47023 102.67805,670.235 80.826452,530.89855 69.640696,459.57044 128.10596,366.51474 211.58866,393.01355 Z" fill="#1c4cc2" />
      <use transform="translate(-10.170219-125.9022)scale(1.843693)" xlink:href="#use2455-3" />
      <path d="M 99.313706,269.65051 95.170973,271.64481 92.448821,267.9388 94.44195,272.08191 90.737195,274.80414 94.880026,272.80997 97.60223,276.51583 95.609009,272.37261 Z" fill="#fff" id="use2455-3" />
      <use transform="translate(3.3292994 99.441774)scale(.74822596)" xlink:href="#use2455-3" />
      <use transform="translate(-79.354008-136.09642)scale(1.7219745)" xlink:href="#use2455-3" />
      <use transform="translate(60.695996 86.001813)scale(.86994459)" xlink:href="#use2455-3" />
      <use transform="translate(67.087832 160.15012)scale(.62650746)" xlink:href="#use2455-3" />
      <use transform="translate(9.7393164 102.10459)scale(.99166316)" xlink:href="#use2455-3" />
      <use transform="translate(-16.365858 158.52725)scale(.74822601)" xlink:href="#use2455-3" />
      <use transform="translate(-21.522201 98.512215)scale(1.1133817)" xlink:href="#use2455-3" />
      <use transform="translate(-74.209336 288.42597)scale(.58680292)" xlink:href="#use2455-3" />
      <use transform="translate(-157.55487 88.056198)scale(1.350473)" xlink:href="#use2455-3" />
      <use transform="translate(-42.672426 269.98736)scale(.9704931)" xlink:href="#use2455-3" />
      <use transform="translate(-62.009805 376.46157)scale(.75563936)" xlink:href="#use2455-3" />
      <use transform="translate(-75.939801 279.22938)scale(.88669433)" xlink:href="#use2455-3" />
      <use transform="translate(-61.396604 349.01949)scale(.72255216)" xlink:href="#use2455-3" />
      <use transform="translate(-97.78863-40.972411)scale(1.6597109)" xlink:href="#use2455-3" />
      <use transform="translate(5.7470644 369.68868)scale(.71649166)" xlink:href="#use2455-3" />
      <use transform="translate(-.425984 267.91173)scale(.70860146)" xlink:href="#use2455-3" />
      <use transform="translate(-37.078021 242.99829)scale(.72117171)" xlink:href="#use2455-3" />
      <use transform="translate(-52.666915 178.32474)scale(1.0897336)" xlink:href="#use2455-3" />
      <use transform="translate(73.575705 62.110711)scale(.7551312)" xlink:href="#use2455-3" />
      <use transform="translate(37.679833-68.923007)scale(1.2420055)" xlink:href="#use2455-3" />
      <use transform="translate(-61.307181 268.95953)scale(1.2242259)" xlink:href="#use2455-3" />
      <use transform="translate(-151.13862 156.20324)scale(1.7486271)" xlink:href="#use2455-3" />
      <use transform="translate(-88.086217 394.13039)scale(.87462514)" xlink:href="#use2455-3" />
      <use transform="translate(-61.888472 381.88558)scale(.80940322)" xlink:href="#use2455-3" />
      <use transform="translate(-101.71992 229.12929)scale(1.3338044)" xlink:href="#use2455-3" />
      <use transform="translate(-130.24435 360.65217)scale(1.1078061)" xlink:href="#use2455-3" />
      <use transform="translate(-146.3835 407.2376)scale(.93300574)" xlink:href="#use2455-3" />
    </g>
    <path d="M 188.76983,326.99335 C 165.99579,168.37468 403.67575,176.23984 365.23733,347.08695 L 284.338,391.15324 C 281.43851,401.33468 280.96634,413.12044 281.40426,424.39171 282.03512,440.62902 196.30458,440.53547 196.76325,423.96857 197.52251,396.54501 193.79898,362.02082 188.76983,326.99335 Z" fill="#363e7a" stroke="#12162c" stroke-width="5" />
    <g>
      <path d="M 365.41177,382.20585 C 355.85805,385.81709 351.67666,392.74451 351.22015,400.74013 326.93059,386.26418 336.8859,354.54642 365.41177,382.20585 Z" fill="#bb1c76" />
      <path d="M 365.27958,288.00786 C 368.8401,290.38769 372.12498,290.28675 376.17497,289.10372 372.67194,292.08632 369.50045,292.79499 365.8264,291.94933 M 364.4751,283.02871 C 368.35887,284.24475 371.9576,283.45937 375.07317,281.02515 373.04563,285.01276 369.63879,286.62238 365.31813,286.72675 M 362.9456,277.79422 C 367.46079,278.09173 370.65869,277.01169 373.2114,273.09133 371.7863,278.49922 367.99216,280.69976 363.95535,281.56131" />
      <path d="M 346.61455,292.41058 C 349.75242,282.22443 354.30378,274.12011 362.45791,271.32207 355.76827,252.64906 344.9016,261.19155 346.61455,292.41058 Z" fill="#7796ec" />
      <g clip-path="url(#clipPath2059)">
        <path d="M 346.61455,292.41058 C 347.3246,305.35066 349.34275,317.1645 352.38186,327.41178 353.86507,330.72755 355.63998,333.92971 357.73762,337.00617 370.49666,334.8438 373.83488,303.07892 362.45791,271.32207 354.30378,274.12011 349.75242,282.22443 346.61455,292.41058 Z" fill="#fff" id="path4398" />
        <g clip-path="url(#clipPath2043)">
          <ellipse cx="319.53867" cy="-339.03873" fill="url(#linearGradient1019)" id="path1573" rx="29.530903" ry="9.5980959" transform="rotate(87.211097)" />
          <path d="M 351.39035,308.57321 365.0291,335.30441 370.92691,316.3464 Z" fill="#9cfbff" />
          <path d="M 351.39035,308.57321 370.95609,309.96078 368.74484,323.29954 Z" fill="#67e6d0" />
          <ellipse cx="319.69022" cy="-338.41571" rx="23.166864" ry="7.5296221" transform="rotate(87.210946)" />
          <ellipse cx="-283.27423" cy="375.68802" fill="#fff" rx="4.2660742" ry="1.2950313" transform="rotate(-86.782427)" />
          <ellipse cx="-262.83948" cy="374.57974" fill="#fff" rx="11.710146" ry="3.3079553" transform="rotate(-85.90829)" />
        </g>
      </g>
      <path d="M 356.10627,275.20007 C 357.41006,267.81957 357.55548,260.40761 356.69292,251.32813 359.31955,259.34969 360.29791,265.88312 360.0186,272.82251 M 360.43558,271.99035 C 363.03166,264.65894 363.71679,257.49536 362.98779,248.64401 365.49724,256.92074 365.85828,264.06676 364.23143,270.14545 M 370.89978,256.43075 C 371.88562,265.63031 368.04631,270.68722 363.8861,272.68879 353.96851,277.46035 347.32002,287.11669 345.24968,304.58248 344.18877,284.59823 351.73561,273.79426 362.8734,268.42725 367.48758,266.2038 369.41599,263.75452 370.89978,256.43075 Z" />
      <path d="M 337.32896,386.34632 C 344.25679,386.44058 350.14781,391.48328 349.06386,397.93984 342.60731,395.86621 339.21783,392.28766 337.32896,386.34632 Z" fill="#ef6f2f" />
      <path d="M 352.38186,327.41178 C 363.76384,354.0998 378.93293,349.19605 377.97356,356.65792 376.499,368.12686 372.16529,376.34033 365.54221,382.74368 353.85784,386.91024 343.27655,383.62345 336.19719,374.45509 334.64012,386.87721 340.91539,394.91907 351.48065,398.37611 345.97886,402.91524 339.78539,406.1081 336.41856,403.94908 301.65201,381.65456 269.07594,408.20777 236.05064,373.84198 Z" fill="#363e7a" />
      <path d="M 369.82069,361.28379 C 372.28524,363.88127 374.5394,363.55756 375.90623,360.03922 376.51228,366.02436 371.80159,367.66735 369.82069,361.28379 Z M 348.43869,361.27512 C 350.35184,364.87089 352.96931,365.32863 355.53595,361.88659 354.28485,368.559 348.60634,368.23138 348.43869,361.27512 Z" fill="#12162c" />
      <path fill="#12162c" inkscape:original-d="M 352.38186,327.41178 C 363.76384,354.0998 378.93293,349.19605 377.97356,356.65792 376.499,368.12686 372.16529,376.34033 365.54221,382.74368 353.85784,386.91024 343.27655,383.62345 336.19719,374.45509 334.64012,386.87721 340.91539,394.91907 351.48065,398.37611 345.97886,402.91524 339.78539,406.1081 336.41856,403.94908 301.65201,381.65456 269.07594,408.20777 236.05064,373.84198" inkscape:path-effect="#path-effect1583" />
    </g>
    <g>
      <path d="M 253.91972,237.95958 C 237.27489,157.10109 270.83136,213.26729 264.99733,179.52539 256.7897,132.05567 267.92006,128.55382 286.75398,165.44496 308.5395,208.11749 290.04625,124.17924 325.60831,214.25007 Z" stroke="#6e66c0" stroke-width="5" />
      <path d="M 287.9427,221.55602 C 409.70959,34.236599 407.92313,31.742408 325.65032,246.7901" fill="#363e7a" stroke="#12162c" stroke-width="5" />
      <path d="M 363.14935,107.02731 C 369.82597,105.43283 376.30803,102.4206 381.32849,98.303398 M 350.61129,125.47045 C 360.1961,124.63297 368.21355,121.51623 375.14118,115.81864 M 337.79059,145.16145 C 350.04191,145.61424 360.1835,142.18029 369.24146,134.35957 M 324.98854,164.17798 C 338.26154,166.55465 349.52979,164.17455 360.14812,156.5548 M 312.98085,183.22475 C 326.94432,187.66998 340.24315,186.14184 352.1491,179.23121 M 302.01515,199.94098 C 316.81963,207.20335 330.1007,207.61939 344.10878,200.89121" fill="none" stroke="#12162c" stroke-width="2.5" />
      <path d="M 215.5867,237.5559 C 261.24288,254.86249 290.78217,235.65579 323.21352,250.8825 343.40582,260.36289 348.79646,282.29692 334.4191,298.93249 422.64399,273.27127 379.24475,137.71131 207.494,219.41416 Z M 186.35309,252.26534 C 158.09411,308.62826 160.00239,369.13452 199.25676,422.45661 207.04374,364.61359 185.46251,323.56063 190.06413,281.9246 Z" style="fill:#1c4cc2;stroke:#844fde;stroke-width:5;stroke-miterlimit:20" />
      <path d="M 195.01297,297.14403 C 172.86888,267.35488 170.23708,225.39923 194.26955,198.97369 210.86921,209.22618 221.71691,228.78968 224.79229,249.5983 Z" fill="#363e7a" />
      <path fill="#12162c" inkscape:original-d="M 195.01297,297.14403 C 172.86888,267.35488 170.23708,225.39923 194.26955,198.97369 210.86921,209.22618 221.71691,228.78968 224.79229,249.5983" inkscape:path-effect="#path-effect8679" />
      <path d="M 195.45603,227.27465 C 189.19254,241.41703 190.56846,254.57942 198.53744,268.81662 194.04763,254.6509 192.40317,241.15536 195.45603,227.27465 Z" fill="#12162c" />
    </g>
    <g>
      <path d="M 238.43505,313.10892 C 232.96119,321.19025 224.45279,326.44658 213.84954,330.09812 225.55796,328.58595 234.09451,324.4943 240.95962,317.48392 M 235.20465,307.32118 C 228.67066,314.5722 219.51979,318.60753 208.51485,320.76494 220.32003,320.87865 229.33839,318.0008 237.10311,312.00199 M 234.05994,300.4363 C 226.62306,306.75794 217.01827,309.54555 205.82466,310.22623 217.51069,311.90267 226.83085,310.24475 235.3217,305.32734" />
      <g clip-path="url(#clipPath1063)">
        <path d="M 315.97539,348.52583 C 275.08269,366.84097 223.62676,336.26477 232.64683,289.5787 257.74654,284.09229 280.12076,289.065 301.73402,302.4737 308.67327,314.10372 313.92828,329.31823 315.97539,348.52583 Z" fill="#fff" id="path13739" />
        <g clip-path="url(#clipPath1047)">
          <ellipse cx="364.59644" cy="-220.44237" fill="url(#linearGradient1600)" id="use1015" rx="36.686039" ry="25.028961" transform="rotate(78.736738)" />
          <path d="M 293.01169,318.19364 274.93938,364.32094 256.18515,343.4991 Z" fill="#9cfbff" />
          <path d="M 293.01169,318.19364 254.18928,329.84792 261.00671,350.4862 Z" fill="#67e6d0" />
          <ellipse cx="365.06476" cy="-221.86626" rx="28.771532" ry="19.562677" transform="rotate(78.747786)" />
          <ellipse cx="-258.31805" cy="317.25873" fill="#fff" rx="14.820411" ry="8.6216125" transform="rotate(-81.549321)" />
          <ellipse cx="-267.9649" cy="337.0741" fill="#fff" rx="5.3769898" ry="3.3892" transform="rotate(-80.348892)" />
        </g>
      </g>
      <path d="M 232.64683,289.5787 C 237.81065,262.8525 279.89524,265.87241 301.73402,302.4737 280.12076,289.065 257.74654,284.09229 232.64683,289.5787 Z" fill="#7796ec" />
      <path d="M 194.94829,285.51699 C 203.9533,297.07973 215.37577,298.30881 228.64709,293.54485 255.77796,283.80576 292.4419,294.65356 313.14875,312.59217 296.82465,289.52305 256.14876,278.21901 227.70768,288.28901 214.39368,293.00309 206.96295,292.66217 194.94829,285.51699 Z M 236.9481,288.02019 C 224.2543,286.05637 217.18141,281.44581 209.61622,269.15886 211.66447,281.20022 218.09293,288.15332 226.91936,291.34019 M 248.71688,286.79161 C 239.36098,281.13632 234.0805,274.68049 228.71517,263.79207 229.87599,273.95353 233.44091,281.53109 240.08266,288.07622" />
    </g>
  </g>
  <path d="M 763.93036,50.111688 C 764.07293,48.646548 765.8262,48.382872 765.71218,50.351032 765.10057,60.909376 761.8827,67.84156 759.86152,80.287932 759.51992,82.391252 757.79097,81.695088 758.09876,80.652362 761.64331,68.639808 762.60304,63.760288 763.93036,50.111688 Z M 764.88774,52.523552 C 766.82911,53.16202 767.69984,53.023528 768.61093,51.991924 770.02043,50.396276 771.37676,45.7426 770.89807,45.183688 770.52821,44.752056 767.45885,45.535764 759.54239,48.747592 757.76785,49.467424 757.56646,47.720736 759.22324,47.25802 765.14591,45.604772 770.88277,41.948384 772.12133,44.093248 773.56485,46.593508 770.83629,52.454832 769.96725,53.082464 768.53115,54.1192 766.35042,54.252464 764.96759,53.747356 M 758.95728,28.198797 C 757.70745,27.640365 756.37768,27.773341 755.47354,28.35839 758.26586,41.362721 763.61122,40.086545 766.48341,34.341949 768.83457,29.639793 770.39274,29.422125 766.9887,42.612949 770.60549,36.868445 770.95547,28.489657 769.24916,28.35839 767.91104,28.255449 765.474,37.002757 761.72311,36.921677 759.75375,36.879093 756.19153,29.422125 758.95728,28.198797 Z M 746.33769,39.548169 C 744.0073,40.147473 744.38642,41.999856 746.75136,41.316049 754.44442,39.091157 766.77282,32.914261 774.89646,32.575681 776.50957,32.508577 777.43157,30.546405 774.58077,30.916349 763.94832,32.295947 758.20677,36.497837 746.33769,39.548169 Z M 665.94487,38.742394 C 677.23331,35.998038 682.87401,39.796434 683.24198,42.601338 683.73168,46.333862 679.28241,56.598398 662.0127,55.32783 660.55112,55.220706 659.44303,53.351974 662.30148,53.688554 676.34363,55.341424 682.45213,46.859887 681.79031,42.778234 681.36888,40.17997 673.27696,37.189618 665.65229,40.896858 Z M 665.0626,39.163478 C 665.47007,36.477862 666.88996,36.939154 666.53045,39.702902 666.08868,43.100174 665.41129,44.758082 664.69669,48.63233 664.46994,49.861738 663.31292,49.835126 663.44535,48.377874 663.74625,45.068334 664.48729,42.95579 665.0626,39.163478 Z M 677.35368,32.758838 C 676.68883,30.36551 675.75308,30.208198 675.03998,33.26423 671.95602,46.481478 671.27498,58.701722 670.38603,78.154894 670.32795,79.426318 669.32084,79.052474 669.33734,78.467238 669.88188,59.12157 671.27585,46.175506 673.39114,32.998274 674.05579,28.857594 677.61963,27.918762 677.35368,32.758838 Z M 710.34291,40.400302 C 707.69955,51.133638 707.22799,63.900718 703.42501,72.01155 702.58224,73.808902 701.7447,72.279597 702.2283,71.231266 705.23338,64.715414 708.39486,48.122466 708.22521,40.60381 708.13617,36.656942 711.1321,37.196366 710.34291,40.400302 Z M 702.04211,64.01611 C 703.31519,64.62397 707.82301,57.562706 710.17803,57.562706 710.91354,57.562706 712.10605,60.79573 711.94608,61.845014 711.74299,63.177842 710.66918,62.761418 710.17313,61.732662 709.70045,60.751342 710.03308,59.147802 709.46642,59.121094 708.02288,59.053418 703.85052,66.081034 701.40383,65.522978 699.61415,65.113966 699.10212,56.406774 705.23339,55.018342 700.89739,59.557862 701.25875,63.641414 702.04211,64.01611 Z M 704.33417,50.05099 C 699.39836,49.051226 702.11902,47.992626 705.25141,48.655715 707.28198,49.08573 709.6953,50.175602 711.39026,50.139198 713.76076,50.087014 712.77307,52.128174 710.0173,51.320414 708.13744,50.770346 705.97443,50.383102 704.33417,50.05099 Z M 704.30257,45.842822 C 706.00461,40.55077 710.36602,32.918334 711.56281,31.269554 712.75951,29.62077 715.02032,30.299734 712.75952,33.210906 710.81816,35.71079 706.08447,44.646206 704.30257,45.842822 Z M 730.10822,48.845342 C 731.63453,47.37583 732.12609,44.976514 731.64241,43.876658 731.00329,42.422546 732.63483,41.520022 733.23322,43.68551 733.63618,45.144282 732.91836,47.696158 730.10822,48.845342 Z M 719.72207,52.602866 C 719.17781,51.962402 719.25885,47.352066 719.85467,44.177026 719.96785,43.574106 720.20616,43.569166 720.65838,44.22379 721.8363,45.929698 719.87485,48.94163 720.88697,51.553198 721.41542,52.916062 720.58203,53.614223 719.72207,52.602866 Z M 719.13264,73.668698 C 723.35725,65.159402 727.80998,52.386526 729.14644,40.286334 729.63506,35.862778 731.66827,36.162194 730.71147,40.934022 728.81405,50.39793 726.9329,56.133591 724.9975,63.319662 728.56734,59.727338 730.7868,63.62535 734.68883,73.034318 735.48244,74.948294 733.82728,75.638378 733.07831,73.593418 731.53296,69.374034 729.4117,63.476498 727.54213,63.41975 724.55989,63.330306 723.3552,68.070102 720.37997,74.311254 719.2768,75.861654 718.43674,75.070058 719.13264,73.668698 Z" fill="#fff" />
  <path d="M 973.23936,71.1107 C 976.06516,72.062 977.81906,71.9307 979.74956,71.4272 L 979.91746,69.3286 C 978.09886,70.1963 975.81346,70.2438 973.35136,69.628 Z M 972.22546,76.382 C 975.15986,69.2013 977.43666,59.4167 978.07086,59.4294 979.29836,59.4533 979.83386,69.5487 978.32266,75.9925 978.16486,76.6655 973.66106,78.2761 972.87766,78.9478 972.09426,79.6188 972.78636,80.4484 973.68906,80.0943 976.20856,79.1069 978.65836,78.2027 979.35786,77.6991 980.94226,76.5584 981.76076,57.9631 978.46256,57.1349 977.07896,56.7875 974.21186,65.2204 972.82066,69.3584 M 975.01416,65.5188 C 976.71236,65.7534 978.33716,65.8261 980.00006,65.438 L 979.87716,63.4861 C 978.53186,64.0312 977.21786,64.1072 975.58546,63.3592 Z M 971.84926,55.7936 C 972.56146,62.599 972.07986,68.8887 971.28856,75.932 971.05826,77.9812 972.28796,78.8894 972.83166,76.13 974.41426,68.0974 974.29566,59.947 972.92286,55.2044 979.07816,51.8192 980.44906,51.4837 987.19186,59.9888 988.27866,61.3599 989.33116,59.9787 988.11506,58.6462 980.50506,50.3086 980.28116,50.0289 974.18186,53.246 Z M 973.93946,46.6519 C 972.31926,47.056 973.28126,48.4518 974.41426,48.2345 975.75966,47.978 976.89886,47.5256 977.09666,47.8024 977.29456,48.0791 971.55356,53.3885 964.91816,68.1372 964.39546,69.2988 966.39286,70.2003 967.05486,68.4934 972.59426,54.2097 978.80636,48.0373 980.42846,47.5227 982.05076,47.0081 981.57596,44.7527 979.91416,45.3069 978.25236,45.8605 975.96906,46.1465 973.93946,46.6519 Z M 965.54876,42.761 C 985.09496,35.1244 996.91996,34.9859 998.31046,37.2614 999.05831,38.485 996.88596,43.9484 987.78556,49.7645 991.94006,45.9263 996.25286,38.4487 995.65936,37.8945 995.06586,37.3402 982.36486,36.4303 965.66746,44.9767 963.71466,45.9766 964.14866,48.5381 962.13066,52.218 961.27456,53.7787 959.97976,53.7758 960.70626,51.9014 962.64696,46.8951 963.74936,43.4641 965.54876,42.761 Z M 978.53996,39.2584 C 978.87706,35.2817 978.61636,31.1877 979.15906,27.2441 979.44216,25.1871 980.90306,25.8139 980.88196,27.3103 980.82506,31.3628 980.12426,34.7154 979.95316,38.6119 M 979.84626,34.2049 C 983.76136,30.5654 985.57106,29.5543 988.05426,32.3019 988.96266,33.307 988.14286,33.8581 986.67296,32.7769 985.13546,31.6451 983.88146,31.8837 979.64086,35.4895 M 985.19896,51.8728 C 984.26026,52.0052 984.05866,50.4271 984.97236,50.0764 985.58146,49.8432 986.35676,49.987 989.26246,51.5678 990.41346,52.1938 989.93856,53.0456 988.87146,52.9859 987.54716,52.913 986.52676,51.6847 985.19896,51.8728 Z M 966.61896,55.7509 C 966.75316,53.0846 969.86636,51.5619 970.31196,52.4749 970.97836,53.8397 968.67416,53.8811 968.31326,55.2798 967.63896,57.8929 966.49516,58.2104 966.61896,55.7509 Z M 925.29526,72.5723 C 923.77146,74.0962 925.64936,75.3483 926.58226,74.055 929.04436,70.6419 929.88686,67.457 930.75106,67.5362 932.87736,67.7322 938.58496,75.6501 948.18146,74.5307 950.18256,74.2978 950.55966,77.077 951.56676,76.4053 952.57396,75.7337 950.31896,72.2947 949.45786,72.5165 937.62316,75.5657 933.29706,64.8225 930.38726,65.5221 929.27996,65.7878 927.07536,70.7921 925.29526,72.5723 Z M 909.86846,40.9366 C 907.35326,41.7603 907.79646,44.1168 909.88816,43.1126 914.29996,40.9959 917.20816,40.1648 920.41306,39.7297 921.65636,39.5607 921.43816,37.99 920.07676,38.2655 916.95096,38.8986 913.97326,39.5919 909.86846,40.9366 Z M 913.18066,70.4737 C 914.35576,73.3555 915.70256,74.7075 916.42616,74.2789 917.36656,73.7228 916.57536,55.2331 918.41266,33.5711 918.76206,29.4502 915.51066,29.9412 915.97576,33.7782 916.31146,36.5484 915.89496,71.5748 915.34896,71.8871 914.95736,72.111 914.22986,71.2434 913.18066,70.4737 Z M 909.21736,60.2802 C 907.00286,61.3894 908.34146,62.644 909.38526,62.0426 913.82326,59.4885 917.37396,57.0144 919.57126,52.6308 919.92786,51.9191 919.43876,51.1494 918.72716,52.0905 915.86596,55.8718 914.20076,57.7841 909.21736,60.2802 Z M 940.57136,52.0925 C 941.13096,51.197 941.52266,43.6563 940.37556,42.9847 939.22836,42.313 935.91696,43.461 930.24736,42.8314 926.98156,42.4691 927.75696,44.4652 928.90446,44.4264 934.72396,44.2305 938.49206,44.127 939.17246,44.496 939.84396,44.8594 939.37876,51.0412 938.86476,51.0847 924.45586,52.3163 922.94516,53.6868 923.47676,54.5823 924.00826,55.4778 930.69506,54.9743 930.69506,54.9743 930.69506,54.9743 927.23536,54.5173 927.39366,53.827 927.54386,53.1715 940.01186,52.9873 940.57136,52.0925 Z M 934.47906,62.0233 C 936.96156,59.6573 938.84416,58.5269 939.35756,59.2739 939.80456,59.9241 940.85886,59.1609 940.70536,58.2813 940.33706,56.1695 935.88976,58.6939 934.56966,60.0202 M 933.29216,68.1195 934.99356,69.3458 C 934.71376,56.5319 935.77796,45.5638 938.51906,36.3289 939.86166,31.806 936.67206,31.7571 936.10146,35.9508 934.08526,50.7693 934.36046,60.5617 933.29216,68.1195 Z M 926.21856,49.0159 C 924.73326,49.1232 924.21066,50.3749 926.05066,50.3305 935.39546,50.1066 937.34416,49.1299 943.34126,48.6518 945.07366,48.5142 945.03186,46.7192 941.83036,47.2528 934.85526,48.4162 932.54886,48.5561 926.21856,49.0159 Z M 923.83566,37.3362 C 921.61966,37.8047 920.68396,39.8686 923.87526,39.1559 932.73826,37.178 936.66436,36.5051 940.58156,37.3752 942.09926,37.713 942.04966,35.9554 940.66066,35.8323 935.75436,35.3973 932.21146,35.5649 923.83566,37.3362 Z M 873.54506,45.9616 C 872.00786,46.8772 872.98656,47.9877 873.88086,47.5009 878.86096,44.7864 885.26796,41.4572 891.33926,39.2189 892.70806,38.7143 892.35066,37.0552 890.97546,37.7083 884.41596,40.8223 878.90906,42.7666 873.54506,45.9616 Z M 878.86096,48.9556 C 879.33706,49.9904 885.24596,52.2248 890.69576,50.7459 892.60906,50.2271 892.02616,49.0319 890.41596,49.4591 885.67236,50.7167 880.87546,48.7876 880.70756,48.0602 880.55326,47.3918 883.63346,38.2121 887.29066,33.1683 888.13316,32.0066 887.69816,31.8807 886.66706,32.8684 882.04726,37.2923 878.51456,48.2028 878.86096,48.9556 Z M 880.79296,66.2544 C 882.13826,70.8045 883.09616,72.8099 883.68136,73.7917 884.79036,75.6531 885.60066,74.8828 885.63556,73.1547 885.85636,62.2442 886.71216,47.728 888.21166,45.9558 891.04076,42.6127 886.46536,42.8911 886.11466,45.7188 884.51986,58.5774 884.51156,70.9101 884.13636,71.4173 883.76236,71.9232 882.81086,69.2616 881.94036,66.0565 M 879.90266,66.7292 C 886.33226,66.4322 889.61896,66.941 894.18216,68.9352 895.05276,69.3156 894.57476,65.3824 893.43456,63.4844 893.61266,65.2449 893.96566,67.7355 893.30246,67.4644 889.31496,65.8376 884.41046,64.9989 880.53576,65.5224 M 882.63286,63.4447 C 878.12386,65.8342 875.51066,71.9123 875.31286,72.5852 875.11496,73.2572 876.22876,74.412 876.85596,73.0989 878.77836,69.0752 880.01206,67.0329 882.63286,63.4447 Z M 859.36886,44.1992 C 862.84056,49.3974 865.73566,44.3115 862.76766,39.2463 863.61776,36.9889 863.83106,34.7011 863.95726,32.2513 861.75546,33.0332 860.19946,34.0712 858.96846,35.7221 858.46056,36.4027 857.61246,36.4388 858.38086,35.3022 861.19156,31.1444 865.01316,29.1492 865.65526,31.4691 865.96226,32.5784 865.26926,36.4275 863.88786,39.2755 867.51746,44.2842 863.82046,50.6049 859.22896,45.8222 Z M 858.46886,39.6439 C 858.48966,38.1115 859.92766,38.1764 859.93276,39.4061 859.99556,54.3696 858.62706,62.5593 857.77296,75.4897 857.67776,76.9302 856.10806,76.7226 856.15076,75.3712 856.45936,65.5993 858.16476,62.0286 858.46886,39.6439 Z" fill="#fff" />
  <path d="M 806.94004,53.879026 C 810.89139,49.927762 809.57424,44.659418 804.30588,42.025243 815.50123,40.708154 818.79387,35.43981 812.20844,28.195834 818.79387,29.512915 824.72077,26.220202 825.37938,18.976226 837.2331,40.708154 816.8182,43.342337 816.8182,53.879026 816.8182,64.415715 837.2331,67.049898 825.37938,88.781826 824.72077,81.537847 818.79387,78.245137 812.20844,79.562218 818.79387,72.318242 815.50123,67.049898 804.30588,65.732809 809.57424,63.098634 810.89139,57.83029 806.94004,53.879026 Z" fill="#5a318e" />
  <path d="M 800.35474,53.879026 826.69636,49.269224 820.76955,53.879026 826.69636,58.488828 Z" fill="#54a2e1" />
  <path d="M 813.52555,34.12273 830.63495,44.000871 V 63.757181 L 813.52555,73.635322 796.41614,63.757181 V 44.000871 Z" fill="none" stroke="#576ab7" stroke-width="1.19" />
</svg>